%!PS-Adobe-2.0 EPSF-2.0
%%Title: distributions7.fig
%%Creator: fig2dev Version 3.2 Patchlevel 5
%%CreationDate: Wed Feb 17 13:56:06 2010
%%For: giele@thgpu1.fnal.gov (Walter Giele)
%%BoundingBox: 0 0 568 194
%Magnification: 1.0000
%%EndComments
/$F2psDict 200 dict def
$F2psDict begin
$F2psDict /mtrx matrix put
/col-1 {0 setgray} bind def
/col0 {0.000 0.000 0.000 srgb} bind def
/col1 {0.000 0.000 1.000 srgb} bind def
/col2 {0.000 1.000 0.000 srgb} bind def
/col3 {0.000 1.000 1.000 srgb} bind def
/col4 {1.000 0.000 0.000 srgb} bind def
/col5 {1.000 0.000 1.000 srgb} bind def
/col6 {1.000 1.000 0.000 srgb} bind def
/col7 {1.000 1.000 1.000 srgb} bind def
/col8 {0.000 0.000 0.560 srgb} bind def
/col9 {0.000 0.000 0.690 srgb} bind def
/col10 {0.000 0.000 0.820 srgb} bind def
/col11 {0.530 0.810 1.000 srgb} bind def
/col12 {0.000 0.560 0.000 srgb} bind def
/col13 {0.000 0.690 0.000 srgb} bind def
/col14 {0.000 0.820 0.000 srgb} bind def
/col15 {0.000 0.560 0.560 srgb} bind def
/col16 {0.000 0.690 0.690 srgb} bind def
/col17 {0.000 0.820 0.820 srgb} bind def
/col18 {0.560 0.000 0.000 srgb} bind def
/col19 {0.690 0.000 0.000 srgb} bind def
/col20 {0.820 0.000 0.000 srgb} bind def
/col21 {0.560 0.000 0.560 srgb} bind def
/col22 {0.690 0.000 0.690 srgb} bind def
/col23 {0.820 0.000 0.820 srgb} bind def
/col24 {0.500 0.190 0.000 srgb} bind def
/col25 {0.630 0.250 0.000 srgb} bind def
/col26 {0.750 0.380 0.000 srgb} bind def
/col27 {1.000 0.500 0.500 srgb} bind def
/col28 {1.000 0.630 0.630 srgb} bind def
/col29 {1.000 0.750 0.750 srgb} bind def
/col30 {1.000 0.880 0.880 srgb} bind def
/col31 {1.000 0.840 0.000 srgb} bind def
/col32 {0.949 0.949 0.949 srgb} bind def
/col33 {0.663 0.663 0.663 srgb} bind def

end
save
newpath 0 194 moveto 0 0 lineto 568 0 lineto 568 194 lineto closepath clip newpath
0.1 792.1 translate
1 -1 scale

/cp {closepath} bind def
/ef {eofill} bind def
/gr {grestore} bind def
/gs {gsave} bind def
/sa {save} bind def
/rs {restore} bind def
/l {lineto} bind def
/m {moveto} bind def
/rm {rmoveto} bind def
/n {newpath} bind def
/s {stroke} bind def
/sh {show} bind def
/slc {setlinecap} bind def
/slj {setlinejoin} bind def
/slw {setlinewidth} bind def
/srgb {setrgbcolor} bind def
/rot {rotate} bind def
/sc {scale} bind def
/sd {setdash} bind def
/ff {findfont} bind def
/sf {setfont} bind def
/scf {scalefont} bind def
/sw {stringwidth} bind def
/tr {translate} bind def
/tnt {dup dup currentrgbcolor
  4 -2 roll dup 1 exch sub 3 -1 roll mul add
  4 -2 roll dup 1 exch sub 3 -1 roll mul add
  4 -2 roll dup 1 exch sub 3 -1 roll mul add srgb}
  bind def
/shd {dup dup currentrgbcolor 4 -2 roll mul 4 -2 roll mul
  4 -2 roll mul srgb} bind def
/reencdict 12 dict def /ReEncode { reencdict begin
/newcodesandnames exch def /newfontname exch def /basefontname exch def
/basefontdict basefontname findfont def /newfont basefontdict maxlength dict def
basefontdict { exch dup /FID ne { dup /Encoding eq
{ exch dup length array copy newfont 3 1 roll put }
{ exch newfont 3 1 roll put } ifelse } { pop pop } ifelse } forall
newfont /FontName newfontname put newcodesandnames aload pop
128 1 255 { newfont /Encoding get exch /.notdef put } for
newcodesandnames length 2 idiv { newfont /Encoding get 3 1 roll put } repeat
newfontname newfont definefont pop end } def
/isovec [
8#055 /minus 8#200 /grave 8#201 /acute 8#202 /circumflex 8#203 /tilde
8#204 /macron 8#205 /breve 8#206 /dotaccent 8#207 /dieresis
8#210 /ring 8#211 /cedilla 8#212 /hungarumlaut 8#213 /ogonek 8#214 /caron
8#220 /dotlessi 8#230 /oe 8#231 /OE
8#240 /space 8#241 /exclamdown 8#242 /cent 8#243 /sterling
8#244 /currency 8#245 /yen 8#246 /brokenbar 8#247 /section 8#250 /dieresis
8#251 /copyright 8#252 /ordfeminine 8#253 /guillemotleft 8#254 /logicalnot
8#255 /hyphen 8#256 /registered 8#257 /macron 8#260 /degree 8#261 /plusminus
8#262 /twosuperior 8#263 /threesuperior 8#264 /acute 8#265 /mu 8#266 /paragraph
8#267 /periodcentered 8#270 /cedilla 8#271 /onesuperior 8#272 /ordmasculine
8#273 /guillemotright 8#274 /onequarter 8#275 /onehalf
8#276 /threequarters 8#277 /questiondown 8#300 /Agrave 8#301 /Aacute
8#302 /Acircumflex 8#303 /Atilde 8#304 /Adieresis 8#305 /Aring
8#306 /AE 8#307 /Ccedilla 8#310 /Egrave 8#311 /Eacute
8#312 /Ecircumflex 8#313 /Edieresis 8#314 /Igrave 8#315 /Iacute
8#316 /Icircumflex 8#317 /Idieresis 8#320 /Eth 8#321 /Ntilde 8#322 /Ograve
8#323 /Oacute 8#324 /Ocircumflex 8#325 /Otilde 8#326 /Odieresis 8#327 /multiply
8#330 /Oslash 8#331 /Ugrave 8#332 /Uacute 8#333 /Ucircumflex
8#334 /Udieresis 8#335 /Yacute 8#336 /Thorn 8#337 /germandbls 8#340 /agrave
8#341 /aacute 8#342 /acircumflex 8#343 /atilde 8#344 /adieresis 8#345 /aring
8#346 /ae 8#347 /ccedilla 8#350 /egrave 8#351 /eacute
8#352 /ecircumflex 8#353 /edieresis 8#354 /igrave 8#355 /iacute
8#356 /icircumflex 8#357 /idieresis 8#360 /eth 8#361 /ntilde 8#362 /ograve
8#363 /oacute 8#364 /ocircumflex 8#365 /otilde 8#366 /odieresis 8#367 /divide
8#370 /oslash 8#371 /ugrave 8#372 /uacute 8#373 /ucircumflex
8#374 /udieresis 8#375 /yacute 8#376 /thorn 8#377 /ydieresis] def
/Helvetica-Bold /Helvetica-Bold-iso isovec ReEncode
/$F2psBegin {$F2psDict begin /$F2psEnteredState save def} def
/$F2psEnd {$F2psEnteredState restore end} def

$F2psBegin
10 setmiterlimit
0 slj 0 slc
 0.06000 0.06000 sc
%
% Fig objects follow
%
% 
% here starts figure with depth 999
%  polyline 
% Polyline
0 slj
0 slc
0.000 slw
n 0 13200 m 0 9970 l 9449 9970 l 9449 13200 l
 0 13200 l  cp gs col32 1.00 shd ef gr 
% here ends figure;
% 
% here starts figure with depth 997
%  polyline 
% Polyline
0 slj
0 slc
0.000 slw
n 0 13200 m 33 13166 l 33 10004 l 9416 10004 l 9449 9970 l 0 9970 l

 0 13200 l  cp gs col7 1.00 shd ef gr 
% here ends figure;
% 
% here starts figure with depth 995
%  polyline 
% Polyline
0 slj
0 slc
0.000 slw
n 0 13200 m 33 13166 l 9416 13166 l 9416 10004 l 9449 9970 l 9449 13200 l

 0 13200 l  cp gs col33 1.00 shd ef gr 
% here ends figure;
% 
% here starts figure with depth 993
%  polyline 
% Polyline
0 slj
0 slc
0.000 slw
n 95 13166 m 95 10004 l 3054 10004 l 3054 13166 l
 95 13166 l  cp gs col32 1.00 shd ef gr 
% here ends figure;
% 
% here starts figure with depth 991
%  polyline 
% Polyline
0 slj
0 slc
0.000 slw
n 95 13166 m 129 13133 l 129 10037 l 3020 10037 l 3054 10004 l 95 10004 l

 95 13166 l  cp gs col7 1.00 shd ef gr 
% here ends figure;
% 
% here starts figure with depth 989
%  polyline 
% Polyline
0 slj
0 slc
0.000 slw
n 95 13166 m 129 13133 l 3020 13133 l 3020 10037 l 3054 10004 l 3054 13166 l

 95 13166 l  cp gs col33 1.00 shd ef gr 
% here ends figure;
% 
% here starts figure with depth 985
%  polyline 
% Polyline
0 slj
0 slc
0.000 slw
n 391 12850 m 408 12833 l 408 10337 l 2741 10337 l 2758 10320 l 391 10320 l

 391 12850 l  cp gs col7 1.00 shd ef gr 
% here ends figure;
% 
% here starts figure with depth 983
%  polyline 
% Polyline
0 slj
0 slc
0.000 slw
n 391 12850 m 408 12833 l 2741 12833 l 2741 10337 l 2758 10320 l 2758 12850 l

 391 12850 l  cp gs col33 1.00 shd ef gr 
% here ends figure;
% 
% here starts figure with depth 981
%  polyline 
% Polyline
0 slj
0 slc
7.500 slw
n 391 12850 m 391 10320 l 2758 10320 l 2758 12850 l
 391 12850 l  cp gs col0 s gr 
% here ends figure;
% 
% here starts figure with depth 979
%  polyline 
% Polyline
0 slj
0 slc
0.000 slw
n 391 12850 m 391 10320 l 2758 10320 l 2758 12850 l
 391 12850 l  cp gs col32 1.00 shd ef gr 
% here ends figure;
% 
% here starts figure with depth 977
%  polyline 
% Polyline
0 slj
0 slc
0.000 slw
n 391 12850 m 408 12833 l 408 10337 l 2741 10337 l 2758 10320 l 391 10320 l

 391 12850 l  cp gs col7 1.00 shd ef gr 
% here ends figure;
% 
% here starts figure with depth 975
%  polyline 
% Polyline
0 slj
0 slc
0.000 slw
n 391 12850 m 408 12833 l 2741 12833 l 2741 10337 l 2758 10320 l 2758 12850 l

 391 12850 l  cp gs col33 1.00 shd ef gr 
% here ends figure;
% 
% here starts figure with depth 973
%  polyline 
% Polyline
0 slj
0 slc
7.500 slw
n 391 12850 m 391 10320 l 2758 10320 l 2758 12850 l
 391 12850 l  cp gs col0 s gr 
% here ends figure;
% 
% here starts figure with depth 971
%  polyline 
% Polyline
0 slj
0 slc
7.500 slw
n 520 10541 m
 520 10525 l gs col0 s gr 
%  polyline 
% Polyline
n 520 10504 m
 520 10487 l gs col0 s gr 
% here ends figure;
% 
% here starts figure with depth 968
%  polyline 
% Polyline
0 slj
0 slc
0.000 slw
n 520 10504 m 508 10504 l 508 10529 l 533 10529 l 533 10504 l
 520 10504 l  cp gs col1 1.00 shd ef gr 
%  polyline 
% Polyline
7.500 slw
n 545 10554 m
 545 10537 l gs col0 s gr 
%  polyline 
% Polyline
n 545 10516 m
 545 10504 l gs col0 s gr 
% here ends figure;
% 
% here starts figure with depth 964
%  polyline 
% Polyline
0 slj
0 slc
0.000 slw
n 545 10516 m 533 10516 l 533 10541 l 558 10541 l 558 10516 l
 545 10516 l  cp gs col1 1.00 shd ef gr 
%  polyline 
% Polyline
7.500 slw
n 566 10558 m
 566 10550 l gs col0 s gr 
%  polyline 
% Polyline
n 566 10525 m
 566 10516 l gs col0 s gr 
% here ends figure;
% 
% here starts figure with depth 960
%  polyline 
% Polyline
0 slj
0 slc
0.000 slw
n 566 10525 m 554 10525 l 554 10550 l 579 10550 l 579 10525 l
 566 10525 l  cp gs col1 1.00 shd ef gr 
%  polyline 
% Polyline
7.500 slw
n 591 10558 m
 591 10533 l gs col0 s gr 
%  polyline 
% Polyline
n 591 10512 m
 591 10491 l gs col0 s gr 
% here ends figure;
% 
% here starts figure with depth 956
%  polyline 
% Polyline
0 slj
0 slc
0.000 slw
n 591 10512 m 579 10512 l 579 10537 l 604 10537 l 604 10512 l
 591 10512 l  cp gs col1 1.00 shd ef gr 
%  polyline 
% Polyline
n 616 10525 m 604 10525 l 604 10550 l 629 10550 l 629 10525 l
 616 10525 l  cp gs col1 1.00 shd ef gr 
%  polyline 
% Polyline
7.500 slw
n 637 10625 m
 637 10616 l gs col0 s gr 
%  polyline 
% Polyline
n 637 10591 m
 637 10583 l gs col0 s gr 
% here ends figure;
% 
% here starts figure with depth 951
%  polyline 
% Polyline
0 slj
0 slc
0.000 slw
n 637 10591 m 624 10591 l 624 10616 l 649 10616 l 649 10591 l
 637 10591 l  cp gs col1 1.00 shd ef gr 
%  polyline 
% Polyline
n 662 10545 m 649 10545 l 649 10570 l 674 10570 l 674 10545 l
 662 10545 l  cp gs col1 1.00 shd ef gr 
%  polyline 
% Polyline
n 687 10612 m 674 10612 l 674 10637 l 699 10637 l 699 10612 l
 687 10612 l  cp gs col1 1.00 shd ef gr 
% here ends figure;
% 
% here starts figure with depth 947
%  polyline 
% Polyline
0 slj
0 slc
0.000 slw
n 708 10587 m 695 10587 l 695 10612 l 720 10612 l 720 10587 l
 708 10587 l  cp gs col1 1.00 shd ef gr 
%  polyline 
% Polyline
n 733 10633 m 720 10633 l 720 10658 l 745 10658 l 745 10633 l
 733 10633 l  cp gs col1 1.00 shd ef gr 
%  polyline 
% Polyline
n 758 10629 m 745 10629 l 745 10654 l 770 10654 l 770 10629 l
 758 10629 l  cp gs col1 1.00 shd ef gr 
%  polyline 
% Polyline
n 783 10687 m 770 10687 l 770 10712 l 795 10712 l 795 10687 l
 783 10687 l  cp gs col1 1.00 shd ef gr 
% here ends figure;
% 
% here starts figure with depth 942
%  polyline 
% Polyline
0 slj
0 slc
0.000 slw
n 804 10687 m 791 10687 l 791 10712 l 816 10712 l 816 10687 l
 804 10687 l  cp gs col1 1.00 shd ef gr 
%  polyline 
% Polyline
n 829 10737 m 816 10737 l 816 10762 l 841 10762 l 841 10737 l
 829 10737 l  cp gs col1 1.00 shd ef gr 
%  polyline 
% Polyline
n 854 10758 m 841 10758 l 841 10783 l 866 10783 l 866 10758 l
 854 10758 l  cp gs col1 1.00 shd ef gr 
%  polyline 
% Polyline
n 874 10804 m 862 10804 l 862 10829 l 887 10829 l 887 10804 l
 874 10804 l  cp gs col1 1.00 shd ef gr 
%  polyline 
% Polyline
n 899 10841 m 887 10841 l 887 10866 l 912 10866 l 912 10841 l
 899 10841 l  cp gs col1 1.00 shd ef gr 
%  polyline 
% Polyline
n 924 10887 m 912 10887 l 912 10912 l 937 10912 l 937 10887 l
 924 10887 l  cp gs col1 1.00 shd ef gr 
%  polyline 
% Polyline
n 945 10925 m 933 10925 l 933 10950 l 958 10950 l 958 10925 l
 945 10925 l  cp gs col1 1.00 shd ef gr 
%  polyline 
% Polyline
n 970 10970 m 958 10970 l 958 10995 l 983 10995 l 983 10970 l
 970 10970 l  cp gs col1 1.00 shd ef gr 
%  polyline 
% Polyline
n 995 11012 m 983 11012 l 983 11037 l 1008 11037 l 1008 11012 l
 995 11012 l  cp gs col1 1.00 shd ef gr 
%  polyline 
% Polyline
n 1016 11054 m 1004 11054 l 1004 11079 l 1029 11079 l 1029 11054 l
 1016 11054 l  cp gs col1 1.00 shd ef gr 
%  polyline 
% Polyline
n 1041 11100 m 1029 11100 l 1029 11125 l 1054 11125 l 1054 11100 l
 1041 11100 l  cp gs col1 1.00 shd ef gr 
%  polyline 
% Polyline
n 1066 11141 m 1054 11141 l 1054 11166 l 1079 11166 l 1079 11141 l
 1066 11141 l  cp gs col1 1.00 shd ef gr 
%  polyline 
% Polyline
n 1087 11187 m 1074 11187 l 1074 11212 l 1099 11212 l 1099 11187 l
 1087 11187 l  cp gs col1 1.00 shd ef gr 
%  polyline 
% Polyline
n 1112 11233 m 1099 11233 l 1099 11258 l 1124 11258 l 1124 11233 l
 1112 11233 l  cp gs col1 1.00 shd ef gr 
%  polyline 
% Polyline
n 1137 11275 m 1124 11275 l 1124 11300 l 1149 11300 l 1149 11275 l
 1137 11275 l  cp gs col1 1.00 shd ef gr 
%  polyline 
% Polyline
n 1158 11316 m 1145 11316 l 1145 11341 l 1170 11341 l 1170 11316 l
 1158 11316 l  cp gs col1 1.00 shd ef gr 
%  polyline 
% Polyline
n 1183 11362 m 1170 11362 l 1170 11387 l 1195 11387 l 1195 11362 l
 1183 11362 l  cp gs col1 1.00 shd ef gr 
%  polyline 
% Polyline
n 1208 11404 m 1195 11404 l 1195 11429 l 1220 11429 l 1220 11404 l
 1208 11404 l  cp gs col1 1.00 shd ef gr 
%  polyline 
% Polyline
n 1233 11450 m 1220 11450 l 1220 11475 l 1245 11475 l 1245 11450 l
 1233 11450 l  cp gs col1 1.00 shd ef gr 
%  polyline 
% Polyline
n 1254 11495 m 1241 11495 l 1241 11520 l 1266 11520 l 1266 11495 l
 1254 11495 l  cp gs col1 1.00 shd ef gr 
%  polyline 
% Polyline
n 1279 11537 m 1266 11537 l 1266 11562 l 1291 11562 l 1291 11537 l
 1279 11537 l  cp gs col1 1.00 shd ef gr 
%  polyline 
% Polyline
n 1304 11583 m 1291 11583 l 1291 11608 l 1316 11608 l 1316 11583 l
 1304 11583 l  cp gs col1 1.00 shd ef gr 
%  polyline 
% Polyline
n 1324 11625 m 1312 11625 l 1312 11650 l 1337 11650 l 1337 11625 l
 1324 11625 l  cp gs col1 1.00 shd ef gr 
%  polyline 
% Polyline
n 1349 11670 m 1337 11670 l 1337 11695 l 1362 11695 l 1362 11670 l
 1349 11670 l  cp gs col1 1.00 shd ef gr 
%  polyline 
% Polyline
n 1374 11712 m 1362 11712 l 1362 11737 l 1387 11737 l 1387 11712 l
 1374 11712 l  cp gs col1 1.00 shd ef gr 
%  polyline 
% Polyline
n 1395 11758 m 1383 11758 l 1383 11783 l 1408 11783 l 1408 11758 l
 1395 11758 l  cp gs col1 1.00 shd ef gr 
%  polyline 
% Polyline
n 1420 11800 m 1408 11800 l 1408 11825 l 1433 11825 l 1433 11800 l
 1420 11800 l  cp gs col1 1.00 shd ef gr 
%  polyline 
% Polyline
n 1445 11845 m 1433 11845 l 1433 11870 l 1458 11870 l 1458 11845 l
 1445 11845 l  cp gs col1 1.00 shd ef gr 
%  polyline 
% Polyline
n 1466 11887 m 1454 11887 l 1454 11912 l 1479 11912 l 1479 11887 l
 1466 11887 l  cp gs col1 1.00 shd ef gr 
%  polyline 
% Polyline
n 1491 11933 m 1479 11933 l 1479 11958 l 1504 11958 l 1504 11933 l
 1491 11933 l  cp gs col1 1.00 shd ef gr 
%  polyline 
% Polyline
n 1516 11975 m 1504 11975 l 1504 12000 l 1529 12000 l 1529 11975 l
 1516 11975 l  cp gs col1 1.00 shd ef gr 
%  polyline 
% Polyline
n 1537 12020 m 1524 12020 l 1524 12045 l 1549 12045 l 1549 12020 l
 1537 12020 l  cp gs col1 1.00 shd ef gr 
%  polyline 
% Polyline
n 1562 12062 m 1549 12062 l 1549 12087 l 1574 12087 l 1574 12062 l
 1562 12062 l  cp gs col1 1.00 shd ef gr 
%  polyline 
% Polyline
n 1587 12108 m 1574 12108 l 1574 12133 l 1599 12133 l 1599 12108 l
 1587 12108 l  cp gs col1 1.00 shd ef gr 
%  polyline 
% Polyline
n 1608 12154 m 1595 12154 l 1595 12179 l 1620 12179 l 1620 12154 l
 1608 12154 l  cp gs col1 1.00 shd ef gr 
%  polyline 
% Polyline
n 1633 12200 m 1620 12200 l 1620 12225 l 1645 12225 l 1645 12200 l
 1633 12200 l  cp gs col1 1.00 shd ef gr 
%  polyline 
% Polyline
n 1658 12245 m 1645 12245 l 1645 12270 l 1670 12270 l 1670 12245 l
 1658 12245 l  cp gs col1 1.00 shd ef gr 
%  polyline 
% Polyline
n 1683 12291 m 1670 12291 l 1670 12316 l 1695 12316 l 1695 12291 l
 1683 12291 l  cp gs col1 1.00 shd ef gr 
%  polyline 
% Polyline
n 1704 12329 m 1691 12329 l 1691 12354 l 1716 12354 l 1716 12329 l
 1704 12329 l  cp gs col1 1.00 shd ef gr 
%  polyline 
% Polyline
n 1729 12362 m 1716 12362 l 1716 12387 l 1741 12387 l 1741 12362 l
 1729 12362 l  cp gs col1 1.00 shd ef gr 
%  polyline 
% Polyline
n 1754 12387 m 1741 12387 l 1741 12412 l 1766 12412 l 1766 12387 l
 1754 12387 l  cp gs col1 1.00 shd ef gr 
% here ends figure;
% 
% here starts figure with depth 900
%  polyline 
% Polyline
0 slj
0 slc
0.000 slw
n 1774 12408 m 1762 12408 l 1762 12433 l 1787 12433 l 1787 12408 l
 1774 12408 l  cp gs col1 1.00 shd ef gr 
%  polyline 
% Polyline
n 1799 12425 m 1787 12425 l 1787 12450 l 1812 12450 l 1812 12425 l
 1799 12425 l  cp gs col1 1.00 shd ef gr 
%  polyline 
% Polyline
n 1824 12437 m 1812 12437 l 1812 12462 l 1837 12462 l 1837 12437 l
 1824 12437 l  cp gs col1 1.00 shd ef gr 
% here ends figure;
% 
% here starts figure with depth 896
%  polyline 
% Polyline
0 slj
0 slc
0.000 slw
n 1845 12445 m 1833 12445 l 1833 12470 l 1858 12470 l 1858 12445 l
 1845 12445 l  cp gs col1 1.00 shd ef gr 
%  polyline 
% Polyline
n 1870 12454 m 1858 12454 l 1858 12479 l 1883 12479 l 1883 12454 l
 1870 12454 l  cp gs col1 1.00 shd ef gr 
%  polyline 
% Polyline
n 1895 12462 m 1883 12462 l 1883 12487 l 1908 12487 l 1908 12462 l
 1895 12462 l  cp gs col1 1.00 shd ef gr 
% here ends figure;
% 
% here starts figure with depth 892
%  polyline 
% Polyline
0 slj
0 slc
0.000 slw
n 1916 12470 m 1904 12470 l 1904 12495 l 1929 12495 l 1929 12470 l
 1916 12470 l  cp gs col1 1.00 shd ef gr 
%  polyline 
% Polyline
n 1941 12475 m 1929 12475 l 1929 12500 l 1954 12500 l 1954 12475 l
 1941 12475 l  cp gs col1 1.00 shd ef gr 
%  polyline 
% Polyline
n 1966 12479 m 1954 12479 l 1954 12504 l 1979 12504 l 1979 12479 l
 1966 12479 l  cp gs col1 1.00 shd ef gr 
% here ends figure;
% 
% here starts figure with depth 888
%  polyline 
% Polyline
0 slj
0 slc
0.000 slw
n 1987 12483 m 1974 12483 l 1974 12508 l 1999 12508 l 1999 12483 l
 1987 12483 l  cp gs col1 1.00 shd ef gr 
%  polyline 
% Polyline
n 2012 12487 m 1999 12487 l 1999 12512 l 2024 12512 l 2024 12487 l
 2012 12487 l  cp gs col1 1.00 shd ef gr 
%  polyline 
% Polyline
n 2037 12491 m 2024 12491 l 2024 12516 l 2049 12516 l 2049 12491 l
 2037 12491 l  cp gs col1 1.00 shd ef gr 
% here ends figure;
% 
% here starts figure with depth 884
%  polyline 
% Polyline
0 slj
0 slc
0.000 slw
n 2058 12495 m 2045 12495 l 2045 12520 l 2070 12520 l 2070 12495 l
 2058 12495 l  cp gs col1 1.00 shd ef gr 
%  polyline 
% Polyline
n 2083 12495 m 2070 12495 l 2070 12520 l 2095 12520 l 2095 12495 l
 2083 12495 l  cp gs col1 1.00 shd ef gr 
%  polyline 
% Polyline
n 2108 12500 m 2095 12500 l 2095 12525 l 2120 12525 l 2120 12500 l
 2108 12500 l  cp gs col1 1.00 shd ef gr 
%  polyline 
% Polyline
n 2133 12504 m 2120 12504 l 2120 12529 l 2145 12529 l 2145 12504 l
 2133 12504 l  cp gs col1 1.00 shd ef gr 
% here ends figure;
% 
% here starts figure with depth 879
%  polyline 
% Polyline
0 slj
0 slc
0.000 slw
n 2154 12504 m 2141 12504 l 2141 12529 l 2166 12529 l 2166 12504 l
 2154 12504 l  cp gs col1 1.00 shd ef gr 
%  polyline 
% Polyline
n 2179 12508 m 2166 12508 l 2166 12533 l 2191 12533 l 2191 12508 l
 2179 12508 l  cp gs col1 1.00 shd ef gr 
%  polyline 
% Polyline
n 2204 12508 m 2191 12508 l 2191 12533 l 2216 12533 l 2216 12508 l
 2204 12508 l  cp gs col1 1.00 shd ef gr 
% here ends figure;
% 
% here starts figure with depth 875
%  polyline 
% Polyline
0 slj
0 slc
0.000 slw
n 2224 12512 m 2212 12512 l 2212 12537 l 2237 12537 l 2237 12512 l
 2224 12512 l  cp gs col1 1.00 shd ef gr 
%  polyline 
% Polyline
n 2249 12512 m 2237 12512 l 2237 12537 l 2262 12537 l 2262 12512 l
 2249 12512 l  cp gs col1 1.00 shd ef gr 
%  polyline 
% Polyline
n 2274 12516 m 2262 12516 l 2262 12541 l 2287 12541 l 2287 12516 l
 2274 12516 l  cp gs col1 1.00 shd ef gr 
% here ends figure;
% 
% here starts figure with depth 871
%  polyline 
% Polyline
0 slj
0 slc
0.000 slw
n 2295 12516 m 2283 12516 l 2283 12541 l 2308 12541 l 2308 12516 l
 2295 12516 l  cp gs col1 1.00 shd ef gr 
%  polyline 
% Polyline
n 2320 12516 m 2308 12516 l 2308 12541 l 2333 12541 l 2333 12516 l
 2320 12516 l  cp gs col1 1.00 shd ef gr 
%  polyline 
% Polyline
n 2345 12516 m 2333 12516 l 2333 12541 l 2358 12541 l 2358 12516 l
 2345 12516 l  cp gs col1 1.00 shd ef gr 
% here ends figure;
% 
% here starts figure with depth 867
%  polyline 
% Polyline
0 slj
0 slc
0.000 slw
n 2366 12520 m 2354 12520 l 2354 12545 l 2379 12545 l 2379 12520 l
 2366 12520 l  cp gs col1 1.00 shd ef gr 
%  polyline 
% Polyline
n 2391 12520 m 2379 12520 l 2379 12545 l 2404 12545 l 2404 12520 l
 2391 12520 l  cp gs col1 1.00 shd ef gr 
%  polyline 
% Polyline
n 2416 12520 m 2404 12520 l 2404 12545 l 2429 12545 l 2429 12520 l
 2416 12520 l  cp gs col1 1.00 shd ef gr 
% here ends figure;
% 
% here starts figure with depth 863
%  polyline 
% Polyline
0 slj
0 slc
0.000 slw
n 2437 12516 m 2424 12516 l 2424 12541 l 2449 12541 l 2449 12516 l
 2437 12516 l  cp gs col1 1.00 shd ef gr 
%  polyline 
% Polyline
n 2462 12520 m 2449 12520 l 2449 12545 l 2474 12545 l 2474 12520 l
 2462 12520 l  cp gs col1 1.00 shd ef gr 
%  polyline 
% Polyline
n 2487 12516 m 2474 12516 l 2474 12541 l 2499 12541 l 2499 12516 l
 2487 12516 l  cp gs col1 1.00 shd ef gr 
% here ends figure;
% 
% here starts figure with depth 859
%  polyline 
% Polyline
0 slj
0 slc
0.000 slw
n 2508 12516 m 2495 12516 l 2495 12541 l 2520 12541 l 2520 12516 l
 2508 12516 l  cp gs col1 1.00 shd ef gr 
%  polyline 
% Polyline
n 2533 12516 m 2520 12516 l 2520 12541 l 2545 12541 l 2545 12516 l
 2533 12516 l  cp gs col1 1.00 shd ef gr 
%  polyline 
% Polyline
n 2558 12508 m 2545 12508 l 2545 12533 l 2570 12533 l 2570 12508 l
 2558 12508 l  cp gs col1 1.00 shd ef gr 
%  polyline 
% Polyline
n 2583 12516 m 2570 12516 l 2570 12541 l 2595 12541 l 2595 12516 l
 2583 12516 l  cp gs col1 1.00 shd ef gr 
%  polyline 
% Polyline
7.500 slw
n 2604 12504 m
 2604 12495 l gs col0 s gr 
%  polyline 
% Polyline
n 2604 12470 m
 2604 12462 l gs col0 s gr 
% here ends figure;
% 
% here starts figure with depth 852
%  polyline 
% Polyline
0 slj
0 slc
0.000 slw
n 2604 12470 m 2591 12470 l 2591 12495 l 2616 12495 l 2616 12470 l
 2604 12470 l  cp gs col1 1.00 shd ef gr 
%  polyline 
% Polyline
7.500 slw
n 2629 12537 m
 2629 12520 l gs col0 s gr 
%  polyline 
% Polyline
n 2629 12495 m
 2629 12479 l gs col0 s gr 
% here ends figure;
% 
% here starts figure with depth 848
%  polyline 
% Polyline
0 slj
0 slc
0.000 slw
n 2629 12495 m 2616 12495 l 2616 12520 l 2641 12520 l 2641 12495 l
 2629 12495 l  cp gs col1 1.00 shd ef gr 
%  polyline 
% Polyline
7.500 slw
n 2654 12550 m
 2654 12516 l gs col0 s gr 
%  polyline 
% Polyline
n 2654 12491 m
 2654 12462 l gs col0 s gr 
% here ends figure;
% 
% here starts figure with depth 844
%  polyline 
% Polyline
0 slj
0 slc
0.000 slw
n 2654 12491 m 2641 12491 l 2641 12516 l 2666 12516 l 2666 12491 l
 2654 12491 l  cp gs col1 1.00 shd ef gr 
%  polyline 
% Polyline
7.500 slw
n 2674 12537 m
 2674 12491 l gs col0 s gr 
%  polyline 
% Polyline
n 2674 12466 m
 2674 12420 l gs col0 s gr 
% here ends figure;
% 
% here starts figure with depth 840
%  polyline 
% Polyline
0 slj
0 slc
0.000 slw
n 2674 12466 m 2662 12466 l 2662 12491 l 2687 12491 l 2687 12466 l
 2674 12466 l  cp gs col1 1.00 shd ef gr 
%  polyline 
% Polyline
n 2699 12725 m 2687 12725 l 2687 12750 l 2712 12750 l 2712 12725 l
 2699 12725 l  cp gs col1 1.00 shd ef gr 
%  polyline 
% Polyline
7.500 slw
n 391 12850 m
 2758 12850 l gs col0 s gr 
%  polyline 
% Polyline
n 391 12775 m
 391 12850 l gs col0 s gr 
% here ends figure;
% 
% here starts figure with depth 835
%  polyline 
% Polyline
0 slj
0 slc
7.500 slw
n 470 12812 m
 470 12850 l gs col0 s gr 
%  polyline 
% Polyline
n 549 12812 m
 549 12850 l gs col0 s gr 
%  polyline 
% Polyline
n 629 12812 m
 629 12850 l gs col0 s gr 
%  polyline 
% Polyline
n 708 12775 m
 708 12850 l gs col0 s gr 
%  polyline 
% Polyline
n 783 12812 m
 783 12850 l gs col0 s gr 
%  polyline 
% Polyline
n 862 12812 m
 862 12850 l gs col0 s gr 
%  polyline 
% Polyline
n 941 12812 m
 941 12850 l gs col0 s gr 
%  polyline 
% Polyline
n 1020 12775 m
 1020 12850 l gs col0 s gr 
%  polyline 
% Polyline
n 1099 12812 m
 1099 12850 l gs col0 s gr 
%  polyline 
% Polyline
n 1179 12812 m
 1179 12850 l gs col0 s gr 
%  polyline 
% Polyline
n 1258 12812 m
 1258 12850 l gs col0 s gr 
%  polyline 
% Polyline
n 1337 12775 m
 1337 12850 l gs col0 s gr 
%  polyline 
% Polyline
n 1416 12812 m
 1416 12850 l gs col0 s gr 
%  polyline 
% Polyline
n 1495 12812 m
 1495 12850 l gs col0 s gr 
%  polyline 
% Polyline
n 1574 12812 m
 1574 12850 l gs col0 s gr 
%  polyline 
% Polyline
n 1654 12775 m
 1654 12850 l gs col0 s gr 
%  polyline 
% Polyline
n 1733 12812 m
 1733 12850 l gs col0 s gr 
%  polyline 
% Polyline
n 1812 12812 m
 1812 12850 l gs col0 s gr 
%  polyline 
% Polyline
n 1891 12812 m
 1891 12850 l gs col0 s gr 
%  polyline 
% Polyline
n 1970 12775 m
 1970 12850 l gs col0 s gr 
%  polyline 
% Polyline
n 2049 12812 m
 2049 12850 l gs col0 s gr 
%  polyline 
% Polyline
n 2129 12812 m
 2129 12850 l gs col0 s gr 
%  polyline 
% Polyline
n 2208 12812 m
 2208 12850 l gs col0 s gr 
%  polyline 
% Polyline
n 2283 12775 m
 2283 12850 l gs col0 s gr 
%  polyline 
% Polyline
n 2362 12812 m
 2362 12850 l gs col0 s gr 
%  polyline 
% Polyline
n 2441 12812 m
 2441 12850 l gs col0 s gr 
%  polyline 
% Polyline
n 2520 12812 m
 2520 12850 l gs col0 s gr 
%  polyline 
% Polyline
n 2599 12775 m
 2599 12850 l gs col0 s gr 
%  polyline 
% Polyline
n 2599 12775 m
 2599 12850 l gs col0 s gr 
%  polyline 
% Polyline
n 2679 12812 m
 2679 12850 l gs col0 s gr 
% here ends figure;
% 
% here starts figure with depth 804
%  text 
/Helvetica-Bold-iso ff 116.67 scf sf
333 12962 m
gs 1 -1 sc (-6) col0 sh gr
%  text 
/Helvetica-Bold-iso ff 116.67 scf sf
654 12962 m
gs 1 -1 sc (-4) col0 sh gr
%  text 
/Helvetica-Bold-iso ff 116.67 scf sf
974 12962 m
gs 1 -1 sc (-2) col0 sh gr
%  text 
/Helvetica-Bold-iso ff 116.67 scf sf
1295 12962 m
gs 1 -1 sc (0) col0 sh gr
%  text 
/Helvetica-Bold-iso ff 116.67 scf sf
1612 12962 m
gs 1 -1 sc (2) col0 sh gr
%  text 
/Helvetica-Bold-iso ff 116.67 scf sf
1924 12962 m
gs 1 -1 sc (4) col0 sh gr
%  text 
/Helvetica-Bold-iso ff 116.67 scf sf
2241 12962 m
gs 1 -1 sc (6) col0 sh gr
%  text 
/Helvetica-Bold-iso ff 116.67 scf sf
2562 12962 m
gs 1 -1 sc (8) col0 sh gr
% here ends figure;
% 
% here starts figure with depth 795
%  polyline 
% Polyline
0 slj
0 slc
7.500 slw
n 391 12850 m
 391 10320 l gs col0 s gr 
%  polyline 
% Polyline
n 462 12779 m
 391 12779 l gs col0 s gr 
% here ends figure;
% 
% here starts figure with depth 792
%  polyline 
% Polyline
0 slj
0 slc
7.500 slw
n 424 12720 m
 391 12720 l gs col0 s gr 
%  polyline 
% Polyline
n 424 12662 m
 391 12662 l gs col0 s gr 
%  polyline 
% Polyline
n 424 12604 m
 391 12604 l gs col0 s gr 
%  polyline 
% Polyline
n 424 12545 m
 391 12545 l gs col0 s gr 
%  polyline 
% Polyline
n 462 12487 m
 391 12487 l gs col0 s gr 
%  polyline 
% Polyline
n 424 12429 m
 391 12429 l gs col0 s gr 
%  polyline 
% Polyline
n 424 12370 m
 391 12370 l gs col0 s gr 
%  polyline 
% Polyline
n 424 12312 m
 391 12312 l gs col0 s gr 
%  polyline 
% Polyline
n 424 12254 m
 391 12254 l gs col0 s gr 
%  polyline 
% Polyline
n 462 12195 m
 391 12195 l gs col0 s gr 
%  polyline 
% Polyline
n 424 12137 m
 391 12137 l gs col0 s gr 
%  polyline 
% Polyline
n 424 12075 m
 391 12075 l gs col0 s gr 
%  polyline 
% Polyline
n 424 12016 m
 391 12016 l gs col0 s gr 
%  polyline 
% Polyline
n 424 11958 m
 391 11958 l gs col0 s gr 
%  polyline 
% Polyline
n 462 11900 m
 391 11900 l gs col0 s gr 
%  polyline 
% Polyline
n 424 11841 m
 391 11841 l gs col0 s gr 
%  polyline 
% Polyline
n 424 11783 m
 391 11783 l gs col0 s gr 
%  polyline 
% Polyline
n 424 11725 m
 391 11725 l gs col0 s gr 
%  polyline 
% Polyline
n 424 11666 m
 391 11666 l gs col0 s gr 
%  polyline 
% Polyline
n 462 11608 m
 391 11608 l gs col0 s gr 
%  polyline 
% Polyline
n 424 11550 m
 391 11550 l gs col0 s gr 
%  polyline 
% Polyline
n 424 11491 m
 391 11491 l gs col0 s gr 
%  polyline 
% Polyline
n 424 11433 m
 391 11433 l gs col0 s gr 
%  polyline 
% Polyline
n 424 11375 m
 391 11375 l gs col0 s gr 
%  polyline 
% Polyline
n 462 11316 m
 391 11316 l gs col0 s gr 
%  polyline 
% Polyline
n 424 11258 m
 391 11258 l gs col0 s gr 
%  polyline 
% Polyline
n 424 11200 m
 391 11200 l gs col0 s gr 
%  polyline 
% Polyline
n 424 11141 m
 391 11141 l gs col0 s gr 
%  polyline 
% Polyline
n 424 11083 m
 391 11083 l gs col0 s gr 
%  polyline 
% Polyline
n 462 11025 m
 391 11025 l gs col0 s gr 
%  polyline 
% Polyline
n 424 10966 m
 391 10966 l gs col0 s gr 
%  polyline 
% Polyline
n 424 10908 m
 391 10908 l gs col0 s gr 
%  polyline 
% Polyline
n 424 10850 m
 391 10850 l gs col0 s gr 
%  polyline 
% Polyline
n 424 10791 m
 391 10791 l gs col0 s gr 
%  polyline 
% Polyline
n 462 10733 m
 391 10733 l gs col0 s gr 
%  polyline 
% Polyline
n 424 10675 m
 391 10675 l gs col0 s gr 
%  polyline 
% Polyline
n 424 10616 m
 391 10616 l gs col0 s gr 
%  polyline 
% Polyline
n 424 10558 m
 391 10558 l gs col0 s gr 
%  polyline 
% Polyline
n 424 10500 m
 391 10500 l gs col0 s gr 
%  polyline 
% Polyline
n 462 10441 m
 391 10441 l gs col0 s gr 
%  polyline 
% Polyline
n 462 12779 m
 391 12779 l gs col0 s gr 
%  polyline 
% Polyline
n 424 12837 m
 391 12837 l gs col0 s gr 
%  polyline 
% Polyline
n 462 10441 m
 391 10441 l gs col0 s gr 
%  polyline 
% Polyline
n 424 10383 m
 391 10383 l gs col0 s gr 
%  polyline 
% Polyline
n 424 10325 m
 391 10325 l gs col0 s gr 
% here ends figure;
% 
% here starts figure with depth 746
%  text 
/Helvetica-Bold-iso ff 116.67 scf sf
274 12820 m
gs 1 -1 sc (-8) col0 sh gr
%  text 
/Helvetica-Bold-iso ff 116.67 scf sf
274 12525 m
gs 1 -1 sc (-7) col0 sh gr
%  text 
/Helvetica-Bold-iso ff 116.67 scf sf
274 12237 m
gs 1 -1 sc (-6) col0 sh gr
%  text 
/Helvetica-Bold-iso ff 116.67 scf sf
274 11941 m
gs 1 -1 sc (-5) col0 sh gr
%  text 
/Helvetica-Bold-iso ff 116.67 scf sf
274 11658 m
gs 1 -1 sc (-4) col0 sh gr
%  text 
/Helvetica-Bold-iso ff 116.67 scf sf
274 11358 m
gs 1 -1 sc (-3) col0 sh gr
%  text 
/Helvetica-Bold-iso ff 116.67 scf sf
274 11062 m
gs 1 -1 sc (-2) col0 sh gr
%  text 
/Helvetica-Bold-iso ff 116.67 scf sf
283 10779 m
gs 1 -1 sc (-1) col0 sh gr
%  text 
/Helvetica-Bold-iso ff 116.67 scf sf
308 10483 m
gs 1 -1 sc (0) col0 sh gr
% here ends figure;
% 
% here starts figure with depth 729
%  polyline 
% Polyline
0 slj
0 slc
0.000 slw
n 3245 13166 m 3245 10004 l 6204 10004 l 6204 13166 l
 3245 13166 l  cp gs col32 1.00 shd ef gr 
% here ends figure;
% 
% here starts figure with depth 727
%  polyline 
% Polyline
0 slj
0 slc
0.000 slw
n 3245 13166 m 3279 13133 l 3279 10037 l 6170 10037 l 6204 10004 l 3245 10004 l

 3245 13166 l  cp gs col7 1.00 shd ef gr 
% here ends figure;
% 
% here starts figure with depth 725
%  polyline 
% Polyline
0 slj
0 slc
0.000 slw
n 3245 13166 m 3279 13133 l 6170 13133 l 6170 10037 l 6204 10004 l 6204 13166 l

 3245 13166 l  cp gs col33 1.00 shd ef gr 
% here ends figure;
% 
% here starts figure with depth 721
%  polyline 
% Polyline
0 slj
0 slc
0.000 slw
n 3541 12850 m 3558 12833 l 3558 10337 l 5891 10337 l 5908 10320 l 3541 10320 l

 3541 12850 l  cp gs col7 1.00 shd ef gr 
% here ends figure;
% 
% here starts figure with depth 719
%  polyline 
% Polyline
0 slj
0 slc
0.000 slw
n 3541 12850 m 3558 12833 l 5891 12833 l 5891 10337 l 5908 10320 l 5908 12850 l

 3541 12850 l  cp gs col33 1.00 shd ef gr 
% here ends figure;
% 
% here starts figure with depth 717
%  polyline 
% Polyline
0 slj
0 slc
7.500 slw
n 3541 12850 m 3541 10320 l 5908 10320 l 5908 12850 l
 3541 12850 l  cp gs col0 s gr 
% here ends figure;
% 
% here starts figure with depth 715
%  polyline 
% Polyline
0 slj
0 slc
0.000 slw
n 3541 12850 m 3541 10320 l 5908 10320 l 5908 12850 l
 3541 12850 l  cp gs col32 1.00 shd ef gr 
% here ends figure;
% 
% here starts figure with depth 713
%  polyline 
% Polyline
0 slj
0 slc
0.000 slw
n 3541 12850 m 3558 12833 l 3558 10337 l 5891 10337 l 5908 10320 l 3541 10320 l

 3541 12850 l  cp gs col7 1.00 shd ef gr 
% here ends figure;
% 
% here starts figure with depth 711
%  polyline 
% Polyline
0 slj
0 slc
0.000 slw
n 3541 12850 m 3558 12833 l 5891 12833 l 5891 10337 l 5908 10320 l 5908 12850 l

 3541 12850 l  cp gs col33 1.00 shd ef gr 
% here ends figure;
% 
% here starts figure with depth 709
%  polyline 
% Polyline
0 slj
0 slc
7.500 slw
n 3541 12850 m 3541 10320 l 5908 10320 l 5908 12850 l
 3541 12850 l  cp gs col0 s gr 
% here ends figure;
% 
% here starts figure with depth 707
%  polyline 
% Polyline
0 slj
0 slc
0.000 slw
n 3541 12850 m 3591 12850 l 3591 10408 l 3608 10408 l 3608 10345 l 3641 10345 l
 3641 10358 l 3658 10358 l 3658 10375 l 3674 10375 l 3674 10395 l
 3691 10395 l 3691 10412 l 3708 10412 l 3708 10433 l 3724 10433 l
 3724 10450 l 3741 10450 l 3741 10466 l 3758 10466 l 3758 10483 l
 3774 10483 l 3774 10500 l 3795 10500 l 3795 10516 l 3812 10516 l
 3812 10533 l 3829 10533 l 3829 10550 l 3845 10550 l 3845 10562 l
 3862 10562 l 3862 10579 l 3879 10579 l 3879 10591 l 3895 10591 l
 3895 10608 l 3912 10608 l 3912 10620 l 3929 10620 l 3929 10633 l
 3945 10633 l 3945 10645 l 3962 10645 l 3962 10658 l 3979 10658 l
 3979 10670 l 3995 10670 l 3995 10683 l 4012 10683 l 4012 10695 l
 4029 10695 l 4029 10708 l 4045 10708 l 4045 10720 l 4066 10720 l
 4066 10733 l 4083 10733 l 4083 10745 l 4099 10745 l 4099 10758 l
 4116 10758 l 4116 10770 l 4133 10770 l 4133 10779 l 4149 10779 l
 4149 10791 l 4166 10791 l 4166 10804 l 4183 10804 l 4183 10812 l
 4199 10812 l 4199 10825 l 4216 10825 l 4216 10837 l 4233 10837 l
 4233 10845 l 4249 10845 l 4249 10858 l 4266 10858 l 4266 10870 l
 4283 10870 l 4283 10879 l 4299 10879 l 4299 10891 l 4316 10891 l
 4316 10904 l 4333 10904 l 4333 10912 l 4354 10912 l 4354 10920 l
 4370 10920 l 4370 10933 l 4387 10933 l 4387 10945 l 4404 10945 l
 4404 10954 l 4420 10954 l 4420 10966 l 4437 10966 l 4437 10975 l
 4454 10975 l 4454 10987 l 4470 10987 l 4470 11000 l 4487 11000 l
 4487 11008 l 4504 11008 l 4504 11016 l 4520 11016 l 4520 11029 l
 4537 11029 l 4537 11037 l 4554 11037 l 4554 11050 l 4570 11050 l
 4570 11062 l 4587 11062 l 4587 11070 l 4604 11070 l 4604 11083 l
 4620 11083 l 4620 11091 l 4641 11091 l 4641 11104 l 4658 11104 l
 4658 11116 l 4674 11116 l 4674 11125 l 4691 11125 l 4691 11137 l
 4708 11137 l 4708 11145 l 4724 11145 l 4724 11158 l 4741 11158 l
 4741 11166 l 4758 11166 l 4758 11183 l 4774 11183 l 4774 11191 l
 4791 11191 l 4791 11204 l 4808 11204 l 4808 11216 l 4824 11216 l
 4824 11225 l 4841 11225 l 4841 11237 l 4858 11237 l 4858 11250 l
 4874 11250 l 4874 11262 l 4891 11262 l 4891 11275 l 4912 11275 l
 4912 11287 l 4929 11287 l 4929 11295 l 4945 11295 l 4945 11304 l
 4962 11304 l 4962 11320 l 4979 11320 l 4979 11337 l 4995 11337 l
 4995 11350 l 5012 11350 l 5012 11362 l 5029 11362 l 5029 11375 l
 5045 11375 l 5045 11383 l 5062 11383 l 5062 11400 l 5095 11400 l
 5095 11420 l 5112 11420 l 5112 11441 l 5129 11441 l 5129 11458 l
 5145 11458 l 5145 11470 l 5162 11470 l 5162 11487 l 5179 11487 l
 5179 11491 l 5199 11491 l 5199 11516 l 5216 11516 l 5216 11533 l
 5233 11533 l 5233 11550 l 5249 11550 l 5249 11558 l 5266 11558 l
 5266 11575 l 5283 11575 l 5283 11587 l 5299 11587 l 5299 11608 l
 5316 11608 l 5316 11625 l 5349 11625 l 5349 11658 l 5366 11658 l
 5366 11679 l 5383 11679 l 5383 11700 l 5399 11700 l 5399 11725 l
 5416 11725 l 5416 11733 l 5433 11733 l 5433 11754 l 5449 11754 l
 5449 11779 l 5470 11779 l 5470 11800 l 5487 11800 l 5487 11829 l
 5504 11829 l 5504 11845 l 5520 11845 l 5520 11879 l 5537 11879 l
 5537 11895 l 5554 11895 l 5554 11925 l 5570 11925 l 5570 11945 l
 5587 11945 l 5587 11970 l 5604 11970 l 5604 12004 l 5620 12004 l
 5620 12045 l 5637 12045 l 5637 12079 l 5654 12079 l 5654 12116 l
 5670 12116 l 5670 12150 l 5687 12150 l 5687 12166 l 5704 12166 l
 5704 12229 l 5720 12229 l 5720 12262 l 5737 12262 l 5737 12304 l
 5758 12304 l 5758 12341 l 5774 12341 l 5774 12408 l 5791 12408 l
 5791 12450 l 5808 12450 l 5808 12508 l 5824 12508 l 5824 12562 l
 5841 12562 l 5841 12612 l 5858 12612 l 5858 12654 l 5874 12654 l
 5874 12704 l 5891 12704 l 5891 12825 l 5908 12825 l
 5908 12850 l gs col2 1.00 shd ef gr 
% here ends figure;
% 
% here starts figure with depth 705
%  polyline 
% Polyline
0 slj
0 slc
7.500 slw
n 3541 12850 m 3591 12850 l 3591 10408 l 3608 10408 l 3608 10345 l 3641 10345 l
 3641 10358 l 3658 10358 l 3658 10375 l 3674 10375 l 3674 10395 l
 3691 10395 l 3691 10412 l 3708 10412 l 3708 10433 l 3724 10433 l
 3724 10450 l 3741 10450 l 3741 10466 l 3758 10466 l 3758 10483 l
 3774 10483 l 3774 10500 l 3795 10500 l 3795 10516 l 3812 10516 l
 3812 10533 l 3829 10533 l 3829 10550 l 3845 10550 l 3845 10562 l
 3862 10562 l 3862 10579 l 3879 10579 l 3879 10591 l 3895 10591 l
 3895 10608 l 3912 10608 l 3912 10620 l 3929 10620 l 3929 10633 l
 3945 10633 l 3945 10645 l 3962 10645 l 3962 10658 l 3979 10658 l
 3979 10670 l 3995 10670 l 3995 10683 l 4012 10683 l 4012 10695 l
 4029 10695 l 4029 10708 l 4045 10708 l 4045 10720 l 4066 10720 l
 4066 10733 l 4083 10733 l 4083 10745 l 4099 10745 l 4099 10758 l
 4116 10758 l 4116 10770 l 4133 10770 l 4133 10779 l 4149 10779 l
 4149 10791 l 4166 10791 l 4166 10804 l 4183 10804 l 4183 10812 l
 4199 10812 l 4199 10825 l 4216 10825 l 4216 10837 l 4233 10837 l
 4233 10845 l 4249 10845 l 4249 10858 l 4266 10858 l 4266 10870 l
 4283 10870 l 4283 10879 l 4299 10879 l 4299 10891 l 4316 10891 l
 4316 10904 l 4333 10904 l 4333 10912 l 4354 10912 l 4354 10920 l
 4370 10920 l 4370 10933 l 4387 10933 l 4387 10945 l 4404 10945 l
 4404 10954 l 4420 10954 l 4420 10966 l 4437 10966 l 4437 10975 l
 4454 10975 l 4454 10987 l 4470 10987 l 4470 11000 l 4487 11000 l
 4487 11008 l 4504 11008 l 4504 11016 l 4520 11016 l 4520 11029 l
 4537 11029 l 4537 11037 l 4554 11037 l 4554 11050 l 4570 11050 l
 4570 11062 l 4587 11062 l 4587 11070 l 4604 11070 l 4604 11083 l
 4620 11083 l 4620 11091 l 4641 11091 l 4641 11104 l 4658 11104 l
 4658 11116 l 4674 11116 l 4674 11125 l 4691 11125 l 4691 11137 l
 4708 11137 l 4708 11145 l 4724 11145 l 4724 11158 l 4741 11158 l
 4741 11166 l 4758 11166 l 4758 11183 l 4774 11183 l 4774 11191 l
 4791 11191 l 4791 11204 l 4808 11204 l 4808 11216 l 4824 11216 l
 4824 11225 l 4841 11225 l 4841 11237 l 4858 11237 l 4858 11250 l
 4874 11250 l 4874 11262 l 4891 11262 l 4891 11275 l 4912 11275 l
 4912 11287 l 4929 11287 l 4929 11295 l 4945 11295 l 4945 11304 l
 4962 11304 l 4962 11320 l 4979 11320 l 4979 11337 l 4995 11337 l
 4995 11350 l 5012 11350 l 5012 11362 l 5029 11362 l 5029 11375 l
 5045 11375 l 5045 11383 l 5062 11383 l 5062 11400 l 5095 11400 l
 5095 11420 l 5112 11420 l 5112 11441 l 5129 11441 l 5129 11458 l
 5145 11458 l 5145 11470 l 5162 11470 l 5162 11487 l 5179 11487 l
 5179 11491 l 5199 11491 l 5199 11516 l 5216 11516 l 5216 11533 l
 5233 11533 l 5233 11550 l 5249 11550 l 5249 11558 l 5266 11558 l
 5266 11575 l 5283 11575 l 5283 11587 l 5299 11587 l 5299 11608 l
 5316 11608 l 5316 11625 l 5349 11625 l 5349 11658 l 5366 11658 l
 5366 11679 l 5383 11679 l 5383 11700 l 5399 11700 l 5399 11725 l
 5416 11725 l 5416 11733 l 5433 11733 l 5433 11754 l 5449 11754 l
 5449 11779 l 5470 11779 l 5470 11800 l 5487 11800 l 5487 11829 l
 5504 11829 l 5504 11845 l 5520 11845 l 5520 11879 l 5537 11879 l
 5537 11895 l 5554 11895 l 5554 11925 l 5570 11925 l 5570 11945 l
 5587 11945 l 5587 11970 l 5604 11970 l 5604 12004 l 5620 12004 l
 5620 12045 l 5637 12045 l 5637 12079 l 5654 12079 l 5654 12116 l
 5670 12116 l 5670 12150 l 5687 12150 l 5687 12166 l 5704 12166 l
 5704 12229 l 5720 12229 l 5720 12262 l 5737 12262 l 5737 12304 l
 5758 12304 l 5758 12341 l 5774 12341 l 5774 12408 l 5791 12408 l
 5791 12450 l 5808 12450 l 5808 12508 l 5824 12508 l 5824 12562 l
 5841 12562 l 5841 12612 l 5858 12612 l 5858 12654 l 5874 12654 l
 5874 12704 l 5891 12704 l 5891 12825 l
 5908 12825 l gs col0 s gr 
%  polyline 
% Polyline
n 3541 12850 m
 5908 12850 l gs col0 s gr 
%  polyline 
% Polyline
n 3541 12775 m
 3541 12850 l gs col0 s gr 
% here ends figure;
% 
% here starts figure with depth 701
%  polyline 
% Polyline
0 slj
0 slc
7.500 slw
n 3624 12812 m
 3624 12850 l gs col0 s gr 
%  polyline 
% Polyline
n 3708 12812 m
 3708 12850 l gs col0 s gr 
%  polyline 
% Polyline
n 3795 12812 m
 3795 12850 l gs col0 s gr 
%  polyline 
% Polyline
n 3879 12775 m
 3879 12850 l gs col0 s gr 
%  polyline 
% Polyline
n 3962 12812 m
 3962 12850 l gs col0 s gr 
%  polyline 
% Polyline
n 4045 12812 m
 4045 12850 l gs col0 s gr 
%  polyline 
% Polyline
n 4133 12812 m
 4133 12850 l gs col0 s gr 
%  polyline 
% Polyline
n 4216 12775 m
 4216 12850 l gs col0 s gr 
%  polyline 
% Polyline
n 4299 12812 m
 4299 12850 l gs col0 s gr 
%  polyline 
% Polyline
n 4387 12812 m
 4387 12850 l gs col0 s gr 
%  polyline 
% Polyline
n 4470 12812 m
 4470 12850 l gs col0 s gr 
%  polyline 
% Polyline
n 4554 12775 m
 4554 12850 l gs col0 s gr 
%  polyline 
% Polyline
n 4641 12812 m
 4641 12850 l gs col0 s gr 
%  polyline 
% Polyline
n 4724 12812 m
 4724 12850 l gs col0 s gr 
%  polyline 
% Polyline
n 4808 12812 m
 4808 12850 l gs col0 s gr 
%  polyline 
% Polyline
n 4891 12775 m
 4891 12850 l gs col0 s gr 
%  polyline 
% Polyline
n 4979 12812 m
 4979 12850 l gs col0 s gr 
%  polyline 
% Polyline
n 5062 12812 m
 5062 12850 l gs col0 s gr 
%  polyline 
% Polyline
n 5145 12812 m
 5145 12850 l gs col0 s gr 
%  polyline 
% Polyline
n 5233 12775 m
 5233 12850 l gs col0 s gr 
%  polyline 
% Polyline
n 5316 12812 m
 5316 12850 l gs col0 s gr 
%  polyline 
% Polyline
n 5399 12812 m
 5399 12850 l gs col0 s gr 
%  polyline 
% Polyline
n 5487 12812 m
 5487 12850 l gs col0 s gr 
%  polyline 
% Polyline
n 5570 12775 m
 5570 12850 l gs col0 s gr 
%  polyline 
% Polyline
n 5654 12812 m
 5654 12850 l gs col0 s gr 
%  polyline 
% Polyline
n 5737 12812 m
 5737 12850 l gs col0 s gr 
%  polyline 
% Polyline
n 5824 12812 m
 5824 12850 l gs col0 s gr 
%  polyline 
% Polyline
n 5908 12775 m
 5908 12850 l gs col0 s gr 
% here ends figure;
% 
% here starts figure with depth 672
%  text 
/Helvetica-Bold-iso ff 116.67 scf sf
3499 12962 m
gs 1 -1 sc (0) col0 sh gr
%  text 
/Helvetica-Bold-iso ff 116.67 scf sf
3749 12962 m
gs 1 -1 sc (2000) col0 sh gr
% here ends figure;
% 
% here starts figure with depth 669
%  text 
/Helvetica-Bold-iso ff 116.67 scf sf
4095 12962 m
gs 1 -1 sc (4000) col0 sh gr
% here ends figure;
% 
% here starts figure with depth 667
%  text 
/Helvetica-Bold-iso ff 116.67 scf sf
4429 12962 m
gs 1 -1 sc (6000) col0 sh gr
% here ends figure;
% 
% here starts figure with depth 665
%  text 
/Helvetica-Bold-iso ff 116.67 scf sf
4770 12962 m
gs 1 -1 sc (8000) col0 sh gr
% here ends figure;
% 
% here starts figure with depth 663
%  text 
/Helvetica-Bold-iso ff 116.67 scf sf
5066 12962 m
gs 1 -1 sc (10000) col0 sh gr
% here ends figure;
% 
% here starts figure with depth 661
%  text 
/Helvetica-Bold-iso ff 116.67 scf sf
5412 12962 m
gs 1 -1 sc (12000) col0 sh gr
% here ends figure;
% 
% here starts figure with depth 659
%  text 
/Helvetica-Bold-iso ff 116.67 scf sf
5745 12962 m
gs 1 -1 sc (14000) col0 sh gr
%  polyline 
% Polyline
0 slj
0 slc
7.500 slw
n 3541 12850 m
 3541 10320 l gs col0 s gr 
% here ends figure;
% 
% here starts figure with depth 656
%  polyline 
% Polyline
0 slj
0 slc
7.500 slw
n 3574 12833 m
 3541 12833 l gs col0 s gr 
%  polyline 
% Polyline
n 3612 12808 m
 3541 12808 l gs col0 s gr 
%  polyline 
% Polyline
n 3574 12745 m
 3541 12745 l gs col0 s gr 
%  polyline 
% Polyline
n 3612 12716 m
 3541 12716 l gs col0 s gr 
%  text 
/Helvetica-Bold-iso ff 83.33 scf sf
3408 12712 m
gs 1 -1 sc (-27) col0 sh gr
% here ends figure;
% 
% here starts figure with depth 650
%  text 
/Helvetica-Bold-iso ff 116.67 scf sf
3287 12770 m
gs 1 -1 sc (10) col0 sh gr
% here ends figure;
% 
% here starts figure with depth 648
%  polyline 
% Polyline
0 slj
0 slc
7.500 slw
n 3574 12654 m
 3541 12654 l gs col0 s gr 
%  polyline 
% Polyline
n 3612 12625 m
 3541 12625 l gs col0 s gr 
%  polyline 
% Polyline
n 3574 12562 m
 3541 12562 l gs col0 s gr 
%  polyline 
% Polyline
n 3612 12537 m
 3541 12537 l gs col0 s gr 
%  polyline 
% Polyline
n 3574 12475 m
 3541 12475 l gs col0 s gr 
%  polyline 
% Polyline
n 3612 12445 m
 3541 12445 l gs col0 s gr 
%  text 
/Helvetica-Bold-iso ff 83.33 scf sf
3408 12441 m
gs 1 -1 sc (-24) col0 sh gr
% here ends figure;
% 
% here starts figure with depth 640
%  text 
/Helvetica-Bold-iso ff 116.67 scf sf
3287 12500 m
gs 1 -1 sc (10) col0 sh gr
% here ends figure;
% 
% here starts figure with depth 638
%  polyline 
% Polyline
0 slj
0 slc
7.500 slw
n 3574 12383 m
 3541 12383 l gs col0 s gr 
%  polyline 
% Polyline
n 3612 12354 m
 3541 12354 l gs col0 s gr 
%  polyline 
% Polyline
n 3574 12291 m
 3541 12291 l gs col0 s gr 
%  polyline 
% Polyline
n 3612 12266 m
 3541 12266 l gs col0 s gr 
%  polyline 
% Polyline
n 3574 12204 m
 3541 12204 l gs col0 s gr 
%  polyline 
% Polyline
n 3612 12175 m
 3541 12175 l gs col0 s gr 
%  text 
/Helvetica-Bold-iso ff 83.33 scf sf
3416 12166 m
gs 1 -1 sc (-21) col0 sh gr
% here ends figure;
% 
% here starts figure with depth 630
%  text 
/Helvetica-Bold-iso ff 116.67 scf sf
3299 12225 m
gs 1 -1 sc (10) col0 sh gr
% here ends figure;
% 
% here starts figure with depth 628
%  polyline 
% Polyline
0 slj
0 slc
7.500 slw
n 3574 12112 m
 3541 12112 l gs col0 s gr 
%  polyline 
% Polyline
n 3612 12087 m
 3541 12087 l gs col0 s gr 
%  polyline 
% Polyline
n 3574 12020 m
 3541 12020 l gs col0 s gr 
%  polyline 
% Polyline
n 3612 11995 m
 3541 11995 l gs col0 s gr 
%  polyline 
% Polyline
n 3574 11933 m
 3541 11933 l gs col0 s gr 
%  polyline 
% Polyline
n 3612 11904 m
 3541 11904 l gs col0 s gr 
%  text 
/Helvetica-Bold-iso ff 83.33 scf sf
3408 11883 m
gs 1 -1 sc (-18) col0 sh gr
% here ends figure;
% 
% here starts figure with depth 620
%  text 
/Helvetica-Bold-iso ff 116.67 scf sf
3287 11954 m
gs 1 -1 sc (10) col0 sh gr
% here ends figure;
% 
% here starts figure with depth 618
%  polyline 
% Polyline
0 slj
0 slc
7.500 slw
n 3574 11841 m
 3541 11841 l gs col0 s gr 
%  polyline 
% Polyline
n 3612 11816 m
 3541 11816 l gs col0 s gr 
%  polyline 
% Polyline
n 3574 11754 m
 3541 11754 l gs col0 s gr 
%  polyline 
% Polyline
n 3612 11725 m
 3541 11725 l gs col0 s gr 
%  polyline 
% Polyline
n 3574 11662 m
 3541 11662 l gs col0 s gr 
%  polyline 
% Polyline
n 3612 11633 m
 3541 11633 l gs col0 s gr 
%  text 
/Helvetica-Bold-iso ff 83.33 scf sf
3408 11620 m
gs 1 -1 sc (-15) col0 sh gr
% here ends figure;
% 
% here starts figure with depth 610
%  text 
/Helvetica-Bold-iso ff 116.67 scf sf
3287 11691 m
gs 1 -1 sc (10) col0 sh gr
% here ends figure;
% 
% here starts figure with depth 608
%  polyline 
% Polyline
0 slj
0 slc
7.500 slw
n 3574 11570 m
 3541 11570 l gs col0 s gr 
%  polyline 
% Polyline
n 3612 11545 m
 3541 11545 l gs col0 s gr 
%  polyline 
% Polyline
n 3574 11483 m
 3541 11483 l gs col0 s gr 
%  polyline 
% Polyline
n 3612 11454 m
 3541 11454 l gs col0 s gr 
%  polyline 
% Polyline
n 3574 11391 m
 3541 11391 l gs col0 s gr 
%  polyline 
% Polyline
n 3612 11362 m
 3541 11362 l gs col0 s gr 
%  text 
/Helvetica-Bold-iso ff 83.33 scf sf
3408 11358 m
gs 1 -1 sc (-12) col0 sh gr
% here ends figure;
% 
% here starts figure with depth 600
%  text 
/Helvetica-Bold-iso ff 116.67 scf sf
3287 11420 m
gs 1 -1 sc (10) col0 sh gr
% here ends figure;
% 
% here starts figure with depth 598
%  polyline 
% Polyline
0 slj
0 slc
7.500 slw
n 3574 11300 m
 3541 11300 l gs col0 s gr 
%  polyline 
% Polyline
n 3612 11275 m
 3541 11275 l gs col0 s gr 
%  polyline 
% Polyline
n 3574 11212 m
 3541 11212 l gs col0 s gr 
%  polyline 
% Polyline
n 3612 11183 m
 3541 11183 l gs col0 s gr 
%  polyline 
% Polyline
n 3574 11120 m
 3541 11120 l gs col0 s gr 
%  polyline 
% Polyline
n 3612 11091 m
 3541 11091 l gs col0 s gr 
%  text 
/Helvetica-Bold-iso ff 83.33 scf sf
3441 11075 m
gs 1 -1 sc (-9) col0 sh gr
% here ends figure;
% 
% here starts figure with depth 590
%  text 
/Helvetica-Bold-iso ff 116.67 scf sf
3324 11145 m
gs 1 -1 sc (10) col0 sh gr
% here ends figure;
% 
% here starts figure with depth 588
%  polyline 
% Polyline
0 slj
0 slc
7.500 slw
n 3574 11029 m
 3541 11029 l gs col0 s gr 
%  polyline 
% Polyline
n 3612 11004 m
 3541 11004 l gs col0 s gr 
%  polyline 
% Polyline
n 3574 10941 m
 3541 10941 l gs col0 s gr 
%  polyline 
% Polyline
n 3612 10912 m
 3541 10912 l gs col0 s gr 
%  polyline 
% Polyline
n 3574 10850 m
 3541 10850 l gs col0 s gr 
%  polyline 
% Polyline
n 3612 10825 m
 3541 10825 l gs col0 s gr 
%  text 
/Helvetica-Bold-iso ff 83.33 scf sf
3441 10804 m
gs 1 -1 sc (-6) col0 sh gr
% here ends figure;
% 
% here starts figure with depth 580
%  text 
/Helvetica-Bold-iso ff 116.67 scf sf
3324 10875 m
gs 1 -1 sc (10) col0 sh gr
% here ends figure;
% 
% here starts figure with depth 578
%  polyline 
% Polyline
0 slj
0 slc
7.500 slw
n 3574 10758 m
 3541 10758 l gs col0 s gr 
%  polyline 
% Polyline
n 3612 10733 m
 3541 10733 l gs col0 s gr 
%  polyline 
% Polyline
n 3574 10670 m
 3541 10670 l gs col0 s gr 
%  polyline 
% Polyline
n 3612 10641 m
 3541 10641 l gs col0 s gr 
%  polyline 
% Polyline
n 3574 10579 m
 3541 10579 l gs col0 s gr 
%  polyline 
% Polyline
n 3612 10554 m
 3541 10554 l gs col0 s gr 
%  text 
/Helvetica-Bold-iso ff 83.33 scf sf
3441 10529 m
gs 1 -1 sc (-3) col0 sh gr
% here ends figure;
% 
% here starts figure with depth 570
%  text 
/Helvetica-Bold-iso ff 116.67 scf sf
3324 10600 m
gs 1 -1 sc (10) col0 sh gr
% here ends figure;
% 
% here starts figure with depth 568
%  polyline 
% Polyline
0 slj
0 slc
7.500 slw
n 3574 10491 m
 3541 10491 l gs col0 s gr 
%  polyline 
% Polyline
n 3612 10462 m
 3541 10462 l gs col0 s gr 
%  polyline 
% Polyline
n 3574 10400 m
 3541 10400 l gs col0 s gr 
%  polyline 
% Polyline
n 3612 10370 m
 3541 10370 l gs col0 s gr 
% here ends figure;
% 
% here starts figure with depth 556
%  polyline 
% Polyline
0 slj
0 slc
0.000 slw
n 6391 13166 m 6391 10004 l 9354 10004 l 9354 13166 l
 6391 13166 l  cp gs col32 1.00 shd ef gr 
% here ends figure;
% 
% here starts figure with depth 554
%  polyline 
% Polyline
0 slj
0 slc
0.000 slw
n 6391 13166 m 6424 13133 l 6424 10037 l 9320 10037 l 9354 10004 l 6391 10004 l

 6391 13166 l  cp gs col7 1.00 shd ef gr 
% here ends figure;
% 
% here starts figure with depth 552
%  polyline 
% Polyline
0 slj
0 slc
0.000 slw
n 6391 13166 m 6424 13133 l 9320 13133 l 9320 10037 l 9354 10004 l 9354 13166 l

 6391 13166 l  cp gs col33 1.00 shd ef gr 
% here ends figure;
% 
% here starts figure with depth 546
%  polyline 
% Polyline
0 slj
0 slc
0.000 slw
n 6691 12850 m 6708 12833 l 9041 12833 l 9041 10337 l 9058 10320 l 9058 12850 l

 6691 12850 l  cp gs col33 1.00 shd ef gr 
% here ends figure;
% 
% here starts figure with depth 538
%  polyline 
% Polyline
0 slj
0 slc
0.000 slw
n 6691 12850 m 6708 12833 l 9041 12833 l 9041 10337 l 9058 10320 l 9058 12850 l

 6691 12850 l  cp gs col33 1.00 shd ef gr 
% here ends figure;
% 
% here starts figure with depth 536
%  polyline 
% Polyline
0 slj
0 slc
7.500 slw
n 6691 12850 m 6691 10320 l 9058 10320 l 9058 12850 l
 6691 12850 l  cp gs col0 s gr 
% here ends figure;
% 
% here starts figure with depth 534
%  polyline 
% Polyline
0 slj
0 slc
0.000 slw
n 6691 12850 m 7066 12850 l 7066 10441 l 7083 10441 l 7083 10608 l 7099 10608 l
 7099 10733 l 7116 10733 l 7116 10858 l 7133 10858 l 7133 10975 l
 7145 10975 l 7145 11100 l 7162 11100 l 7162 11195 l 7179 11195 l
 7179 11270 l 7195 11270 l 7195 11375 l 7212 11375 l 7212 11441 l
 7224 11441 l 7224 11512 l 7241 11512 l 7241 11570 l 7258 11570 l
 7258 11629 l 7274 11629 l 7274 11691 l 7291 11691 l 7291 11737 l
 7304 11737 l 7304 11791 l 7320 11791 l 7320 11833 l 7337 11833 l
 7337 11879 l 7354 11879 l 7354 11933 l 7366 11933 l 7366 11966 l
 7383 11966 l 7383 12000 l 7399 12000 l 7399 12033 l 7416 12033 l
 7416 12066 l 7433 12066 l 7433 12104 l 7445 12104 l 7445 12133 l
 7462 12133 l 7462 12158 l 7479 12158 l 7479 12187 l 7495 12187 l
 7495 12220 l 7512 12220 l 7512 12233 l 7524 12233 l 7524 12258 l
 7541 12258 l 7541 12283 l 7558 12283 l 7558 12304 l 7574 12304 l
 7574 12325 l 7591 12325 l 7591 12345 l 7604 12345 l 7604 12366 l
 7620 12366 l 7620 12387 l 7637 12387 l 7637 12408 l 7654 12408 l
 7654 12425 l 7666 12425 l 7666 12441 l 7683 12441 l 7683 12458 l
 7699 12458 l 7699 12475 l 7716 12475 l 7716 12487 l 7733 12487 l
 7733 12504 l 7745 12504 l 7745 12520 l 7762 12520 l 7762 12537 l
 7779 12537 l 7779 12550 l 7795 12550 l 7795 12562 l 7812 12562 l
 7812 12579 l 7824 12579 l 7824 12587 l 7841 12587 l 7841 12604 l
 7858 12604 l 7858 12612 l 7874 12612 l 7874 12625 l 7891 12625 l
 7891 12637 l 7904 12637 l 7904 12650 l 7920 12650 l 7920 12658 l
 7937 12658 l 7937 12670 l 7954 12670 l 7954 12683 l 7970 12683 l
 7970 12691 l 7983 12691 l 7983 12700 l 7999 12700 l 7999 12708 l
 8016 12708 l 8016 12716 l 8033 12716 l 8033 12725 l 8045 12725 l
 8045 12737 l 8062 12737 l 8062 12741 l 8079 12741 l 8079 12750 l
 8095 12750 l 8095 12758 l 8112 12758 l 8112 12762 l 8124 12762 l
 8124 12770 l 8141 12770 l 8141 12775 l 8158 12775 l 8158 12779 l
 8174 12779 l 8174 12787 l 8191 12787 l 8191 12791 l 8204 12791 l
 8204 12795 l 8220 12795 l 8220 12800 l 8237 12800 l 8237 12804 l
 8254 12804 l 8254 12808 l 8270 12808 l 8270 12812 l 8283 12812 l
 8283 12816 l 8316 12816 l 8316 12820 l 8333 12820 l 8333 12825 l
 8362 12825 l 8362 12829 l 8379 12829 l 8379 12833 l 8424 12833 l
 8424 12837 l 8474 12837 l 8474 12841 l 8520 12841 l 8520 12845 l
 8616 12845 l 8616 12850 l
 9058 12850 l gs col2 1.00 shd ef gr 
% here ends figure;
% 
% here starts figure with depth 532
%  polyline 
% Polyline
0 slj
0 slc
7.500 slw
n 6691 12850 m 7066 12850 l 7066 10441 l 7083 10441 l 7083 10608 l 7099 10608 l
 7099 10733 l 7116 10733 l 7116 10858 l 7133 10858 l 7133 10975 l
 7145 10975 l 7145 11100 l 7162 11100 l 7162 11195 l 7179 11195 l
 7179 11270 l 7195 11270 l 7195 11375 l 7212 11375 l 7212 11441 l
 7224 11441 l 7224 11512 l 7241 11512 l 7241 11570 l 7258 11570 l
 7258 11629 l 7274 11629 l 7274 11691 l 7291 11691 l 7291 11737 l
 7304 11737 l 7304 11791 l 7320 11791 l 7320 11833 l 7337 11833 l
 7337 11879 l 7354 11879 l 7354 11933 l 7366 11933 l 7366 11966 l
 7383 11966 l 7383 12000 l 7399 12000 l 7399 12033 l 7416 12033 l
 7416 12066 l 7433 12066 l 7433 12104 l 7445 12104 l 7445 12133 l
 7462 12133 l 7462 12158 l 7479 12158 l 7479 12187 l 7495 12187 l
 7495 12220 l 7512 12220 l 7512 12233 l 7524 12233 l 7524 12258 l
 7541 12258 l 7541 12283 l 7558 12283 l 7558 12304 l 7574 12304 l
 7574 12325 l 7591 12325 l 7591 12345 l 7604 12345 l 7604 12366 l
 7620 12366 l 7620 12387 l 7637 12387 l 7637 12408 l 7654 12408 l
 7654 12425 l 7666 12425 l 7666 12441 l 7683 12441 l 7683 12458 l
 7699 12458 l 7699 12475 l 7716 12475 l 7716 12487 l 7733 12487 l
 7733 12504 l 7745 12504 l 7745 12520 l 7762 12520 l 7762 12537 l
 7779 12537 l 7779 12550 l 7795 12550 l 7795 12562 l 7812 12562 l
 7812 12579 l 7824 12579 l 7824 12587 l 7841 12587 l 7841 12604 l
 7858 12604 l 7858 12612 l 7874 12612 l 7874 12625 l 7891 12625 l
 7891 12637 l 7904 12637 l 7904 12650 l 7920 12650 l 7920 12658 l
 7937 12658 l 7937 12670 l 7954 12670 l 7954 12683 l 7970 12683 l
 7970 12691 l 7983 12691 l 7983 12700 l 7999 12700 l 7999 12708 l
 8016 12708 l 8016 12716 l 8033 12716 l 8033 12725 l 8045 12725 l
 8045 12737 l 8062 12737 l 8062 12741 l 8079 12741 l 8079 12750 l
 8095 12750 l 8095 12758 l 8112 12758 l 8112 12762 l 8124 12762 l
 8124 12770 l 8141 12770 l 8141 12775 l 8158 12775 l 8158 12779 l
 8174 12779 l 8174 12787 l 8191 12787 l 8191 12791 l 8204 12791 l
 8204 12795 l 8220 12795 l 8220 12800 l 8237 12800 l 8237 12804 l
 8254 12804 l 8254 12808 l 8270 12808 l 8270 12812 l 8283 12812 l
 8283 12816 l 8316 12816 l 8316 12820 l 8333 12820 l 8333 12825 l
 8362 12825 l 8362 12829 l 8379 12829 l 8379 12833 l 8424 12833 l
 8424 12837 l 8474 12837 l 8474 12841 l 8520 12841 l 8520 12845 l
 8616 12845 l 8616 12850 l
 9058 12850 l gs col0 s gr 
%  polyline 
% Polyline
n 6691 12850 m
 9058 12850 l gs col0 s gr 
%  polyline 
% Polyline
n 6691 12775 m
 6691 12850 l gs col0 s gr 
% here ends figure;
% 
% here starts figure with depth 528
%  polyline 
% Polyline
0 slj
0 slc
7.500 slw
n 6783 12812 m
 6783 12850 l gs col0 s gr 
%  polyline 
% Polyline
n 6879 12812 m
 6879 12850 l gs col0 s gr 
%  polyline 
% Polyline
n 6974 12812 m
 6974 12850 l gs col0 s gr 
%  polyline 
% Polyline
n 7066 12812 m
 7066 12850 l gs col0 s gr 
%  polyline 
% Polyline
n 7162 12775 m
 7162 12850 l gs col0 s gr 
%  polyline 
% Polyline
n 7258 12812 m
 7258 12850 l gs col0 s gr 
%  polyline 
% Polyline
n 7354 12812 m
 7354 12850 l gs col0 s gr 
%  polyline 
% Polyline
n 7445 12812 m
 7445 12850 l gs col0 s gr 
%  polyline 
% Polyline
n 7541 12812 m
 7541 12850 l gs col0 s gr 
%  polyline 
% Polyline
n 7637 12775 m
 7637 12850 l gs col0 s gr 
%  polyline 
% Polyline
n 7733 12812 m
 7733 12850 l gs col0 s gr 
%  polyline 
% Polyline
n 7824 12812 m
 7824 12850 l gs col0 s gr 
%  polyline 
% Polyline
n 7920 12812 m
 7920 12850 l gs col0 s gr 
%  polyline 
% Polyline
n 8016 12812 m
 8016 12850 l gs col0 s gr 
%  polyline 
% Polyline
n 8112 12775 m
 8112 12850 l gs col0 s gr 
%  polyline 
% Polyline
n 8204 12812 m
 8204 12850 l gs col0 s gr 
%  polyline 
% Polyline
n 8299 12812 m
 8299 12850 l gs col0 s gr 
%  polyline 
% Polyline
n 8395 12812 m
 8395 12850 l gs col0 s gr 
%  polyline 
% Polyline
n 8491 12812 m
 8491 12850 l gs col0 s gr 
%  polyline 
% Polyline
n 8583 12775 m
 8583 12850 l gs col0 s gr 
%  polyline 
% Polyline
n 8679 12812 m
 8679 12850 l gs col0 s gr 
%  polyline 
% Polyline
n 8774 12812 m
 8774 12850 l gs col0 s gr 
%  polyline 
% Polyline
n 8870 12812 m
 8870 12850 l gs col0 s gr 
%  polyline 
% Polyline
n 8962 12812 m
 8962 12850 l gs col0 s gr 
%  polyline 
% Polyline
n 9058 12775 m
 9058 12850 l gs col0 s gr 
%  text 
/Helvetica-Bold-iso ff 116.67 scf sf
6645 12962 m
gs 1 -1 sc (0) col0 sh gr
% here ends figure;
% 
% here starts figure with depth 501
%  text 
/Helvetica-Bold-iso ff 116.67 scf sf
7074 12962 m
gs 1 -1 sc (0.5) col0 sh gr
%  text 
/Helvetica-Bold-iso ff 116.67 scf sf
7608 12962 m
gs 1 -1 sc (1) col0 sh gr
%  text 
/Helvetica-Bold-iso ff 116.67 scf sf
8024 12962 m
gs 1 -1 sc (1.5) col0 sh gr
%  text 
/Helvetica-Bold-iso ff 116.67 scf sf
8545 12962 m
gs 1 -1 sc (2) col0 sh gr
%  text 
/Helvetica-Bold-iso ff 116.67 scf sf
8974 12962 m
gs 1 -1 sc (2.5) col0 sh gr
%  polyline 
% Polyline
0 slj
0 slc
7.500 slw
n 6691 12850 m
 6691 10320 l gs col0 s gr 
% here ends figure;
% 
% here starts figure with depth 494
%  polyline 
% Polyline
0 slj
0 slc
7.500 slw
n 6762 12850 m
 6691 12850 l gs col0 s gr 
%  polyline 
% Polyline
n 6724 12800 m
 6691 12800 l gs col0 s gr 
%  polyline 
% Polyline
n 6724 12750 m
 6691 12750 l gs col0 s gr 
%  polyline 
% Polyline
n 6724 12695 m
 6691 12695 l gs col0 s gr 
%  polyline 
% Polyline
n 6724 12645 m
 6691 12645 l gs col0 s gr 
%  polyline 
% Polyline
n 6762 12595 m
 6691 12595 l gs col0 s gr 
%  polyline 
% Polyline
n 6724 12541 m
 6691 12541 l gs col0 s gr 
%  polyline 
% Polyline
n 6724 12491 m
 6691 12491 l gs col0 s gr 
%  polyline 
% Polyline
n 6724 12441 m
 6691 12441 l gs col0 s gr 
%  polyline 
% Polyline
n 6724 12387 m
 6691 12387 l gs col0 s gr 
%  polyline 
% Polyline
n 6762 12337 m
 6691 12337 l gs col0 s gr 
%  polyline 
% Polyline
n 6724 12287 m
 6691 12287 l gs col0 s gr 
%  polyline 
% Polyline
n 6724 12233 m
 6691 12233 l gs col0 s gr 
%  polyline 
% Polyline
n 6724 12183 m
 6691 12183 l gs col0 s gr 
%  polyline 
% Polyline
n 6724 12129 m
 6691 12129 l gs col0 s gr 
%  polyline 
% Polyline
n 6762 12079 m
 6691 12079 l gs col0 s gr 
%  polyline 
% Polyline
n 6724 12029 m
 6691 12029 l gs col0 s gr 
%  polyline 
% Polyline
n 6724 11975 m
 6691 11975 l gs col0 s gr 
%  polyline 
% Polyline
n 6724 11925 m
 6691 11925 l gs col0 s gr 
%  polyline 
% Polyline
n 6724 11875 m
 6691 11875 l gs col0 s gr 
%  polyline 
% Polyline
n 6762 11820 m
 6691 11820 l gs col0 s gr 
%  polyline 
% Polyline
n 6724 11770 m
 6691 11770 l gs col0 s gr 
%  polyline 
% Polyline
n 6724 11720 m
 6691 11720 l gs col0 s gr 
%  polyline 
% Polyline
n 6724 11666 m
 6691 11666 l gs col0 s gr 
%  polyline 
% Polyline
n 6724 11616 m
 6691 11616 l gs col0 s gr 
%  polyline 
% Polyline
n 6762 11566 m
 6691 11566 l gs col0 s gr 
%  polyline 
% Polyline
n 6724 11512 m
 6691 11512 l gs col0 s gr 
%  polyline 
% Polyline
n 6724 11462 m
 6691 11462 l gs col0 s gr 
%  polyline 
% Polyline
n 6724 11412 m
 6691 11412 l gs col0 s gr 
%  polyline 
% Polyline
n 6724 11358 m
 6691 11358 l gs col0 s gr 
%  polyline 
% Polyline
n 6762 11308 m
 6691 11308 l gs col0 s gr 
%  polyline 
% Polyline
n 6724 11258 m
 6691 11258 l gs col0 s gr 
%  polyline 
% Polyline
n 6724 11204 m
 6691 11204 l gs col0 s gr 
%  polyline 
% Polyline
n 6724 11154 m
 6691 11154 l gs col0 s gr 
%  polyline 
% Polyline
n 6724 11104 m
 6691 11104 l gs col0 s gr 
%  polyline 
% Polyline
n 6762 11050 m
 6691 11050 l gs col0 s gr 
%  polyline 
% Polyline
n 6724 11000 m
 6691 11000 l gs col0 s gr 
%  polyline 
% Polyline
n 6724 10950 m
 6691 10950 l gs col0 s gr 
%  polyline 
% Polyline
n 6724 10895 m
 6691 10895 l gs col0 s gr 
%  polyline 
% Polyline
n 6724 10845 m
 6691 10845 l gs col0 s gr 
%  polyline 
% Polyline
n 6762 10791 m
 6691 10791 l gs col0 s gr 
%  polyline 
% Polyline
n 6724 10741 m
 6691 10741 l gs col0 s gr 
%  polyline 
% Polyline
n 6724 10691 m
 6691 10691 l gs col0 s gr 
%  polyline 
% Polyline
n 6724 10637 m
 6691 10637 l gs col0 s gr 
%  polyline 
% Polyline
n 6724 10587 m
 6691 10587 l gs col0 s gr 
%  polyline 
% Polyline
n 6762 10537 m
 6691 10537 l gs col0 s gr 
%  polyline 
% Polyline
n 6762 10537 m
 6691 10537 l gs col0 s gr 
%  polyline 
% Polyline
n 6724 10483 m
 6691 10483 l gs col0 s gr 
%  polyline 
% Polyline
n 6724 10433 m
 6691 10433 l gs col0 s gr 
%  polyline 
% Polyline
n 6724 10383 m
 6691 10383 l gs col0 s gr 
%  polyline 
% Polyline
n 6724 10329 m
 6691 10329 l gs col0 s gr 
% here ends figure;
% 
% here starts figure with depth 442
%  text 
/Helvetica-Bold-iso ff 116.67 scf sf
6612 12891 m
gs 1 -1 sc (0) col0 sh gr
%  text 
/Helvetica-Bold-iso ff 116.67 scf sf
6399 12629 m
gs 1 -1 sc (0.005) col0 sh gr
%  text 
/Helvetica-Bold-iso ff 116.67 scf sf
6470 12379 m
gs 1 -1 sc (0.01) col0 sh gr
%  text 
/Helvetica-Bold-iso ff 116.67 scf sf
6399 12120 m
gs 1 -1 sc (0.015) col0 sh gr
%  text 
/Helvetica-Bold-iso ff 116.67 scf sf
6458 11858 m
gs 1 -1 sc (0.02) col0 sh gr
%  text 
/Helvetica-Bold-iso ff 116.67 scf sf
6399 11608 m
gs 1 -1 sc (0.025) col0 sh gr
%  text 
/Helvetica-Bold-iso ff 116.67 scf sf
6458 11350 m
gs 1 -1 sc (0.03) col0 sh gr
%  text 
/Helvetica-Bold-iso ff 116.67 scf sf
6399 11087 m
gs 1 -1 sc (0.035) col0 sh gr
%  text 
/Helvetica-Bold-iso ff 116.67 scf sf
6458 10837 m
gs 1 -1 sc (0.04) col0 sh gr
%  text 
/Helvetica-Bold-iso ff 116.67 scf sf
6399 10575 m
gs 1 -1 sc (0.045) col0 sh gr
% here ends figure;
% 
% here starts figure with depth 50
/Helvetica-Bold-iso ff 150.00 scf sf
241 10181 m
gs 1 -1 sc (7g gauge invariance profile: log) col0 sh gr
/Helvetica-Bold-iso ff 116.67 scf sf
2489 10229 m
gs 1 -1 sc (10 ) col0 sh gr
/Helvetica-Bold-iso ff 150.00 scf sf
2632 10181 m
gs 1 -1 sc (R) col0 sh gr
/Helvetica-Bold-iso ff 116.67 scf sf
2744 10236 m
gs 1 -1 sc (GI) col0 sh gr
/Helvetica-Bold-iso ff 150.00 scf sf
3514 10167 m
gs 1 -1 sc (Normalized H) col0 sh gr
/Helvetica-Bold-iso ff 116.67 scf sf
4489 10208 m
gs 1 -1 sc (T) col0 sh gr
/Helvetica-Bold-iso ff 150.00 scf sf
4564 10167 m
gs 1 -1 sc ( distribution for 7g) col0 sh gr
/Helvetica-Bold-iso ff 150.00 scf sf
6599 10182 m
gs 1 -1 sc (Normalized R) col0 sh gr
/Helvetica-Bold-iso ff 116.67 scf sf
7574 10223 m
gs 1 -1 sc (min) col0 sh gr
/Helvetica-Bold-iso ff 150.00 scf sf
7784 10182 m
gs 1 -1 sc ( distribution for 7g) col0 sh gr
/Helvetica-Bold-iso ff 150.00 scf sf
2274 13056 m
gs 1 -1 sc (log) col0 sh gr
/Helvetica-Bold-iso ff 116.67 scf sf
2499 13097 m
gs 1 -1 sc (10) col0 sh gr
/Helvetica-Bold-iso ff 150.00 scf sf
2619 13056 m
gs 1 -1 sc ( W) col0 sh gr
/Helvetica-Bold-iso ff 116.67 scf sf
2799 13097 m
gs 1 -1 sc (ME) col0 sh gr
/Helvetica-Bold-iso ff 150.00 scf sf
5505 13076 m
gs 1 -1 sc (H) col0 sh gr
/Helvetica-Bold-iso ff 116.67 scf sf
5610 13117 m
gs 1 -1 sc (T) col0 sh gr
/Helvetica-Bold-iso ff 150.00 scf sf
5685 13076 m
gs 1 -1 sc ( \(GeV\)) col0 sh gr
/Helvetica-Bold-iso ff 150.00 scf sf
8975 13077 m
gs 1 -1 sc (R) col0 sh gr
/Helvetica-Bold-iso ff 116.67 scf sf
9080 13118 m
gs 1 -1 sc (min) col0 sh gr
% here ends figure;
$F2psEnd
rs
showpage
%%Trailer
%EOF
