%!PS-Adobe-2.0 EPSF-2.0
%%BoundingBox:  0 0 567 194
%%Title: distributions5.eps: Output
%%Creator: ROOT Version 5.26/00
%%CreationDate: Wed Feb 10 01:41:45 2010
%%EndComments
%%BeginProlog
80 dict begin
/s {stroke} def /l {lineto} def /m {moveto} def /t {translate} def
/sw {stringwidth} def /r {rotate} def /rl {roll}  def /R {repeat} def
/d {rlineto} def /rm {rmoveto} def /gr {grestore} def /f {eofill} def
/c {setrgbcolor} def /black {0 setgray} def /sd {setdash} def
/cl {closepath} def /sf {scalefont setfont} def /lw {setlinewidth} def
/box {m dup 0 exch d exch 0 d 0 exch neg d cl} def
/NC{systemdict begin initclip end}def/C{NC box clip newpath}def
/bl {box s} def /bf {box f} def /Y { 0 exch d} def /X { 0 d} def 
/mp {newpath /y exch def /x exch def} def
/side {[w .77 mul w .23 mul] .385 w mul sd w 0 l currentpoint t -144 r} def
/mr {mp x y w2 0 360 arc} def /m24 {mr s} def /m20 {mr f} def
/mb {mp x y w2 add m w2 neg 0 d 0 w neg d w 0 d 0 w d cl} def
/mt {mp x y w2 add m w2 neg w neg d w 0 d cl} def
/m21 {mb f} def /m25 {mb s} def /m22 {mt f} def /m26{mt s} def
/m23 {mp x y w2 sub m w2 w d w neg 0 d cl f} def
/m27 {mp x y w2 add m w3 neg w2 neg d w3 w2 neg d w3 w2 d cl s} def
/m28 {mp x w2 sub y w2 sub w3 add m w3 0 d  0 w3 neg d w3 0 d 0 w3 d w3 0 d  0 w3 d w3 neg 0 d 0 w3 d w3 neg 0 d
 0 w3 neg d w3 neg 0 d cl s } def
/m29 {mp gsave x w2 sub y w2 add w3 sub m currentpoint t
 4 {side} repeat cl fill gr} def
/m30 {mp gsave x w2 sub y w2 add w3 sub m currentpoint t
 4 {side} repeat cl s gr} def
/m31 {mp x y w2 sub m 0 w d x w2 sub y m w 0 d x w2 sub y w2 add m w w neg d x w2 sub y w2
 sub m w w d s} def
/m2 {mp x y w2 sub m 0 w d x w2 sub y m w 0 d s} def
/m5 {mp x w2 sub y w2 sub m w w d x w2 sub y w2 add m w w neg d s} def
/reEncode {exch findfont dup length dict begin {1 index /FID eq  {pop pop} {def} ifelse } forall /Encoding exch def currentdict end dup /FontName get exch definefont pop } def [/Times-Bold /Times-Italic /Times-BoldItalic /Helvetica
 /Helvetica-Oblique /Helvetica-Bold /Helvetica-BoldOblique /Courier /Courier-Oblique /Courier-Bold /Courier-BoldOblique /Times-Roman /AvantGarde-Book /AvantGarde-BookOblique /AvantGarde-Demi /AvantGarde-DemiOblique /Bookman-Demi
 /Bookman-DemiItalic /Bookman-Light /Bookman-LightItalic /Helvetica-Narrow /Helvetica-Narrow-Bold /Helvetica-Narrow-BoldOblique /Helvetica-Narrow-Oblique /NewCenturySchlbk-Roman /NewCenturySchlbk-Bold
 /NewCenturySchlbk-BoldItalic /NewCenturySchlbk-Italic /Palatino-Bold /Palatino-BoldItalic /Palatino-Italic /Palatino-Roman ] {ISOLatin1Encoding reEncode } forall
/oshow {gsave [] 0 sd true charpath stroke gr} def
/stwn { /fs exch def /fn exch def /text exch def fn findfont fs sf
 text sw pop xs add /xs exch def} def
/stwb { /fs exch def /fn exch def /nbas exch def /textf exch deftextf length /tlen exch def nbas tlen gt {/nbas tlendef} iffn findfont fs sf textf dup length nbas sub nbas getinterval sw
pop neg xs add /xs exch def} def
%%EndProlog
%%BeginSetup
%%EndSetup
newpath  gsave  .25 .25 scale  gsave  0 0 t black[  ] 0 sd 3 lw 0.95 0.95 0.95 c 2268 775 0 0 bf 1 1 1 c 0 0 m 8 8 d 759 Y 2252 X 8 8 d -2268 X -775 Y f 0.665 0.665 0.665 c 0 0 m 8 8 d 2252 X 759 Y 8 8 d -775 Y -2268 X f black 0.95 0.95 0.95 c 710
 759 23 8 bf 1 1 1 c 23 8 m 8 8 d 743 Y 694 X 8 8 d -710 X -759 Y f 0.665 0.665 0.665 c 23 8 m 8 8 d 694 X 743 Y 8 8 d -759 Y -710 X f black 0.95 0.95 0.95 c 568 607 94 84 bf 1 1 1 c 94 84 m 4 4 d 599 Y 560 X 4 4 d -568 X -607 Y f 0.665 0.665 0.665
 c 94 84 m 4 4 d 560 X 599 Y 4 4 d -607 Y -568 X f black 568 607 94 84 bl 0.95 0.95 0.95 c 568 607 94 84 bf 1 1 1 c 94 84 m 4 4 d 599 Y 560 X 4 4 d -568 X -607 Y f 0.665 0.665 0.665 c 94 84 m 4 4 d 560 X 599 Y 4 4 d -607 Y -568 X f black 568 607 94
 84 bl 1 1 1 c 0 0 1 c /w 6 def /w2 {w 2 div} def /w3 {w 3 div} def 97 660 m21 102 651 m21 black 108 635 m 6 Y s 108 646 m 6 Y s 0 0 1 c 108 643 m21 black 114 656 m s 114 662 m s 0 0 1 c 114 659 m21 black 119 648 m 1 Y s 119 655 m 1 Y s 0 0 1 c 119
 652 m21 125 655 m21 131 646 m21 136 646 m21 142 648 m21 148 641 m21 153 641 m21 159 635 m21 165 632 m21 170 627 m21 176 621 m21 182 616 m21 188 609 m21 193 603 m21 199 595 m21 205 589 m21 210 581 m21 216 573 m21 222 566 m21 227 558 m21 233 550 m21
 239 542 m21 244 534 m21 250 526 m21 256 518 m21 261 510 m21 267 502 m21 273 495 m21 278 487 m21 284 479 m21 290 471 m21 296 463 m21 301 455 m21 307 447 m21 313 439 m21 318 431 m21 324 423 m21 330 415 m21 335 407 m21 341 399 m21 347 391 m21 352 383
 m21 358 376 m21 364 368 m21 369 360 m21 375 352 m21 381 344 m21 386 336 m21 392 328 m21 398 320 m21 404 312 m21 409 304 m21 415 296 m21 421 288 m21 426 280 m21 432 272 m21 438 263 m21 443 255 m21 449 247 m21 455 240 m21 460 234 m21 466 229 m21 472
 224 m21 477 221 m21 483 219 m21 489 217 m21 494 215 m21 500 213 m21 506 211 m21 512 210 m21 517 208 m21 523 206 m21 529 205 m21 534 204 m21 540 202 m21 546 201 m21 551 200 m21 557 198 m21 563 198 m21 568 197 m21 574 197 m21 580 196 m21 585 196 m21
 591 196 m21 597 196 m21 602 196 m21 608 195 m21 614 195 m21 620 195 m21 625 195 m21 631 194 m21 637 197 m21 642 199 m21 black 648 206 m 2 Y s 648 214 m 2 Y s 0 0 1 c 648 211 m21 black 654 205 m 17 Y s 654 228 m 17 Y s 0 0 1 c 654 225 m21 659 111
 m21 black 94 84 m 568 X s 141 102 m -18 Y s 165 93 m -9 Y s 188 93 m -9 Y s 212 93 m -9 Y s 236 102 m -18 Y s 260 93 m -9 Y s 283 93 m -9 Y s 307 93 m -9 Y s 331 102 m -18 Y s 354 93 m -9 Y s 378 93 m -9 Y s 402 93 m -9 Y s 425 102 m -18 Y s 449 93
 m -9 Y s 473 93 m -9 Y s 496 93 m -9 Y s 520 102 m -18 Y s 544 93 m -9 Y s 567 93 m -9 Y s 591 93 m -9 Y s 615 102 m -18 Y s 141 102 m -18 Y s 117 93 m -9 Y s 94 93 m -9 Y s 615 102 m -18 Y s 638 93 m -9 Y s
 gsave  710 759 23 8 C 128 57 t 0 r /Helvetica-Bold findfont 25.6826 sf 0 0 m (\2556) show NC gr 
 gsave  710 759 23 8 C 222 57 t 0 r /Helvetica-Bold findfont 25.6826 sf 0 0 m (\2554) show NC gr 
 gsave  710 759 23 8 C 319 57 t 0 r /Helvetica-Bold findfont 25.6826 sf 0 0 m (\2552) show NC gr 
 gsave  710 759 23 8 C 416 57 t 0 r /Helvetica-Bold findfont 25.6826 sf 0 0 m (0) show NC gr 
 gsave  710 759 23 8 C 510 57 t 0 r /Helvetica-Bold findfont 25.6826 sf 0 0 m (2) show NC gr 
 gsave  710 759 23 8 C 604 57 t 0 r /Helvetica-Bold findfont 25.6826 sf 0 0 m (4) show NC gr  94 84 m 607 Y s 111 146 m -17 X s 102 159 m -8 X s 102 172 m -8 X s 102 185 m -8 X s 102 198 m -8 X s 111 212 m -17 X s 102 225 m -8 X s 102 238 m -8 X s
 102 251 m -8 X s 102 265 m -8 X s 111 278 m -17 X s 102 291 m -8 X s 102 304 m -8 X s 102 317 m -8 X s 102 331 m -8 X s 111 344 m -17 X s 102 357 m -8 X s 102 370 m -8 X s 102 384 m -8 X s 102 397 m -8 X s 111 410 m -17 X s 102 423 m -8 X s 102 436
 m -8 X s 102 450 m -8 X s 102 463 m -8 X s 111 476 m -17 X s 102 489 m -8 X s 102 503 m -8 X s 102 516 m -8 X s 102 529 m -8 X s 111 542 m -17 X s 102 555 m -8 X s 102 569 m -8 X s 102 582 m -8 X s 102 595 m -8 X s 111 608 m -17 X s 102 622 m -8 X
 s 102 635 m -8 X s 102 648 m -8 X s 102 661 m -8 X s 111 674 m -17 X s 111 146 m -17 X s 102 132 m -8 X s 102 119 m -8 X s 102 106 m -8 X s 102 93 m -8 X s 111 674 m -17 X s 102 688 m -8 X s
 gsave  710 759 23 8 C 66 137 t 0 r /Helvetica-Bold findfont 25.6826 sf 0 0 m (\2558) show NC gr 
 gsave  710 759 23 8 C 66 202 t 0 r /Helvetica-Bold findfont 25.6826 sf 0 0 m (\2557) show NC gr 
 gsave  710 759 23 8 C 66 268 t 0 r /Helvetica-Bold findfont 25.6826 sf 0 0 m (\2556) show NC gr 
 gsave  710 759 23 8 C 66 333 t 0 r /Helvetica-Bold findfont 25.6826 sf 0 0 m (\2555) show NC gr 
 gsave  710 759 23 8 C 66 399 t 0 r /Helvetica-Bold findfont 25.6826 sf 0 0 m (\2554) show NC gr 
 gsave  710 759 23 8 C 66 467 t 0 r /Helvetica-Bold findfont 25.6826 sf 0 0 m (\2553) show NC gr 
 gsave  710 759 23 8 C 66 533 t 0 r /Helvetica-Bold findfont 25.6826 sf 0 0 m (\2552) show NC gr 
 gsave  710 759 23 8 C 68 598 t 0 r /Helvetica-Bold findfont 25.6826 sf 0 0 m (\2551) show NC gr 
 gsave  710 759 23 8 C 74 664 t 0 r /Helvetica-Bold findfont 25.6826 sf 0 0 m (0) show NC gr  0.95 0.95 0.95 c 497 41 30 722 bf black 38 722 m -5 Y 495 X 38 Y -6 X -33 Y f 30 722 m 41 Y 497 X -41 Y -497 X cl s 1 1 1 c black
 gsave  710 759 23 8 C 68 735 t 0 r /Helvetica-Bold findfont 19.9753 sf 0 0 m (Relative Gauge Invariance profile \(5 gluons\)) show NC gr  0.95 0.95 0.95 c 710 759 779 8 bf 1 1 1 c 779 8 m 8 8 d 743 Y 694 X 8 8 d -710 X -759 Y f 0.665 0.665 0.665 c
 779 8 m 8 8 d 694 X 743 Y 8 8 d -759 Y -710 X f black 0.95 0.95 0.95 c 568 607 850 84 bf 1 1 1 c 850 84 m 4 4 d 599 Y 560 X 4 4 d -568 X -607 Y f 0.665 0.665 0.665 c 850 84 m 4 4 d 560 X 599 Y 4 4 d -607 Y -568 X f black 568 607 850 84 bl 0.95 0.95
 0.95 c 568 607 850 84 bf 1 1 1 c 850 84 m 4 4 d 599 Y 560 X 4 4 d -568 X -607 Y f 0.665 0.665 0.665 c 850 84 m 4 4 d 560 X 599 Y 4 4 d -607 Y -568 X f black 568 607 850 84 bl 0 1 0 c black 0 1 0 c 850 84 m 4 X 576 Y 4 X 25 Y 4 X -6 Y 4 X -10 Y 4 X
 -9 Y 4 X -8 Y 4 X -6 Y 4 X -7 Y 4 X -6 Y 4 X -5 Y 4 X -6 Y 4 X -5 Y 4 X -4 Y 4 X -4 Y 5 X -5 Y 4 X -4 Y 4 X -4 Y 4 X -3 Y 4 X -4 Y 4 X -3 Y 4 X -4 Y 4 X -3 Y 4 X -3 Y 4 X -4 Y 4 X -3 Y 4 X -3 Y 4 X -3 Y 4 X -3 Y 4 X -3 Y 4 X -3 Y 5 X -2 Y 4 X -3 Y
 4 X -3 Y 4 X -3 Y 4 X -3 Y 4 X -2 Y 4 X -3 Y 4 X -2 Y 4 X -3 Y 4 X -3 Y 4 X -2 Y 4 X -3 Y 4 X -2 Y 4 X -3 Y 4 X -2 Y 4 X -3 Y 4 X -2 Y 5 X -3 Y 4 X -2 Y 4 X -3 Y 4 X -2 Y 4 X -3 Y 4 X -2 Y 4 X -3 Y 4 X -2 Y 4 X -2 Y 4 X -3 Y 4 X -2 Y 4 X -3 Y 4 X
 -2 Y 4 X -3 Y 4 X -2 Y 4 X -3 Y 4 X -2 Y 5 X -3 Y 4 X -2 Y 4 X -3 Y 4 X -2 Y 4 X -3 Y 4 X -2 Y 4 X -3 Y 4 X -2 Y 4 X -3 Y 4 X -2 Y 4 X -3 Y 4 X -2 Y 4 X -3 Y 4 X -3 Y 4 X -2 Y 4 X -3 Y 5 X -3 Y 4 X -3 Y 4 X -2 Y 4 X -3 Y 4 X -3 Y 4 X -3 Y 4 X -3 Y
 4 X -3 Y 4 X -3 Y 4 X -3 Y 4 X -3 Y 4 X -3 Y 4 X -3 Y 4 X -3 Y 4 X -3 Y 4 X -4 Y 4 X -3 Y 5 X -3 Y 4 X -4 Y 4 X -3 Y 4 X -4 Y 4 X -3 Y 4 X -4 Y 4 X -4 Y 4 X -4 Y 4 X -3 Y 4 X -4 Y 4 X -5 Y 4 X -4 Y 4 X -4 Y 4 X -4 Y 4 X -5 Y 4 X -5 Y 5 X -5 Y 4 X
 -5 Y 4 X -5 Y 4 X -5 Y 4 X -6 Y 4 X -5 Y 4 X -7 Y 4 X -6 Y 4 X -7 Y 4 X -6 Y 4 X -8 Y 4 X -7 Y 4 X -8 Y 4 X -9 Y 4 X -9 Y 4 X -9 Y 4 X -10 Y 5 X -10 Y 4 X -10 Y 4 X -10 Y 4 X -11 Y 4 X -13 Y 4 X -14 Y 4 X -11 Y 4 X -6 Y 4 X -21 Y 4 X -6 Y f black 0
 1 0 c black 850 84 m 4 X 576 Y 4 X 25 Y 4 X -6 Y 4 X -10 Y 4 X -9 Y 4 X -8 Y 4 X -6 Y 4 X -7 Y 4 X -6 Y 4 X -5 Y 4 X -6 Y 4 X -5 Y 4 X -4 Y 4 X -4 Y 5 X -5 Y 4 X -4 Y 4 X -4 Y 4 X -3 Y 4 X -4 Y 4 X -3 Y 4 X -4 Y 4 X -3 Y 4 X -3 Y 4 X -4 Y 4 X -3 Y
 4 X -3 Y 4 X -3 Y 4 X -3 Y 4 X -3 Y 4 X -3 Y 5 X -2 Y 4 X -3 Y 4 X -3 Y 4 X -3 Y 4 X -3 Y 4 X -2 Y 4 X -3 Y 4 X -2 Y 4 X -3 Y 4 X -3 Y 4 X -2 Y 4 X -3 Y 4 X -2 Y 4 X -3 Y 4 X -2 Y 4 X -3 Y 4 X -2 Y 5 X -3 Y 4 X -2 Y 4 X -3 Y 4 X -2 Y 4 X -3 Y 4 X
 -2 Y 4 X -3 Y 4 X -2 Y 4 X -2 Y 4 X -3 Y 4 X -2 Y 4 X -3 Y 4 X -2 Y 4 X -3 Y 4 X -2 Y 4 X -3 Y 4 X -2 Y 5 X -3 Y 4 X -2 Y 4 X -3 Y 4 X -2 Y 4 X -3 Y 4 X -2 Y 4 X -3 Y 4 X -2 Y 4 X -3 Y 4 X -2 Y 4 X -3 Y 4 X -2 Y 4 X -3 Y 4 X -3 Y 4 X -2 Y 4 X -3 Y
 5 X -3 Y 4 X -3 Y 4 X -2 Y 4 X -3 Y 4 X -3 Y 4 X -3 Y 4 X -3 Y 4 X -3 Y 4 X -3 Y 4 X -3 Y 4 X -3 Y 4 X -3 Y 4 X -3 Y 4 X -3 Y 4 X -3 Y 4 X -4 Y 4 X -3 Y 5 X -3 Y 4 X -4 Y 4 X -3 Y 4 X -4 Y 4 X -3 Y 4 X -4 Y 4 X -4 Y 4 X -4 Y 4 X -3 Y 4 X -4 Y 4 X
 -5 Y 4 X -4 Y 4 X -4 Y 4 X -4 Y 4 X -5 Y 4 X -5 Y 5 X -5 Y 4 X -5 Y 4 X -5 Y 4 X -5 Y 4 X -6 Y 4 X -5 Y 4 X -7 Y 4 X -6 Y 4 X -7 Y 4 X -6 Y 4 X -8 Y 4 X -7 Y 4 X -8 Y 4 X -9 Y 4 X -9 Y 4 X -9 Y 4 X -10 Y 5 X -10 Y 4 X -10 Y 4 X -10 Y 4 X -11 Y 4 X
 -13 Y 4 X -14 Y 4 X -11 Y 4 X -6 Y 4 X -21 Y 4 X s 850 84 m 568 X s 850 102 m -18 Y s 870 93 m -9 Y s 890 93 m -9 Y s 911 93 m -9 Y s 931 102 m -18 Y s 951 93 m -9 Y s 971 93 m -9 Y s 992 93 m -9 Y s 1012 102 m -18 Y s 1032 93 m -9 Y s 1053 93 m -9
 Y s 1073 93 m -9 Y s 1093 102 m -18 Y s 1114 93 m -9 Y s 1134 93 m -9 Y s 1154 93 m -9 Y s 1174 102 m -18 Y s 1195 93 m -9 Y s 1215 93 m -9 Y s 1235 93 m -9 Y s 1256 102 m -18 Y s 1276 93 m -9 Y s 1296 93 m -9 Y s 1317 93 m -9 Y s 1337 102 m -18 Y
 s 1357 93 m -9 Y s 1377 93 m -9 Y s 1398 93 m -9 Y s 1418 102 m -18 Y s
 gsave  710 759 779 8 C 840 57 t 0 r /Helvetica-Bold findfont 25.6826 sf 0 0 m (0) show NC gr 
 gsave  710 759 779 8 C 900 57 t 0 r /Helvetica-Bold findfont 25.6826 sf 0 0 m (2000) show NC gr 
 gsave  710 759 779 8 C 983 57 t 0 r /Helvetica-Bold findfont 25.6826 sf 0 0 m (4000) show NC gr 
 gsave  710 759 779 8 C 1063 57 t 0 r /Helvetica-Bold findfont 25.6826 sf 0 0 m (6000) show NC gr 
 gsave  710 759 779 8 C 1145 57 t 0 r /Helvetica-Bold findfont 25.6826 sf 0 0 m (8000) show NC gr 
 gsave  710 759 779 8 C 1216 57 t 0 r /Helvetica-Bold findfont 25.6826 sf 0 0 m (10000) show NC gr 
 gsave  710 759 779 8 C 1299 57 t 0 r /Helvetica-Bold findfont 25.6826 sf 0 0 m (12000) show NC gr 
 gsave  710 759 779 8 C 1379 57 t 0 r /Helvetica-Bold findfont 25.6826 sf 0 0 m (14000) show NC gr  850 84 m 607 Y s 858 86 m -8 X s 867 93 m -17 X s 858 107 m -8 X s 867 113 m -17 X s
 gsave  710 759 779 8 C 818 117 t 0 r /Helvetica-Bold findfont 17.1217 sf 0 0 m (\25528) show NC gr 
 gsave  710 759 779 8 C 789 100 t 0 r /Helvetica-Bold findfont 25.6826 sf 0 0 m (10) show NC gr  858 128 m -8 X s 867 134 m -17 X s 858 149 m -8 X s 867 155 m -17 X s 858 170 m -8 X s 867 176 m -17 X s
 gsave  710 759 779 8 C 818 179 t 0 r /Helvetica-Bold findfont 17.1217 sf 0 0 m (\25525) show NC gr 
 gsave  710 759 779 8 C 789 162 t 0 r /Helvetica-Bold findfont 25.6826 sf 0 0 m (10) show NC gr  858 191 m -8 X s 867 197 m -17 X s 858 212 m -8 X s 867 218 m -17 X s 858 233 m -8 X s 867 239 m -17 X s
 gsave  710 759 779 8 C 818 239 t 0 r /Helvetica-Bold findfont 17.1217 sf 0 0 m (\25522) show NC gr 
 gsave  710 759 779 8 C 789 225 t 0 r /Helvetica-Bold findfont 25.6826 sf 0 0 m (10) show NC gr  858 254 m -8 X s 867 260 m -17 X s 858 275 m -8 X s 867 281 m -17 X s 858 296 m -8 X s 867 302 m -17 X s
 gsave  710 759 779 8 C 818 308 t 0 r /Helvetica-Bold findfont 17.1217 sf 0 0 m (\25519) show NC gr 
 gsave  710 759 779 8 C 789 291 t 0 r /Helvetica-Bold findfont 25.6826 sf 0 0 m (10) show NC gr  858 317 m -8 X s 867 323 m -17 X s 858 338 m -8 X s 867 344 m -17 X s 858 359 m -8 X s 867 365 m -17 X s
 gsave  710 759 779 8 C 818 370 t 0 r /Helvetica-Bold findfont 17.1217 sf 0 0 m (\25516) show NC gr 
 gsave  710 759 779 8 C 789 353 t 0 r /Helvetica-Bold findfont 25.6826 sf 0 0 m (10) show NC gr  858 380 m -8 X s 867 386 m -17 X s 858 401 m -8 X s 867 407 m -17 X s 858 422 m -8 X s 867 428 m -17 X s
 gsave  710 759 779 8 C 818 433 t 0 r /Helvetica-Bold findfont 17.1217 sf 0 0 m (\25513) show NC gr 
 gsave  710 759 779 8 C 789 416 t 0 r /Helvetica-Bold findfont 25.6826 sf 0 0 m (10) show NC gr  858 442 m -8 X s 867 449 m -17 X s 858 463 m -8 X s 867 470 m -17 X s 858 484 m -8 X s 867 491 m -17 X s
 gsave  710 759 779 8 C 818 496 t 0 r /Helvetica-Bold findfont 17.1217 sf 0 0 m (\25510) show NC gr 
 gsave  710 759 779 8 C 789 479 t 0 r /Helvetica-Bold findfont 25.6826 sf 0 0 m (10) show NC gr  858 505 m -8 X s 867 512 m -17 X s 858 526 m -8 X s 867 533 m -17 X s 858 547 m -8 X s 867 554 m -17 X s
 gsave  710 759 779 8 C 826 556 t 0 r /Helvetica-Bold findfont 17.1217 sf 0 0 m (\2557) show NC gr 
 gsave  710 759 779 8 C 798 541 t 0 r /Helvetica-Bold findfont 25.6826 sf 0 0 m (10) show NC gr  858 568 m -8 X s 867 575 m -17 X s 858 589 m -8 X s 867 595 m -17 X s 858 610 m -8 X s 867 616 m -17 X s
 gsave  710 759 779 8 C 826 618 t 0 r /Helvetica-Bold findfont 17.1217 sf 0 0 m (\2554) show NC gr 
 gsave  710 759 779 8 C 798 604 t 0 r /Helvetica-Bold findfont 25.6826 sf 0 0 m (10) show NC gr  858 631 m -8 X s 867 637 m -17 X s 858 652 m -8 X s 867 658 m -17 X s 858 673 m -8 X s 867 679 m -17 X s
 gsave  710 759 779 8 C 829 681 t 0 r /Helvetica-Bold findfont 17.1217 sf 0 0 m (\2551) show NC gr 
 gsave  710 759 779 8 C 801 667 t 0 r /Helvetica-Bold findfont 25.6826 sf 0 0 m (10) show NC gr  0.95 0.95 0.95 c 416 41 786 722 bf black 794 722 m -5 Y 413 X 38 Y -5 X -33 Y f 786 722 m 41 Y 416 X -41 Y -416 X cl s 1 1 1 c black
 gsave  710 759 779 8 C 806 732 t 0 r /Helvetica-Bold findfont 31.3898 sf 0 0 m (Normalized Ht \(5 gluons\)) show NC gr  0.95 0.95 0.95 c 711 759 1534 8 bf 1 1 1 c 1534 8 m 8 8 d 743 Y 695 X 8 8 d -711 X -759 Y f 0.665 0.665 0.665 c 1534 8 m 8 8 d
 695 X 743 Y 8 8 d -759 Y -711 X f black 0.95 0.95 0.95 c 568 607 1606 84 bf 1 1 1 c 1606 84 m 4 4 d 599 Y 560 X 4 4 d -568 X -607 Y f 0.665 0.665 0.665 c 1606 84 m 4 4 d 560 X 599 Y 4 4 d -607 Y -568 X f black 568 607 1606 84 bl 0.95 0.95 0.95 c
 568 607 1606 84 bf 1 1 1 c 1606 84 m 4 4 d 599 Y 560 X 4 4 d -568 X -607 Y f 0.665 0.665 0.665 c 1606 84 m 4 4 d 560 X 599 Y 4 4 d -607 Y -568 X f black 568 607 1606 84 bl 0 1 0 c black 0 1 0 c 1606 84 m 64 X 463 Y 4 X 47 Y 4 X -20 Y 3 X -20 Y 4 X
 -18 Y 4 X -16 Y 4 X -15 Y 3 X -13 Y 4 X -12 Y 4 X -10 Y 4 X -10 Y 4 X -9 Y 3 X -8 Y 4 X -7 Y 4 X -6 Y 4 X -5 Y 4 X -5 Y 3 X -4 Y 4 X -5 Y 4 X -3 Y 4 X -3 Y 4 X -3 Y 3 X -2 Y 4 X -2 Y 4 X -1 Y 4 X -1 Y 3 X -1 Y 4 X -1 Y 8 X 1 Y 11 X 2 Y 4 X 1 Y 4 X
 1 Y 4 X 2 Y 3 X 2 Y 4 X 2 Y 4 X 3 Y 4 X 2 Y 4 X 4 Y 3 X 3 Y 4 X 4 Y 4 X 4 Y 4 X 4 Y 3 X 6 Y 4 X 5 Y 4 X 5 Y 4 X 6 Y 4 X 6 Y 3 X 7 Y 4 X 7 Y 4 X 8 Y 4 X 9 Y 4 X 9 Y 3 X 9 Y 4 X 11 Y 4 X 10 Y 4 X 11 Y 4 X 12 Y 3 X 10 Y 4 X 11 Y 4 X 11 Y 4 X 12 Y 4 X
 11 Y 3 X 12 Y 4 X 12 Y 4 X 10 Y 4 X 9 Y 3 X 7 Y 4 X 6 Y 4 X 1 Y 4 X -1 Y 4 X -6 Y 3 X -7 Y 4 X -10 Y 4 X -12 Y 4 X -13 Y 4 X -16 Y 3 X -17 Y 4 X -18 Y 4 X -20 Y 4 X -21 Y 4 X -22 Y 3 X -23 Y 4 X -22 Y 4 X -23 Y 4 X -22 Y 3 X -21 Y 4 X -21 Y 4 X -20
 Y 4 X -20 Y 4 X -19 Y 3 X -19 Y 4 X -17 Y 4 X -17 Y 4 X -15 Y 4 X -15 Y 3 X -13 Y 4 X -13 Y 4 X -11 Y 4 X -11 Y 4 X -10 Y 3 X -9 Y 4 X -7 Y 4 X -8 Y 4 X -6 Y 3 X -5 Y 4 X -6 Y 4 X -4 Y 4 X -4 Y 4 X -4 Y 3 X -3 Y 4 X -3 Y 4 X -2 Y 4 X -3 Y 4 X -2 Y
 3 X -2 Y 4 X -3 Y 4 X -2 Y 4 X -2 Y 4 X -1 Y 3 X -1 Y 4 X -1 Y 4 X -1 Y 4 X -1 Y 7 X -1 Y 8 X -1 Y 11 X -1 Y 4 X f black 0 1 0 c black 1606 84 m 64 X 463 Y 4 X 47 Y 4 X -20 Y 3 X -20 Y 4 X -18 Y 4 X -16 Y 4 X -15 Y 3 X -13 Y 4 X -12 Y 4 X -10 Y 4 X
 -10 Y 4 X -9 Y 3 X -8 Y 4 X -7 Y 4 X -6 Y 4 X -5 Y 4 X -5 Y 3 X -4 Y 4 X -5 Y 4 X -3 Y 4 X -3 Y 4 X -3 Y 3 X -2 Y 4 X -2 Y 4 X -1 Y 4 X -1 Y 3 X -1 Y 4 X -1 Y 8 X 1 Y 11 X 2 Y 4 X 1 Y 4 X 1 Y 4 X 2 Y 3 X 2 Y 4 X 2 Y 4 X 3 Y 4 X 2 Y 4 X 4 Y 3 X 3 Y
 4 X 4 Y 4 X 4 Y 4 X 4 Y 3 X 6 Y 4 X 5 Y 4 X 5 Y 4 X 6 Y 4 X 6 Y 3 X 7 Y 4 X 7 Y 4 X 8 Y 4 X 9 Y 4 X 9 Y 3 X 9 Y 4 X 11 Y 4 X 10 Y 4 X 11 Y 4 X 12 Y 3 X 10 Y 4 X 11 Y 4 X 11 Y 4 X 12 Y 4 X 11 Y 3 X 12 Y 4 X 12 Y 4 X 10 Y 4 X 9 Y 3 X 7 Y 4 X 6 Y 4 X
 1 Y 4 X -1 Y 4 X -6 Y 3 X -7 Y 4 X -10 Y 4 X -12 Y 4 X -13 Y 4 X -16 Y 3 X -17 Y 4 X -18 Y 4 X -20 Y 4 X -21 Y 4 X -22 Y 3 X -23 Y 4 X -22 Y 4 X -23 Y 4 X -22 Y 3 X -21 Y 4 X -21 Y 4 X -20 Y 4 X -20 Y 4 X -19 Y 3 X -19 Y 4 X -17 Y 4 X -17 Y 4 X -15
 Y 4 X -15 Y 3 X -13 Y 4 X -13 Y 4 X -11 Y 4 X -11 Y 4 X -10 Y 3 X -9 Y 4 X -7 Y 4 X -8 Y 4 X -6 Y 3 X -5 Y 4 X -6 Y 4 X -4 Y 4 X -4 Y 4 X -4 Y 3 X -3 Y 4 X -3 Y 4 X -2 Y 4 X -3 Y 4 X -2 Y 3 X -2 Y 4 X -3 Y 4 X -2 Y 4 X -2 Y 4 X -1 Y 3 X -1 Y 4 X -1
 Y 4 X -1 Y 4 X -1 Y 7 X -1 Y 8 X -1 Y 11 X -1 Y 4 X s 1606 84 m 568 X s 1606 102 m -18 Y s 1622 93 m -9 Y s 1638 93 m -9 Y s 1654 93 m -9 Y s 1671 93 m -9 Y s 1687 102 m -18 Y s 1703 93 m -9 Y s 1719 93 m -9 Y s 1735 93 m -9 Y s 1752 93 m -9 Y s
 1768 102 m -18 Y s 1784 93 m -9 Y s 1800 93 m -9 Y s 1817 93 m -9 Y s 1833 93 m -9 Y s 1849 102 m -18 Y s 1865 93 m -9 Y s 1882 93 m -9 Y s 1898 93 m -9 Y s 1914 93 m -9 Y s 1930 102 m -18 Y s 1947 93 m -9 Y s 1963 93 m -9 Y s 1979 93 m -9 Y s 1995
 93 m -9 Y s 2012 102 m -18 Y s 2028 93 m -9 Y s 2044 93 m -9 Y s 2060 93 m -9 Y s 2077 93 m -9 Y s 2093 102 m -18 Y s 2109 93 m -9 Y s 2125 93 m -9 Y s 2142 93 m -9 Y s 2158 93 m -9 Y s 2174 102 m -18 Y s 2174 102 m -18 Y s
 gsave  711 759 1534 8 C 1595 57 t 0 r /Helvetica-Bold findfont 25.6826 sf 0 0 m (0) show NC gr 
 gsave  711 759 1534 8 C 1667 57 t 0 r /Helvetica-Bold findfont 25.6826 sf 0 0 m (0.5) show NC gr 
 gsave  711 759 1534 8 C 1761 57 t 0 r /Helvetica-Bold findfont 25.6826 sf 0 0 m (1) show NC gr 
 gsave  711 759 1534 8 C 1829 57 t 0 r /Helvetica-Bold findfont 25.6826 sf 0 0 m (1.5) show NC gr 
 gsave  711 759 1534 8 C 1920 57 t 0 r /Helvetica-Bold findfont 25.6826 sf 0 0 m (2) show NC gr 
 gsave  711 759 1534 8 C 1991 57 t 0 r /Helvetica-Bold findfont 25.6826 sf 0 0 m (2.5) show NC gr 
 gsave  711 759 1534 8 C 2083 57 t 0 r /Helvetica-Bold findfont 25.6826 sf 0 0 m (3) show NC gr 
 gsave  711 759 1534 8 C 2154 57 t 0 r /Helvetica-Bold findfont 25.6826 sf 0 0 m (3.5) show NC gr  1606 84 m 607 Y s 1623 84 m -17 X s 1614 107 m -8 X s 1614 130 m -8 X s 1614 154 m -8 X s 1623 177 m -17 X s 1614 200 m -8 X s 1614 224 m -8 X s 1614
 247 m -8 X s 1623 271 m -17 X s 1614 294 m -8 X s 1614 317 m -8 X s 1614 341 m -8 X s 1623 364 m -17 X s 1614 387 m -8 X s 1614 411 m -8 X s 1614 434 m -8 X s 1623 457 m -17 X s 1614 481 m -8 X s 1614 504 m -8 X s 1614 527 m -8 X s 1623 551 m -17 X
 s 1614 574 m -8 X s 1614 597 m -8 X s 1614 621 m -8 X s 1623 644 m -17 X s 1623 644 m -17 X s 1614 668 m -8 X s 1614 691 m -8 X s
 gsave  711 759 1534 8 C 1587 74 t 0 r /Helvetica-Bold findfont 25.6826 sf 0 0 m (0) show NC gr 
 gsave  711 759 1534 8 C 1536 168 t 0 r /Helvetica-Bold findfont 25.6826 sf 0 0 m (0.002) show NC gr 
 gsave  711 759 1534 8 C 1536 259 t 0 r /Helvetica-Bold findfont 25.6826 sf 0 0 m (0.004) show NC gr 
 gsave  711 759 1534 8 C 1536 353 t 0 r /Helvetica-Bold findfont 25.6826 sf 0 0 m (0.006) show NC gr 
 gsave  711 759 1534 8 C 1536 447 t 0 r /Helvetica-Bold findfont 25.6826 sf 0 0 m (0.008) show NC gr 
 gsave  711 759 1534 8 C 1553 541 t 0 r /Helvetica-Bold findfont 25.6826 sf 0 0 m (0.01) show NC gr 
 gsave  711 759 1534 8 C 1536 635 t 0 r /Helvetica-Bold findfont 25.6826 sf 0 0 m (0.012) show NC gr  0.95 0.95 0.95 c 497 41 1542 722 bf black 1550 722 m -5 Y 495 X 38 Y -6 X -33 Y f 1542 722 m 41 Y 497 X -41 Y -497 X cl s 1 1 1 c black
 gsave  711 759 1534 8 C 1564 735 t 0 r /Helvetica-Bold findfont 25.6826 sf 0 0 m (Normalized min\(R\(jet,jet\)\)  \(5 gluons\)) show NC gr 
 gr  gr 
showpage
end
%%EOF
