%!PS-Adobe-2.0 EPSF-2.0
%%BoundingBox:  0 0 567 194
%%Title: distributions9.eps: Output
%%Creator: ROOT Version 5.26/00
%%CreationDate: Thu Feb 11 00:43:08 2010
%%EndComments
%%BeginProlog
80 dict begin
/s {stroke} def /l {lineto} def /m {moveto} def /t {translate} def
/sw {stringwidth} def /r {rotate} def /rl {roll}  def /R {repeat} def
/d {rlineto} def /rm {rmoveto} def /gr {grestore} def /f {eofill} def
/c {setrgbcolor} def /black {0 setgray} def /sd {setdash} def
/cl {closepath} def /sf {scalefont setfont} def /lw {setlinewidth} def
/box {m dup 0 exch d exch 0 d 0 exch neg d cl} def
/NC{systemdict begin initclip end}def/C{NC box clip newpath}def
/bl {box s} def /bf {box f} def /Y { 0 exch d} def /X { 0 d} def 
/mp {newpath /y exch def /x exch def} def
/side {[w .77 mul w .23 mul] .385 w mul sd w 0 l currentpoint t -144 r} def
/mr {mp x y w2 0 360 arc} def /m24 {mr s} def /m20 {mr f} def
/mb {mp x y w2 add m w2 neg 0 d 0 w neg d w 0 d 0 w d cl} def
/mt {mp x y w2 add m w2 neg w neg d w 0 d cl} def
/m21 {mb f} def /m25 {mb s} def /m22 {mt f} def /m26{mt s} def
/m23 {mp x y w2 sub m w2 w d w neg 0 d cl f} def
/m27 {mp x y w2 add m w3 neg w2 neg d w3 w2 neg d w3 w2 d cl s} def
/m28 {mp x w2 sub y w2 sub w3 add m w3 0 d  0 w3 neg d w3 0 d 0 w3 d w3 0 d  0 w3 d w3 neg 0 d 0 w3 d w3 neg 0 d
 0 w3 neg d w3 neg 0 d cl s } def
/m29 {mp gsave x w2 sub y w2 add w3 sub m currentpoint t
 4 {side} repeat cl fill gr} def
/m30 {mp gsave x w2 sub y w2 add w3 sub m currentpoint t
 4 {side} repeat cl s gr} def
/m31 {mp x y w2 sub m 0 w d x w2 sub y m w 0 d x w2 sub y w2 add m w w neg d x w2 sub y w2
 sub m w w d s} def
/m2 {mp x y w2 sub m 0 w d x w2 sub y m w 0 d s} def
/m5 {mp x w2 sub y w2 sub m w w d x w2 sub y w2 add m w w neg d s} def
/reEncode {exch findfont dup length dict begin {1 index /FID eq  {pop pop} {def} ifelse } forall /Encoding exch def currentdict end dup /FontName get exch definefont pop } def [/Times-Bold /Times-Italic /Times-BoldItalic /Helvetica
 /Helvetica-Oblique /Helvetica-Bold /Helvetica-BoldOblique /Courier /Courier-Oblique /Courier-Bold /Courier-BoldOblique /Times-Roman /AvantGarde-Book /AvantGarde-BookOblique /AvantGarde-Demi /AvantGarde-DemiOblique /Bookman-Demi
 /Bookman-DemiItalic /Bookman-Light /Bookman-LightItalic /Helvetica-Narrow /Helvetica-Narrow-Bold /Helvetica-Narrow-BoldOblique /Helvetica-Narrow-Oblique /NewCenturySchlbk-Roman /NewCenturySchlbk-Bold
 /NewCenturySchlbk-BoldItalic /NewCenturySchlbk-Italic /Palatino-Bold /Palatino-BoldItalic /Palatino-Italic /Palatino-Roman ] {ISOLatin1Encoding reEncode } forall
/oshow {gsave [] 0 sd true charpath stroke gr} def
/stwn { /fs exch def /fn exch def /text exch def fn findfont fs sf
 text sw pop xs add /xs exch def} def
/stwb { /fs exch def /fn exch def /nbas exch def /textf exch deftextf length /tlen exch def nbas tlen gt {/nbas tlendef} iffn findfont fs sf textf dup length nbas sub nbas getinterval sw
pop neg xs add /xs exch def} def
%%EndProlog
%%BeginSetup
%%EndSetup
newpath  gsave  .25 .25 scale  gsave  0 0 t black[  ] 0 sd 3 lw 0.95 0.95 0.95 c 2268 775 0 0 bf 1 1 1 c 0 0 m 8 8 d 759 Y 2252 X 8 8 d -2268 X -775 Y f 0.665 0.665 0.665 c 0 0 m 8 8 d 2252 X 759 Y 8 8 d -775 Y -2268 X f black 0.95 0.95 0.95 c 710
 759 23 8 bf 1 1 1 c 23 8 m 8 8 d 743 Y 694 X 8 8 d -710 X -759 Y f 0.665 0.665 0.665 c 23 8 m 8 8 d 694 X 743 Y 8 8 d -759 Y -710 X f black 0.95 0.95 0.95 c 568 607 94 84 bf 1 1 1 c 94 84 m 4 4 d 599 Y 560 X 4 4 d -568 X -607 Y f 0.665 0.665 0.665
 c 94 84 m 4 4 d 560 X 599 Y 4 4 d -607 Y -568 X f black 568 607 94 84 bl 0.95 0.95 0.95 c 568 607 94 84 bf 1 1 1 c 94 84 m 4 4 d 599 Y 560 X 4 4 d -568 X -607 Y f 0.665 0.665 0.665 c 94 84 m 4 4 d 560 X 599 Y 4 4 d -607 Y -568 X f black 568 607 94
 84 bl 1 1 1 c 0 0 1 c /w 6 def /w2 {w 2 div} def /w3 {w 3 div} def 131 634 m21 black 136 635 m 1 Y s 136 642 m 1 Y s 0 0 1 c 136 639 m21 black 142 622 m 8 Y s 142 636 m 8 Y s 0 0 1 c 142 633 m21 black 148 628 m 2 Y s 148 636 m 1 Y s 0 0 1 c 148 633
 m21 black 153 629 m 4 Y s 153 638 m 4 Y s 0 0 1 c 153 636 m21 black 159 635 m s 159 641 m s 0 0 1 c 159 638 m21 black 165 622 m s 165 628 m 1 Y s 0 0 1 c 165 625 m21 black 170 616 m s 170 622 m s 0 0 1 c 170 619 m21 black 176 606 m s 176 612 m s 0
 0 1 c 176 609 m21 182 614 m21 188 603 m21 193 596 m21 199 586 m21 205 577 m21 210 567 m21 216 558 m21 222 547 m21 227 537 m21 233 525 m21 239 515 m21 244 504 m21 250 492 m21 256 481 m21 261 469 m21 267 458 m21 273 446 m21 278 435 m21 284 424 m21
 290 412 m21 296 401 m21 301 389 m21 307 378 m21 313 366 m21 318 355 m21 324 343 m21 330 332 m21 335 320 m21 341 309 m21 347 297 m21 352 286 m21 358 274 m21 364 263 m21 369 251 m21 375 239 m21 381 227 m21 386 216 m21 392 205 m21 398 197 m21 404 190
 m21 409 184 m21 415 180 m21 421 176 m21 426 173 m21 432 171 m21 438 169 m21 443 167 m21 449 166 m21 455 165 m21 460 163 m21 466 162 m21 472 162 m21 477 161 m21 483 160 m21 489 159 m21 494 159 m21 500 158 m21 506 158 m21 512 158 m21 517 157 m21 523
 157 m21 529 157 m21 534 156 m21 540 156 m21 546 156 m21 551 156 m21 557 155 m21 563 155 m21 568 155 m21 574 155 m21 580 155 m21 585 155 m21 591 154 m21 597 154 m21 602 154 m21 608 158 m21 614 153 m21 black 620 155 m 1 Y s 620 161 m s 0 0 1 c 620
 158 m21 black 625 143 m 3 Y s 625 152 m 2 Y s 0 0 1 c 625 149 m21 black 631 141 m 6 Y s 631 152 m 6 Y s 0 0 1 c 631 150 m21 black 637 181 m 2 Y s 637 189 m 2 Y s 0 0 1 c 637 186 m21 black 642 173 m 4 Y s 642 183 m 4 Y s 0 0 1 c 642 180 m21 black
 648 111 m 36 Y s 648 153 m 36 Y s 0 0 1 c 648 150 m21 659 181 m21 black 94 84 m 568 X s 94 102 m -18 Y s 111 93 m -9 Y s 129 93 m -9 Y s 147 93 m -9 Y s 165 102 m -18 Y s 183 93 m -9 Y s 200 93 m -9 Y s 218 93 m -9 Y s 236 102 m -18 Y s 254 93 m -9
 Y s 271 93 m -9 Y s 289 93 m -9 Y s 307 102 m -18 Y s 325 93 m -9 Y s 342 93 m -9 Y s 360 93 m -9 Y s 378 102 m -18 Y s 396 93 m -9 Y s 413 93 m -9 Y s 431 93 m -9 Y s 449 102 m -18 Y s 467 93 m -9 Y s 485 93 m -9 Y s 502 93 m -9 Y s 520 102 m -18
 Y s 538 93 m -9 Y s 556 93 m -9 Y s 573 93 m -9 Y s 591 102 m -18 Y s 609 93 m -9 Y s 627 93 m -9 Y s 644 93 m -9 Y s 662 102 m -18 Y s
 gsave  710 759 23 8 C 80 57 t 0 r /Helvetica-Bold findfont 25.6826 sf 0 0 m (\2554) show NC gr 
 gsave  710 759 23 8 C 151 57 t 0 r /Helvetica-Bold findfont 25.6826 sf 0 0 m (\2552) show NC gr 
 gsave  710 759 23 8 C 225 57 t 0 r /Helvetica-Bold findfont 25.6826 sf 0 0 m (0) show NC gr 
 gsave  710 759 23 8 C 296 57 t 0 r /Helvetica-Bold findfont 25.6826 sf 0 0 m (2) show NC gr 
 gsave  710 759 23 8 C 368 57 t 0 r /Helvetica-Bold findfont 25.6826 sf 0 0 m (4) show NC gr 
 gsave  710 759 23 8 C 439 57 t 0 r /Helvetica-Bold findfont 25.6826 sf 0 0 m (6) show NC gr 
 gsave  710 759 23 8 C 510 57 t 0 r /Helvetica-Bold findfont 25.6826 sf 0 0 m (8) show NC gr 
 gsave  710 759 23 8 C 575 57 t 0 r /Helvetica-Bold findfont 25.6826 sf 0 0 m (10) show NC gr 
 gsave  710 759 23 8 C 647 57 t 0 r /Helvetica-Bold findfont 25.6826 sf 0 0 m (12) show NC gr  94 84 m 607 Y s 111 89 m -17 X s 102 103 m -8 X s 102 118 m -8 X s 102 132 m -8 X s 102 146 m -8 X s 111 161 m -17 X s 102 175 m -8 X s 102 189 m -8 X s
 102 204 m -8 X s 102 218 m -8 X s 111 232 m -17 X s 102 247 m -8 X s 102 261 m -8 X s 102 275 m -8 X s 102 290 m -8 X s 111 304 m -17 X s 102 318 m -8 X s 102 333 m -8 X s 102 347 m -8 X s 102 361 m -8 X s 111 376 m -17 X s 102 390 m -8 X s 102 404
 m -8 X s 102 419 m -8 X s 102 433 m -8 X s 111 447 m -17 X s 102 462 m -8 X s 102 476 m -8 X s 102 490 m -8 X s 102 505 m -8 X s 111 519 m -17 X s 102 533 m -8 X s 102 548 m -8 X s 102 562 m -8 X s 102 576 m -8 X s 111 591 m -17 X s 102 605 m -8 X
 s 102 619 m -8 X s 102 634 m -8 X s 102 648 m -8 X s 111 662 m -17 X s 111 89 m -17 X s 111 662 m -17 X s 102 677 m -8 X s 102 691 m -8 X s
 gsave  710 759 23 8 C 66 80 t 0 r /Helvetica-Bold findfont 25.6826 sf 0 0 m (\2558) show NC gr 
 gsave  710 759 23 8 C 66 151 t 0 r /Helvetica-Bold findfont 25.6826 sf 0 0 m (\2557) show NC gr 
 gsave  710 759 23 8 C 66 222 t 0 r /Helvetica-Bold findfont 25.6826 sf 0 0 m (\2556) show NC gr 
 gsave  710 759 23 8 C 66 293 t 0 r /Helvetica-Bold findfont 25.6826 sf 0 0 m (\2555) show NC gr 
 gsave  710 759 23 8 C 66 365 t 0 r /Helvetica-Bold findfont 25.6826 sf 0 0 m (\2554) show NC gr 
 gsave  710 759 23 8 C 66 439 t 0 r /Helvetica-Bold findfont 25.6826 sf 0 0 m (\2553) show NC gr 
 gsave  710 759 23 8 C 66 510 t 0 r /Helvetica-Bold findfont 25.6826 sf 0 0 m (\2552) show NC gr 
 gsave  710 759 23 8 C 68 581 t 0 r /Helvetica-Bold findfont 25.6826 sf 0 0 m (\2551) show NC gr 
 gsave  710 759 23 8 C 74 652 t 0 r /Helvetica-Bold findfont 25.6826 sf 0 0 m (0) show NC gr  0.95 0.95 0.95 c 497 41 30 722 bf black 38 722 m -5 Y 495 X 38 Y -6 X -33 Y f 30 722 m 41 Y 497 X -41 Y -497 X cl s 1 1 1 c black
 gsave  710 759 23 8 C 68 735 t 0 r /Helvetica-Bold findfont 19.9753 sf 0 0 m (Relative Gauge Invariance profile \(9 gluons\)) show NC gr  0.95 0.95 0.95 c 710 759 779 8 bf 1 1 1 c 779 8 m 8 8 d 743 Y 694 X 8 8 d -710 X -759 Y f 0.665 0.665 0.665 c
 779 8 m 8 8 d 694 X 743 Y 8 8 d -759 Y -710 X f black 0.95 0.95 0.95 c 568 607 850 84 bf 1 1 1 c 850 84 m 4 4 d 599 Y 560 X 4 4 d -568 X -607 Y f 0.665 0.665 0.665 c 850 84 m 4 4 d 560 X 599 Y 4 4 d -607 Y -568 X f black 568 607 850 84 bl 0.95 0.95
 0.95 c 568 607 850 84 bf 1 1 1 c 850 84 m 4 4 d 599 Y 560 X 4 4 d -568 X -607 Y f 0.665 0.665 0.665 c 850 84 m 4 4 d 560 X 599 Y 4 4 d -607 Y -568 X f black 568 607 850 84 bl 0 1 0 c black 0 1 0 c 850 84 m 16 X 546 Y 4 X 38 Y 4 X 13 Y 4 X 4 Y 12 X
 -2 Y 4 X -2 Y 4 X -2 Y 4 X -3 Y 4 X -3 Y 5 X -2 Y 4 X -4 Y 4 X -3 Y 4 X -2 Y 4 X -3 Y 4 X -3 Y 4 X -3 Y 4 X -3 Y 4 X -3 Y 4 X -2 Y 4 X -3 Y 4 X -3 Y 4 X -3 Y 4 X -2 Y 4 X -3 Y 4 X -2 Y 5 X -3 Y 4 X -2 Y 4 X -3 Y 4 X -3 Y 4 X -2 Y 4 X -3 Y 4 X -2 Y
 4 X -3 Y 4 X 1 Y 4 X -5 Y 4 X -2 Y 4 X -4 Y 4 X -2 Y 4 X 2 Y 4 X -7 Y 4 X -3 Y 4 X -2 Y 5 X -2 Y 4 X -3 Y 4 X -3 Y 4 X -1 Y 4 X -3 Y 4 X 5 Y 4 X -10 Y 4 X -4 Y 4 X -1 Y 4 X -3 Y 4 X -3 Y 4 X -2 Y 4 X -2 Y 4 X -2 Y 4 X -4 Y 4 X -1 Y 4 X -4 Y 5 X -1
 Y 4 X -4 Y 4 X -1 Y 4 X -4 Y 4 X -3 Y 8 X -4 Y 4 X -4 Y 4 X -3 Y 4 X 4 Y 4 X -8 Y 4 X -2 Y 4 X -5 Y 4 X -2 Y 4 X 28 Y 4 X -32 Y 5 X -5 Y 4 X -1 Y 4 X -5 Y 4 X -2 Y 4 X -1 Y 4 X -6 Y 4 X -3 Y 4 X -3 Y 4 X -2 Y 4 X -4 Y 4 X -3 Y 4 X -3 Y 8 X -7 Y 4 X
 -2 Y 4 X -6 Y 4 X -2 Y 5 X -3 Y 4 X -5 Y 4 X 6 Y 4 X -11 Y 4 X 2 Y 4 X -14 Y 4 X -4 Y 4 X -4 Y 4 X -5 Y 4 X -5 Y 4 X -2 Y 4 X -6 Y 4 X -7 Y 8 X -6 Y 4 X -3 Y 5 X -8 Y 4 X -5 Y 4 X -12 Y 4 X -2 Y 4 X -6 Y 4 X -2 Y 4 X -13 Y 4 X -5 Y 4 X -5 Y 4 X -13
 Y 8 X -17 Y 4 X -4 Y 4 X -10 Y 4 X -13 Y 4 X -10 Y 4 X -7 Y 5 X -13 Y 4 X 1 Y 4 X -28 Y 4 X -9 Y 4 X -16 Y 4 X -10 Y 4 X 2 Y 4 X -42 Y 4 X -43 Y 4 X -6 Y f black 0 1 0 c black 850 84 m 16 X 546 Y 4 X 38 Y 4 X 13 Y 4 X 4 Y 12 X -2 Y 4 X -2 Y 4 X -2
 Y 4 X -3 Y 4 X -3 Y 5 X -2 Y 4 X -4 Y 4 X -3 Y 4 X -2 Y 4 X -3 Y 4 X -3 Y 4 X -3 Y 4 X -3 Y 4 X -3 Y 4 X -2 Y 4 X -3 Y 4 X -3 Y 4 X -3 Y 4 X -2 Y 4 X -3 Y 4 X -2 Y 5 X -3 Y 4 X -2 Y 4 X -3 Y 4 X -3 Y 4 X -2 Y 4 X -3 Y 4 X -2 Y 4 X -3 Y 4 X 1 Y 4 X
 -5 Y 4 X -2 Y 4 X -4 Y 4 X -2 Y 4 X 2 Y 4 X -7 Y 4 X -3 Y 4 X -2 Y 5 X -2 Y 4 X -3 Y 4 X -3 Y 4 X -1 Y 4 X -3 Y 4 X 5 Y 4 X -10 Y 4 X -4 Y 4 X -1 Y 4 X -3 Y 4 X -3 Y 4 X -2 Y 4 X -2 Y 4 X -2 Y 4 X -4 Y 4 X -1 Y 4 X -4 Y 5 X -1 Y 4 X -4 Y 4 X -1 Y 4
 X -4 Y 4 X -3 Y 8 X -4 Y 4 X -4 Y 4 X -3 Y 4 X 4 Y 4 X -8 Y 4 X -2 Y 4 X -5 Y 4 X -2 Y 4 X 28 Y 4 X -32 Y 5 X -5 Y 4 X -1 Y 4 X -5 Y 4 X -2 Y 4 X -1 Y 4 X -6 Y 4 X -3 Y 4 X -3 Y 4 X -2 Y 4 X -4 Y 4 X -3 Y 4 X -3 Y 8 X -7 Y 4 X -2 Y 4 X -6 Y 4 X -2
 Y 5 X -3 Y 4 X -5 Y 4 X 6 Y 4 X -11 Y 4 X 2 Y 4 X -14 Y 4 X -4 Y 4 X -4 Y 4 X -5 Y 4 X -5 Y 4 X -2 Y 4 X -6 Y 4 X -7 Y 8 X -6 Y 4 X -3 Y 5 X -8 Y 4 X -5 Y 4 X -12 Y 4 X -2 Y 4 X -6 Y 4 X -2 Y 4 X -13 Y 4 X -5 Y 4 X -5 Y 4 X -13 Y 8 X -17 Y 4 X -4 Y
 4 X -10 Y 4 X -13 Y 4 X -10 Y 4 X -7 Y 5 X -13 Y 4 X 1 Y 4 X -28 Y 4 X -9 Y 4 X -16 Y 4 X -10 Y 4 X 2 Y 4 X -42 Y 4 X -43 Y 4 X s 850 84 m 568 X s 850 102 m -18 Y s 870 93 m -9 Y s 890 93 m -9 Y s 911 93 m -9 Y s 931 102 m -18 Y s 951 93 m -9 Y s
 971 93 m -9 Y s 992 93 m -9 Y s 1012 102 m -18 Y s 1032 93 m -9 Y s 1053 93 m -9 Y s 1073 93 m -9 Y s 1093 102 m -18 Y s 1114 93 m -9 Y s 1134 93 m -9 Y s 1154 93 m -9 Y s 1174 102 m -18 Y s 1195 93 m -9 Y s 1215 93 m -9 Y s 1235 93 m -9 Y s 1256
 102 m -18 Y s 1276 93 m -9 Y s 1296 93 m -9 Y s 1317 93 m -9 Y s 1337 102 m -18 Y s 1357 93 m -9 Y s 1377 93 m -9 Y s 1398 93 m -9 Y s 1418 102 m -18 Y s
 gsave  710 759 779 8 C 840 57 t 0 r /Helvetica-Bold findfont 25.6826 sf 0 0 m (0) show NC gr 
 gsave  710 759 779 8 C 900 57 t 0 r /Helvetica-Bold findfont 25.6826 sf 0 0 m (2000) show NC gr 
 gsave  710 759 779 8 C 983 57 t 0 r /Helvetica-Bold findfont 25.6826 sf 0 0 m (4000) show NC gr 
 gsave  710 759 779 8 C 1063 57 t 0 r /Helvetica-Bold findfont 25.6826 sf 0 0 m (6000) show NC gr 
 gsave  710 759 779 8 C 1145 57 t 0 r /Helvetica-Bold findfont 25.6826 sf 0 0 m (8000) show NC gr 
 gsave  710 759 779 8 C 1216 57 t 0 r /Helvetica-Bold findfont 25.6826 sf 0 0 m (10000) show NC gr 
 gsave  710 759 779 8 C 1299 57 t 0 r /Helvetica-Bold findfont 25.6826 sf 0 0 m (12000) show NC gr 
 gsave  710 759 779 8 C 1379 57 t 0 r /Helvetica-Bold findfont 25.6826 sf 0 0 m (14000) show NC gr  850 84 m 607 Y s 858 87 m -8 X s 867 94 m -17 X s 858 108 m -8 X s 867 115 m -17 X s
 gsave  710 759 779 8 C 818 120 t 0 r /Helvetica-Bold findfont 17.1217 sf 0 0 m (\25528) show NC gr 
 gsave  710 759 779 8 C 789 103 t 0 r /Helvetica-Bold findfont 25.6826 sf 0 0 m (10) show NC gr  858 129 m -8 X s 867 136 m -17 X s 858 150 m -8 X s 867 157 m -17 X s 858 171 m -8 X s 867 178 m -17 X s
 gsave  710 759 779 8 C 818 182 t 0 r /Helvetica-Bold findfont 17.1217 sf 0 0 m (\25525) show NC gr 
 gsave  710 759 779 8 C 789 165 t 0 r /Helvetica-Bold findfont 25.6826 sf 0 0 m (10) show NC gr  858 192 m -8 X s 867 199 m -17 X s 858 213 m -8 X s 867 220 m -17 X s 858 234 m -8 X s 867 241 m -17 X s
 gsave  710 759 779 8 C 818 242 t 0 r /Helvetica-Bold findfont 17.1217 sf 0 0 m (\25522) show NC gr 
 gsave  710 759 779 8 C 789 228 t 0 r /Helvetica-Bold findfont 25.6826 sf 0 0 m (10) show NC gr  858 255 m -8 X s 867 262 m -17 X s 858 276 m -8 X s 867 283 m -17 X s 858 297 m -8 X s 867 304 m -17 X s
 gsave  710 759 779 8 C 818 308 t 0 r /Helvetica-Bold findfont 17.1217 sf 0 0 m (\25519) show NC gr 
 gsave  710 759 779 8 C 789 291 t 0 r /Helvetica-Bold findfont 25.6826 sf 0 0 m (10) show NC gr  858 319 m -8 X s 867 325 m -17 X s 858 340 m -8 X s 867 346 m -17 X s 858 361 m -8 X s 867 367 m -17 X s
 gsave  710 759 779 8 C 818 370 t 0 r /Helvetica-Bold findfont 17.1217 sf 0 0 m (\25516) show NC gr 
 gsave  710 759 779 8 C 789 353 t 0 r /Helvetica-Bold findfont 25.6826 sf 0 0 m (10) show NC gr  858 382 m -8 X s 867 388 m -17 X s 858 403 m -8 X s 867 409 m -17 X s 858 424 m -8 X s 867 430 m -17 X s
 gsave  710 759 779 8 C 818 433 t 0 r /Helvetica-Bold findfont 17.1217 sf 0 0 m (\25513) show NC gr 
 gsave  710 759 779 8 C 789 416 t 0 r /Helvetica-Bold findfont 25.6826 sf 0 0 m (10) show NC gr  858 445 m -8 X s 867 451 m -17 X s 858 466 m -8 X s 867 472 m -17 X s 858 487 m -8 X s 867 493 m -17 X s
 gsave  710 759 779 8 C 818 499 t 0 r /Helvetica-Bold findfont 17.1217 sf 0 0 m (\25510) show NC gr 
 gsave  710 759 779 8 C 789 481 t 0 r /Helvetica-Bold findfont 25.6826 sf 0 0 m (10) show NC gr  858 508 m -8 X s 867 514 m -17 X s 858 529 m -8 X s 867 535 m -17 X s 858 550 m -8 X s 867 556 m -17 X s
 gsave  710 759 779 8 C 826 558 t 0 r /Helvetica-Bold findfont 17.1217 sf 0 0 m (\2557) show NC gr 
 gsave  710 759 779 8 C 798 544 t 0 r /Helvetica-Bold findfont 25.6826 sf 0 0 m (10) show NC gr  858 571 m -8 X s 867 577 m -17 X s 858 592 m -8 X s 867 598 m -17 X s 858 613 m -8 X s 867 619 m -17 X s
 gsave  710 759 779 8 C 826 621 t 0 r /Helvetica-Bold findfont 17.1217 sf 0 0 m (\2554) show NC gr 
 gsave  710 759 779 8 C 798 607 t 0 r /Helvetica-Bold findfont 25.6826 sf 0 0 m (10) show NC gr  858 634 m -8 X s 867 640 m -17 X s 858 655 m -8 X s 867 661 m -17 X s 858 676 m -8 X s 867 682 m -17 X s
 gsave  710 759 779 8 C 829 684 t 0 r /Helvetica-Bold findfont 17.1217 sf 0 0 m (\2551) show NC gr 
 gsave  710 759 779 8 C 801 669 t 0 r /Helvetica-Bold findfont 25.6826 sf 0 0 m (10) show NC gr  0.95 0.95 0.95 c 416 41 786 722 bf black 794 722 m -5 Y 413 X 38 Y -5 X -33 Y f 786 722 m 41 Y 416 X -41 Y -416 X cl s 1 1 1 c black
 gsave  710 759 779 8 C 806 732 t 0 r /Helvetica-Bold findfont 31.3898 sf 0 0 m (Normalized Ht \(9 gluons\)) show NC gr  0.95 0.95 0.95 c 711 759 1534 8 bf 1 1 1 c 1534 8 m 8 8 d 743 Y 695 X 8 8 d -711 X -759 Y f 0.665 0.665 0.665 c 1534 8 m 8 8 d
 695 X 743 Y 8 8 d -759 Y -711 X f black 0.95 0.95 0.95 c 568 607 1606 84 bf 1 1 1 c 1606 84 m 4 4 d 599 Y 560 X 4 4 d -568 X -607 Y f 0.665 0.665 0.665 c 1606 84 m 4 4 d 560 X 599 Y 4 4 d -607 Y -568 X f black 568 607 1606 84 bl 0.95 0.95 0.95 c
 568 607 1606 84 bf 1 1 1 c 1606 84 m 4 4 d 599 Y 560 X 4 4 d -568 X -607 Y f 0.665 0.665 0.665 c 1606 84 m 4 4 d 560 X 599 Y 4 4 d -607 Y -568 X f black 568 607 1606 84 bl 0 1 0 c black 0 1 0 c 1606 84 m 151 X 578 Y 4 X -38 Y 4 X -9 Y 3 X 8 Y 4 X
 -112 Y 4 X -27 Y 4 X 1 Y 4 X 33 Y 3 X -67 Y 4 X -33 Y 4 X -24 Y 4 X -22 Y 4 X -19 Y 3 X -26 Y 4 X -3 Y 4 X -14 Y 4 X -18 Y 4 X -3 Y 3 X -15 Y 4 X -1 Y 4 X -17 Y 4 X -17 Y 3 X -5 Y 8 X -15 Y 4 X -8 Y 4 X -9 Y 3 X 14 Y 4 X -33 Y 4 X -4 Y 4 X -2 Y 4 X
 -1 Y 3 X -10 Y 4 X -2 Y 4 X -5 Y 4 X -6 Y 4 X -3 Y 3 X -5 Y 4 X -3 Y 4 X 5 Y 4 X -11 Y 4 X -1 Y 3 X -6 Y 4 X -1 Y 4 X -5 Y 7 X -4 Y 8 X -3 Y 4 X -1 Y 4 X -5 Y 3 X -1 Y 4 X -2 Y 8 X -1 Y 4 X -2 Y 3 X -1 Y 4 X -2 Y 12 X -4 Y 11 X -2 Y 4 X -2 Y 3 X 1
 Y 4 X -2 Y 4 X 1 Y 4 X -1 Y 4 X -1 Y 7 X -1 Y 8 X -1 Y 7 X -1 Y 12 X -1 Y 4 X -1 Y 22 X -1 Y 27 X -1 Y 15 X 1 Y 4 X -1 Y 49 X f black 0 1 0 c black 1606 84 m 151 X 578 Y 4 X -38 Y 4 X -9 Y 3 X 8 Y 4 X -112 Y 4 X -27 Y 4 X 1 Y 4 X 33 Y 3 X -67 Y 4 X
 -33 Y 4 X -24 Y 4 X -22 Y 4 X -19 Y 3 X -26 Y 4 X -3 Y 4 X -14 Y 4 X -18 Y 4 X -3 Y 3 X -15 Y 4 X -1 Y 4 X -17 Y 4 X -17 Y 3 X -5 Y 8 X -15 Y 4 X -8 Y 4 X -9 Y 3 X 14 Y 4 X -33 Y 4 X -4 Y 4 X -2 Y 4 X -1 Y 3 X -10 Y 4 X -2 Y 4 X -5 Y 4 X -6 Y 4 X
 -3 Y 3 X -5 Y 4 X -3 Y 4 X 5 Y 4 X -11 Y 4 X -1 Y 3 X -6 Y 4 X -1 Y 4 X -5 Y 7 X -4 Y 8 X -3 Y 4 X -1 Y 4 X -5 Y 3 X -1 Y 4 X -2 Y 8 X -1 Y 4 X -2 Y 3 X -1 Y 4 X -2 Y 12 X -4 Y 11 X -2 Y 4 X -2 Y 3 X 1 Y 4 X -2 Y 4 X 1 Y 4 X -1 Y 4 X -1 Y 7 X -1 Y
 8 X -1 Y 7 X -1 Y 12 X -1 Y 4 X -1 Y 22 X -1 Y 27 X -1 Y 15 X 1 Y 4 X -1 Y 49 X s 1606 84 m 568 X s 1606 102 m -18 Y s 1624 93 m -9 Y s 1643 93 m -9 Y s 1662 93 m -9 Y s 1681 102 m -18 Y s 1700 93 m -9 Y s 1719 93 m -9 Y s 1738 93 m -9 Y s 1757 102
 m -18 Y s 1776 93 m -9 Y s 1795 93 m -9 Y s 1814 93 m -9 Y s 1833 102 m -18 Y s 1852 93 m -9 Y s 1871 93 m -9 Y s 1890 93 m -9 Y s 1909 102 m -18 Y s 1928 93 m -9 Y s 1947 93 m -9 Y s 1966 93 m -9 Y s 1985 102 m -18 Y s 2003 93 m -9 Y s 2022 93 m
 -9 Y s 2041 93 m -9 Y s 2060 102 m -18 Y s 2079 93 m -9 Y s 2098 93 m -9 Y s 2117 93 m -9 Y s 2136 102 m -18 Y s 2136 102 m -18 Y s 2155 93 m -9 Y s
 gsave  711 759 1534 8 C 1595 57 t 0 r /Helvetica-Bold findfont 25.6826 sf 0 0 m (0) show NC gr 
 gsave  711 759 1534 8 C 1661 57 t 0 r /Helvetica-Bold findfont 25.6826 sf 0 0 m (0.2) show NC gr 
 gsave  711 759 1534 8 C 1735 57 t 0 r /Helvetica-Bold findfont 25.6826 sf 0 0 m (0.4) show NC gr 
 gsave  711 759 1534 8 C 1812 57 t 0 r /Helvetica-Bold findfont 25.6826 sf 0 0 m (0.6) show NC gr 
 gsave  711 759 1534 8 C 1886 57 t 0 r /Helvetica-Bold findfont 25.6826 sf 0 0 m (0.8) show NC gr 
 gsave  711 759 1534 8 C 1977 57 t 0 r /Helvetica-Bold findfont 25.6826 sf 0 0 m (1) show NC gr 
 gsave  711 759 1534 8 C 2040 57 t 0 r /Helvetica-Bold findfont 25.6826 sf 0 0 m (1.2) show NC gr 
 gsave  711 759 1534 8 C 2114 57 t 0 r /Helvetica-Bold findfont 25.6826 sf 0 0 m (1.4) show NC gr  1606 84 m 607 Y s 1623 84 m -17 X s 1614 104 m -8 X s 1614 124 m -8 X s 1614 144 m -8 X s 1614 164 m -8 X s 1623 184 m -17 X s 1614 204 m -8 X s 1614
 224 m -8 X s 1614 244 m -8 X s 1614 264 m -8 X s 1623 284 m -17 X s 1614 305 m -8 X s 1614 325 m -8 X s 1614 345 m -8 X s 1614 365 m -8 X s 1623 385 m -17 X s 1614 405 m -8 X s 1614 425 m -8 X s 1614 445 m -8 X s 1614 465 m -8 X s 1623 485 m -17 X
 s 1614 505 m -8 X s 1614 525 m -8 X s 1614 545 m -8 X s 1614 566 m -8 X s 1623 586 m -17 X s 1614 606 m -8 X s 1614 626 m -8 X s 1614 646 m -8 X s 1614 666 m -8 X s 1623 686 m -17 X s 1623 686 m -17 X s
 gsave  711 759 1534 8 C 1587 74 t 0 r /Helvetica-Bold findfont 25.6826 sf 0 0 m (0) show NC gr 
 gsave  711 759 1534 8 C 1553 174 t 0 r /Helvetica-Bold findfont 25.6826 sf 0 0 m (0.01) show NC gr 
 gsave  711 759 1534 8 C 1550 273 t 0 r /Helvetica-Bold findfont 25.6826 sf 0 0 m (0.02) show NC gr 
 gsave  711 759 1534 8 C 1550 376 t 0 r /Helvetica-Bold findfont 25.6826 sf 0 0 m (0.03) show NC gr 
 gsave  711 759 1534 8 C 1550 476 t 0 r /Helvetica-Bold findfont 25.6826 sf 0 0 m (0.04) show NC gr 
 gsave  711 759 1534 8 C 1550 575 t 0 r /Helvetica-Bold findfont 25.6826 sf 0 0 m (0.05) show NC gr 
 gsave  711 759 1534 8 C 1550 675 t 0 r /Helvetica-Bold findfont 25.6826 sf 0 0 m (0.06) show NC gr  0.95 0.95 0.95 c 497 41 1542 722 bf black 1550 722 m -5 Y 495 X 38 Y -6 X -33 Y f 1542 722 m 41 Y 497 X -41 Y -497 X cl s 1 1 1 c black
 gsave  711 759 1534 8 C 1564 735 t 0 r /Helvetica-Bold findfont 25.6826 sf 0 0 m (Normalized min\(R\(jet,jet\)\)  \(9 gluons\)) show NC gr 
 gr  gr 
showpage
end
%%EOF
