%!PS-Adobe-2.0 EPSF-2.0
%%BoundingBox:  0 0 567 194
%%Title: distributions11.eps: Output
%%Creator: ROOT Version 5.26/00
%%CreationDate: Wed Feb 10 01:54:56 2010
%%EndComments
%%BeginProlog
80 dict begin
/s {stroke} def /l {lineto} def /m {moveto} def /t {translate} def
/sw {stringwidth} def /r {rotate} def /rl {roll}  def /R {repeat} def
/d {rlineto} def /rm {rmoveto} def /gr {grestore} def /f {eofill} def
/c {setrgbcolor} def /black {0 setgray} def /sd {setdash} def
/cl {closepath} def /sf {scalefont setfont} def /lw {setlinewidth} def
/box {m dup 0 exch d exch 0 d 0 exch neg d cl} def
/NC{systemdict begin initclip end}def/C{NC box clip newpath}def
/bl {box s} def /bf {box f} def /Y { 0 exch d} def /X { 0 d} def 
/mp {newpath /y exch def /x exch def} def
/side {[w .77 mul w .23 mul] .385 w mul sd w 0 l currentpoint t -144 r} def
/mr {mp x y w2 0 360 arc} def /m24 {mr s} def /m20 {mr f} def
/mb {mp x y w2 add m w2 neg 0 d 0 w neg d w 0 d 0 w d cl} def
/mt {mp x y w2 add m w2 neg w neg d w 0 d cl} def
/m21 {mb f} def /m25 {mb s} def /m22 {mt f} def /m26{mt s} def
/m23 {mp x y w2 sub m w2 w d w neg 0 d cl f} def
/m27 {mp x y w2 add m w3 neg w2 neg d w3 w2 neg d w3 w2 d cl s} def
/m28 {mp x w2 sub y w2 sub w3 add m w3 0 d  0 w3 neg d w3 0 d 0 w3 d w3 0 d  0 w3 d w3 neg 0 d 0 w3 d w3 neg 0 d
 0 w3 neg d w3 neg 0 d cl s } def
/m29 {mp gsave x w2 sub y w2 add w3 sub m currentpoint t
 4 {side} repeat cl fill gr} def
/m30 {mp gsave x w2 sub y w2 add w3 sub m currentpoint t
 4 {side} repeat cl s gr} def
/m31 {mp x y w2 sub m 0 w d x w2 sub y m w 0 d x w2 sub y w2 add m w w neg d x w2 sub y w2
 sub m w w d s} def
/m2 {mp x y w2 sub m 0 w d x w2 sub y m w 0 d s} def
/m5 {mp x w2 sub y w2 sub m w w d x w2 sub y w2 add m w w neg d s} def
/reEncode {exch findfont dup length dict begin {1 index /FID eq  {pop pop} {def} ifelse } forall /Encoding exch def currentdict end dup /FontName get exch definefont pop } def [/Times-Bold /Times-Italic /Times-BoldItalic /Helvetica
 /Helvetica-Oblique /Helvetica-Bold /Helvetica-BoldOblique /Courier /Courier-Oblique /Courier-Bold /Courier-BoldOblique /Times-Roman /AvantGarde-Book /AvantGarde-BookOblique /AvantGarde-Demi /AvantGarde-DemiOblique /Bookman-Demi
 /Bookman-DemiItalic /Bookman-Light /Bookman-LightItalic /Helvetica-Narrow /Helvetica-Narrow-Bold /Helvetica-Narrow-BoldOblique /Helvetica-Narrow-Oblique /NewCenturySchlbk-Roman /NewCenturySchlbk-Bold
 /NewCenturySchlbk-BoldItalic /NewCenturySchlbk-Italic /Palatino-Bold /Palatino-BoldItalic /Palatino-Italic /Palatino-Roman ] {ISOLatin1Encoding reEncode } forall
/oshow {gsave [] 0 sd true charpath stroke gr} def
/stwn { /fs exch def /fn exch def /text exch def fn findfont fs sf
 text sw pop xs add /xs exch def} def
/stwb { /fs exch def /fn exch def /nbas exch def /textf exch deftextf length /tlen exch def nbas tlen gt {/nbas tlendef} iffn findfont fs sf textf dup length nbas sub nbas getinterval sw
pop neg xs add /xs exch def} def
%%EndProlog
%%BeginSetup
%%EndSetup
newpath  gsave  .25 .25 scale  gsave  0 0 t black[  ] 0 sd 3 lw 0.95 0.95 0.95 c 2268 775 0 0 bf 1 1 1 c 0 0 m 8 8 d 759 Y 2252 X 8 8 d -2268 X -775 Y f 0.665 0.665 0.665 c 0 0 m 8 8 d 2252 X 759 Y 8 8 d -775 Y -2268 X f black 0.95 0.95 0.95 c 710
 759 23 8 bf 1 1 1 c 23 8 m 8 8 d 743 Y 694 X 8 8 d -710 X -759 Y f 0.665 0.665 0.665 c 23 8 m 8 8 d 694 X 743 Y 8 8 d -759 Y -710 X f black 0.95 0.95 0.95 c 568 607 94 84 bf 1 1 1 c 94 84 m 4 4 d 599 Y 560 X 4 4 d -568 X -607 Y f 0.665 0.665 0.665
 c 94 84 m 4 4 d 560 X 599 Y 4 4 d -607 Y -568 X f black 568 607 94 84 bl 0.95 0.95 0.95 c 568 607 94 84 bf 1 1 1 c 94 84 m 4 4 d 599 Y 560 X 4 4 d -568 X -607 Y f 0.665 0.665 0.665 c 94 84 m 4 4 d 560 X 599 Y 4 4 d -607 Y -568 X f black 568 607 94
 84 bl 1 1 1 c 0 0 1 c black 125 638 m 4 Y s 125 647 m 4 Y s 0 0 1 c /w 6 def /w2 {w 2 div} def /w3 {w 3 div} def 125 644 m21 black 131 635 m 4 Y s 131 644 m 3 Y s 0 0 1 c 131 641 m21 black 136 634 m 2 Y s 136 642 m 2 Y s 0 0 1 c 136 639 m21 black
 142 634 m 6 Y s 142 645 m 5 Y s 0 0 1 c 142 642 m21 black 148 637 m s 148 642 m s 0 0 1 c 148 639 m21 black 153 618 m 2 Y s 153 626 m 2 Y s 0 0 1 c 153 623 m21 159 634 m21 165 618 m21 170 624 m21 176 613 m21 182 614 m21 188 600 m21 193 600 m21 199
 588 m21 205 583 m21 210 572 m21 216 563 m21 222 552 m21 227 543 m21 233 532 m21 239 522 m21 244 512 m21 250 501 m21 256 491 m21 261 480 m21 267 469 m21 273 459 m21 278 449 m21 284 438 m21 290 428 m21 296 417 m21 301 406 m21 307 396 m21 313 385 m21
 318 375 m21 324 364 m21 330 354 m21 335 343 m21 341 333 m21 347 322 m21 352 312 m21 358 301 m21 364 291 m21 369 280 m21 375 270 m21 381 259 m21 386 248 m21 392 237 m21 398 226 m21 404 215 m21 409 206 m21 415 198 m21 421 192 m21 426 187 m21 432 183
 m21 438 180 m21 443 178 m21 449 176 m21 455 174 m21 460 172 m21 466 171 m21 472 170 m21 477 169 m21 483 168 m21 489 167 m21 494 166 m21 500 166 m21 506 165 m21 512 164 m21 517 164 m21 523 163 m21 529 163 m21 534 162 m21 540 162 m21 546 161 m21 551
 161 m21 557 161 m21 563 161 m21 568 160 m21 574 160 m21 580 160 m21 585 161 m21 591 160 m21 597 161 m21 602 161 m21 608 161 m21 614 163 m21 black 620 158 m s 620 164 m s 0 0 1 c 620 161 m21 black 625 167 m 2 Y s 625 175 m 2 Y s 0 0 1 c 625 172 m21
 black 631 159 m 4 Y s 631 169 m 4 Y s 0 0 1 c 631 166 m21 black 637 156 m 8 Y s 637 170 m 7 Y s 0 0 1 c 637 167 m21 black 642 159 m 11 Y s 642 176 m 11 Y s 0 0 1 c 642 173 m21 648 111 m21 black 94 84 m 568 X s 94 102 m -18 Y s 113 93 m -9 Y s 132
 93 m -9 Y s 151 93 m -9 Y s 170 102 m -18 Y s 188 93 m -9 Y s 207 93 m -9 Y s 226 93 m -9 Y s 245 102 m -18 Y s 264 93 m -9 Y s 283 93 m -9 Y s 302 93 m -9 Y s 321 102 m -18 Y s 340 93 m -9 Y s 359 93 m -9 Y s 378 93 m -9 Y s 397 102 m -18 Y s 416
 93 m -9 Y s 435 93 m -9 Y s 454 93 m -9 Y s 473 102 m -18 Y s 492 93 m -9 Y s 511 93 m -9 Y s 530 93 m -9 Y s 548 102 m -18 Y s 567 93 m -9 Y s 586 93 m -9 Y s 605 93 m -9 Y s 624 102 m -18 Y s 624 102 m -18 Y s 643 93 m -9 Y s
 gsave  710 759 23 8 C 80 57 t 0 r /Helvetica-Bold findfont 25.6826 sf 0 0 m (\2556) show NC gr 
 gsave  710 759 23 8 C 157 57 t 0 r /Helvetica-Bold findfont 25.6826 sf 0 0 m (\2554) show NC gr 
 gsave  710 759 23 8 C 234 57 t 0 r /Helvetica-Bold findfont 25.6826 sf 0 0 m (\2552) show NC gr 
 gsave  710 759 23 8 C 311 57 t 0 r /Helvetica-Bold findfont 25.6826 sf 0 0 m (0) show NC gr 
 gsave  710 759 23 8 C 387 57 t 0 r /Helvetica-Bold findfont 25.6826 sf 0 0 m (2) show NC gr 
 gsave  710 759 23 8 C 462 57 t 0 r /Helvetica-Bold findfont 25.6826 sf 0 0 m (4) show NC gr 
 gsave  710 759 23 8 C 538 57 t 0 r /Helvetica-Bold findfont 25.6826 sf 0 0 m (6) show NC gr 
 gsave  710 759 23 8 C 615 57 t 0 r /Helvetica-Bold findfont 25.6826 sf 0 0 m (8) show NC gr  94 84 m 607 Y s 111 101 m -17 X s 102 115 m -8 X s 102 129 m -8 X s 102 143 m -8 X s 102 157 m -8 X s 111 171 m -17 X s 102 185 m -8 X s 102 199 m -8 X s
 102 213 m -8 X s 102 227 m -8 X s 111 241 m -17 X s 102 255 m -8 X s 102 270 m -8 X s 102 284 m -8 X s 102 298 m -8 X s 111 312 m -17 X s 102 326 m -8 X s 102 340 m -8 X s 102 354 m -8 X s 102 368 m -8 X s 111 382 m -17 X s 102 396 m -8 X s 102 410
 m -8 X s 102 424 m -8 X s 102 438 m -8 X s 111 452 m -17 X s 102 466 m -8 X s 102 480 m -8 X s 102 494 m -8 X s 102 508 m -8 X s 111 522 m -17 X s 102 536 m -8 X s 102 550 m -8 X s 102 564 m -8 X s 102 578 m -8 X s 111 592 m -17 X s 102 606 m -8 X
 s 102 620 m -8 X s 102 634 m -8 X s 102 648 m -8 X s 111 662 m -17 X s 111 101 m -17 X s 102 87 m -8 X s 111 662 m -17 X s 102 676 m -8 X s 102 690 m -8 X s
 gsave  710 759 23 8 C 66 91 t 0 r /Helvetica-Bold findfont 25.6826 sf 0 0 m (\2558) show NC gr 
 gsave  710 759 23 8 C 66 162 t 0 r /Helvetica-Bold findfont 25.6826 sf 0 0 m (\2557) show NC gr 
 gsave  710 759 23 8 C 66 231 t 0 r /Helvetica-Bold findfont 25.6826 sf 0 0 m (\2556) show NC gr 
 gsave  710 759 23 8 C 66 302 t 0 r /Helvetica-Bold findfont 25.6826 sf 0 0 m (\2555) show NC gr 
 gsave  710 759 23 8 C 66 370 t 0 r /Helvetica-Bold findfont 25.6826 sf 0 0 m (\2554) show NC gr 
 gsave  710 759 23 8 C 66 442 t 0 r /Helvetica-Bold findfont 25.6826 sf 0 0 m (\2553) show NC gr 
 gsave  710 759 23 8 C 66 513 t 0 r /Helvetica-Bold findfont 25.6826 sf 0 0 m (\2552) show NC gr 
 gsave  710 759 23 8 C 68 581 t 0 r /Helvetica-Bold findfont 25.6826 sf 0 0 m (\2551) show NC gr 
 gsave  710 759 23 8 C 74 652 t 0 r /Helvetica-Bold findfont 25.6826 sf 0 0 m (0) show NC gr  0.95 0.95 0.95 c 497 41 30 722 bf black 38 722 m -5 Y 495 X 38 Y -6 X -33 Y f 30 722 m 41 Y 497 X -41 Y -497 X cl s 1 1 1 c black
 gsave  710 759 23 8 C 68 735 t 0 r /Helvetica-Bold findfont 19.9753 sf 0 0 m (Relative Gauge Invariance profile \(7 gluons\)) show NC gr  0.95 0.95 0.95 c 710 759 779 8 bf 1 1 1 c 779 8 m 8 8 d 743 Y 694 X 8 8 d -710 X -759 Y f 0.665 0.665 0.665 c
 779 8 m 8 8 d 694 X 743 Y 8 8 d -759 Y -710 X f black 0.95 0.95 0.95 c 568 607 850 84 bf 1 1 1 c 850 84 m 4 4 d 599 Y 560 X 4 4 d -568 X -607 Y f 0.665 0.665 0.665 c 850 84 m 4 4 d 560 X 599 Y 4 4 d -607 Y -568 X f black 568 607 850 84 bl 0.95 0.95
 0.95 c 568 607 850 84 bf 1 1 1 c 850 84 m 4 4 d 599 Y 560 X 4 4 d -568 X -607 Y f 0.665 0.665 0.665 c 850 84 m 4 4 d 560 X 599 Y 4 4 d -607 Y -568 X f black 568 607 850 84 bl 0 1 0 c black 0 1 0 c 850 84 m 12 X 586 Y 4 X 15 Y 8 X -3 Y 4 X -4 Y 4 X
 -5 Y 4 X -4 Y 4 X -5 Y 4 X -4 Y 4 X -4 Y 4 X -4 Y 4 X -4 Y 5 X -4 Y 4 X -4 Y 4 X -4 Y 4 X -3 Y 4 X -4 Y 4 X -3 Y 4 X -4 Y 4 X -3 Y 4 X -3 Y 4 X -3 Y 4 X -3 Y 4 X -3 Y 4 X -3 Y 4 X -3 Y 4 X -3 Y 4 X -3 Y 5 X -3 Y 4 X -3 Y 4 X -3 Y 4 X -3 Y 4 X -2 Y
 4 X -3 Y 4 X -3 Y 4 X -2 Y 4 X -3 Y 4 X -3 Y 4 X -2 Y 4 X -3 Y 4 X -3 Y 4 X -2 Y 4 X -3 Y 4 X -3 Y 4 X -2 Y 5 X -2 Y 4 X -3 Y 4 X -3 Y 4 X -2 Y 4 X -3 Y 4 X -2 Y 4 X -3 Y 4 X -3 Y 4 X -2 Y 4 X -2 Y 4 X -3 Y 4 X -2 Y 4 X -3 Y 4 X -3 Y 4 X -2 Y 4 X
 -3 Y 4 X -2 Y 5 X -3 Y 4 X -3 Y 4 X -2 Y 4 X -3 Y 4 X -2 Y 4 X -3 Y 4 X -2 Y 4 X -4 Y 4 X -2 Y 4 X -3 Y 4 X -3 Y 4 X -2 Y 4 X -3 Y 4 X -3 Y 4 X -3 Y 4 X -3 Y 5 X -3 Y 4 X -2 Y 4 X -2 Y 4 X -4 Y 4 X -4 Y 4 X -3 Y 4 X -3 Y 4 X -3 Y 4 X -2 Y 4 X -4 Y
 8 X -5 Y 4 X -5 Y 4 X -4 Y 4 X -3 Y 4 X -4 Y 4 X -1 Y 5 X -6 Y 4 X -4 Y 4 X -4 Y 4 X -2 Y 4 X -4 Y 4 X -3 Y 4 X -5 Y 4 X -4 Y 8 X -8 Y 4 X -5 Y 4 X -5 Y 4 X -6 Y 4 X -2 Y 4 X -5 Y 4 X -6 Y 5 X -5 Y 4 X -7 Y 4 X -4 Y 4 X -8 Y 4 X -4 Y 4 X -7 Y 4 X
 -5 Y 4 X -6 Y 4 X -8 Y 4 X -10 Y 4 X -8 Y 4 X -9 Y 4 X -8 Y 4 X -4 Y 4 X -15 Y 4 X -8 Y 4 X -10 Y 5 X -9 Y 4 X -16 Y 4 X -10 Y 4 X -14 Y 4 X -13 Y 4 X -12 Y 4 X -10 Y 4 X -12 Y 4 X -29 Y 4 X -6 Y f black 0 1 0 c black 850 84 m 12 X 586 Y 4 X 15 Y 8
 X -3 Y 4 X -4 Y 4 X -5 Y 4 X -4 Y 4 X -5 Y 4 X -4 Y 4 X -4 Y 4 X -4 Y 4 X -4 Y 5 X -4 Y 4 X -4 Y 4 X -4 Y 4 X -3 Y 4 X -4 Y 4 X -3 Y 4 X -4 Y 4 X -3 Y 4 X -3 Y 4 X -3 Y 4 X -3 Y 4 X -3 Y 4 X -3 Y 4 X -3 Y 4 X -3 Y 4 X -3 Y 5 X -3 Y 4 X -3 Y 4 X -3
 Y 4 X -3 Y 4 X -2 Y 4 X -3 Y 4 X -3 Y 4 X -2 Y 4 X -3 Y 4 X -3 Y 4 X -2 Y 4 X -3 Y 4 X -3 Y 4 X -2 Y 4 X -3 Y 4 X -3 Y 4 X -2 Y 5 X -2 Y 4 X -3 Y 4 X -3 Y 4 X -2 Y 4 X -3 Y 4 X -2 Y 4 X -3 Y 4 X -3 Y 4 X -2 Y 4 X -2 Y 4 X -3 Y 4 X -2 Y 4 X -3 Y 4 X
 -3 Y 4 X -2 Y 4 X -3 Y 4 X -2 Y 5 X -3 Y 4 X -3 Y 4 X -2 Y 4 X -3 Y 4 X -2 Y 4 X -3 Y 4 X -2 Y 4 X -4 Y 4 X -2 Y 4 X -3 Y 4 X -3 Y 4 X -2 Y 4 X -3 Y 4 X -3 Y 4 X -3 Y 4 X -3 Y 5 X -3 Y 4 X -2 Y 4 X -2 Y 4 X -4 Y 4 X -4 Y 4 X -3 Y 4 X -3 Y 4 X -3 Y
 4 X -2 Y 4 X -4 Y 8 X -5 Y 4 X -5 Y 4 X -4 Y 4 X -3 Y 4 X -4 Y 4 X -1 Y 5 X -6 Y 4 X -4 Y 4 X -4 Y 4 X -2 Y 4 X -4 Y 4 X -3 Y 4 X -5 Y 4 X -4 Y 8 X -8 Y 4 X -5 Y 4 X -5 Y 4 X -6 Y 4 X -2 Y 4 X -5 Y 4 X -6 Y 5 X -5 Y 4 X -7 Y 4 X -4 Y 4 X -8 Y 4 X
 -4 Y 4 X -7 Y 4 X -5 Y 4 X -6 Y 4 X -8 Y 4 X -10 Y 4 X -8 Y 4 X -9 Y 4 X -8 Y 4 X -4 Y 4 X -15 Y 4 X -8 Y 4 X -10 Y 5 X -9 Y 4 X -16 Y 4 X -10 Y 4 X -14 Y 4 X -13 Y 4 X -12 Y 4 X -10 Y 4 X -12 Y 4 X -29 Y 4 X s 850 84 m 568 X s 850 102 m -18 Y s
 870 93 m -9 Y s 890 93 m -9 Y s 911 93 m -9 Y s 931 102 m -18 Y s 951 93 m -9 Y s 971 93 m -9 Y s 992 93 m -9 Y s 1012 102 m -18 Y s 1032 93 m -9 Y s 1053 93 m -9 Y s 1073 93 m -9 Y s 1093 102 m -18 Y s 1114 93 m -9 Y s 1134 93 m -9 Y s 1154 93 m
 -9 Y s 1174 102 m -18 Y s 1195 93 m -9 Y s 1215 93 m -9 Y s 1235 93 m -9 Y s 1256 102 m -18 Y s 1276 93 m -9 Y s 1296 93 m -9 Y s 1317 93 m -9 Y s 1337 102 m -18 Y s 1357 93 m -9 Y s 1377 93 m -9 Y s 1398 93 m -9 Y s 1418 102 m -18 Y s
 gsave  710 759 779 8 C 840 57 t 0 r /Helvetica-Bold findfont 25.6826 sf 0 0 m (0) show NC gr 
 gsave  710 759 779 8 C 900 57 t 0 r /Helvetica-Bold findfont 25.6826 sf 0 0 m (2000) show NC gr 
 gsave  710 759 779 8 C 983 57 t 0 r /Helvetica-Bold findfont 25.6826 sf 0 0 m (4000) show NC gr 
 gsave  710 759 779 8 C 1063 57 t 0 r /Helvetica-Bold findfont 25.6826 sf 0 0 m (6000) show NC gr 
 gsave  710 759 779 8 C 1145 57 t 0 r /Helvetica-Bold findfont 25.6826 sf 0 0 m (8000) show NC gr 
 gsave  710 759 779 8 C 1216 57 t 0 r /Helvetica-Bold findfont 25.6826 sf 0 0 m (10000) show NC gr 
 gsave  710 759 779 8 C 1299 57 t 0 r /Helvetica-Bold findfont 25.6826 sf 0 0 m (12000) show NC gr 
 gsave  710 759 779 8 C 1379 57 t 0 r /Helvetica-Bold findfont 25.6826 sf 0 0 m (14000) show NC gr  850 84 m 607 Y s 858 88 m -8 X s 867 94 m -17 X s 858 109 m -8 X s 867 116 m -17 X s
 gsave  710 759 779 8 C 818 117 t 0 r /Helvetica-Bold findfont 17.1217 sf 0 0 m (\25527) show NC gr 
 gsave  710 759 779 8 C 789 103 t 0 r /Helvetica-Bold findfont 25.6826 sf 0 0 m (10) show NC gr  858 131 m -8 X s 867 138 m -17 X s 858 153 m -8 X s 867 159 m -17 X s 858 174 m -8 X s 867 181 m -17 X s
 gsave  710 759 779 8 C 818 182 t 0 r /Helvetica-Bold findfont 17.1217 sf 0 0 m (\25524) show NC gr 
 gsave  710 759 779 8 C 789 168 t 0 r /Helvetica-Bold findfont 25.6826 sf 0 0 m (10) show NC gr  858 196 m -8 X s 867 203 m -17 X s 858 218 m -8 X s 867 224 m -17 X s 858 239 m -8 X s 867 246 m -17 X s
 gsave  710 759 779 8 C 820 248 t 0 r /Helvetica-Bold findfont 17.1217 sf 0 0 m (\25521) show NC gr 
 gsave  710 759 779 8 C 792 234 t 0 r /Helvetica-Bold findfont 25.6826 sf 0 0 m (10) show NC gr  858 261 m -8 X s 867 267 m -17 X s 858 283 m -8 X s 867 289 m -17 X s 858 304 m -8 X s 867 311 m -17 X s
 gsave  710 759 779 8 C 818 316 t 0 r /Helvetica-Bold findfont 17.1217 sf 0 0 m (\25518) show NC gr 
 gsave  710 759 779 8 C 789 299 t 0 r /Helvetica-Bold findfont 25.6826 sf 0 0 m (10) show NC gr  858 326 m -8 X s 867 332 m -17 X s 858 347 m -8 X s 867 354 m -17 X s 858 369 m -8 X s 867 376 m -17 X s
 gsave  710 759 779 8 C 818 379 t 0 r /Helvetica-Bold findfont 17.1217 sf 0 0 m (\25515) show NC gr 
 gsave  710 759 779 8 C 789 362 t 0 r /Helvetica-Bold findfont 25.6826 sf 0 0 m (10) show NC gr  858 391 m -8 X s 867 397 m -17 X s 858 412 m -8 X s 867 419 m -17 X s 858 434 m -8 X s 867 441 m -17 X s
 gsave  710 759 779 8 C 818 442 t 0 r /Helvetica-Bold findfont 17.1217 sf 0 0 m (\25512) show NC gr 
 gsave  710 759 779 8 C 789 427 t 0 r /Helvetica-Bold findfont 25.6826 sf 0 0 m (10) show NC gr  858 456 m -8 X s 867 462 m -17 X s 858 477 m -8 X s 867 484 m -17 X s 858 499 m -8 X s 867 506 m -17 X s
 gsave  710 759 779 8 C 826 510 t 0 r /Helvetica-Bold findfont 17.1217 sf 0 0 m (\2559) show NC gr 
 gsave  710 759 779 8 C 798 493 t 0 r /Helvetica-Bold findfont 25.6826 sf 0 0 m (10) show NC gr  858 521 m -8 X s 867 527 m -17 X s 858 542 m -8 X s 867 549 m -17 X s 858 564 m -8 X s 867 570 m -17 X s
 gsave  710 759 779 8 C 826 575 t 0 r /Helvetica-Bold findfont 17.1217 sf 0 0 m (\2556) show NC gr 
 gsave  710 759 779 8 C 798 558 t 0 r /Helvetica-Bold findfont 25.6826 sf 0 0 m (10) show NC gr  858 586 m -8 X s 867 592 m -17 X s 858 607 m -8 X s 867 614 m -17 X s 858 629 m -8 X s 867 635 m -17 X s
 gsave  710 759 779 8 C 826 641 t 0 r /Helvetica-Bold findfont 17.1217 sf 0 0 m (\2553) show NC gr 
 gsave  710 759 779 8 C 798 624 t 0 r /Helvetica-Bold findfont 25.6826 sf 0 0 m (10) show NC gr  858 650 m -8 X s 867 657 m -17 X s 858 672 m -8 X s 867 679 m -17 X s 0.95 0.95 0.95 c 416 41 786 722 bf black 794 722 m -5 Y 413 X 38 Y -5 X -33 Y f
 786 722 m 41 Y 416 X -41 Y -416 X cl s 1 1 1 c black
 gsave  710 759 779 8 C 806 732 t 0 r /Helvetica-Bold findfont 31.3898 sf 0 0 m (Normalized Ht \(7 gluons\)) show NC gr  0.95 0.95 0.95 c 711 759 1534 8 bf 1 1 1 c 1534 8 m 8 8 d 743 Y 695 X 8 8 d -711 X -759 Y f 0.665 0.665 0.665 c 1534 8 m 8 8 d
 695 X 743 Y 8 8 d -759 Y -711 X f black 0.95 0.95 0.95 c 568 607 1606 84 bf 1 1 1 c 1606 84 m 4 4 d 599 Y 560 X 4 4 d -568 X -607 Y f 0.665 0.665 0.665 c 1606 84 m 4 4 d 560 X 599 Y 4 4 d -607 Y -568 X f black 568 607 1606 84 bl 0.95 0.95 0.95 c
 568 607 1606 84 bf 1 1 1 c 1606 84 m 4 4 d 599 Y 560 X 4 4 d -568 X -607 Y f 0.665 0.665 0.665 c 1606 84 m 4 4 d 560 X 599 Y 4 4 d -607 Y -568 X f black 568 607 1606 84 bl 0 1 0 c black 0 1 0 c 1606 84 m 90 X 578 Y 4 X -40 Y 4 X -30 Y 4 X -30 Y 4 X
 -28 Y 3 X -30 Y 4 X -23 Y 4 X -18 Y 4 X -25 Y 4 X -16 Y 3 X -17 Y 4 X -14 Y 4 X -14 Y 4 X -15 Y 4 X -11 Y 3 X -13 Y 4 X -10 Y 4 X -11 Y 4 X -13 Y 3 X -8 Y 4 X -8 Y 4 X -8 Y 4 X -8 Y 4 X -9 Y 3 X -7 Y 4 X -6 Y 4 X -7 Y 4 X -8 Y 4 X -3 Y 3 X -6 Y 4 X
 -6 Y 4 X -5 Y 4 X -5 Y 4 X -5 Y 3 X -5 Y 4 X -5 Y 4 X -5 Y 4 X -4 Y 3 X -4 Y 4 X -4 Y 4 X -4 Y 4 X -3 Y 4 X -4 Y 3 X -4 Y 4 X -4 Y 4 X -3 Y 4 X -3 Y 4 X -4 Y 3 X -2 Y 4 X -4 Y 4 X -2 Y 4 X -3 Y 4 X -3 Y 3 X -3 Y 4 X -2 Y 4 X -3 Y 4 X -3 Y 4 X -2 Y
 3 X -2 Y 4 X -2 Y 4 X -2 Y 4 X -2 Y 3 X -3 Y 4 X -1 Y 4 X -2 Y 4 X -2 Y 4 X -1 Y 3 X -2 Y 4 X -1 Y 4 X -1 Y 4 X -2 Y 4 X -1 Y 3 X -1 Y 4 X -1 Y 4 X -1 Y 4 X -1 Y 4 X -1 Y 3 X -1 Y 8 X -1 Y 4 X -1 Y 7 X -1 Y 4 X -1 Y 11 X -1 Y 12 X -1 Y 11 X -1 Y 23
 X -1 Y 106 X f black 0 1 0 c black 1606 84 m 90 X 578 Y 4 X -40 Y 4 X -30 Y 4 X -30 Y 4 X -28 Y 3 X -30 Y 4 X -23 Y 4 X -18 Y 4 X -25 Y 4 X -16 Y 3 X -17 Y 4 X -14 Y 4 X -14 Y 4 X -15 Y 4 X -11 Y 3 X -13 Y 4 X -10 Y 4 X -11 Y 4 X -13 Y 3 X -8 Y 4 X
 -8 Y 4 X -8 Y 4 X -8 Y 4 X -9 Y 3 X -7 Y 4 X -6 Y 4 X -7 Y 4 X -8 Y 4 X -3 Y 3 X -6 Y 4 X -6 Y 4 X -5 Y 4 X -5 Y 4 X -5 Y 3 X -5 Y 4 X -5 Y 4 X -5 Y 4 X -4 Y 3 X -4 Y 4 X -4 Y 4 X -4 Y 4 X -3 Y 4 X -4 Y 3 X -4 Y 4 X -4 Y 4 X -3 Y 4 X -3 Y 4 X -4 Y
 3 X -2 Y 4 X -4 Y 4 X -2 Y 4 X -3 Y 4 X -3 Y 3 X -3 Y 4 X -2 Y 4 X -3 Y 4 X -3 Y 4 X -2 Y 3 X -2 Y 4 X -2 Y 4 X -2 Y 4 X -2 Y 3 X -3 Y 4 X -1 Y 4 X -2 Y 4 X -2 Y 4 X -1 Y 3 X -2 Y 4 X -1 Y 4 X -1 Y 4 X -2 Y 4 X -1 Y 3 X -1 Y 4 X -1 Y 4 X -1 Y 4 X
 -1 Y 4 X -1 Y 3 X -1 Y 8 X -1 Y 4 X -1 Y 7 X -1 Y 4 X -1 Y 11 X -1 Y 12 X -1 Y 11 X -1 Y 23 X -1 Y 106 X s 1606 84 m 568 X s 1606 102 m -18 Y s 1628 93 m -9 Y s 1651 93 m -9 Y s 1674 93 m -9 Y s 1696 93 m -9 Y s 1719 102 m -18 Y s 1742 93 m -9 Y s
 1765 93 m -9 Y s 1787 93 m -9 Y s 1810 93 m -9 Y s 1833 102 m -18 Y s 1856 93 m -9 Y s 1878 93 m -9 Y s 1901 93 m -9 Y s 1924 93 m -9 Y s 1947 102 m -18 Y s 1969 93 m -9 Y s 1992 93 m -9 Y s 2015 93 m -9 Y s 2038 93 m -9 Y s 2060 102 m -18 Y s 2083
 93 m -9 Y s 2106 93 m -9 Y s 2129 93 m -9 Y s 2151 93 m -9 Y s 2174 102 m -18 Y s
 gsave  711 759 1534 8 C 1595 57 t 0 r /Helvetica-Bold findfont 25.6826 sf 0 0 m (0) show NC gr 
 gsave  711 759 1534 8 C 1698 57 t 0 r /Helvetica-Bold findfont 25.6826 sf 0 0 m (0.5) show NC gr 
 gsave  711 759 1534 8 C 1826 57 t 0 r /Helvetica-Bold findfont 25.6826 sf 0 0 m (1) show NC gr 
 gsave  711 759 1534 8 C 1926 57 t 0 r /Helvetica-Bold findfont 25.6826 sf 0 0 m (1.5) show NC gr 
 gsave  711 759 1534 8 C 2051 57 t 0 r /Helvetica-Bold findfont 25.6826 sf 0 0 m (2) show NC gr 
 gsave  711 759 1534 8 C 2154 57 t 0 r /Helvetica-Bold findfont 25.6826 sf 0 0 m (2.5) show NC gr  1606 84 m 607 Y s 1623 84 m -17 X s 1614 96 m -8 X s 1614 108 m -8 X s 1614 121 m -8 X s 1614 133 m -8 X s 1623 145 m -17 X s 1614 158 m -8 X s 1614
 170 m -8 X s 1614 182 m -8 X s 1614 195 m -8 X s 1623 207 m -17 X s 1614 219 m -8 X s 1614 232 m -8 X s 1614 244 m -8 X s 1614 257 m -8 X s 1623 269 m -17 X s 1614 281 m -8 X s 1614 294 m -8 X s 1614 306 m -8 X s 1614 318 m -8 X s 1623 331 m -17 X
 s 1614 343 m -8 X s 1614 355 m -8 X s 1614 368 m -8 X s 1614 380 m -8 X s 1623 392 m -17 X s 1614 405 m -8 X s 1614 417 m -8 X s 1614 429 m -8 X s 1614 442 m -8 X s 1623 454 m -17 X s 1614 466 m -8 X s 1614 479 m -8 X s 1614 491 m -8 X s 1614 503 m
 -8 X s 1623 516 m -17 X s 1614 528 m -8 X s 1614 540 m -8 X s 1614 553 m -8 X s 1614 565 m -8 X s 1623 578 m -17 X s 1614 590 m -8 X s 1614 602 m -8 X s 1614 615 m -8 X s 1614 627 m -8 X s 1623 639 m -17 X s 1623 639 m -17 X s 1614 652 m -8 X s
 1614 664 m -8 X s 1614 676 m -8 X s 1614 689 m -8 X s
 gsave  711 759 1534 8 C 1587 74 t 0 r /Helvetica-Bold findfont 25.6826 sf 0 0 m (0) show NC gr 
 gsave  711 759 1534 8 C 1536 137 t 0 r /Helvetica-Bold findfont 25.6826 sf 0 0 m (0.005) show NC gr 
 gsave  711 759 1534 8 C 1553 197 t 0 r /Helvetica-Bold findfont 25.6826 sf 0 0 m (0.01) show NC gr 
 gsave  711 759 1534 8 C 1536 259 t 0 r /Helvetica-Bold findfont 25.6826 sf 0 0 m (0.015) show NC gr 
 gsave  711 759 1534 8 C 1550 322 t 0 r /Helvetica-Bold findfont 25.6826 sf 0 0 m (0.02) show NC gr 
 gsave  711 759 1534 8 C 1536 382 t 0 r /Helvetica-Bold findfont 25.6826 sf 0 0 m (0.025) show NC gr 
 gsave  711 759 1534 8 C 1550 444 t 0 r /Helvetica-Bold findfont 25.6826 sf 0 0 m (0.03) show NC gr 
 gsave  711 759 1534 8 C 1536 507 t 0 r /Helvetica-Bold findfont 25.6826 sf 0 0 m (0.035) show NC gr 
 gsave  711 759 1534 8 C 1550 567 t 0 r /Helvetica-Bold findfont 25.6826 sf 0 0 m (0.04) show NC gr 
 gsave  711 759 1534 8 C 1536 630 t 0 r /Helvetica-Bold findfont 25.6826 sf 0 0 m (0.045) show NC gr  0.95 0.95 0.95 c 497 41 1542 722 bf black 1550 722 m -5 Y 495 X 38 Y -6 X -33 Y f 1542 722 m 41 Y 497 X -41 Y -497 X cl s 1 1 1 c black
 gsave  711 759 1534 8 C 1564 735 t 0 r /Helvetica-Bold findfont 25.6826 sf 0 0 m (Normalized min\(R\(jet,jet\)\)  \(7 gluons\)) show NC gr 
 gr  gr 
showpage
end
%%EOF
