%!PS-Adobe-2.0 EPSF-2.0
%%Title: distributions9.fig
%%Creator: fig2dev Version 3.2 Patchlevel 5
%%CreationDate: Wed Feb 17 14:03:03 2010
%%For: giele@thgpu1.fnal.gov (Walter Giele)
%%BoundingBox: 0 0 568 194
%Magnification: 1.0000
%%EndComments
/$F2psDict 200 dict def
$F2psDict begin
$F2psDict /mtrx matrix put
/col-1 {0 setgray} bind def
/col0 {0.000 0.000 0.000 srgb} bind def
/col1 {0.000 0.000 1.000 srgb} bind def
/col2 {0.000 1.000 0.000 srgb} bind def
/col3 {0.000 1.000 1.000 srgb} bind def
/col4 {1.000 0.000 0.000 srgb} bind def
/col5 {1.000 0.000 1.000 srgb} bind def
/col6 {1.000 1.000 0.000 srgb} bind def
/col7 {1.000 1.000 1.000 srgb} bind def
/col8 {0.000 0.000 0.560 srgb} bind def
/col9 {0.000 0.000 0.690 srgb} bind def
/col10 {0.000 0.000 0.820 srgb} bind def
/col11 {0.530 0.810 1.000 srgb} bind def
/col12 {0.000 0.560 0.000 srgb} bind def
/col13 {0.000 0.690 0.000 srgb} bind def
/col14 {0.000 0.820 0.000 srgb} bind def
/col15 {0.000 0.560 0.560 srgb} bind def
/col16 {0.000 0.690 0.690 srgb} bind def
/col17 {0.000 0.820 0.820 srgb} bind def
/col18 {0.560 0.000 0.000 srgb} bind def
/col19 {0.690 0.000 0.000 srgb} bind def
/col20 {0.820 0.000 0.000 srgb} bind def
/col21 {0.560 0.000 0.560 srgb} bind def
/col22 {0.690 0.000 0.690 srgb} bind def
/col23 {0.820 0.000 0.820 srgb} bind def
/col24 {0.500 0.190 0.000 srgb} bind def
/col25 {0.630 0.250 0.000 srgb} bind def
/col26 {0.750 0.380 0.000 srgb} bind def
/col27 {1.000 0.500 0.500 srgb} bind def
/col28 {1.000 0.630 0.630 srgb} bind def
/col29 {1.000 0.750 0.750 srgb} bind def
/col30 {1.000 0.880 0.880 srgb} bind def
/col31 {1.000 0.840 0.000 srgb} bind def
/col32 {0.949 0.949 0.949 srgb} bind def
/col33 {0.663 0.663 0.663 srgb} bind def

end
save
newpath 0 194 moveto 0 0 lineto 568 0 lineto 568 194 lineto closepath clip newpath
0.1 792.1 translate
1 -1 scale

/cp {closepath} bind def
/ef {eofill} bind def
/gr {grestore} bind def
/gs {gsave} bind def
/sa {save} bind def
/rs {restore} bind def
/l {lineto} bind def
/m {moveto} bind def
/rm {rmoveto} bind def
/n {newpath} bind def
/s {stroke} bind def
/sh {show} bind def
/slc {setlinecap} bind def
/slj {setlinejoin} bind def
/slw {setlinewidth} bind def
/srgb {setrgbcolor} bind def
/rot {rotate} bind def
/sc {scale} bind def
/sd {setdash} bind def
/ff {findfont} bind def
/sf {setfont} bind def
/scf {scalefont} bind def
/sw {stringwidth} bind def
/tr {translate} bind def
/tnt {dup dup currentrgbcolor
  4 -2 roll dup 1 exch sub 3 -1 roll mul add
  4 -2 roll dup 1 exch sub 3 -1 roll mul add
  4 -2 roll dup 1 exch sub 3 -1 roll mul add srgb}
  bind def
/shd {dup dup currentrgbcolor 4 -2 roll mul 4 -2 roll mul
  4 -2 roll mul srgb} bind def
/reencdict 12 dict def /ReEncode { reencdict begin
/newcodesandnames exch def /newfontname exch def /basefontname exch def
/basefontdict basefontname findfont def /newfont basefontdict maxlength dict def
basefontdict { exch dup /FID ne { dup /Encoding eq
{ exch dup length array copy newfont 3 1 roll put }
{ exch newfont 3 1 roll put } ifelse } { pop pop } ifelse } forall
newfont /FontName newfontname put newcodesandnames aload pop
128 1 255 { newfont /Encoding get exch /.notdef put } for
newcodesandnames length 2 idiv { newfont /Encoding get 3 1 roll put } repeat
newfontname newfont definefont pop end } def
/isovec [
8#055 /minus 8#200 /grave 8#201 /acute 8#202 /circumflex 8#203 /tilde
8#204 /macron 8#205 /breve 8#206 /dotaccent 8#207 /dieresis
8#210 /ring 8#211 /cedilla 8#212 /hungarumlaut 8#213 /ogonek 8#214 /caron
8#220 /dotlessi 8#230 /oe 8#231 /OE
8#240 /space 8#241 /exclamdown 8#242 /cent 8#243 /sterling
8#244 /currency 8#245 /yen 8#246 /brokenbar 8#247 /section 8#250 /dieresis
8#251 /copyright 8#252 /ordfeminine 8#253 /guillemotleft 8#254 /logicalnot
8#255 /hyphen 8#256 /registered 8#257 /macron 8#260 /degree 8#261 /plusminus
8#262 /twosuperior 8#263 /threesuperior 8#264 /acute 8#265 /mu 8#266 /paragraph
8#267 /periodcentered 8#270 /cedilla 8#271 /onesuperior 8#272 /ordmasculine
8#273 /guillemotright 8#274 /onequarter 8#275 /onehalf
8#276 /threequarters 8#277 /questiondown 8#300 /Agrave 8#301 /Aacute
8#302 /Acircumflex 8#303 /Atilde 8#304 /Adieresis 8#305 /Aring
8#306 /AE 8#307 /Ccedilla 8#310 /Egrave 8#311 /Eacute
8#312 /Ecircumflex 8#313 /Edieresis 8#314 /Igrave 8#315 /Iacute
8#316 /Icircumflex 8#317 /Idieresis 8#320 /Eth 8#321 /Ntilde 8#322 /Ograve
8#323 /Oacute 8#324 /Ocircumflex 8#325 /Otilde 8#326 /Odieresis 8#327 /multiply
8#330 /Oslash 8#331 /Ugrave 8#332 /Uacute 8#333 /Ucircumflex
8#334 /Udieresis 8#335 /Yacute 8#336 /Thorn 8#337 /germandbls 8#340 /agrave
8#341 /aacute 8#342 /acircumflex 8#343 /atilde 8#344 /adieresis 8#345 /aring
8#346 /ae 8#347 /ccedilla 8#350 /egrave 8#351 /eacute
8#352 /ecircumflex 8#353 /edieresis 8#354 /igrave 8#355 /iacute
8#356 /icircumflex 8#357 /idieresis 8#360 /eth 8#361 /ntilde 8#362 /ograve
8#363 /oacute 8#364 /ocircumflex 8#365 /otilde 8#366 /odieresis 8#367 /divide
8#370 /oslash 8#371 /ugrave 8#372 /uacute 8#373 /ucircumflex
8#374 /udieresis 8#375 /yacute 8#376 /thorn 8#377 /ydieresis] def
/Helvetica-Bold /Helvetica-Bold-iso isovec ReEncode
/$F2psBegin {$F2psDict begin /$F2psEnteredState save def} def
/$F2psEnd {$F2psEnteredState restore end} def

$F2psBegin
10 setmiterlimit
0 slj 0 slc
 0.06000 0.06000 sc
%
% Fig objects follow
%
% 
% here starts figure with depth 999
%  polyline 
% Polyline
0 slj
0 slc
0.000 slw
n 0 13200 m 0 9970 l 9449 9970 l 9449 13200 l
 0 13200 l  cp gs col32 1.00 shd ef gr 
% here ends figure;
% 
% here starts figure with depth 997
%  polyline 
% Polyline
0 slj
0 slc
0.000 slw
n 0 13200 m 33 13166 l 33 10004 l 9416 10004 l 9449 9970 l 0 9970 l

 0 13200 l  cp gs col7 1.00 shd ef gr 
% here ends figure;
% 
% here starts figure with depth 995
%  polyline 
% Polyline
0 slj
0 slc
0.000 slw
n 0 13200 m 33 13166 l 9416 13166 l 9416 10004 l 9449 9970 l 9449 13200 l

 0 13200 l  cp gs col33 1.00 shd ef gr 
% here ends figure;
% 
% here starts figure with depth 993
%  polyline 
% Polyline
0 slj
0 slc
0.000 slw
n 95 13166 m 95 10004 l 3054 10004 l 3054 13166 l
 95 13166 l  cp gs col32 1.00 shd ef gr 
% here ends figure;
% 
% here starts figure with depth 991
%  polyline 
% Polyline
0 slj
0 slc
0.000 slw
n 95 13166 m 129 13133 l 129 10037 l 3020 10037 l 3054 10004 l 95 10004 l

 95 13166 l  cp gs col7 1.00 shd ef gr 
% here ends figure;
% 
% here starts figure with depth 989
%  polyline 
% Polyline
0 slj
0 slc
0.000 slw
n 95 13166 m 129 13133 l 3020 13133 l 3020 10037 l 3054 10004 l 3054 13166 l

 95 13166 l  cp gs col33 1.00 shd ef gr 
% here ends figure;
% 
% here starts figure with depth 985
%  polyline 
% Polyline
0 slj
0 slc
0.000 slw
n 391 12850 m 408 12833 l 408 10337 l 2741 10337 l 2758 10320 l 391 10320 l

 391 12850 l  cp gs col7 1.00 shd ef gr 
% here ends figure;
% 
% here starts figure with depth 983
%  polyline 
% Polyline
0 slj
0 slc
0.000 slw
n 391 12850 m 408 12833 l 2741 12833 l 2741 10337 l 2758 10320 l 2758 12850 l

 391 12850 l  cp gs col33 1.00 shd ef gr 
% here ends figure;
% 
% here starts figure with depth 981
%  polyline 
% Polyline
0 slj
0 slc
7.500 slw
n 391 12850 m 391 10320 l 2758 10320 l 2758 12850 l
 391 12850 l  cp gs col0 s gr 
% here ends figure;
% 
% here starts figure with depth 979
%  polyline 
% Polyline
0 slj
0 slc
0.000 slw
n 391 12850 m 391 10320 l 2758 10320 l 2758 12850 l
 391 12850 l  cp gs col32 1.00 shd ef gr 
% here ends figure;
% 
% here starts figure with depth 977
%  polyline 
% Polyline
0 slj
0 slc
0.000 slw
n 391 12850 m 408 12833 l 408 10337 l 2741 10337 l 2758 10320 l 391 10320 l

 391 12850 l  cp gs col7 1.00 shd ef gr 
% here ends figure;
% 
% here starts figure with depth 975
%  polyline 
% Polyline
0 slj
0 slc
0.000 slw
n 391 12850 m 408 12833 l 2741 12833 l 2741 10337 l 2758 10320 l 2758 12850 l

 391 12850 l  cp gs col33 1.00 shd ef gr 
% here ends figure;
% 
% here starts figure with depth 973
%  polyline 
% Polyline
0 slj
0 slc
7.500 slw
n 391 12850 m 391 10320 l 2758 10320 l 2758 12850 l
 391 12850 l  cp gs col0 s gr 
% here ends figure;
% 
% here starts figure with depth 971
%  polyline 
% Polyline
0 slj
0 slc
0.000 slw
n 545 10545 m 533 10545 l 533 10570 l 558 10570 l 558 10545 l
 545 10545 l  cp gs col1 1.00 shd ef gr 
%  polyline 
% Polyline
7.500 slw
n 566 10554 m
 566 10550 l gs col0 s gr 
%  polyline 
% Polyline
n 566 10525 m
 566 10520 l gs col0 s gr 
% here ends figure;
% 
% here starts figure with depth 967
%  polyline 
% Polyline
0 slj
0 slc
0.000 slw
n 566 10525 m 554 10525 l 554 10550 l 579 10550 l 579 10525 l
 566 10525 l  cp gs col1 1.00 shd ef gr 
%  polyline 
% Polyline
7.500 slw
n 591 10608 m
 591 10575 l gs col0 s gr 
%  polyline 
% Polyline
n 591 10550 m
 591 10516 l gs col0 s gr 
% here ends figure;
% 
% here starts figure with depth 963
%  polyline 
% Polyline
0 slj
0 slc
0.000 slw
n 591 10550 m 579 10550 l 579 10575 l 604 10575 l 604 10550 l
 591 10550 l  cp gs col1 1.00 shd ef gr 
%  polyline 
% Polyline
7.500 slw
n 616 10583 m
 616 10575 l gs col0 s gr 
%  polyline 
% Polyline
n 616 10550 m
 616 10545 l gs col0 s gr 
% here ends figure;
% 
% here starts figure with depth 959
%  polyline 
% Polyline
0 slj
0 slc
0.000 slw
n 616 10550 m 604 10550 l 604 10575 l 629 10575 l 629 10550 l
 616 10550 l  cp gs col1 1.00 shd ef gr 
%  polyline 
% Polyline
7.500 slw
n 637 10579 m
 637 10562 l gs col0 s gr 
%  polyline 
% Polyline
n 637 10541 m
 637 10525 l gs col0 s gr 
% here ends figure;
% 
% here starts figure with depth 955
%  polyline 
% Polyline
0 slj
0 slc
0.000 slw
n 637 10537 m 624 10537 l 624 10562 l 649 10562 l 649 10537 l
 637 10537 l  cp gs col1 1.00 shd ef gr 
%  polyline 
% Polyline
n 662 10529 m 649 10529 l 649 10554 l 674 10554 l 674 10529 l
 662 10529 l  cp gs col1 1.00 shd ef gr 
%  polyline 
% Polyline
7.500 slw
n 687 10583 m
 687 10579 l gs col0 s gr 
%  polyline 
% Polyline
0.000 slw
n 687 10583 m 674 10583 l 674 10608 l 699 10608 l 699 10583 l
 687 10583 l  cp gs col1 1.00 shd ef gr 
%  polyline 
% Polyline
n 708 10608 m 695 10608 l 695 10633 l 720 10633 l 720 10608 l
 708 10608 l  cp gs col1 1.00 shd ef gr 
%  polyline 
% Polyline
n 733 10650 m 720 10650 l 720 10675 l 745 10675 l 745 10650 l
 733 10650 l  cp gs col1 1.00 shd ef gr 
%  polyline 
% Polyline
n 758 10629 m 745 10629 l 745 10654 l 770 10654 l 770 10629 l
 758 10629 l  cp gs col1 1.00 shd ef gr 
%  polyline 
% Polyline
n 783 10675 m 770 10675 l 770 10700 l 795 10700 l 795 10675 l
 783 10675 l  cp gs col1 1.00 shd ef gr 
%  polyline 
% Polyline
n 804 10704 m 791 10704 l 791 10729 l 816 10729 l 816 10704 l
 804 10704 l  cp gs col1 1.00 shd ef gr 
%  polyline 
% Polyline
n 829 10745 m 816 10745 l 816 10770 l 841 10770 l 841 10745 l
 829 10745 l  cp gs col1 1.00 shd ef gr 
%  polyline 
% Polyline
n 854 10783 m 841 10783 l 841 10808 l 866 10808 l 866 10783 l
 854 10783 l  cp gs col1 1.00 shd ef gr 
%  polyline 
% Polyline
n 874 10825 m 862 10825 l 862 10850 l 887 10850 l 887 10825 l
 874 10825 l  cp gs col1 1.00 shd ef gr 
%  polyline 
% Polyline
n 899 10862 m 887 10862 l 887 10887 l 912 10887 l 912 10862 l
 899 10862 l  cp gs col1 1.00 shd ef gr 
%  polyline 
% Polyline
n 924 10908 m 912 10908 l 912 10933 l 937 10933 l 937 10908 l
 924 10908 l  cp gs col1 1.00 shd ef gr 
%  polyline 
% Polyline
n 945 10950 m 933 10950 l 933 10975 l 958 10975 l 958 10950 l
 945 10950 l  cp gs col1 1.00 shd ef gr 
%  polyline 
% Polyline
n 970 11000 m 958 11000 l 958 11025 l 983 11025 l 983 11000 l
 970 11000 l  cp gs col1 1.00 shd ef gr 
%  polyline 
% Polyline
n 995 11041 m 983 11041 l 983 11066 l 1008 11066 l 1008 11041 l
 995 11041 l  cp gs col1 1.00 shd ef gr 
%  polyline 
% Polyline
n 1016 11087 m 1004 11087 l 1004 11112 l 1029 11112 l 1029 11087 l
 1016 11087 l  cp gs col1 1.00 shd ef gr 
%  polyline 
% Polyline
n 1041 11137 m 1029 11137 l 1029 11162 l 1054 11162 l 1054 11137 l
 1041 11137 l  cp gs col1 1.00 shd ef gr 
%  polyline 
% Polyline
n 1066 11183 m 1054 11183 l 1054 11208 l 1079 11208 l 1079 11183 l
 1066 11183 l  cp gs col1 1.00 shd ef gr 
%  polyline 
% Polyline
n 1087 11233 m 1074 11233 l 1074 11258 l 1099 11258 l 1099 11233 l
 1087 11233 l  cp gs col1 1.00 shd ef gr 
%  polyline 
% Polyline
n 1112 11279 m 1099 11279 l 1099 11304 l 1124 11304 l 1124 11279 l
 1112 11279 l  cp gs col1 1.00 shd ef gr 
%  polyline 
% Polyline
n 1137 11329 m 1124 11329 l 1124 11354 l 1149 11354 l 1149 11329 l
 1137 11329 l  cp gs col1 1.00 shd ef gr 
%  polyline 
% Polyline
n 1158 11375 m 1145 11375 l 1145 11400 l 1170 11400 l 1170 11375 l
 1158 11375 l  cp gs col1 1.00 shd ef gr 
%  polyline 
% Polyline
n 1183 11420 m 1170 11420 l 1170 11445 l 1195 11445 l 1195 11420 l
 1183 11420 l  cp gs col1 1.00 shd ef gr 
%  polyline 
% Polyline
n 1208 11470 m 1195 11470 l 1195 11495 l 1220 11495 l 1220 11470 l
 1208 11470 l  cp gs col1 1.00 shd ef gr 
%  polyline 
% Polyline
n 1233 11516 m 1220 11516 l 1220 11541 l 1245 11541 l 1245 11516 l
 1233 11516 l  cp gs col1 1.00 shd ef gr 
%  polyline 
% Polyline
n 1254 11566 m 1241 11566 l 1241 11591 l 1266 11591 l 1266 11566 l
 1254 11566 l  cp gs col1 1.00 shd ef gr 
%  polyline 
% Polyline
n 1279 11612 m 1266 11612 l 1266 11637 l 1291 11637 l 1291 11612 l
 1279 11612 l  cp gs col1 1.00 shd ef gr 
%  polyline 
% Polyline
n 1304 11662 m 1291 11662 l 1291 11687 l 1316 11687 l 1316 11662 l
 1304 11662 l  cp gs col1 1.00 shd ef gr 
%  polyline 
% Polyline
n 1324 11708 m 1312 11708 l 1312 11733 l 1337 11733 l 1337 11708 l
 1324 11708 l  cp gs col1 1.00 shd ef gr 
%  polyline 
% Polyline
n 1349 11758 m 1337 11758 l 1337 11783 l 1362 11783 l 1362 11758 l
 1349 11758 l  cp gs col1 1.00 shd ef gr 
%  polyline 
% Polyline
n 1374 11804 m 1362 11804 l 1362 11829 l 1387 11829 l 1387 11804 l
 1374 11804 l  cp gs col1 1.00 shd ef gr 
%  polyline 
% Polyline
n 1395 11854 m 1383 11854 l 1383 11879 l 1408 11879 l 1408 11854 l
 1395 11854 l  cp gs col1 1.00 shd ef gr 
%  polyline 
% Polyline
n 1420 11900 m 1408 11900 l 1408 11925 l 1433 11925 l 1433 11900 l
 1420 11900 l  cp gs col1 1.00 shd ef gr 
%  polyline 
% Polyline
n 1445 11950 m 1433 11950 l 1433 11975 l 1458 11975 l 1458 11950 l
 1445 11950 l  cp gs col1 1.00 shd ef gr 
%  polyline 
% Polyline
n 1466 11995 m 1454 11995 l 1454 12020 l 1479 12020 l 1479 11995 l
 1466 11995 l  cp gs col1 1.00 shd ef gr 
%  polyline 
% Polyline
n 1491 12045 m 1479 12045 l 1479 12070 l 1504 12070 l 1504 12045 l
 1491 12045 l  cp gs col1 1.00 shd ef gr 
%  polyline 
% Polyline
n 1516 12091 m 1504 12091 l 1504 12116 l 1529 12116 l 1529 12091 l
 1516 12091 l  cp gs col1 1.00 shd ef gr 
%  polyline 
% Polyline
n 1537 12141 m 1524 12141 l 1524 12166 l 1549 12166 l 1549 12141 l
 1537 12141 l  cp gs col1 1.00 shd ef gr 
%  polyline 
% Polyline
n 1562 12191 m 1549 12191 l 1549 12216 l 1574 12216 l 1574 12191 l
 1562 12191 l  cp gs col1 1.00 shd ef gr 
%  polyline 
% Polyline
n 1587 12241 m 1574 12241 l 1574 12266 l 1599 12266 l 1599 12241 l
 1587 12241 l  cp gs col1 1.00 shd ef gr 
%  polyline 
% Polyline
n 1608 12287 m 1595 12287 l 1595 12312 l 1620 12312 l 1620 12287 l
 1608 12287 l  cp gs col1 1.00 shd ef gr 
%  polyline 
% Polyline
n 1633 12333 m 1620 12333 l 1620 12358 l 1645 12358 l 1645 12333 l
 1633 12333 l  cp gs col1 1.00 shd ef gr 
%  polyline 
% Polyline
n 1658 12366 m 1645 12366 l 1645 12391 l 1670 12391 l 1670 12366 l
 1658 12366 l  cp gs col1 1.00 shd ef gr 
%  polyline 
% Polyline
n 1683 12395 m 1670 12395 l 1670 12420 l 1695 12420 l 1695 12395 l
 1683 12395 l  cp gs col1 1.00 shd ef gr 
%  polyline 
% Polyline
n 1704 12420 m 1691 12420 l 1691 12445 l 1716 12445 l 1716 12420 l
 1704 12420 l  cp gs col1 1.00 shd ef gr 
%  polyline 
% Polyline
n 1729 12437 m 1716 12437 l 1716 12462 l 1741 12462 l 1741 12437 l
 1729 12437 l  cp gs col1 1.00 shd ef gr 
%  polyline 
% Polyline
n 1754 12454 m 1741 12454 l 1741 12479 l 1766 12479 l 1766 12454 l
 1754 12454 l  cp gs col1 1.00 shd ef gr 
% here ends figure;
% 
% here starts figure with depth 905
%  polyline 
% Polyline
0 slj
0 slc
0.000 slw
n 1774 12466 m 1762 12466 l 1762 12491 l 1787 12491 l 1787 12466 l
 1774 12466 l  cp gs col1 1.00 shd ef gr 
%  polyline 
% Polyline
n 1799 12475 m 1787 12475 l 1787 12500 l 1812 12500 l 1812 12475 l
 1799 12475 l  cp gs col1 1.00 shd ef gr 
%  polyline 
% Polyline
n 1824 12483 m 1812 12483 l 1812 12508 l 1837 12508 l 1837 12483 l
 1824 12483 l  cp gs col1 1.00 shd ef gr 
% here ends figure;
% 
% here starts figure with depth 901
%  polyline 
% Polyline
0 slj
0 slc
0.000 slw
n 1845 12491 m 1833 12491 l 1833 12516 l 1858 12516 l 1858 12491 l
 1845 12491 l  cp gs col1 1.00 shd ef gr 
%  polyline 
% Polyline
n 1870 12495 m 1858 12495 l 1858 12520 l 1883 12520 l 1883 12495 l
 1870 12495 l  cp gs col1 1.00 shd ef gr 
%  polyline 
% Polyline
n 1895 12500 m 1883 12500 l 1883 12525 l 1908 12525 l 1908 12500 l
 1895 12500 l  cp gs col1 1.00 shd ef gr 
% here ends figure;
% 
% here starts figure with depth 897
%  polyline 
% Polyline
0 slj
0 slc
0.000 slw
n 1916 12508 m 1904 12508 l 1904 12533 l 1929 12533 l 1929 12508 l
 1916 12508 l  cp gs col1 1.00 shd ef gr 
%  polyline 
% Polyline
n 1941 12512 m 1929 12512 l 1929 12537 l 1954 12537 l 1954 12512 l
 1941 12512 l  cp gs col1 1.00 shd ef gr 
%  polyline 
% Polyline
n 1966 12512 m 1954 12512 l 1954 12537 l 1979 12537 l 1979 12512 l
 1966 12512 l  cp gs col1 1.00 shd ef gr 
% here ends figure;
% 
% here starts figure with depth 893
%  polyline 
% Polyline
0 slj
0 slc
0.000 slw
n 1987 12516 m 1974 12516 l 1974 12541 l 1999 12541 l 1999 12516 l
 1987 12516 l  cp gs col1 1.00 shd ef gr 
%  polyline 
% Polyline
n 2012 12520 m 1999 12520 l 1999 12545 l 2024 12545 l 2024 12520 l
 2012 12520 l  cp gs col1 1.00 shd ef gr 
%  polyline 
% Polyline
n 2037 12525 m 2024 12525 l 2024 12550 l 2049 12550 l 2049 12525 l
 2037 12525 l  cp gs col1 1.00 shd ef gr 
% here ends figure;
% 
% here starts figure with depth 889
%  polyline 
% Polyline
0 slj
0 slc
0.000 slw
n 2058 12525 m 2045 12525 l 2045 12550 l 2070 12550 l 2070 12525 l
 2058 12525 l  cp gs col1 1.00 shd ef gr 
%  polyline 
% Polyline
n 2083 12529 m 2070 12529 l 2070 12554 l 2095 12554 l 2095 12529 l
 2083 12529 l  cp gs col1 1.00 shd ef gr 
%  polyline 
% Polyline
n 2108 12529 m 2095 12529 l 2095 12554 l 2120 12554 l 2120 12529 l
 2108 12529 l  cp gs col1 1.00 shd ef gr 
%  polyline 
% Polyline
n 2133 12529 m 2120 12529 l 2120 12554 l 2145 12554 l 2145 12529 l
 2133 12529 l  cp gs col1 1.00 shd ef gr 
% here ends figure;
% 
% here starts figure with depth 884
%  polyline 
% Polyline
0 slj
0 slc
0.000 slw
n 2154 12533 m 2141 12533 l 2141 12558 l 2166 12558 l 2166 12533 l
 2154 12533 l  cp gs col1 1.00 shd ef gr 
%  polyline 
% Polyline
n 2179 12533 m 2166 12533 l 2166 12558 l 2191 12558 l 2191 12533 l
 2179 12533 l  cp gs col1 1.00 shd ef gr 
%  polyline 
% Polyline
n 2204 12533 m 2191 12533 l 2191 12558 l 2216 12558 l 2216 12533 l
 2204 12533 l  cp gs col1 1.00 shd ef gr 
% here ends figure;
% 
% here starts figure with depth 880
%  polyline 
% Polyline
0 slj
0 slc
0.000 slw
n 2224 12537 m 2212 12537 l 2212 12562 l 2237 12562 l 2237 12537 l
 2224 12537 l  cp gs col1 1.00 shd ef gr 
%  polyline 
% Polyline
n 2249 12537 m 2237 12537 l 2237 12562 l 2262 12562 l 2262 12537 l
 2249 12537 l  cp gs col1 1.00 shd ef gr 
%  polyline 
% Polyline
n 2274 12537 m 2262 12537 l 2262 12562 l 2287 12562 l 2287 12537 l
 2274 12537 l  cp gs col1 1.00 shd ef gr 
% here ends figure;
% 
% here starts figure with depth 876
%  polyline 
% Polyline
0 slj
0 slc
0.000 slw
n 2295 12537 m 2283 12537 l 2283 12562 l 2308 12562 l 2308 12537 l
 2295 12537 l  cp gs col1 1.00 shd ef gr 
%  polyline 
% Polyline
n 2320 12541 m 2308 12541 l 2308 12566 l 2333 12566 l 2333 12541 l
 2320 12541 l  cp gs col1 1.00 shd ef gr 
%  polyline 
% Polyline
n 2345 12541 m 2333 12541 l 2333 12566 l 2358 12566 l 2358 12541 l
 2345 12541 l  cp gs col1 1.00 shd ef gr 
% here ends figure;
% 
% here starts figure with depth 872
%  polyline 
% Polyline
0 slj
0 slc
0.000 slw
n 2366 12541 m 2354 12541 l 2354 12566 l 2379 12566 l 2379 12541 l
 2366 12541 l  cp gs col1 1.00 shd ef gr 
%  polyline 
% Polyline
n 2391 12541 m 2379 12541 l 2379 12566 l 2404 12566 l 2404 12541 l
 2391 12541 l  cp gs col1 1.00 shd ef gr 
%  polyline 
% Polyline
n 2416 12541 m 2404 12541 l 2404 12566 l 2429 12566 l 2429 12541 l
 2416 12541 l  cp gs col1 1.00 shd ef gr 
% here ends figure;
% 
% here starts figure with depth 868
%  polyline 
% Polyline
0 slj
0 slc
0.000 slw
n 2437 12541 m 2424 12541 l 2424 12566 l 2449 12566 l 2449 12541 l
 2437 12541 l  cp gs col1 1.00 shd ef gr 
%  polyline 
% Polyline
n 2462 12545 m 2449 12545 l 2449 12570 l 2474 12570 l 2474 12545 l
 2462 12545 l  cp gs col1 1.00 shd ef gr 
%  polyline 
% Polyline
n 2487 12545 m 2474 12545 l 2474 12570 l 2499 12570 l 2499 12545 l
 2487 12545 l  cp gs col1 1.00 shd ef gr 
% here ends figure;
% 
% here starts figure with depth 864
%  polyline 
% Polyline
0 slj
0 slc
0.000 slw
n 2508 12545 m 2495 12545 l 2495 12570 l 2520 12570 l 2520 12545 l
 2508 12545 l  cp gs col1 1.00 shd ef gr 
%  polyline 
% Polyline
n 2533 12529 m 2520 12529 l 2520 12554 l 2545 12554 l 2545 12529 l
 2533 12529 l  cp gs col1 1.00 shd ef gr 
%  polyline 
% Polyline
n 2558 12550 m 2545 12550 l 2545 12575 l 2570 12575 l 2570 12550 l
 2558 12550 l  cp gs col1 1.00 shd ef gr 
%  polyline 
% Polyline
7.500 slw
n 2583 12554 m
 2583 12550 l gs col0 s gr 
% here ends figure;
% 
% here starts figure with depth 859
%  polyline 
% Polyline
0 slj
0 slc
0.000 slw
n 2583 12529 m 2570 12529 l 2570 12554 l 2595 12554 l 2595 12529 l
 2583 12529 l  cp gs col1 1.00 shd ef gr 
%  polyline 
% Polyline
7.500 slw
n 2604 12604 m
 2604 12591 l gs col0 s gr 
%  polyline 
% Polyline
n 2604 12566 m
 2604 12558 l gs col0 s gr 
% here ends figure;
% 
% here starts figure with depth 855
%  polyline 
% Polyline
0 slj
0 slc
0.000 slw
n 2604 12566 m 2591 12566 l 2591 12591 l 2616 12591 l 2616 12566 l
 2604 12566 l  cp gs col1 1.00 shd ef gr 
%  polyline 
% Polyline
7.500 slw
n 2629 12612 m
 2629 12587 l gs col0 s gr 
%  polyline 
% Polyline
n 2629 12566 m
 2629 12541 l gs col0 s gr 
% here ends figure;
% 
% here starts figure with depth 851
%  polyline 
% Polyline
0 slj
0 slc
0.000 slw
n 2629 12562 m 2616 12562 l 2616 12587 l 2641 12587 l 2641 12562 l
 2629 12562 l  cp gs col1 1.00 shd ef gr 
%  polyline 
% Polyline
7.500 slw
n 2654 12445 m
 2654 12437 l gs col0 s gr 
%  polyline 
% Polyline
n 2654 12412 m
 2654 12404 l gs col0 s gr 
% here ends figure;
% 
% here starts figure with depth 847
%  polyline 
% Polyline
0 slj
0 slc
0.000 slw
n 2654 12412 m 2641 12412 l 2641 12437 l 2666 12437 l 2666 12412 l
 2654 12412 l  cp gs col1 1.00 shd ef gr 
%  polyline 
% Polyline
7.500 slw
n 2674 12479 m
 2674 12462 l gs col0 s gr 
%  polyline 
% Polyline
n 2674 12437 m
 2674 12420 l gs col0 s gr 
% here ends figure;
% 
% here starts figure with depth 843
%  polyline 
% Polyline
0 slj
0 slc
0.000 slw
n 2674 12437 m 2662 12437 l 2662 12462 l 2687 12462 l 2687 12437 l
 2674 12437 l  cp gs col1 1.00 shd ef gr 
%  polyline 
% Polyline
7.500 slw
n 2699 12737 m
 2699 12587 l gs col0 s gr 
%  polyline 
% Polyline
n 2699 12562 m
 2699 12412 l gs col0 s gr 
% here ends figure;
% 
% here starts figure with depth 839
%  polyline 
% Polyline
0 slj
0 slc
0.000 slw
n 2699 12562 m 2687 12562 l 2687 12587 l 2712 12587 l 2712 12562 l
 2699 12562 l  cp gs col1 1.00 shd ef gr 
%  polyline 
% Polyline
n 2745 12433 m 2733 12433 l 2733 12458 l 2758 12458 l 2758 12433 l
 2745 12433 l  cp gs col1 1.00 shd ef gr 
%  polyline 
% Polyline
7.500 slw
n 391 12850 m
 2758 12850 l gs col0 s gr 
%  polyline 
% Polyline
n 391 12775 m
 391 12850 l gs col0 s gr 
% here ends figure;
% 
% here starts figure with depth 834
%  polyline 
% Polyline
0 slj
0 slc
7.500 slw
n 462 12812 m
 462 12850 l gs col0 s gr 
%  polyline 
% Polyline
n 537 12812 m
 537 12850 l gs col0 s gr 
%  polyline 
% Polyline
n 612 12812 m
 612 12850 l gs col0 s gr 
%  polyline 
% Polyline
n 687 12775 m
 687 12850 l gs col0 s gr 
%  polyline 
% Polyline
n 762 12812 m
 762 12850 l gs col0 s gr 
%  polyline 
% Polyline
n 833 12812 m
 833 12850 l gs col0 s gr 
%  polyline 
% Polyline
n 908 12812 m
 908 12850 l gs col0 s gr 
%  polyline 
% Polyline
n 983 12775 m
 983 12850 l gs col0 s gr 
%  polyline 
% Polyline
n 1058 12812 m
 1058 12850 l gs col0 s gr 
%  polyline 
% Polyline
n 1129 12812 m
 1129 12850 l gs col0 s gr 
%  polyline 
% Polyline
n 1204 12812 m
 1204 12850 l gs col0 s gr 
%  polyline 
% Polyline
n 1279 12775 m
 1279 12850 l gs col0 s gr 
%  polyline 
% Polyline
n 1354 12812 m
 1354 12850 l gs col0 s gr 
%  polyline 
% Polyline
n 1424 12812 m
 1424 12850 l gs col0 s gr 
%  polyline 
% Polyline
n 1499 12812 m
 1499 12850 l gs col0 s gr 
%  polyline 
% Polyline
n 1574 12775 m
 1574 12850 l gs col0 s gr 
%  polyline 
% Polyline
n 1649 12812 m
 1649 12850 l gs col0 s gr 
%  polyline 
% Polyline
n 1720 12812 m
 1720 12850 l gs col0 s gr 
%  polyline 
% Polyline
n 1795 12812 m
 1795 12850 l gs col0 s gr 
%  polyline 
% Polyline
n 1870 12775 m
 1870 12850 l gs col0 s gr 
%  polyline 
% Polyline
n 1945 12812 m
 1945 12850 l gs col0 s gr 
%  polyline 
% Polyline
n 2020 12812 m
 2020 12850 l gs col0 s gr 
%  polyline 
% Polyline
n 2091 12812 m
 2091 12850 l gs col0 s gr 
%  polyline 
% Polyline
n 2166 12775 m
 2166 12850 l gs col0 s gr 
%  polyline 
% Polyline
n 2241 12812 m
 2241 12850 l gs col0 s gr 
%  polyline 
% Polyline
n 2316 12812 m
 2316 12850 l gs col0 s gr 
%  polyline 
% Polyline
n 2387 12812 m
 2387 12850 l gs col0 s gr 
%  polyline 
% Polyline
n 2462 12775 m
 2462 12850 l gs col0 s gr 
%  polyline 
% Polyline
n 2537 12812 m
 2537 12850 l gs col0 s gr 
%  polyline 
% Polyline
n 2612 12812 m
 2612 12850 l gs col0 s gr 
%  polyline 
% Polyline
n 2683 12812 m
 2683 12850 l gs col0 s gr 
%  polyline 
% Polyline
n 2758 12775 m
 2758 12850 l gs col0 s gr 
% here ends figure;
% 
% here starts figure with depth 801
%  text 
/Helvetica-Bold-iso ff 116.67 scf sf
333 12962 m
gs 1 -1 sc (-4) col0 sh gr
%  text 
/Helvetica-Bold-iso ff 116.67 scf sf
629 12962 m
gs 1 -1 sc (-2) col0 sh gr
%  text 
/Helvetica-Bold-iso ff 116.67 scf sf
937 12962 m
gs 1 -1 sc (0) col0 sh gr
%  text 
/Helvetica-Bold-iso ff 116.67 scf sf
1233 12962 m
gs 1 -1 sc (2) col0 sh gr
%  text 
/Helvetica-Bold-iso ff 116.67 scf sf
1533 12962 m
gs 1 -1 sc (4) col0 sh gr
%  text 
/Helvetica-Bold-iso ff 116.67 scf sf
1829 12962 m
gs 1 -1 sc (6) col0 sh gr
%  text 
/Helvetica-Bold-iso ff 116.67 scf sf
2124 12962 m
gs 1 -1 sc (8) col0 sh gr
%  text 
/Helvetica-Bold-iso ff 116.67 scf sf
2395 12962 m
gs 1 -1 sc (10) col0 sh gr
%  text 
/Helvetica-Bold-iso ff 116.67 scf sf
2695 12962 m
gs 1 -1 sc (12) col0 sh gr
% here ends figure;
% 
% here starts figure with depth 791
%  polyline 
% Polyline
0 slj
0 slc
7.500 slw
n 391 12850 m
 391 10320 l gs col0 s gr 
%  polyline 
% Polyline
n 462 12829 m
 391 12829 l gs col0 s gr 
% here ends figure;
% 
% here starts figure with depth 788
%  polyline 
% Polyline
0 slj
0 slc
7.500 slw
n 424 12770 m
 391 12770 l gs col0 s gr 
%  polyline 
% Polyline
n 424 12708 m
 391 12708 l gs col0 s gr 
%  polyline 
% Polyline
n 424 12650 m
 391 12650 l gs col0 s gr 
%  polyline 
% Polyline
n 424 12591 m
 391 12591 l gs col0 s gr 
%  polyline 
% Polyline
n 462 12529 m
 391 12529 l gs col0 s gr 
%  polyline 
% Polyline
n 424 12470 m
 391 12470 l gs col0 s gr 
%  polyline 
% Polyline
n 424 12412 m
 391 12412 l gs col0 s gr 
%  polyline 
% Polyline
n 424 12350 m
 391 12350 l gs col0 s gr 
%  polyline 
% Polyline
n 424 12291 m
 391 12291 l gs col0 s gr 
%  polyline 
% Polyline
n 462 12233 m
 391 12233 l gs col0 s gr 
%  polyline 
% Polyline
n 424 12170 m
 391 12170 l gs col0 s gr 
%  polyline 
% Polyline
n 424 12112 m
 391 12112 l gs col0 s gr 
%  polyline 
% Polyline
n 424 12054 m
 391 12054 l gs col0 s gr 
%  polyline 
% Polyline
n 424 11991 m
 391 11991 l gs col0 s gr 
%  polyline 
% Polyline
n 462 11933 m
 391 11933 l gs col0 s gr 
%  polyline 
% Polyline
n 424 11875 m
 391 11875 l gs col0 s gr 
%  polyline 
% Polyline
n 424 11812 m
 391 11812 l gs col0 s gr 
%  polyline 
% Polyline
n 424 11754 m
 391 11754 l gs col0 s gr 
%  polyline 
% Polyline
n 424 11695 m
 391 11695 l gs col0 s gr 
%  polyline 
% Polyline
n 462 11633 m
 391 11633 l gs col0 s gr 
%  polyline 
% Polyline
n 424 11575 m
 391 11575 l gs col0 s gr 
%  polyline 
% Polyline
n 424 11516 m
 391 11516 l gs col0 s gr 
%  polyline 
% Polyline
n 424 11454 m
 391 11454 l gs col0 s gr 
%  polyline 
% Polyline
n 424 11395 m
 391 11395 l gs col0 s gr 
%  polyline 
% Polyline
n 462 11337 m
 391 11337 l gs col0 s gr 
%  polyline 
% Polyline
n 424 11275 m
 391 11275 l gs col0 s gr 
%  polyline 
% Polyline
n 424 11216 m
 391 11216 l gs col0 s gr 
%  polyline 
% Polyline
n 424 11158 m
 391 11158 l gs col0 s gr 
%  polyline 
% Polyline
n 424 11095 m
 391 11095 l gs col0 s gr 
%  polyline 
% Polyline
n 462 11037 m
 391 11037 l gs col0 s gr 
%  polyline 
% Polyline
n 424 10979 m
 391 10979 l gs col0 s gr 
%  polyline 
% Polyline
n 424 10916 m
 391 10916 l gs col0 s gr 
%  polyline 
% Polyline
n 424 10858 m
 391 10858 l gs col0 s gr 
%  polyline 
% Polyline
n 424 10800 m
 391 10800 l gs col0 s gr 
%  polyline 
% Polyline
n 462 10737 m
 391 10737 l gs col0 s gr 
%  polyline 
% Polyline
n 424 10679 m
 391 10679 l gs col0 s gr 
%  polyline 
% Polyline
n 424 10620 m
 391 10620 l gs col0 s gr 
%  polyline 
% Polyline
n 424 10558 m
 391 10558 l gs col0 s gr 
%  polyline 
% Polyline
n 424 10500 m
 391 10500 l gs col0 s gr 
%  polyline 
% Polyline
n 462 10441 m
 391 10441 l gs col0 s gr 
%  polyline 
% Polyline
n 462 12829 m
 391 12829 l gs col0 s gr 
%  polyline 
% Polyline
n 462 10441 m
 391 10441 l gs col0 s gr 
%  polyline 
% Polyline
n 424 10379 m
 391 10379 l gs col0 s gr 
%  polyline 
% Polyline
n 424 10320 m
 391 10320 l gs col0 s gr 
% here ends figure;
% 
% here starts figure with depth 743
%  text 
/Helvetica-Bold-iso ff 116.67 scf sf
274 12866 m
gs 1 -1 sc (-8) col0 sh gr
%  text 
/Helvetica-Bold-iso ff 116.67 scf sf
274 12570 m
gs 1 -1 sc (-7) col0 sh gr
%  text 
/Helvetica-Bold-iso ff 116.67 scf sf
274 12275 m
gs 1 -1 sc (-6) col0 sh gr
%  text 
/Helvetica-Bold-iso ff 116.67 scf sf
274 11979 m
gs 1 -1 sc (-5) col0 sh gr
%  text 
/Helvetica-Bold-iso ff 116.67 scf sf
274 11679 m
gs 1 -1 sc (-4) col0 sh gr
%  text 
/Helvetica-Bold-iso ff 116.67 scf sf
274 11370 m
gs 1 -1 sc (-3) col0 sh gr
%  text 
/Helvetica-Bold-iso ff 116.67 scf sf
274 11075 m
gs 1 -1 sc (-2) col0 sh gr
%  text 
/Helvetica-Bold-iso ff 116.67 scf sf
283 10779 m
gs 1 -1 sc (-1) col0 sh gr
%  text 
/Helvetica-Bold-iso ff 116.67 scf sf
308 10483 m
gs 1 -1 sc (0) col0 sh gr
% here ends figure;
% 
% here starts figure with depth 726
%  polyline 
% Polyline
0 slj
0 slc
0.000 slw
n 3245 13166 m 3245 10004 l 6204 10004 l 6204 13166 l
 3245 13166 l  cp gs col32 1.00 shd ef gr 
% here ends figure;
% 
% here starts figure with depth 724
%  polyline 
% Polyline
0 slj
0 slc
0.000 slw
n 3245 13166 m 3279 13133 l 3279 10037 l 6170 10037 l 6204 10004 l 3245 10004 l

 3245 13166 l  cp gs col7 1.00 shd ef gr 
% here ends figure;
% 
% here starts figure with depth 722
%  polyline 
% Polyline
0 slj
0 slc
0.000 slw
n 3245 13166 m 3279 13133 l 6170 13133 l 6170 10037 l 6204 10004 l 6204 13166 l

 3245 13166 l  cp gs col33 1.00 shd ef gr 
% here ends figure;
% 
% here starts figure with depth 716
%  polyline 
% Polyline
0 slj
0 slc
0.000 slw
n 3541 12850 m 3558 12833 l 5891 12833 l 5891 10337 l 5908 10320 l 5908 12850 l

 3541 12850 l  cp gs col33 1.00 shd ef gr 
% here ends figure;
% 
% here starts figure with depth 714
%  polyline 
% Polyline
0 slj
0 slc
7.500 slw
n 3541 12850 m 3541 10320 l 5908 10320 l 5908 12850 l
 3541 12850 l  cp gs col0 s gr 
% here ends figure;
% 
% here starts figure with depth 712
%  polyline 
% Polyline
0 slj
0 slc
0.000 slw
n 3541 12850 m 3541 10320 l 5908 10320 l 5908 12850 l
 3541 12850 l  cp gs col32 1.00 shd ef gr 
% here ends figure;
% 
% here starts figure with depth 710
%  polyline 
% Polyline
0 slj
0 slc
0.000 slw
n 3541 12850 m 3558 12833 l 3558 10337 l 5891 10337 l 5908 10320 l 3541 10320 l

 3541 12850 l  cp gs col7 1.00 shd ef gr 
% here ends figure;
% 
% here starts figure with depth 708
%  polyline 
% Polyline
0 slj
0 slc
0.000 slw
n 3541 12850 m 3558 12833 l 5891 12833 l 5891 10337 l 5908 10320 l 5908 12850 l

 3541 12850 l  cp gs col33 1.00 shd ef gr 
% here ends figure;
% 
% here starts figure with depth 706
%  polyline 
% Polyline
0 slj
0 slc
7.500 slw
n 3541 12850 m 3541 10320 l 5908 10320 l 5908 12850 l
 3541 12850 l  cp gs col0 s gr 
% here ends figure;
% 
% here starts figure with depth 704
%  polyline 
% Polyline
0 slj
0 slc
0.000 slw
n 3541 12850 m 3608 12850 l 3608 10575 l 3624 10575 l 3624 10416 l 3641 10416 l
 3641 10362 l 3658 10362 l 3658 10345 l 3708 10345 l 3708 10354 l
 3724 10354 l 3724 10362 l 3741 10362 l 3741 10370 l 3758 10370 l
 3758 10383 l 3774 10383 l 3774 10395 l 3795 10395 l 3795 10404 l
 3812 10404 l 3812 10420 l 3829 10420 l 3829 10433 l 3845 10433 l
 3845 10441 l 3862 10441 l 3862 10454 l 3879 10454 l 3879 10466 l
 3895 10466 l 3895 10479 l 3912 10479 l 3912 10491 l 3929 10491 l
 3929 10504 l 3945 10504 l 3945 10512 l 3962 10512 l 3962 10525 l
 3979 10525 l 3979 10537 l 3995 10537 l 3995 10550 l 4012 10550 l
 4012 10558 l 4029 10558 l 4029 10570 l 4045 10570 l 4045 10579 l
 4066 10579 l 4066 10591 l 4083 10591 l 4083 10600 l 4099 10600 l
 4099 10612 l 4116 10612 l 4116 10625 l 4133 10625 l 4133 10633 l
 4149 10633 l 4149 10645 l 4166 10645 l 4166 10654 l 4183 10654 l
 4183 10666 l 4199 10666 l 4199 10662 l 4216 10662 l 4216 10683 l
 4233 10683 l 4233 10691 l 4249 10691 l 4249 10708 l 4266 10708 l
 4266 10716 l 4283 10716 l 4283 10708 l 4299 10708 l 4299 10737 l
 4316 10737 l 4316 10750 l 4333 10750 l 4333 10758 l 4354 10758 l
 4354 10766 l 4370 10766 l 4370 10779 l 4387 10779 l 4387 10791 l
 4404 10791 l 4404 10795 l 4420 10795 l 4420 10808 l 4437 10808 l
 4437 10787 l 4454 10787 l 4454 10829 l 4470 10829 l 4470 10845 l
 4487 10845 l 4487 10850 l 4504 10850 l 4504 10862 l 4520 10862 l
 4520 10875 l 4537 10875 l 4537 10883 l 4554 10883 l 4554 10891 l
 4570 10891 l 4570 10900 l 4587 10900 l 4587 10916 l 4604 10916 l
 4604 10920 l 4620 10920 l 4620 10937 l 4641 10937 l 4641 10941 l
 4658 10941 l 4658 10958 l 4674 10958 l 4674 10962 l 4691 10962 l
 4691 10979 l 4708 10979 l 4708 10991 l 4741 10991 l 4741 11008 l
 4758 11008 l 4758 11025 l 4774 11025 l 4774 11037 l 4791 11037 l
 4791 11020 l 4808 11020 l 4808 11054 l 4824 11054 l 4824 11062 l
 4841 11062 l 4841 11083 l 4858 11083 l 4858 11091 l 4874 11091 l
 4874 10975 l 4891 10975 l 4891 11108 l 4912 11108 l 4912 11129 l
 4929 11129 l 4929 11133 l 4945 11133 l 4945 11154 l 4962 11154 l
 4962 11162 l 4979 11162 l 4979 11166 l 4995 11166 l 4995 11191 l
 5012 11191 l 5012 11204 l 5029 11204 l 5029 11216 l 5045 11216 l
 5045 11225 l 5062 11225 l 5062 11241 l 5079 11241 l 5079 11254 l
 5095 11254 l 5095 11266 l 5129 11266 l 5129 11295 l 5145 11295 l
 5145 11304 l 5162 11304 l 5162 11329 l 5179 11329 l 5179 11337 l
 5199 11337 l 5199 11350 l 5216 11350 l 5216 11370 l 5233 11370 l
 5233 11345 l 5249 11345 l 5249 11391 l 5266 11391 l 5266 11383 l
 5283 11383 l 5283 11441 l 5299 11441 l 5299 11458 l 5316 11458 l
 5316 11475 l 5333 11475 l 5333 11495 l 5349 11495 l 5349 11516 l
 5366 11516 l 5366 11525 l 5383 11525 l 5383 11550 l 5399 11550 l
 5399 11579 l 5433 11579 l 5433 11604 l 5449 11604 l 5449 11616 l
 5470 11616 l 5470 11650 l 5487 11650 l 5487 11670 l 5504 11670 l
 5504 11720 l 5520 11720 l 5520 11729 l 5537 11729 l 5537 11754 l
 5554 11754 l 5554 11762 l 5570 11762 l 5570 11816 l 5587 11816 l
 5587 11837 l 5604 11837 l 5604 11858 l 5620 11858 l 5620 11912 l
 5654 11912 l 5654 11983 l 5670 11983 l 5670 12000 l 5687 12000 l
 5687 12041 l 5704 12041 l 5704 12095 l 5720 12095 l 5720 12137 l
 5737 12137 l 5737 12166 l 5758 12166 l 5758 12220 l 5774 12220 l
 5774 12216 l 5791 12216 l 5791 12333 l 5808 12333 l 5808 12370 l
 5824 12370 l 5824 12437 l 5841 12437 l 5841 12479 l 5858 12479 l
 5858 12470 l 5874 12470 l 5874 12645 l 5891 12645 l 5891 12825 l
 5908 12825 l
 5908 12850 l gs col2 1.00 shd ef gr 
% here ends figure;
% 
% here starts figure with depth 702
%  polyline 
% Polyline
0 slj
0 slc
7.500 slw
n 3541 12850 m 3608 12850 l 3608 10575 l 3624 10575 l 3624 10416 l 3641 10416 l
 3641 10362 l 3658 10362 l 3658 10345 l 3708 10345 l 3708 10354 l
 3724 10354 l 3724 10362 l 3741 10362 l 3741 10370 l 3758 10370 l
 3758 10383 l 3774 10383 l 3774 10395 l 3795 10395 l 3795 10404 l
 3812 10404 l 3812 10420 l 3829 10420 l 3829 10433 l 3845 10433 l
 3845 10441 l 3862 10441 l 3862 10454 l 3879 10454 l 3879 10466 l
 3895 10466 l 3895 10479 l 3912 10479 l 3912 10491 l 3929 10491 l
 3929 10504 l 3945 10504 l 3945 10512 l 3962 10512 l 3962 10525 l
 3979 10525 l 3979 10537 l 3995 10537 l 3995 10550 l 4012 10550 l
 4012 10558 l 4029 10558 l 4029 10570 l 4045 10570 l 4045 10579 l
 4066 10579 l 4066 10591 l 4083 10591 l 4083 10600 l 4099 10600 l
 4099 10612 l 4116 10612 l 4116 10625 l 4133 10625 l 4133 10633 l
 4149 10633 l 4149 10645 l 4166 10645 l 4166 10654 l 4183 10654 l
 4183 10666 l 4199 10666 l 4199 10662 l 4216 10662 l 4216 10683 l
 4233 10683 l 4233 10691 l 4249 10691 l 4249 10708 l 4266 10708 l
 4266 10716 l 4283 10716 l 4283 10708 l 4299 10708 l 4299 10737 l
 4316 10737 l 4316 10750 l 4333 10750 l 4333 10758 l 4354 10758 l
 4354 10766 l 4370 10766 l 4370 10779 l 4387 10779 l 4387 10791 l
 4404 10791 l 4404 10795 l 4420 10795 l 4420 10808 l 4437 10808 l
 4437 10787 l 4454 10787 l 4454 10829 l 4470 10829 l 4470 10845 l
 4487 10845 l 4487 10850 l 4504 10850 l 4504 10862 l 4520 10862 l
 4520 10875 l 4537 10875 l 4537 10883 l 4554 10883 l 4554 10891 l
 4570 10891 l 4570 10900 l 4587 10900 l 4587 10916 l 4604 10916 l
 4604 10920 l 4620 10920 l 4620 10937 l 4641 10937 l 4641 10941 l
 4658 10941 l 4658 10958 l 4674 10958 l 4674 10962 l 4691 10962 l
 4691 10979 l 4708 10979 l 4708 10991 l 4741 10991 l 4741 11008 l
 4758 11008 l 4758 11025 l 4774 11025 l 4774 11037 l 4791 11037 l
 4791 11020 l 4808 11020 l 4808 11054 l 4824 11054 l 4824 11062 l
 4841 11062 l 4841 11083 l 4858 11083 l 4858 11091 l 4874 11091 l
 4874 10975 l 4891 10975 l 4891 11108 l 4912 11108 l 4912 11129 l
 4929 11129 l 4929 11133 l 4945 11133 l 4945 11154 l 4962 11154 l
 4962 11162 l 4979 11162 l 4979 11166 l 4995 11166 l 4995 11191 l
 5012 11191 l 5012 11204 l 5029 11204 l 5029 11216 l 5045 11216 l
 5045 11225 l 5062 11225 l 5062 11241 l 5079 11241 l 5079 11254 l
 5095 11254 l 5095 11266 l 5129 11266 l 5129 11295 l 5145 11295 l
 5145 11304 l 5162 11304 l 5162 11329 l 5179 11329 l 5179 11337 l
 5199 11337 l 5199 11350 l 5216 11350 l 5216 11370 l 5233 11370 l
 5233 11345 l 5249 11345 l 5249 11391 l 5266 11391 l 5266 11383 l
 5283 11383 l 5283 11441 l 5299 11441 l 5299 11458 l 5316 11458 l
 5316 11475 l 5333 11475 l 5333 11495 l 5349 11495 l 5349 11516 l
 5366 11516 l 5366 11525 l 5383 11525 l 5383 11550 l 5399 11550 l
 5399 11579 l 5433 11579 l 5433 11604 l 5449 11604 l 5449 11616 l
 5470 11616 l 5470 11650 l 5487 11650 l 5487 11670 l 5504 11670 l
 5504 11720 l 5520 11720 l 5520 11729 l 5537 11729 l 5537 11754 l
 5554 11754 l 5554 11762 l 5570 11762 l 5570 11816 l 5587 11816 l
 5587 11837 l 5604 11837 l 5604 11858 l 5620 11858 l 5620 11912 l
 5654 11912 l 5654 11983 l 5670 11983 l 5670 12000 l 5687 12000 l
 5687 12041 l 5704 12041 l 5704 12095 l 5720 12095 l 5720 12137 l
 5737 12137 l 5737 12166 l 5758 12166 l 5758 12220 l 5774 12220 l
 5774 12216 l 5791 12216 l 5791 12333 l 5808 12333 l 5808 12370 l
 5824 12370 l 5824 12437 l 5841 12437 l 5841 12479 l 5858 12479 l
 5858 12470 l 5874 12470 l 5874 12645 l 5891 12645 l 5891 12825 l

 5908 12825 l gs col0 s gr 
%  polyline 
% Polyline
n 3541 12850 m
 5908 12850 l gs col0 s gr 
%  polyline 
% Polyline
n 3541 12775 m
 3541 12850 l gs col0 s gr 
% here ends figure;
% 
% here starts figure with depth 698
%  polyline 
% Polyline
0 slj
0 slc
7.500 slw
n 3624 12812 m
 3624 12850 l gs col0 s gr 
%  polyline 
% Polyline
n 3708 12812 m
 3708 12850 l gs col0 s gr 
%  polyline 
% Polyline
n 3795 12812 m
 3795 12850 l gs col0 s gr 
%  polyline 
% Polyline
n 3879 12775 m
 3879 12850 l gs col0 s gr 
%  polyline 
% Polyline
n 3962 12812 m
 3962 12850 l gs col0 s gr 
%  polyline 
% Polyline
n 4045 12812 m
 4045 12850 l gs col0 s gr 
%  polyline 
% Polyline
n 4133 12812 m
 4133 12850 l gs col0 s gr 
%  polyline 
% Polyline
n 4216 12775 m
 4216 12850 l gs col0 s gr 
%  polyline 
% Polyline
n 4299 12812 m
 4299 12850 l gs col0 s gr 
%  polyline 
% Polyline
n 4387 12812 m
 4387 12850 l gs col0 s gr 
%  polyline 
% Polyline
n 4470 12812 m
 4470 12850 l gs col0 s gr 
%  polyline 
% Polyline
n 4554 12775 m
 4554 12850 l gs col0 s gr 
%  polyline 
% Polyline
n 4641 12812 m
 4641 12850 l gs col0 s gr 
%  polyline 
% Polyline
n 4724 12812 m
 4724 12850 l gs col0 s gr 
%  polyline 
% Polyline
n 4808 12812 m
 4808 12850 l gs col0 s gr 
%  polyline 
% Polyline
n 4891 12775 m
 4891 12850 l gs col0 s gr 
%  polyline 
% Polyline
n 4979 12812 m
 4979 12850 l gs col0 s gr 
%  polyline 
% Polyline
n 5062 12812 m
 5062 12850 l gs col0 s gr 
%  polyline 
% Polyline
n 5145 12812 m
 5145 12850 l gs col0 s gr 
%  polyline 
% Polyline
n 5233 12775 m
 5233 12850 l gs col0 s gr 
%  polyline 
% Polyline
n 5316 12812 m
 5316 12850 l gs col0 s gr 
%  polyline 
% Polyline
n 5399 12812 m
 5399 12850 l gs col0 s gr 
%  polyline 
% Polyline
n 5487 12812 m
 5487 12850 l gs col0 s gr 
%  polyline 
% Polyline
n 5570 12775 m
 5570 12850 l gs col0 s gr 
%  polyline 
% Polyline
n 5654 12812 m
 5654 12850 l gs col0 s gr 
%  polyline 
% Polyline
n 5737 12812 m
 5737 12850 l gs col0 s gr 
%  polyline 
% Polyline
n 5824 12812 m
 5824 12850 l gs col0 s gr 
%  polyline 
% Polyline
n 5908 12775 m
 5908 12850 l gs col0 s gr 
% here ends figure;
% 
% here starts figure with depth 669
%  text 
/Helvetica-Bold-iso ff 116.67 scf sf
3499 12962 m
gs 1 -1 sc (0) col0 sh gr
%  text 
/Helvetica-Bold-iso ff 116.67 scf sf
3749 12962 m
gs 1 -1 sc (2000) col0 sh gr
% here ends figure;
% 
% here starts figure with depth 666
%  text 
/Helvetica-Bold-iso ff 116.67 scf sf
4095 12962 m
gs 1 -1 sc (4000) col0 sh gr
% here ends figure;
% 
% here starts figure with depth 664
%  text 
/Helvetica-Bold-iso ff 116.67 scf sf
4429 12962 m
gs 1 -1 sc (6000) col0 sh gr
% here ends figure;
% 
% here starts figure with depth 662
%  text 
/Helvetica-Bold-iso ff 116.67 scf sf
4770 12962 m
gs 1 -1 sc (8000) col0 sh gr
% here ends figure;
% 
% here starts figure with depth 660
%  text 
/Helvetica-Bold-iso ff 116.67 scf sf
5066 12962 m
gs 1 -1 sc (10000) col0 sh gr
% here ends figure;
% 
% here starts figure with depth 658
%  text 
/Helvetica-Bold-iso ff 116.67 scf sf
5412 12962 m
gs 1 -1 sc (12000) col0 sh gr
% here ends figure;
% 
% here starts figure with depth 656
%  text 
/Helvetica-Bold-iso ff 116.67 scf sf
5745 12962 m
gs 1 -1 sc (14000) col0 sh gr
%  polyline 
% Polyline
0 slj
0 slc
7.500 slw
n 3541 12850 m
 3541 10320 l gs col0 s gr 
% here ends figure;
% 
% here starts figure with depth 653
%  polyline 
% Polyline
0 slj
0 slc
7.500 slw
n 3574 12837 m
 3541 12837 l gs col0 s gr 
%  polyline 
% Polyline
n 3612 12808 m
 3541 12808 l gs col0 s gr 
%  polyline 
% Polyline
n 3574 12750 m
 3541 12750 l gs col0 s gr 
%  polyline 
% Polyline
n 3612 12720 m
 3541 12720 l gs col0 s gr 
%  text 
/Helvetica-Bold-iso ff 83.33 scf sf
3408 12700 m
gs 1 -1 sc (-28) col0 sh gr
% here ends figure;
% 
% here starts figure with depth 647
%  text 
/Helvetica-Bold-iso ff 116.67 scf sf
3287 12770 m
gs 1 -1 sc (10) col0 sh gr
% here ends figure;
% 
% here starts figure with depth 645
%  polyline 
% Polyline
0 slj
0 slc
7.500 slw
n 3574 12662 m
 3541 12662 l gs col0 s gr 
%  polyline 
% Polyline
n 3612 12633 m
 3541 12633 l gs col0 s gr 
%  polyline 
% Polyline
n 3574 12575 m
 3541 12575 l gs col0 s gr 
%  polyline 
% Polyline
n 3612 12545 m
 3541 12545 l gs col0 s gr 
%  polyline 
% Polyline
n 3574 12487 m
 3541 12487 l gs col0 s gr 
%  polyline 
% Polyline
n 3612 12458 m
 3541 12458 l gs col0 s gr 
%  text 
/Helvetica-Bold-iso ff 83.33 scf sf
3408 12441 m
gs 1 -1 sc (-25) col0 sh gr
% here ends figure;
% 
% here starts figure with depth 637
%  text 
/Helvetica-Bold-iso ff 116.67 scf sf
3287 12512 m
gs 1 -1 sc (10) col0 sh gr
% here ends figure;
% 
% here starts figure with depth 635
%  polyline 
% Polyline
0 slj
0 slc
7.500 slw
n 3574 12400 m
 3541 12400 l gs col0 s gr 
%  polyline 
% Polyline
n 3612 12370 m
 3541 12370 l gs col0 s gr 
%  polyline 
% Polyline
n 3574 12312 m
 3541 12312 l gs col0 s gr 
%  polyline 
% Polyline
n 3612 12283 m
 3541 12283 l gs col0 s gr 
%  polyline 
% Polyline
n 3574 12225 m
 3541 12225 l gs col0 s gr 
%  polyline 
% Polyline
n 3612 12195 m
 3541 12195 l gs col0 s gr 
%  text 
/Helvetica-Bold-iso ff 83.33 scf sf
3408 12191 m
gs 1 -1 sc (-22) col0 sh gr
% here ends figure;
% 
% here starts figure with depth 627
%  text 
/Helvetica-Bold-iso ff 116.67 scf sf
3287 12250 m
gs 1 -1 sc (10) col0 sh gr
% here ends figure;
% 
% here starts figure with depth 625
%  polyline 
% Polyline
0 slj
0 slc
7.500 slw
n 3574 12137 m
 3541 12137 l gs col0 s gr 
%  polyline 
% Polyline
n 3612 12108 m
 3541 12108 l gs col0 s gr 
%  polyline 
% Polyline
n 3574 12050 m
 3541 12050 l gs col0 s gr 
%  polyline 
% Polyline
n 3612 12020 m
 3541 12020 l gs col0 s gr 
%  polyline 
% Polyline
n 3574 11962 m
 3541 11962 l gs col0 s gr 
%  polyline 
% Polyline
n 3612 11933 m
 3541 11933 l gs col0 s gr 
%  text 
/Helvetica-Bold-iso ff 83.33 scf sf
3408 11916 m
gs 1 -1 sc (-19) col0 sh gr
% here ends figure;
% 
% here starts figure with depth 617
%  text 
/Helvetica-Bold-iso ff 116.67 scf sf
3287 11987 m
gs 1 -1 sc (10) col0 sh gr
% here ends figure;
% 
% here starts figure with depth 615
%  polyline 
% Polyline
0 slj
0 slc
7.500 slw
n 3574 11870 m
 3541 11870 l gs col0 s gr 
%  polyline 
% Polyline
n 3612 11845 m
 3541 11845 l gs col0 s gr 
%  polyline 
% Polyline
n 3574 11783 m
 3541 11783 l gs col0 s gr 
%  polyline 
% Polyline
n 3612 11758 m
 3541 11758 l gs col0 s gr 
%  polyline 
% Polyline
n 3574 11695 m
 3541 11695 l gs col0 s gr 
%  polyline 
% Polyline
n 3612 11670 m
 3541 11670 l gs col0 s gr 
%  text 
/Helvetica-Bold-iso ff 83.33 scf sf
3408 11658 m
gs 1 -1 sc (-16) col0 sh gr
% here ends figure;
% 
% here starts figure with depth 607
%  text 
/Helvetica-Bold-iso ff 116.67 scf sf
3287 11729 m
gs 1 -1 sc (10) col0 sh gr
% here ends figure;
% 
% here starts figure with depth 605
%  polyline 
% Polyline
0 slj
0 slc
7.500 slw
n 3574 11608 m
 3541 11608 l gs col0 s gr 
%  polyline 
% Polyline
n 3612 11583 m
 3541 11583 l gs col0 s gr 
%  polyline 
% Polyline
n 3574 11520 m
 3541 11520 l gs col0 s gr 
%  polyline 
% Polyline
n 3612 11495 m
 3541 11495 l gs col0 s gr 
%  polyline 
% Polyline
n 3574 11433 m
 3541 11433 l gs col0 s gr 
%  polyline 
% Polyline
n 3612 11408 m
 3541 11408 l gs col0 s gr 
%  text 
/Helvetica-Bold-iso ff 83.33 scf sf
3408 11395 m
gs 1 -1 sc (-13) col0 sh gr
% here ends figure;
% 
% here starts figure with depth 597
%  text 
/Helvetica-Bold-iso ff 116.67 scf sf
3287 11466 m
gs 1 -1 sc (10) col0 sh gr
% here ends figure;
% 
% here starts figure with depth 595
%  polyline 
% Polyline
0 slj
0 slc
7.500 slw
n 3574 11345 m
 3541 11345 l gs col0 s gr 
%  polyline 
% Polyline
n 3612 11320 m
 3541 11320 l gs col0 s gr 
%  polyline 
% Polyline
n 3574 11258 m
 3541 11258 l gs col0 s gr 
%  polyline 
% Polyline
n 3612 11233 m
 3541 11233 l gs col0 s gr 
%  polyline 
% Polyline
n 3574 11170 m
 3541 11170 l gs col0 s gr 
%  polyline 
% Polyline
n 3612 11145 m
 3541 11145 l gs col0 s gr 
%  text 
/Helvetica-Bold-iso ff 83.33 scf sf
3408 11120 m
gs 1 -1 sc (-10) col0 sh gr
% here ends figure;
% 
% here starts figure with depth 587
%  text 
/Helvetica-Bold-iso ff 116.67 scf sf
3287 11195 m
gs 1 -1 sc (10) col0 sh gr
% here ends figure;
% 
% here starts figure with depth 585
%  polyline 
% Polyline
0 slj
0 slc
7.500 slw
n 3574 11083 m
 3541 11083 l gs col0 s gr 
%  polyline 
% Polyline
n 3612 11058 m
 3541 11058 l gs col0 s gr 
%  polyline 
% Polyline
n 3574 10995 m
 3541 10995 l gs col0 s gr 
%  polyline 
% Polyline
n 3612 10970 m
 3541 10970 l gs col0 s gr 
%  polyline 
% Polyline
n 3574 10908 m
 3541 10908 l gs col0 s gr 
%  polyline 
% Polyline
n 3612 10883 m
 3541 10883 l gs col0 s gr 
%  text 
/Helvetica-Bold-iso ff 83.33 scf sf
3441 10875 m
gs 1 -1 sc (-7) col0 sh gr
% here ends figure;
% 
% here starts figure with depth 577
%  text 
/Helvetica-Bold-iso ff 116.67 scf sf
3324 10933 m
gs 1 -1 sc (10) col0 sh gr
% here ends figure;
% 
% here starts figure with depth 575
%  polyline 
% Polyline
0 slj
0 slc
7.500 slw
n 3574 10820 m
 3541 10820 l gs col0 s gr 
%  polyline 
% Polyline
n 3612 10795 m
 3541 10795 l gs col0 s gr 
%  polyline 
% Polyline
n 3574 10733 m
 3541 10733 l gs col0 s gr 
%  polyline 
% Polyline
n 3612 10708 m
 3541 10708 l gs col0 s gr 
%  polyline 
% Polyline
n 3574 10645 m
 3541 10645 l gs col0 s gr 
%  polyline 
% Polyline
n 3612 10620 m
 3541 10620 l gs col0 s gr 
%  text 
/Helvetica-Bold-iso ff 83.33 scf sf
3441 10612 m
gs 1 -1 sc (-4) col0 sh gr
% here ends figure;
% 
% here starts figure with depth 567
%  text 
/Helvetica-Bold-iso ff 116.67 scf sf
3324 10670 m
gs 1 -1 sc (10) col0 sh gr
% here ends figure;
% 
% here starts figure with depth 565
%  polyline 
% Polyline
0 slj
0 slc
7.500 slw
n 3574 10558 m
 3541 10558 l gs col0 s gr 
%  polyline 
% Polyline
n 3612 10533 m
 3541 10533 l gs col0 s gr 
%  polyline 
% Polyline
n 3574 10470 m
 3541 10470 l gs col0 s gr 
%  polyline 
% Polyline
n 3612 10445 m
 3541 10445 l gs col0 s gr 
%  polyline 
% Polyline
n 3574 10383 m
 3541 10383 l gs col0 s gr 
%  polyline 
% Polyline
n 3612 10358 m
 3541 10358 l gs col0 s gr 
%  text 
/Helvetica-Bold-iso ff 83.33 scf sf
3454 10350 m
gs 1 -1 sc (-1) col0 sh gr
% here ends figure;
% 
% here starts figure with depth 557
%  text 
/Helvetica-Bold-iso ff 116.67 scf sf
3337 10412 m
gs 1 -1 sc (10) col0 sh gr
% here ends figure;
% 
% here starts figure with depth 548
%  polyline 
% Polyline
0 slj
0 slc
0.000 slw
n 6391 13166 m 6391 10004 l 9354 10004 l 9354 13166 l
 6391 13166 l  cp gs col32 1.00 shd ef gr 
% here ends figure;
% 
% here starts figure with depth 546
%  polyline 
% Polyline
0 slj
0 slc
0.000 slw
n 6391 13166 m 6424 13133 l 6424 10037 l 9320 10037 l 9354 10004 l 6391 10004 l

 6391 13166 l  cp gs col7 1.00 shd ef gr 
% here ends figure;
% 
% here starts figure with depth 544
%  polyline 
% Polyline
0 slj
0 slc
0.000 slw
n 6391 13166 m 6424 13133 l 9320 13133 l 9320 10037 l 9354 10004 l 9354 13166 l

 6391 13166 l  cp gs col33 1.00 shd ef gr 
% here ends figure;
% 
% here starts figure with depth 542
%  polyline 
% Polyline
0 slj
0 slc
0.000 slw
n 6691 12850 m 6691 10320 l 9058 10320 l 9058 12850 l
 6691 12850 l  cp gs col32 1.00 shd ef gr 
% here ends figure;
% 
% here starts figure with depth 540
%  polyline 
% Polyline
0 slj
0 slc
0.000 slw
n 6691 12850 m 6708 12833 l 6708 10337 l 9041 10337 l 9058 10320 l 6691 10320 l

 6691 12850 l  cp gs col7 1.00 shd ef gr 
% here ends figure;
% 
% here starts figure with depth 538
%  polyline 
% Polyline
0 slj
0 slc
0.000 slw
n 6691 12850 m 6708 12833 l 9041 12833 l 9041 10337 l 9058 10320 l 9058 12850 l

 6691 12850 l  cp gs col33 1.00 shd ef gr 
% here ends figure;
% 
% here starts figure with depth 536
%  polyline 
% Polyline
0 slj
0 slc
7.500 slw
n 6691 12850 m 6691 10320 l 9058 10320 l 9058 12850 l
 6691 12850 l  cp gs col0 s gr 
% here ends figure;
% 
% here starts figure with depth 534
%  polyline 
% Polyline
0 slj
0 slc
0.000 slw
n 6691 12850 m 6691 10320 l 9058 10320 l 9058 12850 l
 6691 12850 l  cp gs col32 1.00 shd ef gr 
% here ends figure;
% 
% here starts figure with depth 532
%  polyline 
% Polyline
0 slj
0 slc
0.000 slw
n 6691 12850 m 6708 12833 l 6708 10337 l 9041 10337 l 9058 10320 l 6691 10320 l

 6691 12850 l  cp gs col7 1.00 shd ef gr 
% here ends figure;
% 
% here starts figure with depth 530
%  polyline 
% Polyline
0 slj
0 slc
0.000 slw
n 6691 12850 m 6708 12833 l 9041 12833 l 9041 10337 l 9058 10320 l 9058 12850 l

 6691 12850 l  cp gs col33 1.00 shd ef gr 
% here ends figure;
% 
% here starts figure with depth 528
%  polyline 
% Polyline
0 slj
0 slc
7.500 slw
n 6691 12850 m 6691 10320 l 9058 10320 l 9058 12850 l
 6691 12850 l  cp gs col0 s gr 
% here ends figure;
% 
% here starts figure with depth 526
%  polyline 
% Polyline
0 slj
0 slc
0.000 slw
n 6691 12850 m 7320 12850 l 7320 10441 l 7337 10441 l 7337 10600 l 7354 10600 l
 7354 10637 l 7366 10637 l 7366 10604 l 7383 10604 l 7383 11070 l
 7399 11070 l 7399 11183 l 7416 11183 l 7416 11179 l 7433 11179 l
 7433 11041 l 7445 11041 l 7445 11320 l 7462 11320 l 7462 11458 l
 7479 11458 l 7479 11558 l 7495 11558 l 7495 11650 l 7512 11650 l
 7512 11729 l 7524 11729 l 7524 11837 l 7541 11837 l 7541 11850 l
 7558 11850 l 7558 11908 l 7574 11908 l 7574 11983 l 7591 11983 l
 7591 11995 l 7604 11995 l 7604 12058 l 7620 12058 l 7620 12062 l
 7637 12062 l 7637 12133 l 7654 12133 l 7654 12204 l 7666 12204 l
 7666 12225 l 7699 12225 l 7699 12287 l 7716 12287 l 7716 12320 l
 7733 12320 l 7733 12358 l 7745 12358 l 7745 12300 l 7762 12300 l
 7762 12437 l 7779 12437 l 7779 12454 l 7795 12454 l 7795 12462 l
 7812 12462 l 7812 12466 l 7824 12466 l 7824 12508 l 7841 12508 l
 7841 12516 l 7858 12516 l 7858 12537 l 7874 12537 l 7874 12562 l
 7891 12562 l 7891 12575 l 7904 12575 l 7904 12595 l 7920 12595 l
 7920 12608 l 7937 12608 l 7937 12587 l 7954 12587 l 7954 12633 l
 7970 12633 l 7970 12637 l 7983 12637 l 7983 12662 l 7999 12662 l
 7999 12666 l 8016 12666 l 8016 12687 l 8045 12687 l 8045 12704 l
 8079 12704 l 8079 12716 l 8095 12716 l 8095 12720 l 8112 12720 l
 8112 12741 l 8124 12741 l 8124 12745 l 8141 12745 l 8141 12754 l
 8174 12754 l 8174 12758 l 8191 12758 l 8191 12766 l 8204 12766 l
 8204 12770 l 8220 12770 l 8220 12779 l 8270 12779 l 8270 12795 l
 8316 12795 l 8316 12804 l 8333 12804 l 8333 12812 l 8345 12812 l
 8345 12808 l 8362 12808 l 8362 12816 l 8379 12816 l 8379 12812 l
 8395 12812 l 8395 12816 l 8412 12816 l 8412 12820 l 8441 12820 l
 8441 12825 l 8474 12825 l 8474 12829 l 8504 12829 l 8504 12833 l
 8554 12833 l 8554 12837 l 8570 12837 l 8570 12841 l 8662 12841 l
 8662 12845 l 8774 12845 l 8774 12850 l 8837 12850 l 8837 12845 l
 8854 12845 l 8854 12850 l
 9058 12850 l gs col2 1.00 shd ef gr 
% here ends figure;
% 
% here starts figure with depth 524
%  polyline 
% Polyline
0 slj
0 slc
7.500 slw
n 6691 12850 m 7320 12850 l 7320 10441 l 7337 10441 l 7337 10600 l 7354 10600 l
 7354 10637 l 7366 10637 l 7366 10604 l 7383 10604 l 7383 11070 l
 7399 11070 l 7399 11183 l 7416 11183 l 7416 11179 l 7433 11179 l
 7433 11041 l 7445 11041 l 7445 11320 l 7462 11320 l 7462 11458 l
 7479 11458 l 7479 11558 l 7495 11558 l 7495 11650 l 7512 11650 l
 7512 11729 l 7524 11729 l 7524 11837 l 7541 11837 l 7541 11850 l
 7558 11850 l 7558 11908 l 7574 11908 l 7574 11983 l 7591 11983 l
 7591 11995 l 7604 11995 l 7604 12058 l 7620 12058 l 7620 12062 l
 7637 12062 l 7637 12133 l 7654 12133 l 7654 12204 l 7666 12204 l
 7666 12225 l 7699 12225 l 7699 12287 l 7716 12287 l 7716 12320 l
 7733 12320 l 7733 12358 l 7745 12358 l 7745 12300 l 7762 12300 l
 7762 12437 l 7779 12437 l 7779 12454 l 7795 12454 l 7795 12462 l
 7812 12462 l 7812 12466 l 7824 12466 l 7824 12508 l 7841 12508 l
 7841 12516 l 7858 12516 l 7858 12537 l 7874 12537 l 7874 12562 l
 7891 12562 l 7891 12575 l 7904 12575 l 7904 12595 l 7920 12595 l
 7920 12608 l 7937 12608 l 7937 12587 l 7954 12587 l 7954 12633 l
 7970 12633 l 7970 12637 l 7983 12637 l 7983 12662 l 7999 12662 l
 7999 12666 l 8016 12666 l 8016 12687 l 8045 12687 l 8045 12704 l
 8079 12704 l 8079 12716 l 8095 12716 l 8095 12720 l 8112 12720 l
 8112 12741 l 8124 12741 l 8124 12745 l 8141 12745 l 8141 12754 l
 8174 12754 l 8174 12758 l 8191 12758 l 8191 12766 l 8204 12766 l
 8204 12770 l 8220 12770 l 8220 12779 l 8270 12779 l 8270 12795 l
 8316 12795 l 8316 12804 l 8333 12804 l 8333 12812 l 8345 12812 l
 8345 12808 l 8362 12808 l 8362 12816 l 8379 12816 l 8379 12812 l
 8395 12812 l 8395 12816 l 8412 12816 l 8412 12820 l 8441 12820 l
 8441 12825 l 8474 12825 l 8474 12829 l 8504 12829 l 8504 12833 l
 8554 12833 l 8554 12837 l 8570 12837 l 8570 12841 l 8662 12841 l
 8662 12845 l 8774 12845 l 8774 12850 l 8837 12850 l 8837 12845 l
 8854 12845 l 8854 12850 l
 9058 12850 l gs col0 s gr 
%  polyline 
% Polyline
n 6691 12850 m
 9058 12850 l gs col0 s gr 
%  polyline 
% Polyline
n 6691 12775 m
 6691 12850 l gs col0 s gr 
% here ends figure;
% 
% here starts figure with depth 520
%  polyline 
% Polyline
0 slj
0 slc
7.500 slw
n 6766 12812 m
 6766 12850 l gs col0 s gr 
%  polyline 
% Polyline
n 6845 12812 m
 6845 12850 l gs col0 s gr 
%  polyline 
% Polyline
n 6924 12812 m
 6924 12850 l gs col0 s gr 
%  polyline 
% Polyline
n 7004 12775 m
 7004 12850 l gs col0 s gr 
%  polyline 
% Polyline
n 7083 12812 m
 7083 12850 l gs col0 s gr 
%  polyline 
% Polyline
n 7162 12812 m
 7162 12850 l gs col0 s gr 
%  polyline 
% Polyline
n 7241 12812 m
 7241 12850 l gs col0 s gr 
%  polyline 
% Polyline
n 7320 12775 m
 7320 12850 l gs col0 s gr 
%  polyline 
% Polyline
n 7399 12812 m
 7399 12850 l gs col0 s gr 
%  polyline 
% Polyline
n 7479 12812 m
 7479 12850 l gs col0 s gr 
%  polyline 
% Polyline
n 7558 12812 m
 7558 12850 l gs col0 s gr 
%  polyline 
% Polyline
n 7637 12775 m
 7637 12850 l gs col0 s gr 
%  polyline 
% Polyline
n 7716 12812 m
 7716 12850 l gs col0 s gr 
%  polyline 
% Polyline
n 7795 12812 m
 7795 12850 l gs col0 s gr 
%  polyline 
% Polyline
n 7874 12812 m
 7874 12850 l gs col0 s gr 
%  polyline 
% Polyline
n 7954 12775 m
 7954 12850 l gs col0 s gr 
%  polyline 
% Polyline
n 8033 12812 m
 8033 12850 l gs col0 s gr 
%  polyline 
% Polyline
n 8112 12812 m
 8112 12850 l gs col0 s gr 
%  polyline 
% Polyline
n 8191 12812 m
 8191 12850 l gs col0 s gr 
%  polyline 
% Polyline
n 8270 12775 m
 8270 12850 l gs col0 s gr 
%  polyline 
% Polyline
n 8345 12812 m
 8345 12850 l gs col0 s gr 
%  polyline 
% Polyline
n 8424 12812 m
 8424 12850 l gs col0 s gr 
%  polyline 
% Polyline
n 8504 12812 m
 8504 12850 l gs col0 s gr 
%  polyline 
% Polyline
n 8583 12775 m
 8583 12850 l gs col0 s gr 
%  polyline 
% Polyline
n 8662 12812 m
 8662 12850 l gs col0 s gr 
%  polyline 
% Polyline
n 8741 12812 m
 8741 12850 l gs col0 s gr 
%  polyline 
% Polyline
n 8820 12812 m
 8820 12850 l gs col0 s gr 
%  polyline 
% Polyline
n 8899 12775 m
 8899 12850 l gs col0 s gr 
%  polyline 
% Polyline
n 8899 12775 m
 8899 12850 l gs col0 s gr 
%  polyline 
% Polyline
n 8979 12812 m
 8979 12850 l gs col0 s gr 
% here ends figure;
% 
% here starts figure with depth 489
%  text 
/Helvetica-Bold-iso ff 116.67 scf sf
6645 12962 m
gs 1 -1 sc (0) col0 sh gr
%  text 
/Helvetica-Bold-iso ff 116.67 scf sf
6920 12962 m
gs 1 -1 sc (0.2) col0 sh gr
% here ends figure;
% 
% here starts figure with depth 486
%  text 
/Helvetica-Bold-iso ff 116.67 scf sf
7229 12962 m
gs 1 -1 sc (0.4) col0 sh gr
% here ends figure;
% 
% here starts figure with depth 484
%  text 
/Helvetica-Bold-iso ff 116.67 scf sf
7549 12962 m
gs 1 -1 sc (0.6) col0 sh gr
% here ends figure;
% 
% here starts figure with depth 482
%  text 
/Helvetica-Bold-iso ff 116.67 scf sf
7858 12962 m
gs 1 -1 sc (0.8) col0 sh gr
% here ends figure;
% 
% here starts figure with depth 480
%  text 
/Helvetica-Bold-iso ff 116.67 scf sf
8237 12962 m
gs 1 -1 sc (1) col0 sh gr
%  text 
/Helvetica-Bold-iso ff 116.67 scf sf
8499 12962 m
gs 1 -1 sc (1.2) col0 sh gr
% here ends figure;
% 
% here starts figure with depth 477
%  text 
/Helvetica-Bold-iso ff 116.67 scf sf
8808 12962 m
gs 1 -1 sc (1.4) col0 sh gr
%  polyline 
% Polyline
0 slj
0 slc
7.500 slw
n 6691 12850 m
 6691 10320 l gs col0 s gr 
% here ends figure;
% 
% here starts figure with depth 474
%  polyline 
% Polyline
0 slj
0 slc
7.500 slw
n 6762 12850 m
 6691 12850 l gs col0 s gr 
%  polyline 
% Polyline
n 6724 12766 m
 6691 12766 l gs col0 s gr 
%  polyline 
% Polyline
n 6724 12683 m
 6691 12683 l gs col0 s gr 
%  polyline 
% Polyline
n 6724 12600 m
 6691 12600 l gs col0 s gr 
%  polyline 
% Polyline
n 6724 12516 m
 6691 12516 l gs col0 s gr 
%  polyline 
% Polyline
n 6762 12433 m
 6691 12433 l gs col0 s gr 
%  polyline 
% Polyline
n 6724 12350 m
 6691 12350 l gs col0 s gr 
%  polyline 
% Polyline
n 6724 12266 m
 6691 12266 l gs col0 s gr 
%  polyline 
% Polyline
n 6724 12183 m
 6691 12183 l gs col0 s gr 
%  polyline 
% Polyline
n 6724 12100 m
 6691 12100 l gs col0 s gr 
%  polyline 
% Polyline
n 6762 12016 m
 6691 12016 l gs col0 s gr 
%  polyline 
% Polyline
n 6724 11929 m
 6691 11929 l gs col0 s gr 
%  polyline 
% Polyline
n 6724 11845 m
 6691 11845 l gs col0 s gr 
%  polyline 
% Polyline
n 6724 11762 m
 6691 11762 l gs col0 s gr 
%  polyline 
% Polyline
n 6724 11679 m
 6691 11679 l gs col0 s gr 
%  polyline 
% Polyline
n 6762 11595 m
 6691 11595 l gs col0 s gr 
%  polyline 
% Polyline
n 6724 11512 m
 6691 11512 l gs col0 s gr 
%  polyline 
% Polyline
n 6724 11429 m
 6691 11429 l gs col0 s gr 
%  polyline 
% Polyline
n 6724 11345 m
 6691 11345 l gs col0 s gr 
%  polyline 
% Polyline
n 6724 11262 m
 6691 11262 l gs col0 s gr 
%  polyline 
% Polyline
n 6762 11179 m
 6691 11179 l gs col0 s gr 
%  polyline 
% Polyline
n 6724 11095 m
 6691 11095 l gs col0 s gr 
%  polyline 
% Polyline
n 6724 11012 m
 6691 11012 l gs col0 s gr 
%  polyline 
% Polyline
n 6724 10929 m
 6691 10929 l gs col0 s gr 
%  polyline 
% Polyline
n 6724 10841 m
 6691 10841 l gs col0 s gr 
%  polyline 
% Polyline
n 6762 10758 m
 6691 10758 l gs col0 s gr 
%  polyline 
% Polyline
n 6724 10675 m
 6691 10675 l gs col0 s gr 
%  polyline 
% Polyline
n 6724 10591 m
 6691 10591 l gs col0 s gr 
%  polyline 
% Polyline
n 6724 10508 m
 6691 10508 l gs col0 s gr 
%  polyline 
% Polyline
n 6724 10425 m
 6691 10425 l gs col0 s gr 
%  polyline 
% Polyline
n 6762 10341 m
 6691 10341 l gs col0 s gr 
%  polyline 
% Polyline
n 6762 10341 m
 6691 10341 l gs col0 s gr 
% here ends figure;
% 
% here starts figure with depth 441
%  text 
/Helvetica-Bold-iso ff 116.67 scf sf
6612 12891 m
gs 1 -1 sc (0) col0 sh gr
%  text 
/Helvetica-Bold-iso ff 116.67 scf sf
6470 12475 m
gs 1 -1 sc (0.01) col0 sh gr
%  text 
/Helvetica-Bold-iso ff 116.67 scf sf
6458 12062 m
gs 1 -1 sc (0.02) col0 sh gr
%  text 
/Helvetica-Bold-iso ff 116.67 scf sf
6458 11633 m
gs 1 -1 sc (0.03) col0 sh gr
%  text 
/Helvetica-Bold-iso ff 116.67 scf sf
6458 11216 m
gs 1 -1 sc (0.04) col0 sh gr
%  text 
/Helvetica-Bold-iso ff 116.67 scf sf
6458 10804 m
gs 1 -1 sc (0.05) col0 sh gr
%  text 
/Helvetica-Bold-iso ff 116.67 scf sf
6458 10387 m
gs 1 -1 sc (0.06) col0 sh gr
% here ends figure;
% 
% here starts figure with depth 50
/Helvetica-Bold-iso ff 150.00 scf sf
206 10195 m
gs 1 -1 sc (9g gauge invariance profile: log) col0 sh gr
/Helvetica-Bold-iso ff 116.67 scf sf
2454 10243 m
gs 1 -1 sc (10) col0 sh gr
/Helvetica-Bold-iso ff 150.00 scf sf
2553 10202 m
gs 1 -1 sc ( R) col0 sh gr
/Helvetica-Bold-iso ff 116.67 scf sf
2710 10250 m
gs 1 -1 sc (GI) col0 sh gr
/Helvetica-Bold-iso ff 150.00 scf sf
3557 10161 m
gs 1 -1 sc (Normalized H) col0 sh gr
/Helvetica-Bold-iso ff 116.67 scf sf
4518 10202 m
gs 1 -1 sc (T) col0 sh gr
/Helvetica-Bold-iso ff 150.00 scf sf
4572 10161 m
gs 1 -1 sc ( distribution for 9g) col0 sh gr
/Helvetica-Bold-iso ff 150.00 scf sf
6592 10182 m
gs 1 -1 sc (Normalized R) col0 sh gr
/Helvetica-Bold-iso ff 116.67 scf sf
7567 10223 m
gs 1 -1 sc (min) col0 sh gr
/Helvetica-Bold-iso ff 150.00 scf sf
7777 10182 m
gs 1 -1 sc ( distribution for 9g) col0 sh gr
/Helvetica-Bold-iso ff 150.00 scf sf
2281 13069 m
gs 1 -1 sc (log) col0 sh gr
/Helvetica-Bold-iso ff 116.67 scf sf
2506 13110 m
gs 1 -1 sc (10) col0 sh gr
/Helvetica-Bold-iso ff 150.00 scf sf
2626 13069 m
gs 1 -1 sc ( W) col0 sh gr
/Helvetica-Bold-iso ff 116.67 scf sf
2806 13110 m
gs 1 -1 sc (ME) col0 sh gr
/Helvetica-Bold-iso ff 150.00 scf sf
5534 13070 m
gs 1 -1 sc (H) col0 sh gr
/Helvetica-Bold-iso ff 116.67 scf sf
5639 13111 m
gs 1 -1 sc (T ) col0 sh gr
/Helvetica-Bold-iso ff 150.00 scf sf
5744 13070 m
gs 1 -1 sc (\(GeV\)) col0 sh gr
/Helvetica-Bold-iso ff 150.00 scf sf
8989 13077 m
gs 1 -1 sc (R) col0 sh gr
/Helvetica-Bold-iso ff 116.67 scf sf
9094 13118 m
gs 1 -1 sc (min) col0 sh gr
% here ends figure;
$F2psEnd
rs
showpage
%%Trailer
%EOF
