%!PS-Adobe-2.0 EPSF-2.0
%%Title: distributions11.fig
%%Creator: fig2dev Version 3.2 Patchlevel 5
%%CreationDate: Wed Feb 17 14:09:20 2010
%%For: giele@thgpu1.fnal.gov (Walter Giele)
%%BoundingBox: 0 0 568 194
%Magnification: 1.0000
%%EndComments
/$F2psDict 200 dict def
$F2psDict begin
$F2psDict /mtrx matrix put
/col-1 {0 setgray} bind def
/col0 {0.000 0.000 0.000 srgb} bind def
/col1 {0.000 0.000 1.000 srgb} bind def
/col2 {0.000 1.000 0.000 srgb} bind def
/col3 {0.000 1.000 1.000 srgb} bind def
/col4 {1.000 0.000 0.000 srgb} bind def
/col5 {1.000 0.000 1.000 srgb} bind def
/col6 {1.000 1.000 0.000 srgb} bind def
/col7 {1.000 1.000 1.000 srgb} bind def
/col8 {0.000 0.000 0.560 srgb} bind def
/col9 {0.000 0.000 0.690 srgb} bind def
/col10 {0.000 0.000 0.820 srgb} bind def
/col11 {0.530 0.810 1.000 srgb} bind def
/col12 {0.000 0.560 0.000 srgb} bind def
/col13 {0.000 0.690 0.000 srgb} bind def
/col14 {0.000 0.820 0.000 srgb} bind def
/col15 {0.000 0.560 0.560 srgb} bind def
/col16 {0.000 0.690 0.690 srgb} bind def
/col17 {0.000 0.820 0.820 srgb} bind def
/col18 {0.560 0.000 0.000 srgb} bind def
/col19 {0.690 0.000 0.000 srgb} bind def
/col20 {0.820 0.000 0.000 srgb} bind def
/col21 {0.560 0.000 0.560 srgb} bind def
/col22 {0.690 0.000 0.690 srgb} bind def
/col23 {0.820 0.000 0.820 srgb} bind def
/col24 {0.500 0.190 0.000 srgb} bind def
/col25 {0.630 0.250 0.000 srgb} bind def
/col26 {0.750 0.380 0.000 srgb} bind def
/col27 {1.000 0.500 0.500 srgb} bind def
/col28 {1.000 0.630 0.630 srgb} bind def
/col29 {1.000 0.750 0.750 srgb} bind def
/col30 {1.000 0.880 0.880 srgb} bind def
/col31 {1.000 0.840 0.000 srgb} bind def
/col32 {0.949 0.949 0.949 srgb} bind def
/col33 {0.663 0.663 0.663 srgb} bind def

end
save
newpath 0 194 moveto 0 0 lineto 568 0 lineto 568 194 lineto closepath clip newpath
0.1 792.1 translate
1 -1 scale

/cp {closepath} bind def
/ef {eofill} bind def
/gr {grestore} bind def
/gs {gsave} bind def
/sa {save} bind def
/rs {restore} bind def
/l {lineto} bind def
/m {moveto} bind def
/rm {rmoveto} bind def
/n {newpath} bind def
/s {stroke} bind def
/sh {show} bind def
/slc {setlinecap} bind def
/slj {setlinejoin} bind def
/slw {setlinewidth} bind def
/srgb {setrgbcolor} bind def
/rot {rotate} bind def
/sc {scale} bind def
/sd {setdash} bind def
/ff {findfont} bind def
/sf {setfont} bind def
/scf {scalefont} bind def
/sw {stringwidth} bind def
/tr {translate} bind def
/tnt {dup dup currentrgbcolor
  4 -2 roll dup 1 exch sub 3 -1 roll mul add
  4 -2 roll dup 1 exch sub 3 -1 roll mul add
  4 -2 roll dup 1 exch sub 3 -1 roll mul add srgb}
  bind def
/shd {dup dup currentrgbcolor 4 -2 roll mul 4 -2 roll mul
  4 -2 roll mul srgb} bind def
/reencdict 12 dict def /ReEncode { reencdict begin
/newcodesandnames exch def /newfontname exch def /basefontname exch def
/basefontdict basefontname findfont def /newfont basefontdict maxlength dict def
basefontdict { exch dup /FID ne { dup /Encoding eq
{ exch dup length array copy newfont 3 1 roll put }
{ exch newfont 3 1 roll put } ifelse } { pop pop } ifelse } forall
newfont /FontName newfontname put newcodesandnames aload pop
128 1 255 { newfont /Encoding get exch /.notdef put } for
newcodesandnames length 2 idiv { newfont /Encoding get 3 1 roll put } repeat
newfontname newfont definefont pop end } def
/isovec [
8#055 /minus 8#200 /grave 8#201 /acute 8#202 /circumflex 8#203 /tilde
8#204 /macron 8#205 /breve 8#206 /dotaccent 8#207 /dieresis
8#210 /ring 8#211 /cedilla 8#212 /hungarumlaut 8#213 /ogonek 8#214 /caron
8#220 /dotlessi 8#230 /oe 8#231 /OE
8#240 /space 8#241 /exclamdown 8#242 /cent 8#243 /sterling
8#244 /currency 8#245 /yen 8#246 /brokenbar 8#247 /section 8#250 /dieresis
8#251 /copyright 8#252 /ordfeminine 8#253 /guillemotleft 8#254 /logicalnot
8#255 /hyphen 8#256 /registered 8#257 /macron 8#260 /degree 8#261 /plusminus
8#262 /twosuperior 8#263 /threesuperior 8#264 /acute 8#265 /mu 8#266 /paragraph
8#267 /periodcentered 8#270 /cedilla 8#271 /onesuperior 8#272 /ordmasculine
8#273 /guillemotright 8#274 /onequarter 8#275 /onehalf
8#276 /threequarters 8#277 /questiondown 8#300 /Agrave 8#301 /Aacute
8#302 /Acircumflex 8#303 /Atilde 8#304 /Adieresis 8#305 /Aring
8#306 /AE 8#307 /Ccedilla 8#310 /Egrave 8#311 /Eacute
8#312 /Ecircumflex 8#313 /Edieresis 8#314 /Igrave 8#315 /Iacute
8#316 /Icircumflex 8#317 /Idieresis 8#320 /Eth 8#321 /Ntilde 8#322 /Ograve
8#323 /Oacute 8#324 /Ocircumflex 8#325 /Otilde 8#326 /Odieresis 8#327 /multiply
8#330 /Oslash 8#331 /Ugrave 8#332 /Uacute 8#333 /Ucircumflex
8#334 /Udieresis 8#335 /Yacute 8#336 /Thorn 8#337 /germandbls 8#340 /agrave
8#341 /aacute 8#342 /acircumflex 8#343 /atilde 8#344 /adieresis 8#345 /aring
8#346 /ae 8#347 /ccedilla 8#350 /egrave 8#351 /eacute
8#352 /ecircumflex 8#353 /edieresis 8#354 /igrave 8#355 /iacute
8#356 /icircumflex 8#357 /idieresis 8#360 /eth 8#361 /ntilde 8#362 /ograve
8#363 /oacute 8#364 /ocircumflex 8#365 /otilde 8#366 /odieresis 8#367 /divide
8#370 /oslash 8#371 /ugrave 8#372 /uacute 8#373 /ucircumflex
8#374 /udieresis 8#375 /yacute 8#376 /thorn 8#377 /ydieresis] def
/Helvetica-Bold /Helvetica-Bold-iso isovec ReEncode
/$F2psBegin {$F2psDict begin /$F2psEnteredState save def} def
/$F2psEnd {$F2psEnteredState restore end} def

$F2psBegin
10 setmiterlimit
0 slj 0 slc
 0.06000 0.06000 sc
%
% Fig objects follow
%
% 
% here starts figure with depth 999
%  polyline 
% Polyline
0 slj
0 slc
0.000 slw
n 0 13200 m 0 9970 l 9449 9970 l 9449 13200 l
 0 13200 l  cp gs col32 1.00 shd ef gr 
% here ends figure;
% 
% here starts figure with depth 997
%  polyline 
% Polyline
0 slj
0 slc
0.000 slw
n 0 13200 m 33 13166 l 33 10004 l 9416 10004 l 9449 9970 l 0 9970 l

 0 13200 l  cp gs col7 1.00 shd ef gr 
% here ends figure;
% 
% here starts figure with depth 995
%  polyline 
% Polyline
0 slj
0 slc
0.000 slw
n 0 13200 m 33 13166 l 9416 13166 l 9416 10004 l 9449 9970 l 9449 13200 l

 0 13200 l  cp gs col33 1.00 shd ef gr 
% here ends figure;
% 
% here starts figure with depth 993
%  polyline 
% Polyline
0 slj
0 slc
0.000 slw
n 95 13166 m 95 10004 l 3054 10004 l 3054 13166 l
 95 13166 l  cp gs col32 1.00 shd ef gr 
% here ends figure;
% 
% here starts figure with depth 991
%  polyline 
% Polyline
0 slj
0 slc
0.000 slw
n 95 13166 m 129 13133 l 129 10037 l 3020 10037 l 3054 10004 l 95 10004 l

 95 13166 l  cp gs col7 1.00 shd ef gr 
% here ends figure;
% 
% here starts figure with depth 989
%  polyline 
% Polyline
0 slj
0 slc
0.000 slw
n 95 13166 m 129 13133 l 3020 13133 l 3020 10037 l 3054 10004 l 3054 13166 l

 95 13166 l  cp gs col33 1.00 shd ef gr 
% here ends figure;
% 
% here starts figure with depth 983
%  polyline 
% Polyline
0 slj
0 slc
0.000 slw
n 391 12850 m 408 12833 l 2741 12833 l 2741 10337 l 2758 10320 l 2758 12850 l

 391 12850 l  cp gs col33 1.00 shd ef gr 
% here ends figure;
% 
% here starts figure with depth 981
%  polyline 
% Polyline
0 slj
0 slc
7.500 slw
n 391 12850 m 391 10320 l 2758 10320 l 2758 12850 l
 391 12850 l  cp gs col0 s gr 
% here ends figure;
% 
% here starts figure with depth 979
%  polyline 
% Polyline
0 slj
0 slc
0.000 slw
n 391 12850 m 391 10320 l 2758 10320 l 2758 12850 l
 391 12850 l  cp gs col32 1.00 shd ef gr 
% here ends figure;
% 
% here starts figure with depth 977
%  polyline 
% Polyline
0 slj
0 slc
0.000 slw
n 391 12850 m 408 12833 l 408 10337 l 2741 10337 l 2758 10320 l 391 10320 l

 391 12850 l  cp gs col7 1.00 shd ef gr 
% here ends figure;
% 
% here starts figure with depth 975
%  polyline 
% Polyline
0 slj
0 slc
0.000 slw
n 391 12850 m 408 12833 l 2741 12833 l 2741 10337 l 2758 10320 l 2758 12850 l

 391 12850 l  cp gs col33 1.00 shd ef gr 
% here ends figure;
% 
% here starts figure with depth 973
%  polyline 
% Polyline
0 slj
0 slc
7.500 slw
n 391 12850 m 391 10320 l 2758 10320 l 2758 12850 l
 391 12850 l  cp gs col0 s gr 
% here ends figure;
% 
% here starts figure with depth 971
%  polyline 
% Polyline
0 slj
0 slc
7.500 slw
n 662 10587 m
 662 10579 l gs col0 s gr 
%  polyline 
% Polyline
n 662 10554 m
 662 10545 l gs col0 s gr 
% here ends figure;
% 
% here starts figure with depth 968
%  polyline 
% Polyline
0 slj
0 slc
0.000 slw
n 662 10554 m 649 10554 l 649 10579 l 674 10579 l 674 10554 l
 662 10554 l  cp gs col1 1.00 shd ef gr 
%  polyline 
% Polyline
7.500 slw
n 687 10537 m
 687 10533 l gs col0 s gr 
%  polyline 
% Polyline
n 687 10508 m
 687 10504 l gs col0 s gr 
% here ends figure;
% 
% here starts figure with depth 964
%  polyline 
% Polyline
0 slj
0 slc
0.000 slw
n 687 10508 m 674 10508 l 674 10533 l 699 10533 l 699 10508 l
 687 10508 l  cp gs col1 1.00 shd ef gr 
%  polyline 
% Polyline
7.500 slw
n 708 10654 m
 708 10637 l gs col0 s gr 
%  polyline 
% Polyline
n 708 10612 m
 708 10595 l gs col0 s gr 
% here ends figure;
% 
% here starts figure with depth 960
%  polyline 
% Polyline
0 slj
0 slc
0.000 slw
n 708 10612 m 695 10612 l 695 10637 l 720 10637 l 720 10612 l
 708 10612 l  cp gs col1 1.00 shd ef gr 
%  polyline 
% Polyline
7.500 slw
n 733 10687 m
 733 10666 l gs col0 s gr 
%  polyline 
% Polyline
n 733 10641 m
 733 10620 l gs col0 s gr 
% here ends figure;
% 
% here starts figure with depth 956
%  polyline 
% Polyline
0 slj
0 slc
0.000 slw
n 733 10641 m 720 10641 l 720 10666 l 745 10666 l 745 10641 l
 733 10641 l  cp gs col1 1.00 shd ef gr 
%  polyline 
% Polyline
7.500 slw
n 758 10658 m
 758 10645 l gs col0 s gr 
%  polyline 
% Polyline
n 758 10620 m
 758 10612 l gs col0 s gr 
% here ends figure;
% 
% here starts figure with depth 952
%  polyline 
% Polyline
0 slj
0 slc
0.000 slw
n 758 10620 m 745 10620 l 745 10645 l 770 10645 l 770 10620 l
 758 10620 l  cp gs col1 1.00 shd ef gr 
%  polyline 
% Polyline
7.500 slw
n 783 10691 m
 783 10679 l gs col0 s gr 
%  polyline 
% Polyline
n 783 10654 m
 783 10645 l gs col0 s gr 
% here ends figure;
% 
% here starts figure with depth 948
%  polyline 
% Polyline
0 slj
0 slc
0.000 slw
n 783 10654 m 770 10654 l 770 10679 l 795 10679 l 795 10654 l
 783 10654 l  cp gs col1 1.00 shd ef gr 
%  polyline 
% Polyline
7.500 slw
n 804 10729 m
 804 10725 l gs col0 s gr 
%  polyline 
% Polyline
n 804 10700 m
 804 10691 l gs col0 s gr 
% here ends figure;
% 
% here starts figure with depth 944
%  polyline 
% Polyline
0 slj
0 slc
0.000 slw
n 804 10700 m 791 10700 l 791 10725 l 816 10725 l 816 10700 l
 804 10700 l  cp gs col1 1.00 shd ef gr 
%  polyline 
% Polyline
7.500 slw
n 829 10691 m
 829 10687 l gs col0 s gr 
%  polyline 
% Polyline
n 829 10662 m
 829 10658 l gs col0 s gr 
% here ends figure;
% 
% here starts figure with depth 940
%  polyline 
% Polyline
0 slj
0 slc
0.000 slw
n 829 10662 m 816 10662 l 816 10687 l 841 10687 l 841 10662 l
 829 10662 l  cp gs col1 1.00 shd ef gr 
%  polyline 
% Polyline
n 854 10745 m 841 10745 l 841 10770 l 866 10770 l 866 10745 l
 854 10745 l  cp gs col1 1.00 shd ef gr 
%  polyline 
% Polyline
n 874 10770 m 862 10770 l 862 10795 l 887 10795 l 887 10770 l
 874 10770 l  cp gs col1 1.00 shd ef gr 
%  polyline 
% Polyline
n 899 10816 m 887 10816 l 887 10841 l 912 10841 l 912 10816 l
 899 10816 l  cp gs col1 1.00 shd ef gr 
%  polyline 
% Polyline
n 924 10845 m 912 10845 l 912 10870 l 937 10870 l 937 10845 l
 924 10845 l  cp gs col1 1.00 shd ef gr 
%  polyline 
% Polyline
n 945 10904 m 933 10904 l 933 10929 l 958 10929 l 958 10904 l
 945 10904 l  cp gs col1 1.00 shd ef gr 
%  polyline 
% Polyline
n 970 10941 m 958 10941 l 958 10966 l 983 10966 l 983 10941 l
 970 10941 l  cp gs col1 1.00 shd ef gr 
%  polyline 
% Polyline
n 995 10995 m 983 10995 l 983 11020 l 1008 11020 l 1008 10995 l
 995 10995 l  cp gs col1 1.00 shd ef gr 
%  polyline 
% Polyline
n 1016 11041 m 1004 11041 l 1004 11066 l 1029 11066 l 1029 11041 l
 1016 11041 l  cp gs col1 1.00 shd ef gr 
%  polyline 
% Polyline
n 1041 11091 m 1029 11091 l 1029 11116 l 1054 11116 l 1054 11091 l
 1041 11091 l  cp gs col1 1.00 shd ef gr 
%  polyline 
% Polyline
n 1066 11137 m 1054 11137 l 1054 11162 l 1079 11162 l 1079 11137 l
 1066 11137 l  cp gs col1 1.00 shd ef gr 
%  polyline 
% Polyline
n 1087 11195 m 1074 11195 l 1074 11220 l 1099 11220 l 1099 11195 l
 1087 11195 l  cp gs col1 1.00 shd ef gr 
%  polyline 
% Polyline
n 1112 11241 m 1099 11241 l 1099 11266 l 1124 11266 l 1124 11241 l
 1112 11241 l  cp gs col1 1.00 shd ef gr 
%  polyline 
% Polyline
n 1137 11295 m 1124 11295 l 1124 11320 l 1149 11320 l 1149 11295 l
 1137 11295 l  cp gs col1 1.00 shd ef gr 
%  polyline 
% Polyline
n 1158 11341 m 1145 11341 l 1145 11366 l 1170 11366 l 1170 11341 l
 1158 11341 l  cp gs col1 1.00 shd ef gr 
%  polyline 
% Polyline
n 1183 11395 m 1170 11395 l 1170 11420 l 1195 11420 l 1195 11395 l
 1183 11395 l  cp gs col1 1.00 shd ef gr 
%  polyline 
% Polyline
n 1208 11450 m 1195 11450 l 1195 11475 l 1220 11475 l 1220 11450 l
 1208 11450 l  cp gs col1 1.00 shd ef gr 
%  polyline 
% Polyline
n 1233 11500 m 1220 11500 l 1220 11525 l 1245 11525 l 1245 11500 l
 1233 11500 l  cp gs col1 1.00 shd ef gr 
%  polyline 
% Polyline
n 1254 11550 m 1241 11550 l 1241 11575 l 1266 11575 l 1266 11550 l
 1254 11550 l  cp gs col1 1.00 shd ef gr 
%  polyline 
% Polyline
n 1279 11604 m 1266 11604 l 1266 11629 l 1291 11629 l 1291 11604 l
 1279 11604 l  cp gs col1 1.00 shd ef gr 
%  polyline 
% Polyline
n 1304 11654 m 1291 11654 l 1291 11679 l 1316 11679 l 1316 11654 l
 1304 11654 l  cp gs col1 1.00 shd ef gr 
%  polyline 
% Polyline
n 1324 11704 m 1312 11704 l 1312 11729 l 1337 11729 l 1337 11704 l
 1324 11704 l  cp gs col1 1.00 shd ef gr 
%  polyline 
% Polyline
n 1349 11758 m 1337 11758 l 1337 11783 l 1362 11783 l 1362 11758 l
 1349 11758 l  cp gs col1 1.00 shd ef gr 
%  polyline 
% Polyline
n 1374 11808 m 1362 11808 l 1362 11833 l 1387 11833 l 1387 11808 l
 1374 11808 l  cp gs col1 1.00 shd ef gr 
%  polyline 
% Polyline
n 1395 11858 m 1383 11858 l 1383 11883 l 1408 11883 l 1408 11858 l
 1395 11858 l  cp gs col1 1.00 shd ef gr 
%  polyline 
% Polyline
n 1420 11912 m 1408 11912 l 1408 11937 l 1433 11937 l 1433 11912 l
 1420 11912 l  cp gs col1 1.00 shd ef gr 
%  polyline 
% Polyline
n 1445 11962 m 1433 11962 l 1433 11987 l 1458 11987 l 1458 11962 l
 1445 11962 l  cp gs col1 1.00 shd ef gr 
%  polyline 
% Polyline
n 1466 12016 m 1454 12016 l 1454 12041 l 1479 12041 l 1479 12016 l
 1466 12016 l  cp gs col1 1.00 shd ef gr 
%  polyline 
% Polyline
n 1491 12066 m 1479 12066 l 1479 12091 l 1504 12091 l 1504 12066 l
 1491 12066 l  cp gs col1 1.00 shd ef gr 
%  polyline 
% Polyline
n 1516 12120 m 1504 12120 l 1504 12145 l 1529 12145 l 1529 12120 l
 1516 12120 l  cp gs col1 1.00 shd ef gr 
%  polyline 
% Polyline
n 1537 12170 m 1524 12170 l 1524 12195 l 1549 12195 l 1549 12170 l
 1537 12170 l  cp gs col1 1.00 shd ef gr 
%  polyline 
% Polyline
n 1562 12225 m 1549 12225 l 1549 12250 l 1574 12250 l 1574 12225 l
 1562 12225 l  cp gs col1 1.00 shd ef gr 
%  polyline 
% Polyline
n 1587 12275 m 1574 12275 l 1574 12300 l 1599 12300 l 1599 12275 l
 1587 12275 l  cp gs col1 1.00 shd ef gr 
%  polyline 
% Polyline
n 1608 12316 m 1595 12316 l 1595 12341 l 1620 12341 l 1620 12316 l
 1608 12316 l  cp gs col1 1.00 shd ef gr 
%  polyline 
% Polyline
n 1633 12358 m 1620 12358 l 1620 12383 l 1645 12383 l 1645 12358 l
 1633 12358 l  cp gs col1 1.00 shd ef gr 
%  polyline 
% Polyline
n 1658 12387 m 1645 12387 l 1645 12412 l 1670 12412 l 1670 12387 l
 1658 12387 l  cp gs col1 1.00 shd ef gr 
%  polyline 
% Polyline
n 1683 12412 m 1670 12412 l 1670 12437 l 1695 12437 l 1695 12412 l
 1683 12412 l  cp gs col1 1.00 shd ef gr 
% here ends figure;
% 
% here starts figure with depth 902
%  polyline 
% Polyline
0 slj
0 slc
0.000 slw
n 1704 12433 m 1691 12433 l 1691 12458 l 1716 12458 l 1716 12433 l
 1704 12433 l  cp gs col1 1.00 shd ef gr 
%  polyline 
% Polyline
n 1729 12450 m 1716 12450 l 1716 12475 l 1741 12475 l 1741 12450 l
 1729 12450 l  cp gs col1 1.00 shd ef gr 
%  polyline 
% Polyline
n 1754 12466 m 1741 12466 l 1741 12491 l 1766 12491 l 1766 12466 l
 1754 12466 l  cp gs col1 1.00 shd ef gr 
% here ends figure;
% 
% here starts figure with depth 898
%  polyline 
% Polyline
0 slj
0 slc
0.000 slw
n 1774 12479 m 1762 12479 l 1762 12504 l 1787 12504 l 1787 12479 l
 1774 12479 l  cp gs col1 1.00 shd ef gr 
%  polyline 
% Polyline
n 1799 12487 m 1787 12487 l 1787 12512 l 1812 12512 l 1812 12487 l
 1799 12487 l  cp gs col1 1.00 shd ef gr 
%  polyline 
% Polyline
n 1824 12495 m 1812 12495 l 1812 12520 l 1837 12520 l 1837 12495 l
 1824 12495 l  cp gs col1 1.00 shd ef gr 
% here ends figure;
% 
% here starts figure with depth 894
%  polyline 
% Polyline
0 slj
0 slc
0.000 slw
n 1845 12500 m 1833 12500 l 1833 12525 l 1858 12525 l 1858 12500 l
 1845 12500 l  cp gs col1 1.00 shd ef gr 
%  polyline 
% Polyline
n 1870 12508 m 1858 12508 l 1858 12533 l 1883 12533 l 1883 12508 l
 1870 12508 l  cp gs col1 1.00 shd ef gr 
%  polyline 
% Polyline
n 1895 12512 m 1883 12512 l 1883 12537 l 1908 12537 l 1908 12512 l
 1895 12512 l  cp gs col1 1.00 shd ef gr 
% here ends figure;
% 
% here starts figure with depth 890
%  polyline 
% Polyline
0 slj
0 slc
0.000 slw
n 1916 12516 m 1904 12516 l 1904 12541 l 1929 12541 l 1929 12516 l
 1916 12516 l  cp gs col1 1.00 shd ef gr 
%  polyline 
% Polyline
n 1941 12520 m 1929 12520 l 1929 12545 l 1954 12545 l 1954 12520 l
 1941 12520 l  cp gs col1 1.00 shd ef gr 
%  polyline 
% Polyline
n 1966 12525 m 1954 12525 l 1954 12550 l 1979 12550 l 1979 12525 l
 1966 12525 l  cp gs col1 1.00 shd ef gr 
% here ends figure;
% 
% here starts figure with depth 886
%  polyline 
% Polyline
0 slj
0 slc
0.000 slw
n 1987 12529 m 1974 12529 l 1974 12554 l 1999 12554 l 1999 12529 l
 1987 12529 l  cp gs col1 1.00 shd ef gr 
%  polyline 
% Polyline
n 2012 12529 m 1999 12529 l 1999 12554 l 2024 12554 l 2024 12529 l
 2012 12529 l  cp gs col1 1.00 shd ef gr 
%  polyline 
% Polyline
n 2037 12533 m 2024 12533 l 2024 12558 l 2049 12558 l 2049 12533 l
 2037 12533 l  cp gs col1 1.00 shd ef gr 
% here ends figure;
% 
% here starts figure with depth 882
%  polyline 
% Polyline
0 slj
0 slc
0.000 slw
n 2058 12533 m 2045 12533 l 2045 12558 l 2070 12558 l 2070 12533 l
 2058 12533 l  cp gs col1 1.00 shd ef gr 
%  polyline 
% Polyline
n 2083 12537 m 2070 12537 l 2070 12562 l 2095 12562 l 2095 12537 l
 2083 12537 l  cp gs col1 1.00 shd ef gr 
%  polyline 
% Polyline
n 2108 12537 m 2095 12537 l 2095 12562 l 2120 12562 l 2120 12537 l
 2108 12537 l  cp gs col1 1.00 shd ef gr 
%  polyline 
% Polyline
n 2133 12541 m 2120 12541 l 2120 12566 l 2145 12566 l 2145 12541 l
 2133 12541 l  cp gs col1 1.00 shd ef gr 
% here ends figure;
% 
% here starts figure with depth 877
%  polyline 
% Polyline
0 slj
0 slc
0.000 slw
n 2154 12541 m 2141 12541 l 2141 12566 l 2166 12566 l 2166 12541 l
 2154 12541 l  cp gs col1 1.00 shd ef gr 
%  polyline 
% Polyline
n 2179 12541 m 2166 12541 l 2166 12566 l 2191 12566 l 2191 12541 l
 2179 12541 l  cp gs col1 1.00 shd ef gr 
%  polyline 
% Polyline
n 2204 12545 m 2191 12545 l 2191 12570 l 2216 12570 l 2216 12545 l
 2204 12545 l  cp gs col1 1.00 shd ef gr 
% here ends figure;
% 
% here starts figure with depth 873
%  polyline 
% Polyline
0 slj
0 slc
0.000 slw
n 2224 12545 m 2212 12545 l 2212 12570 l 2237 12570 l 2237 12545 l
 2224 12545 l  cp gs col1 1.00 shd ef gr 
%  polyline 
% Polyline
n 2249 12545 m 2237 12545 l 2237 12570 l 2262 12570 l 2262 12545 l
 2249 12545 l  cp gs col1 1.00 shd ef gr 
%  polyline 
% Polyline
n 2274 12545 m 2262 12545 l 2262 12570 l 2287 12570 l 2287 12545 l
 2274 12545 l  cp gs col1 1.00 shd ef gr 
% here ends figure;
% 
% here starts figure with depth 869
%  polyline 
% Polyline
0 slj
0 slc
0.000 slw
n 2295 12545 m 2283 12545 l 2283 12570 l 2308 12570 l 2308 12545 l
 2295 12545 l  cp gs col1 1.00 shd ef gr 
%  polyline 
% Polyline
n 2320 12550 m 2308 12550 l 2308 12575 l 2333 12575 l 2333 12550 l
 2320 12550 l  cp gs col1 1.00 shd ef gr 
%  polyline 
% Polyline
n 2345 12550 m 2333 12550 l 2333 12575 l 2358 12575 l 2358 12550 l
 2345 12550 l  cp gs col1 1.00 shd ef gr 
% here ends figure;
% 
% here starts figure with depth 865
%  polyline 
% Polyline
0 slj
0 slc
0.000 slw
n 2366 12550 m 2354 12550 l 2354 12575 l 2379 12575 l 2379 12550 l
 2366 12550 l  cp gs col1 1.00 shd ef gr 
%  polyline 
% Polyline
n 2391 12550 m 2379 12550 l 2379 12575 l 2404 12575 l 2404 12550 l
 2391 12550 l  cp gs col1 1.00 shd ef gr 
%  polyline 
% Polyline
n 2416 12550 m 2404 12550 l 2404 12575 l 2429 12575 l 2429 12550 l
 2416 12550 l  cp gs col1 1.00 shd ef gr 
% here ends figure;
% 
% here starts figure with depth 861
%  polyline 
% Polyline
0 slj
0 slc
0.000 slw
n 2437 12550 m 2424 12550 l 2424 12575 l 2449 12575 l 2449 12550 l
 2437 12550 l  cp gs col1 1.00 shd ef gr 
%  polyline 
% Polyline
n 2462 12550 m 2449 12550 l 2449 12575 l 2474 12575 l 2474 12550 l
 2462 12550 l  cp gs col1 1.00 shd ef gr 
%  polyline 
% Polyline
n 2487 12550 m 2474 12550 l 2474 12575 l 2499 12575 l 2499 12550 l
 2487 12550 l  cp gs col1 1.00 shd ef gr 
% here ends figure;
% 
% here starts figure with depth 857
%  polyline 
% Polyline
0 slj
0 slc
0.000 slw
n 2508 12541 m 2495 12541 l 2495 12566 l 2520 12566 l 2520 12541 l
 2508 12541 l  cp gs col1 1.00 shd ef gr 
%  polyline 
% Polyline
n 2533 12558 m 2520 12558 l 2520 12583 l 2545 12583 l 2545 12558 l
 2533 12558 l  cp gs col1 1.00 shd ef gr 
%  polyline 
% Polyline
n 2558 12562 m 2545 12562 l 2545 12587 l 2570 12587 l 2570 12562 l
 2558 12562 l  cp gs col1 1.00 shd ef gr 
%  polyline 
% Polyline
n 2583 12562 m 2570 12562 l 2570 12587 l 2595 12587 l 2595 12562 l
 2583 12562 l  cp gs col1 1.00 shd ef gr 
%  polyline 
% Polyline
7.500 slw
n 2604 12583 m
 2604 12579 l gs col0 s gr 
%  polyline 
% Polyline
n 2604 12554 m
 2604 12550 l gs col0 s gr 
% here ends figure;
% 
% here starts figure with depth 850
%  polyline 
% Polyline
0 slj
0 slc
0.000 slw
n 2604 12554 m 2591 12554 l 2591 12579 l 2616 12579 l 2616 12554 l
 2604 12554 l  cp gs col1 1.00 shd ef gr 
%  polyline 
% Polyline
7.500 slw
n 2629 12600 m
 2629 12587 l gs col0 s gr 
%  polyline 
% Polyline
n 2629 12562 m
 2629 12550 l gs col0 s gr 
% here ends figure;
% 
% here starts figure with depth 846
%  polyline 
% Polyline
0 slj
0 slc
0.000 slw
n 2629 12562 m 2616 12562 l 2616 12587 l 2641 12587 l 2641 12562 l
 2629 12562 l  cp gs col1 1.00 shd ef gr 
%  polyline 
% Polyline
7.500 slw
n 2654 12570 m
 2654 12562 l gs col0 s gr 
%  polyline 
% Polyline
n 2654 12537 m
 2654 12529 l gs col0 s gr 
% here ends figure;
% 
% here starts figure with depth 842
%  polyline 
% Polyline
0 slj
0 slc
0.000 slw
n 2654 12537 m 2641 12537 l 2641 12562 l 2666 12562 l 2666 12537 l
 2654 12537 l  cp gs col1 1.00 shd ef gr 
%  polyline 
% Polyline
7.500 slw
n 2674 12616 m
 2674 12595 l gs col0 s gr 
%  polyline 
% Polyline
n 2674 12575 m
 2674 12554 l gs col0 s gr 
% here ends figure;
% 
% here starts figure with depth 838
%  polyline 
% Polyline
0 slj
0 slc
0.000 slw
n 2674 12575 m 2662 12575 l 2662 12600 l 2687 12600 l 2687 12575 l
 2674 12575 l  cp gs col1 1.00 shd ef gr 
%  polyline 
% Polyline
7.500 slw
n 2699 12545 m
 2699 12450 l gs col0 s gr 
%  polyline 
% Polyline
n 2699 12425 m
 2699 12329 l gs col0 s gr 
% here ends figure;
% 
% here starts figure with depth 834
%  polyline 
% Polyline
0 slj
0 slc
0.000 slw
n 2699 12425 m 2687 12425 l 2687 12450 l 2712 12450 l 2712 12425 l
 2699 12425 l  cp gs col1 1.00 shd ef gr 
%  polyline 
% Polyline
n 2724 12462 m 2712 12462 l 2712 12487 l 2737 12487 l 2737 12462 l
 2724 12462 l  cp gs col1 1.00 shd ef gr 
%  polyline 
% Polyline
n 2745 12725 m 2733 12725 l 2733 12750 l 2758 12750 l 2758 12725 l
 2745 12725 l  cp gs col1 1.00 shd ef gr 
%  polyline 
% Polyline
7.500 slw
n 391 12850 m
 2758 12850 l gs col0 s gr 
%  polyline 
% Polyline
n 391 12775 m
 391 12850 l gs col0 s gr 
% here ends figure;
% 
% here starts figure with depth 828
%  polyline 
% Polyline
0 slj
0 slc
7.500 slw
n 458 12812 m
 458 12850 l gs col0 s gr 
%  polyline 
% Polyline
n 529 12812 m
 529 12850 l gs col0 s gr 
%  polyline 
% Polyline
n 599 12812 m
 599 12850 l gs col0 s gr 
%  polyline 
% Polyline
n 670 12775 m
 670 12850 l gs col0 s gr 
%  polyline 
% Polyline
n 737 12812 m
 737 12850 l gs col0 s gr 
%  polyline 
% Polyline
n 808 12812 m
 808 12850 l gs col0 s gr 
%  polyline 
% Polyline
n 879 12812 m
 879 12850 l gs col0 s gr 
%  polyline 
% Polyline
n 945 12775 m
 945 12850 l gs col0 s gr 
%  polyline 
% Polyline
n 1016 12812 m
 1016 12850 l gs col0 s gr 
%  polyline 
% Polyline
n 1087 12812 m
 1087 12850 l gs col0 s gr 
%  polyline 
% Polyline
n 1158 12812 m
 1158 12850 l gs col0 s gr 
%  polyline 
% Polyline
n 1224 12775 m
 1224 12850 l gs col0 s gr 
%  polyline 
% Polyline
n 1295 12812 m
 1295 12850 l gs col0 s gr 
%  polyline 
% Polyline
n 1366 12812 m
 1366 12850 l gs col0 s gr 
%  polyline 
% Polyline
n 1437 12812 m
 1437 12850 l gs col0 s gr 
%  polyline 
% Polyline
n 1504 12775 m
 1504 12850 l gs col0 s gr 
%  polyline 
% Polyline
n 1574 12812 m
 1574 12850 l gs col0 s gr 
%  polyline 
% Polyline
n 1645 12812 m
 1645 12850 l gs col0 s gr 
%  polyline 
% Polyline
n 1712 12812 m
 1712 12850 l gs col0 s gr 
%  polyline 
% Polyline
n 1783 12775 m
 1783 12850 l gs col0 s gr 
%  polyline 
% Polyline
n 1854 12812 m
 1854 12850 l gs col0 s gr 
%  polyline 
% Polyline
n 1924 12812 m
 1924 12850 l gs col0 s gr 
%  polyline 
% Polyline
n 1991 12812 m
 1991 12850 l gs col0 s gr 
%  polyline 
% Polyline
n 2062 12775 m
 2062 12850 l gs col0 s gr 
%  polyline 
% Polyline
n 2133 12812 m
 2133 12850 l gs col0 s gr 
%  polyline 
% Polyline
n 2199 12812 m
 2199 12850 l gs col0 s gr 
%  polyline 
% Polyline
n 2270 12812 m
 2270 12850 l gs col0 s gr 
%  polyline 
% Polyline
n 2341 12775 m
 2341 12850 l gs col0 s gr 
%  polyline 
% Polyline
n 2412 12812 m
 2412 12850 l gs col0 s gr 
%  polyline 
% Polyline
n 2479 12812 m
 2479 12850 l gs col0 s gr 
%  polyline 
% Polyline
n 2549 12812 m
 2549 12850 l gs col0 s gr 
%  polyline 
% Polyline
n 2620 12775 m
 2620 12850 l gs col0 s gr 
%  polyline 
% Polyline
n 2620 12775 m
 2620 12850 l gs col0 s gr 
%  polyline 
% Polyline
n 2687 12812 m
 2687 12850 l gs col0 s gr 
%  polyline 
% Polyline
n 2758 12812 m
 2758 12850 l gs col0 s gr 
% here ends figure;
% 
% here starts figure with depth 792
%  text 
/Helvetica-Bold-iso ff 116.67 scf sf
333 12962 m
gs 1 -1 sc (-2) col0 sh gr
%  text 
/Helvetica-Bold-iso ff 116.67 scf sf
629 12962 m
gs 1 -1 sc (0) col0 sh gr
%  text 
/Helvetica-Bold-iso ff 116.67 scf sf
904 12962 m
gs 1 -1 sc (2) col0 sh gr
%  text 
/Helvetica-Bold-iso ff 116.67 scf sf
1187 12962 m
gs 1 -1 sc (4) col0 sh gr
%  text 
/Helvetica-Bold-iso ff 116.67 scf sf
1458 12962 m
gs 1 -1 sc (6) col0 sh gr
%  text 
/Helvetica-Bold-iso ff 116.67 scf sf
1745 12962 m
gs 1 -1 sc (8) col0 sh gr
%  text 
/Helvetica-Bold-iso ff 116.67 scf sf
1995 12962 m
gs 1 -1 sc (10) col0 sh gr
%  text 
/Helvetica-Bold-iso ff 116.67 scf sf
2279 12962 m
gs 1 -1 sc (12) col0 sh gr
%  text 
/Helvetica-Bold-iso ff 116.67 scf sf
2554 12962 m
gs 1 -1 sc (14) col0 sh gr
% here ends figure;
% 
% here starts figure with depth 782
%  polyline 
% Polyline
0 slj
0 slc
7.500 slw
n 391 12850 m
 391 10320 l gs col0 s gr 
%  polyline 
% Polyline
n 462 12558 m
 391 12558 l gs col0 s gr 
% here ends figure;
% 
% here starts figure with depth 779
%  polyline 
% Polyline
0 slj
0 slc
7.500 slw
n 424 12495 m
 391 12495 l gs col0 s gr 
%  polyline 
% Polyline
n 424 12437 m
 391 12437 l gs col0 s gr 
%  polyline 
% Polyline
n 424 12375 m
 391 12375 l gs col0 s gr 
%  polyline 
% Polyline
n 424 12316 m
 391 12316 l gs col0 s gr 
%  polyline 
% Polyline
n 462 12254 m
 391 12254 l gs col0 s gr 
%  polyline 
% Polyline
n 424 12195 m
 391 12195 l gs col0 s gr 
%  polyline 
% Polyline
n 424 12133 m
 391 12133 l gs col0 s gr 
%  polyline 
% Polyline
n 424 12075 m
 391 12075 l gs col0 s gr 
%  polyline 
% Polyline
n 424 12012 m
 391 12012 l gs col0 s gr 
%  polyline 
% Polyline
n 462 11954 m
 391 11954 l gs col0 s gr 
%  polyline 
% Polyline
n 424 11891 m
 391 11891 l gs col0 s gr 
%  polyline 
% Polyline
n 424 11833 m
 391 11833 l gs col0 s gr 
%  polyline 
% Polyline
n 424 11770 m
 391 11770 l gs col0 s gr 
%  polyline 
% Polyline
n 424 11712 m
 391 11712 l gs col0 s gr 
%  polyline 
% Polyline
n 462 11650 m
 391 11650 l gs col0 s gr 
%  polyline 
% Polyline
n 424 11591 m
 391 11591 l gs col0 s gr 
%  polyline 
% Polyline
n 424 11529 m
 391 11529 l gs col0 s gr 
%  polyline 
% Polyline
n 424 11470 m
 391 11470 l gs col0 s gr 
%  polyline 
% Polyline
n 424 11408 m
 391 11408 l gs col0 s gr 
%  polyline 
% Polyline
n 462 11345 m
 391 11345 l gs col0 s gr 
%  polyline 
% Polyline
n 424 11287 m
 391 11287 l gs col0 s gr 
%  polyline 
% Polyline
n 424 11225 m
 391 11225 l gs col0 s gr 
%  polyline 
% Polyline
n 424 11166 m
 391 11166 l gs col0 s gr 
%  polyline 
% Polyline
n 424 11104 m
 391 11104 l gs col0 s gr 
%  polyline 
% Polyline
n 462 11045 m
 391 11045 l gs col0 s gr 
%  polyline 
% Polyline
n 424 10983 m
 391 10983 l gs col0 s gr 
%  polyline 
% Polyline
n 424 10925 m
 391 10925 l gs col0 s gr 
%  polyline 
% Polyline
n 424 10862 m
 391 10862 l gs col0 s gr 
%  polyline 
% Polyline
n 424 10804 m
 391 10804 l gs col0 s gr 
%  polyline 
% Polyline
n 462 10741 m
 391 10741 l gs col0 s gr 
%  polyline 
% Polyline
n 424 10683 m
 391 10683 l gs col0 s gr 
%  polyline 
% Polyline
n 424 10620 m
 391 10620 l gs col0 s gr 
%  polyline 
% Polyline
n 424 10562 m
 391 10562 l gs col0 s gr 
%  polyline 
% Polyline
n 424 10500 m
 391 10500 l gs col0 s gr 
%  polyline 
% Polyline
n 462 10441 m
 391 10441 l gs col0 s gr 
%  polyline 
% Polyline
n 462 12558 m
 391 12558 l gs col0 s gr 
%  polyline 
% Polyline
n 424 12616 m
 391 12616 l gs col0 s gr 
%  polyline 
% Polyline
n 424 12679 m
 391 12679 l gs col0 s gr 
%  polyline 
% Polyline
n 424 12737 m
 391 12737 l gs col0 s gr 
%  polyline 
% Polyline
n 424 12800 m
 391 12800 l gs col0 s gr 
%  polyline 
% Polyline
n 462 10441 m
 391 10441 l gs col0 s gr 
%  polyline 
% Polyline
n 424 10379 m
 391 10379 l gs col0 s gr 
% here ends figure;
% 
% here starts figure with depth 736
%  text 
/Helvetica-Bold-iso ff 116.67 scf sf
274 12595 m
gs 1 -1 sc (-7) col0 sh gr
%  text 
/Helvetica-Bold-iso ff 116.67 scf sf
274 12295 m
gs 1 -1 sc (-6) col0 sh gr
%  text 
/Helvetica-Bold-iso ff 116.67 scf sf
274 11987 m
gs 1 -1 sc (-5) col0 sh gr
%  text 
/Helvetica-Bold-iso ff 116.67 scf sf
274 11691 m
gs 1 -1 sc (-4) col0 sh gr
%  text 
/Helvetica-Bold-iso ff 116.67 scf sf
274 11383 m
gs 1 -1 sc (-3) col0 sh gr
%  text 
/Helvetica-Bold-iso ff 116.67 scf sf
274 11087 m
gs 1 -1 sc (-2) col0 sh gr
%  text 
/Helvetica-Bold-iso ff 116.67 scf sf
283 10791 m
gs 1 -1 sc (-1) col0 sh gr
%  text 
/Helvetica-Bold-iso ff 116.67 scf sf
308 10483 m
gs 1 -1 sc (0) col0 sh gr
% here ends figure;
% 
% here starts figure with depth 720
%  polyline 
% Polyline
0 slj
0 slc
0.000 slw
n 3245 13166 m 3245 10004 l 6204 10004 l 6204 13166 l
 3245 13166 l  cp gs col32 1.00 shd ef gr 
% here ends figure;
% 
% here starts figure with depth 718
%  polyline 
% Polyline
0 slj
0 slc
0.000 slw
n 3245 13166 m 3279 13133 l 3279 10037 l 6170 10037 l 6204 10004 l 3245 10004 l

 3245 13166 l  cp gs col7 1.00 shd ef gr 
% here ends figure;
% 
% here starts figure with depth 716
%  polyline 
% Polyline
0 slj
0 slc
0.000 slw
n 3245 13166 m 3279 13133 l 6170 13133 l 6170 10037 l 6204 10004 l 6204 13166 l

 3245 13166 l  cp gs col33 1.00 shd ef gr 
% here ends figure;
% 
% here starts figure with depth 714
%  polyline 
% Polyline
0 slj
0 slc
0.000 slw
n 3541 12850 m 3541 10320 l 5908 10320 l 5908 12850 l
 3541 12850 l  cp gs col32 1.00 shd ef gr 
% here ends figure;
% 
% here starts figure with depth 712
%  polyline 
% Polyline
0 slj
0 slc
0.000 slw
n 3541 12850 m 3558 12833 l 3558 10337 l 5891 10337 l 5908 10320 l 3541 10320 l

 3541 12850 l  cp gs col7 1.00 shd ef gr 
% here ends figure;
% 
% here starts figure with depth 710
%  polyline 
% Polyline
0 slj
0 slc
0.000 slw
n 3541 12850 m 3558 12833 l 5891 12833 l 5891 10337 l 5908 10320 l 5908 12850 l

 3541 12850 l  cp gs col33 1.00 shd ef gr 
% here ends figure;
% 
% here starts figure with depth 708
%  polyline 
% Polyline
0 slj
0 slc
7.500 slw
n 3541 12850 m 3541 10320 l 5908 10320 l 5908 12850 l
 3541 12850 l  cp gs col0 s gr 
% here ends figure;
% 
% here starts figure with depth 706
%  polyline 
% Polyline
0 slj
0 slc
0.000 slw
n 3541 12850 m 3541 10320 l 5908 10320 l 5908 12850 l
 3541 12850 l  cp gs col32 1.00 shd ef gr 
% here ends figure;
% 
% here starts figure with depth 704
%  polyline 
% Polyline
0 slj
0 slc
0.000 slw
n 3541 12850 m 3558 12833 l 3558 10337 l 5891 10337 l 5908 10320 l 3541 10320 l

 3541 12850 l  cp gs col7 1.00 shd ef gr 
% here ends figure;
% 
% here starts figure with depth 702
%  polyline 
% Polyline
0 slj
0 slc
0.000 slw
n 3541 12850 m 3558 12833 l 5891 12833 l 5891 10337 l 5908 10320 l 5908 12850 l

 3541 12850 l  cp gs col33 1.00 shd ef gr 
% here ends figure;
% 
% here starts figure with depth 700
%  polyline 
% Polyline
0 slj
0 slc
7.500 slw
n 3541 12850 m 3541 10320 l 5908 10320 l 5908 12850 l
 3541 12850 l  cp gs col0 s gr 
% here ends figure;
% 
% here starts figure with depth 698
%  polyline 
% Polyline
0 slj
0 slc
0.000 slw
n 3541 12850 m 3624 12850 l 3624 11258 l 3641 11258 l 3641 10595 l 3658 10595 l
 3658 10462 l 3674 10462 l 3674 10412 l 3691 10412 l 3691 10387 l
 3708 10387 l 3708 10362 l 3724 10362 l 3724 10354 l 3741 10354 l
 3741 10358 l 3774 10358 l 3774 10362 l 3795 10362 l 3795 10350 l
 3812 10350 l 3812 10362 l 3829 10362 l 3829 10370 l 3845 10370 l
 3845 10400 l 3862 10400 l 3862 10408 l 3879 10408 l 3879 10416 l
 3895 10416 l 3895 10425 l 3912 10425 l 3912 10433 l 3929 10433 l
 3929 10445 l 3945 10445 l 3945 10462 l 3962 10462 l 3962 10466 l
 3979 10466 l 3979 10479 l 3995 10479 l 3995 10487 l 4012 10487 l
 4012 10508 l 4029 10508 l 4029 10516 l 4045 10516 l 4045 10525 l
 4066 10525 l 4066 10537 l 4083 10537 l 4083 10545 l 4099 10545 l
 4099 10554 l 4116 10554 l 4116 10562 l 4133 10562 l 4133 10587 l
 4149 10587 l 4149 10591 l 4166 10591 l 4166 10608 l 4183 10608 l
 4183 10620 l 4199 10620 l 4199 10633 l 4233 10633 l 4233 10662 l
 4266 10662 l 4266 10683 l 4283 10683 l 4283 10695 l 4299 10695 l
 4299 10704 l 4316 10704 l 4316 10708 l 4333 10708 l 4333 10729 l
 4354 10729 l 4354 10737 l 4387 10737 l 4387 10766 l 4404 10766 l
 4404 10783 l 4420 10783 l 4420 10787 l 4437 10787 l 4437 10800 l
 4454 10800 l 4454 10804 l 4470 10804 l 4470 10825 l 4487 10825 l
 4487 10829 l 4504 10829 l 4504 10837 l 4520 10837 l 4520 10854 l
 4537 10854 l 4537 10862 l 4554 10862 l 4554 10825 l 4570 10825 l
 4570 10879 l 4587 10879 l 4587 10912 l 4620 10912 l 4620 10925 l
 4641 10925 l 4641 10941 l 4658 10941 l 4658 10958 l 4674 10958 l
 4674 10966 l 4691 10966 l 4691 10987 l 4708 10987 l 4708 11004 l
 4724 11004 l 4724 11008 l 4741 11008 l 4741 11025 l 4758 11025 l
 4758 11041 l 4774 11041 l 4774 11037 l 4791 11037 l 4791 11070 l
 4808 11070 l 4808 11058 l 4824 11058 l 4824 11087 l 4841 11087 l
 4841 11108 l 4874 11108 l 4874 11133 l 4891 11133 l 4891 11137 l
 4912 11137 l 4912 11166 l 4929 11166 l 4929 11191 l 4945 11191 l
 4945 11204 l 4962 11204 l 4962 11212 l 4979 11212 l 4979 11233 l
 4995 11233 l 4995 11225 l 5012 11225 l 5012 11250 l 5029 11250 l
 5029 11275 l 5045 11275 l 5045 11287 l 5062 11287 l 5062 11300 l
 5079 11300 l 5079 11291 l 5095 11291 l 5095 11341 l 5129 11341 l
 5129 11383 l 5145 11383 l 5145 11304 l 5162 11304 l 5162 11370 l
 5179 11370 l 5179 11433 l 5199 11433 l 5199 11445 l 5216 11445 l
 5216 11483 l 5233 11483 l 5233 11500 l 5249 11500 l 5249 11495 l
 5266 11495 l 5266 11550 l 5283 11550 l 5283 11554 l 5299 11554 l
 5299 11579 l 5316 11579 l 5316 11600 l 5333 11600 l 5333 11616 l
 5349 11616 l 5349 11637 l 5366 11637 l 5366 11670 l 5383 11670 l
 5383 11675 l 5399 11675 l 5399 11720 l 5416 11720 l 5416 11750 l
 5433 11750 l 5433 11770 l 5449 11770 l 5449 11741 l 5470 11741 l
 5470 11841 l 5487 11841 l 5487 11854 l 5504 11854 l 5504 11862 l
 5520 11862 l 5520 11875 l 5537 11875 l 5537 11954 l 5554 11954 l
 5554 11958 l 5570 11958 l 5570 12054 l 5587 12054 l 5587 12079 l
 5604 12079 l 5604 12008 l 5620 12008 l 5620 12158 l 5637 12158 l
 5637 12204 l 5654 12204 l 5654 12216 l 5670 12216 l 5670 12283 l
 5687 12283 l 5687 12258 l 5704 12258 l 5704 12375 l 5720 12375 l
 5720 12466 l 5737 12466 l 5737 12525 l 5758 12525 l 5758 12600 l
 5774 12600 l 5774 12629 l 5791 12629 l 5791 12820 l 5808 12820 l
 5808 12850 l
 5908 12850 l gs col2 1.00 shd ef gr 
% here ends figure;
% 
% here starts figure with depth 696
%  polyline 
% Polyline
0 slj
0 slc
7.500 slw
n 3541 12850 m 3624 12850 l 3624 11258 l 3641 11258 l 3641 10595 l 3658 10595 l
 3658 10462 l 3674 10462 l 3674 10412 l 3691 10412 l 3691 10387 l
 3708 10387 l 3708 10362 l 3724 10362 l 3724 10354 l 3741 10354 l
 3741 10358 l 3774 10358 l 3774 10362 l 3795 10362 l 3795 10350 l
 3812 10350 l 3812 10362 l 3829 10362 l 3829 10370 l 3845 10370 l
 3845 10400 l 3862 10400 l 3862 10408 l 3879 10408 l 3879 10416 l
 3895 10416 l 3895 10425 l 3912 10425 l 3912 10433 l 3929 10433 l
 3929 10445 l 3945 10445 l 3945 10462 l 3962 10462 l 3962 10466 l
 3979 10466 l 3979 10479 l 3995 10479 l 3995 10487 l 4012 10487 l
 4012 10508 l 4029 10508 l 4029 10516 l 4045 10516 l 4045 10525 l
 4066 10525 l 4066 10537 l 4083 10537 l 4083 10545 l 4099 10545 l
 4099 10554 l 4116 10554 l 4116 10562 l 4133 10562 l 4133 10587 l
 4149 10587 l 4149 10591 l 4166 10591 l 4166 10608 l 4183 10608 l
 4183 10620 l 4199 10620 l 4199 10633 l 4233 10633 l 4233 10662 l
 4266 10662 l 4266 10683 l 4283 10683 l 4283 10695 l 4299 10695 l
 4299 10704 l 4316 10704 l 4316 10708 l 4333 10708 l 4333 10729 l
 4354 10729 l 4354 10737 l 4387 10737 l 4387 10766 l 4404 10766 l
 4404 10783 l 4420 10783 l 4420 10787 l 4437 10787 l 4437 10800 l
 4454 10800 l 4454 10804 l 4470 10804 l 4470 10825 l 4487 10825 l
 4487 10829 l 4504 10829 l 4504 10837 l 4520 10837 l 4520 10854 l
 4537 10854 l 4537 10862 l 4554 10862 l 4554 10825 l 4570 10825 l
 4570 10879 l 4587 10879 l 4587 10912 l 4620 10912 l 4620 10925 l
 4641 10925 l 4641 10941 l 4658 10941 l 4658 10958 l 4674 10958 l
 4674 10966 l 4691 10966 l 4691 10987 l 4708 10987 l 4708 11004 l
 4724 11004 l 4724 11008 l 4741 11008 l 4741 11025 l 4758 11025 l
 4758 11041 l 4774 11041 l 4774 11037 l 4791 11037 l 4791 11070 l
 4808 11070 l 4808 11058 l 4824 11058 l 4824 11087 l 4841 11087 l
 4841 11108 l 4874 11108 l 4874 11133 l 4891 11133 l 4891 11137 l
 4912 11137 l 4912 11166 l 4929 11166 l 4929 11191 l 4945 11191 l
 4945 11204 l 4962 11204 l 4962 11212 l 4979 11212 l 4979 11233 l
 4995 11233 l 4995 11225 l 5012 11225 l 5012 11250 l 5029 11250 l
 5029 11275 l 5045 11275 l 5045 11287 l 5062 11287 l 5062 11300 l
 5079 11300 l 5079 11291 l 5095 11291 l 5095 11341 l 5129 11341 l
 5129 11383 l 5145 11383 l 5145 11304 l 5162 11304 l 5162 11370 l
 5179 11370 l 5179 11433 l 5199 11433 l 5199 11445 l 5216 11445 l
 5216 11483 l 5233 11483 l 5233 11500 l 5249 11500 l 5249 11495 l
 5266 11495 l 5266 11550 l 5283 11550 l 5283 11554 l 5299 11554 l
 5299 11579 l 5316 11579 l 5316 11600 l 5333 11600 l 5333 11616 l
 5349 11616 l 5349 11637 l 5366 11637 l 5366 11670 l 5383 11670 l
 5383 11675 l 5399 11675 l 5399 11720 l 5416 11720 l 5416 11750 l
 5433 11750 l 5433 11770 l 5449 11770 l 5449 11741 l 5470 11741 l
 5470 11841 l 5487 11841 l 5487 11854 l 5504 11854 l 5504 11862 l
 5520 11862 l 5520 11875 l 5537 11875 l 5537 11954 l 5554 11954 l
 5554 11958 l 5570 11958 l 5570 12054 l 5587 12054 l 5587 12079 l
 5604 12079 l 5604 12008 l 5620 12008 l 5620 12158 l 5637 12158 l
 5637 12204 l 5654 12204 l 5654 12216 l 5670 12216 l 5670 12283 l
 5687 12283 l 5687 12258 l 5704 12258 l 5704 12375 l 5720 12375 l
 5720 12466 l 5737 12466 l 5737 12525 l 5758 12525 l 5758 12600 l
 5774 12600 l 5774 12629 l 5791 12629 l 5791 12820 l 5808 12820 l
 5808 12850 l
 5908 12850 l gs col0 s gr 
%  polyline 
% Polyline
n 3541 12850 m
 5908 12850 l gs col0 s gr 
%  polyline 
% Polyline
n 3541 12775 m
 3541 12850 l gs col0 s gr 
% here ends figure;
% 
% here starts figure with depth 692
%  polyline 
% Polyline
0 slj
0 slc
7.500 slw
n 3624 12812 m
 3624 12850 l gs col0 s gr 
%  polyline 
% Polyline
n 3708 12812 m
 3708 12850 l gs col0 s gr 
%  polyline 
% Polyline
n 3795 12812 m
 3795 12850 l gs col0 s gr 
%  polyline 
% Polyline
n 3879 12775 m
 3879 12850 l gs col0 s gr 
%  polyline 
% Polyline
n 3962 12812 m
 3962 12850 l gs col0 s gr 
%  polyline 
% Polyline
n 4045 12812 m
 4045 12850 l gs col0 s gr 
%  polyline 
% Polyline
n 4133 12812 m
 4133 12850 l gs col0 s gr 
%  polyline 
% Polyline
n 4216 12775 m
 4216 12850 l gs col0 s gr 
%  polyline 
% Polyline
n 4299 12812 m
 4299 12850 l gs col0 s gr 
%  polyline 
% Polyline
n 4387 12812 m
 4387 12850 l gs col0 s gr 
%  polyline 
% Polyline
n 4470 12812 m
 4470 12850 l gs col0 s gr 
%  polyline 
% Polyline
n 4554 12775 m
 4554 12850 l gs col0 s gr 
%  polyline 
% Polyline
n 4641 12812 m
 4641 12850 l gs col0 s gr 
%  polyline 
% Polyline
n 4724 12812 m
 4724 12850 l gs col0 s gr 
%  polyline 
% Polyline
n 4808 12812 m
 4808 12850 l gs col0 s gr 
%  polyline 
% Polyline
n 4891 12775 m
 4891 12850 l gs col0 s gr 
%  polyline 
% Polyline
n 4979 12812 m
 4979 12850 l gs col0 s gr 
%  polyline 
% Polyline
n 5062 12812 m
 5062 12850 l gs col0 s gr 
%  polyline 
% Polyline
n 5145 12812 m
 5145 12850 l gs col0 s gr 
%  polyline 
% Polyline
n 5233 12775 m
 5233 12850 l gs col0 s gr 
%  polyline 
% Polyline
n 5316 12812 m
 5316 12850 l gs col0 s gr 
%  polyline 
% Polyline
n 5399 12812 m
 5399 12850 l gs col0 s gr 
%  polyline 
% Polyline
n 5487 12812 m
 5487 12850 l gs col0 s gr 
%  polyline 
% Polyline
n 5570 12775 m
 5570 12850 l gs col0 s gr 
%  polyline 
% Polyline
n 5654 12812 m
 5654 12850 l gs col0 s gr 
%  polyline 
% Polyline
n 5737 12812 m
 5737 12850 l gs col0 s gr 
%  polyline 
% Polyline
n 5824 12812 m
 5824 12850 l gs col0 s gr 
%  polyline 
% Polyline
n 5908 12775 m
 5908 12850 l gs col0 s gr 
% here ends figure;
% 
% here starts figure with depth 663
%  text 
/Helvetica-Bold-iso ff 116.67 scf sf
3499 12962 m
gs 1 -1 sc (0) col0 sh gr
%  text 
/Helvetica-Bold-iso ff 116.67 scf sf
3749 12962 m
gs 1 -1 sc (2000) col0 sh gr
% here ends figure;
% 
% here starts figure with depth 660
%  text 
/Helvetica-Bold-iso ff 116.67 scf sf
4095 12962 m
gs 1 -1 sc (4000) col0 sh gr
% here ends figure;
% 
% here starts figure with depth 658
%  text 
/Helvetica-Bold-iso ff 116.67 scf sf
4429 12962 m
gs 1 -1 sc (6000) col0 sh gr
% here ends figure;
% 
% here starts figure with depth 656
%  text 
/Helvetica-Bold-iso ff 116.67 scf sf
4770 12962 m
gs 1 -1 sc (8000) col0 sh gr
% here ends figure;
% 
% here starts figure with depth 654
%  text 
/Helvetica-Bold-iso ff 116.67 scf sf
5066 12962 m
gs 1 -1 sc (10000) col0 sh gr
% here ends figure;
% 
% here starts figure with depth 652
%  text 
/Helvetica-Bold-iso ff 116.67 scf sf
5412 12962 m
gs 1 -1 sc (12000) col0 sh gr
% here ends figure;
% 
% here starts figure with depth 650
%  text 
/Helvetica-Bold-iso ff 116.67 scf sf
5745 12962 m
gs 1 -1 sc (14000) col0 sh gr
%  polyline 
% Polyline
0 slj
0 slc
7.500 slw
n 3541 12850 m
 3541 10320 l gs col0 s gr 
% here ends figure;
% 
% here starts figure with depth 647
%  polyline 
% Polyline
0 slj
0 slc
7.500 slw
n 3612 12841 m
 3541 12841 l gs col0 s gr 
%  text 
/Helvetica-Bold-iso ff 83.33 scf sf
3408 12820 m
gs 1 -1 sc (-25) col0 sh gr
% here ends figure;
% 
% here starts figure with depth 644
%  text 
/Helvetica-Bold-iso ff 116.67 scf sf
3287 12891 m
gs 1 -1 sc (10) col0 sh gr
% here ends figure;
% 
% here starts figure with depth 642
%  polyline 
% Polyline
0 slj
0 slc
7.500 slw
n 3574 12766 m
 3541 12766 l gs col0 s gr 
%  polyline 
% Polyline
n 3612 12737 m
 3541 12737 l gs col0 s gr 
%  polyline 
% Polyline
n 3574 12666 m
 3541 12666 l gs col0 s gr 
%  polyline 
% Polyline
n 3612 12633 m
 3541 12633 l gs col0 s gr 
%  text 
/Helvetica-Bold-iso ff 83.33 scf sf
3408 12616 m
gs 1 -1 sc (-23) col0 sh gr
% here ends figure;
% 
% here starts figure with depth 636
%  text 
/Helvetica-Bold-iso ff 116.67 scf sf
3287 12687 m
gs 1 -1 sc (10) col0 sh gr
% here ends figure;
% 
% here starts figure with depth 634
%  polyline 
% Polyline
0 slj
0 slc
7.500 slw
n 3574 12562 m
 3541 12562 l gs col0 s gr 
%  polyline 
% Polyline
n 3612 12529 m
 3541 12529 l gs col0 s gr 
%  polyline 
% Polyline
n 3574 12458 m
 3541 12458 l gs col0 s gr 
%  polyline 
% Polyline
n 3612 12425 m
 3541 12425 l gs col0 s gr 
%  text 
/Helvetica-Bold-iso ff 83.33 scf sf
3416 12416 m
gs 1 -1 sc (-21) col0 sh gr
% here ends figure;
% 
% here starts figure with depth 628
%  text 
/Helvetica-Bold-iso ff 116.67 scf sf
3299 12475 m
gs 1 -1 sc (10) col0 sh gr
% here ends figure;
% 
% here starts figure with depth 626
%  polyline 
% Polyline
0 slj
0 slc
7.500 slw
n 3574 12354 m
 3541 12354 l gs col0 s gr 
%  polyline 
% Polyline
n 3612 12325 m
 3541 12325 l gs col0 s gr 
%  polyline 
% Polyline
n 3574 12250 m
 3541 12250 l gs col0 s gr 
%  polyline 
% Polyline
n 3612 12220 m
 3541 12220 l gs col0 s gr 
%  text 
/Helvetica-Bold-iso ff 83.33 scf sf
3408 12204 m
gs 1 -1 sc (-19) col0 sh gr
% here ends figure;
% 
% here starts figure with depth 620
%  text 
/Helvetica-Bold-iso ff 116.67 scf sf
3287 12275 m
gs 1 -1 sc (10) col0 sh gr
%  polyline 
% Polyline
0 slj
0 slc
7.500 slw
n 3574 12145 m
 3541 12145 l gs col0 s gr 
%  polyline 
% Polyline
n 3612 12116 m
 3541 12116 l gs col0 s gr 
%  polyline 
% Polyline
n 3574 12041 m
 3541 12041 l gs col0 s gr 
%  polyline 
% Polyline
n 3612 12012 m
 3541 12012 l gs col0 s gr 
%  text 
/Helvetica-Bold-iso ff 83.33 scf sf
3408 12000 m
gs 1 -1 sc (-17) col0 sh gr
% here ends figure;
% 
% here starts figure with depth 613
%  text 
/Helvetica-Bold-iso ff 116.67 scf sf
3287 12062 m
gs 1 -1 sc (10) col0 sh gr
% here ends figure;
% 
% here starts figure with depth 611
%  polyline 
% Polyline
0 slj
0 slc
7.500 slw
n 3574 11941 m
 3541 11941 l gs col0 s gr 
%  polyline 
% Polyline
n 3612 11908 m
 3541 11908 l gs col0 s gr 
%  polyline 
% Polyline
n 3574 11837 m
 3541 11837 l gs col0 s gr 
%  polyline 
% Polyline
n 3612 11804 m
 3541 11804 l gs col0 s gr 
%  text 
/Helvetica-Bold-iso ff 83.33 scf sf
3408 11787 m
gs 1 -1 sc (-15) col0 sh gr
% here ends figure;
% 
% here starts figure with depth 605
%  text 
/Helvetica-Bold-iso ff 116.67 scf sf
3287 11858 m
gs 1 -1 sc (10) col0 sh gr
% here ends figure;
% 
% here starts figure with depth 603
%  polyline 
% Polyline
0 slj
0 slc
7.500 slw
n 3574 11733 m
 3541 11733 l gs col0 s gr 
%  polyline 
% Polyline
n 3612 11700 m
 3541 11700 l gs col0 s gr 
%  polyline 
% Polyline
n 3574 11629 m
 3541 11629 l gs col0 s gr 
%  polyline 
% Polyline
n 3612 11595 m
 3541 11595 l gs col0 s gr 
%  text 
/Helvetica-Bold-iso ff 83.33 scf sf
3408 11587 m
gs 1 -1 sc (-13) col0 sh gr
% here ends figure;
% 
% here starts figure with depth 597
%  text 
/Helvetica-Bold-iso ff 116.67 scf sf
3287 11658 m
gs 1 -1 sc (10) col0 sh gr
%  polyline 
% Polyline
0 slj
0 slc
7.500 slw
n 3574 11525 m
 3541 11525 l gs col0 s gr 
%  polyline 
% Polyline
n 3612 11495 m
 3541 11495 l gs col0 s gr 
%  polyline 
% Polyline
n 3574 11420 m
 3541 11420 l gs col0 s gr 
%  polyline 
% Polyline
n 3612 11391 m
 3541 11391 l gs col0 s gr 
%  text 
/Helvetica-Bold-iso ff 83.33 scf sf
3416 11383 m
gs 1 -1 sc (-11) col0 sh gr
% here ends figure;
% 
% here starts figure with depth 590
%  text 
/Helvetica-Bold-iso ff 116.67 scf sf
3299 11441 m
gs 1 -1 sc (10) col0 sh gr
% here ends figure;
% 
% here starts figure with depth 588
%  polyline 
% Polyline
0 slj
0 slc
7.500 slw
n 3574 11316 m
 3541 11316 l gs col0 s gr 
%  polyline 
% Polyline
n 3612 11287 m
 3541 11287 l gs col0 s gr 
%  polyline 
% Polyline
n 3574 11216 m
 3541 11216 l gs col0 s gr 
%  polyline 
% Polyline
n 3612 11183 m
 3541 11183 l gs col0 s gr 
%  text 
/Helvetica-Bold-iso ff 83.33 scf sf
3441 11170 m
gs 1 -1 sc (-9) col0 sh gr
% here ends figure;
% 
% here starts figure with depth 582
%  text 
/Helvetica-Bold-iso ff 116.67 scf sf
3324 11241 m
gs 1 -1 sc (10) col0 sh gr
%  polyline 
% Polyline
0 slj
0 slc
7.500 slw
n 3574 11112 m
 3541 11112 l gs col0 s gr 
%  polyline 
% Polyline
n 3612 11079 m
 3541 11079 l gs col0 s gr 
%  polyline 
% Polyline
n 3574 11008 m
 3541 11008 l gs col0 s gr 
%  polyline 
% Polyline
n 3612 10975 m
 3541 10975 l gs col0 s gr 
%  text 
/Helvetica-Bold-iso ff 83.33 scf sf
3441 10966 m
gs 1 -1 sc (-7) col0 sh gr
% here ends figure;
% 
% here starts figure with depth 575
%  text 
/Helvetica-Bold-iso ff 116.67 scf sf
3324 11029 m
gs 1 -1 sc (10) col0 sh gr
% here ends figure;
% 
% here starts figure with depth 573
%  polyline 
% Polyline
0 slj
0 slc
7.500 slw
n 3574 10904 m
 3541 10904 l gs col0 s gr 
%  polyline 
% Polyline
n 3612 10870 m
 3541 10870 l gs col0 s gr 
%  polyline 
% Polyline
n 3574 10800 m
 3541 10800 l gs col0 s gr 
%  polyline 
% Polyline
n 3612 10770 m
 3541 10770 l gs col0 s gr 
%  text 
/Helvetica-Bold-iso ff 83.33 scf sf
3441 10754 m
gs 1 -1 sc (-5) col0 sh gr
% here ends figure;
% 
% here starts figure with depth 567
%  text 
/Helvetica-Bold-iso ff 116.67 scf sf
3324 10825 m
gs 1 -1 sc (10) col0 sh gr
%  polyline 
% Polyline
0 slj
0 slc
7.500 slw
n 3574 10695 m
 3541 10695 l gs col0 s gr 
%  polyline 
% Polyline
n 3612 10666 m
 3541 10666 l gs col0 s gr 
%  polyline 
% Polyline
n 3574 10591 m
 3541 10591 l gs col0 s gr 
%  polyline 
% Polyline
n 3612 10562 m
 3541 10562 l gs col0 s gr 
%  text 
/Helvetica-Bold-iso ff 83.33 scf sf
3441 10541 m
gs 1 -1 sc (-3) col0 sh gr
% here ends figure;
% 
% here starts figure with depth 560
%  text 
/Helvetica-Bold-iso ff 116.67 scf sf
3324 10612 m
gs 1 -1 sc (10) col0 sh gr
% here ends figure;
% 
% here starts figure with depth 558
%  polyline 
% Polyline
0 slj
0 slc
7.500 slw
n 3574 10487 m
 3541 10487 l gs col0 s gr 
%  polyline 
% Polyline
n 3612 10458 m
 3541 10458 l gs col0 s gr 
%  polyline 
% Polyline
n 3574 10387 m
 3541 10387 l gs col0 s gr 
%  polyline 
% Polyline
n 3612 10354 m
 3541 10354 l gs col0 s gr 
%  text 
/Helvetica-Bold-iso ff 83.33 scf sf
3454 10350 m
gs 1 -1 sc (-1) col0 sh gr
% here ends figure;
% 
% here starts figure with depth 552
%  text 
/Helvetica-Bold-iso ff 116.67 scf sf
3337 10412 m
gs 1 -1 sc (10) col0 sh gr
% here ends figure;
% 
% here starts figure with depth 543
%  polyline 
% Polyline
0 slj
0 slc
0.000 slw
n 6391 13166 m 6391 10004 l 9354 10004 l 9354 13166 l
 6391 13166 l  cp gs col32 1.00 shd ef gr 
% here ends figure;
% 
% here starts figure with depth 541
%  polyline 
% Polyline
0 slj
0 slc
0.000 slw
n 6391 13166 m 6424 13133 l 6424 10037 l 9320 10037 l 9354 10004 l 6391 10004 l

 6391 13166 l  cp gs col7 1.00 shd ef gr 
% here ends figure;
% 
% here starts figure with depth 539
%  polyline 
% Polyline
0 slj
0 slc
0.000 slw
n 6391 13166 m 6424 13133 l 9320 13133 l 9320 10037 l 9354 10004 l 9354 13166 l

 6391 13166 l  cp gs col33 1.00 shd ef gr 
% here ends figure;
% 
% here starts figure with depth 537
%  polyline 
% Polyline
0 slj
0 slc
0.000 slw
n 6691 12850 m 6691 10320 l 9058 10320 l 9058 12850 l
 6691 12850 l  cp gs col32 1.00 shd ef gr 
% here ends figure;
% 
% here starts figure with depth 535
%  polyline 
% Polyline
0 slj
0 slc
0.000 slw
n 6691 12850 m 6708 12833 l 6708 10337 l 9041 10337 l 9058 10320 l 6691 10320 l

 6691 12850 l  cp gs col7 1.00 shd ef gr 
% here ends figure;
% 
% here starts figure with depth 533
%  polyline 
% Polyline
0 slj
0 slc
0.000 slw
n 6691 12850 m 6708 12833 l 9041 12833 l 9041 10337 l 9058 10320 l 9058 12850 l

 6691 12850 l  cp gs col33 1.00 shd ef gr 
% here ends figure;
% 
% here starts figure with depth 531
%  polyline 
% Polyline
0 slj
0 slc
7.500 slw
n 6691 12850 m 6691 10320 l 9058 10320 l 9058 12850 l
 6691 12850 l  cp gs col0 s gr 
% here ends figure;
% 
% here starts figure with depth 529
%  polyline 
% Polyline
0 slj
0 slc
0.000 slw
n 6691 12850 m 6691 10320 l 9058 10320 l 9058 12850 l
 6691 12850 l  cp gs col32 1.00 shd ef gr 
% here ends figure;
% 
% here starts figure with depth 527
%  polyline 
% Polyline
0 slj
0 slc
0.000 slw
n 6691 12850 m 6708 12833 l 6708 10337 l 9041 10337 l 9058 10320 l 6691 10320 l

 6691 12850 l  cp gs col7 1.00 shd ef gr 
% here ends figure;
% 
% here starts figure with depth 525
%  polyline 
% Polyline
0 slj
0 slc
0.000 slw
n 6691 12850 m 6708 12833 l 9041 12833 l 9041 10337 l 9058 10320 l 9058 12850 l

 6691 12850 l  cp gs col33 1.00 shd ef gr 
% here ends figure;
% 
% here starts figure with depth 523
%  polyline 
% Polyline
0 slj
0 slc
7.500 slw
n 6691 12850 m 6691 10320 l 9058 10320 l 9058 12850 l
 6691 12850 l  cp gs col0 s gr 
% here ends figure;
% 
% here starts figure with depth 521
%  polyline 
% Polyline
0 slj
0 slc
0.000 slw
n 6691 12850 m 7637 12850 l 7637 10441 l 7654 10441 l 7654 11366 l 7666 11366 l
 7666 11304 l 7683 11304 l 7683 11529 l 7699 11529 l 7699 11166 l
 7716 11166 l 7716 11441 l 7733 11441 l 7733 11295 l 7745 11295 l
 7745 11783 l 7762 11783 l 7762 11875 l 7779 11875 l 7779 11858 l
 7795 11858 l 7795 11545 l 7812 11545 l 7812 11950 l 7824 11950 l
 7824 10962 l 7841 10962 l 7841 12083 l 7858 12083 l 7858 11966 l
 7874 11966 l 7874 12275 l 7891 12275 l 7891 12225 l 7904 12225 l
 7904 12320 l 7920 12320 l 7920 12195 l 7937 12195 l 7937 12345 l
 7954 12345 l 7954 12262 l 7970 12262 l 7970 12450 l 7983 12450 l
 7983 12408 l 7999 12408 l 7999 12441 l 8016 12441 l 8016 12454 l
 8033 12454 l 8033 12541 l 8045 12541 l 8045 12525 l 8062 12525 l
 8062 12445 l 8079 12445 l 8079 12508 l 8095 12508 l 8095 12608 l
 8112 12608 l 8112 12600 l 8124 12600 l 8124 12500 l 8141 12500 l
 8141 12654 l 8158 12654 l 8158 12662 l 8174 12662 l 8174 12650 l
 8191 12650 l 8191 12683 l 8204 12683 l 8204 12670 l 8220 12670 l
 8220 12708 l 8237 12708 l 8237 12704 l 8254 12704 l 8254 12708 l
 8270 12708 l 8270 12704 l 8283 12704 l 8283 12745 l 8299 12745 l
 8299 12741 l 8316 12741 l 8316 12737 l 8333 12737 l 8333 12758 l
 8345 12758 l 8345 12754 l 8362 12754 l 8362 12758 l 8395 12758 l
 8395 12783 l 8412 12783 l 8412 12779 l 8424 12779 l 8424 12791 l
 8441 12791 l 8441 12770 l 8458 12770 l 8458 12791 l 8474 12791 l
 8474 12795 l 8491 12795 l 8491 12804 l 8504 12804 l 8504 12808 l
 8520 12808 l 8520 12800 l 8537 12800 l 8537 12812 l 8570 12812 l
 8570 12816 l 8583 12816 l 8583 12820 l 8645 12820 l 8645 12829 l
 8662 12829 l 8662 12833 l 8679 12833 l 8679 12825 l 8695 12825 l
 8695 12833 l 8724 12833 l 8724 12837 l 8758 12837 l 8758 12841 l
 8774 12841 l 8774 12833 l 8791 12833 l 8791 12841 l 8837 12841 l
 8837 12845 l 8883 12845 l 8883 12841 l 8899 12841 l 8899 12845 l
 9012 12845 l 9012 12850 l 9024 12850 l 9024 12845 l 9041 12845 l
 9041 12850 l
 9058 12850 l gs col2 1.00 shd ef gr 
% here ends figure;
% 
% here starts figure with depth 519
%  polyline 
% Polyline
0 slj
0 slc
7.500 slw
n 6691 12850 m 7637 12850 l 7637 10441 l 7654 10441 l 7654 11366 l 7666 11366 l
 7666 11304 l 7683 11304 l 7683 11529 l 7699 11529 l 7699 11166 l
 7716 11166 l 7716 11441 l 7733 11441 l 7733 11295 l 7745 11295 l
 7745 11783 l 7762 11783 l 7762 11875 l 7779 11875 l 7779 11858 l
 7795 11858 l 7795 11545 l 7812 11545 l 7812 11950 l 7824 11950 l
 7824 10962 l 7841 10962 l 7841 12083 l 7858 12083 l 7858 11966 l
 7874 11966 l 7874 12275 l 7891 12275 l 7891 12225 l 7904 12225 l
 7904 12320 l 7920 12320 l 7920 12195 l 7937 12195 l 7937 12345 l
 7954 12345 l 7954 12262 l 7970 12262 l 7970 12450 l 7983 12450 l
 7983 12408 l 7999 12408 l 7999 12441 l 8016 12441 l 8016 12454 l
 8033 12454 l 8033 12541 l 8045 12541 l 8045 12525 l 8062 12525 l
 8062 12445 l 8079 12445 l 8079 12508 l 8095 12508 l 8095 12608 l
 8112 12608 l 8112 12600 l 8124 12600 l 8124 12500 l 8141 12500 l
 8141 12654 l 8158 12654 l 8158 12662 l 8174 12662 l 8174 12650 l
 8191 12650 l 8191 12683 l 8204 12683 l 8204 12670 l 8220 12670 l
 8220 12708 l 8237 12708 l 8237 12704 l 8254 12704 l 8254 12708 l
 8270 12708 l 8270 12704 l 8283 12704 l 8283 12745 l 8299 12745 l
 8299 12741 l 8316 12741 l 8316 12737 l 8333 12737 l 8333 12758 l
 8345 12758 l 8345 12754 l 8362 12754 l 8362 12758 l 8395 12758 l
 8395 12783 l 8412 12783 l 8412 12779 l 8424 12779 l 8424 12791 l
 8441 12791 l 8441 12770 l 8458 12770 l 8458 12791 l 8474 12791 l
 8474 12795 l 8491 12795 l 8491 12804 l 8504 12804 l 8504 12808 l
 8520 12808 l 8520 12800 l 8537 12800 l 8537 12812 l 8570 12812 l
 8570 12816 l 8583 12816 l 8583 12820 l 8645 12820 l 8645 12829 l
 8662 12829 l 8662 12833 l 8679 12833 l 8679 12825 l 8695 12825 l
 8695 12833 l 8724 12833 l 8724 12837 l 8758 12837 l 8758 12841 l
 8774 12841 l 8774 12833 l 8791 12833 l 8791 12841 l 8837 12841 l
 8837 12845 l 8883 12845 l 8883 12841 l 8899 12841 l 8899 12845 l
 9012 12845 l 9012 12850 l 9024 12850 l 9024 12845 l 9041 12845 l
 9041 12850 l
 9058 12850 l gs col0 s gr 
%  polyline 
% Polyline
n 6691 12850 m
 9058 12850 l gs col0 s gr 
%  polyline 
% Polyline
n 6691 12775 m
 6691 12850 l gs col0 s gr 
% here ends figure;
% 
% here starts figure with depth 515
%  polyline 
% Polyline
0 slj
0 slc
7.500 slw
n 6737 12812 m
 6737 12850 l gs col0 s gr 
%  polyline 
% Polyline
n 6783 12812 m
 6783 12850 l gs col0 s gr 
%  polyline 
% Polyline
n 6833 12812 m
 6833 12850 l gs col0 s gr 
%  polyline 
% Polyline
n 6879 12812 m
 6879 12850 l gs col0 s gr 
%  polyline 
% Polyline
n 6924 12775 m
 6924 12850 l gs col0 s gr 
%  polyline 
% Polyline
n 6974 12812 m
 6974 12850 l gs col0 s gr 
%  polyline 
% Polyline
n 7020 12812 m
 7020 12850 l gs col0 s gr 
%  polyline 
% Polyline
n 7066 12812 m
 7066 12850 l gs col0 s gr 
%  polyline 
% Polyline
n 7116 12812 m
 7116 12850 l gs col0 s gr 
%  polyline 
% Polyline
n 7162 12775 m
 7162 12850 l gs col0 s gr 
%  polyline 
% Polyline
n 7212 12812 m
 7212 12850 l gs col0 s gr 
%  polyline 
% Polyline
n 7258 12812 m
 7258 12850 l gs col0 s gr 
%  polyline 
% Polyline
n 7304 12812 m
 7304 12850 l gs col0 s gr 
%  polyline 
% Polyline
n 7354 12812 m
 7354 12850 l gs col0 s gr 
%  polyline 
% Polyline
n 7399 12775 m
 7399 12850 l gs col0 s gr 
%  polyline 
% Polyline
n 7445 12812 m
 7445 12850 l gs col0 s gr 
%  polyline 
% Polyline
n 7495 12812 m
 7495 12850 l gs col0 s gr 
%  polyline 
% Polyline
n 7541 12812 m
 7541 12850 l gs col0 s gr 
%  polyline 
% Polyline
n 7591 12812 m
 7591 12850 l gs col0 s gr 
%  polyline 
% Polyline
n 7637 12775 m
 7637 12850 l gs col0 s gr 
%  polyline 
% Polyline
n 7683 12812 m
 7683 12850 l gs col0 s gr 
%  polyline 
% Polyline
n 7733 12812 m
 7733 12850 l gs col0 s gr 
%  polyline 
% Polyline
n 7779 12812 m
 7779 12850 l gs col0 s gr 
%  polyline 
% Polyline
n 7824 12812 m
 7824 12850 l gs col0 s gr 
%  polyline 
% Polyline
n 7874 12775 m
 7874 12850 l gs col0 s gr 
%  polyline 
% Polyline
n 7920 12812 m
 7920 12850 l gs col0 s gr 
%  polyline 
% Polyline
n 7970 12812 m
 7970 12850 l gs col0 s gr 
%  polyline 
% Polyline
n 8016 12812 m
 8016 12850 l gs col0 s gr 
%  polyline 
% Polyline
n 8062 12812 m
 8062 12850 l gs col0 s gr 
%  polyline 
% Polyline
n 8112 12775 m
 8112 12850 l gs col0 s gr 
%  polyline 
% Polyline
n 8158 12812 m
 8158 12850 l gs col0 s gr 
%  polyline 
% Polyline
n 8204 12812 m
 8204 12850 l gs col0 s gr 
%  polyline 
% Polyline
n 8254 12812 m
 8254 12850 l gs col0 s gr 
%  polyline 
% Polyline
n 8299 12812 m
 8299 12850 l gs col0 s gr 
%  polyline 
% Polyline
n 8345 12775 m
 8345 12850 l gs col0 s gr 
%  polyline 
% Polyline
n 8395 12812 m
 8395 12850 l gs col0 s gr 
%  polyline 
% Polyline
n 8441 12812 m
 8441 12850 l gs col0 s gr 
%  polyline 
% Polyline
n 8491 12812 m
 8491 12850 l gs col0 s gr 
%  polyline 
% Polyline
n 8537 12812 m
 8537 12850 l gs col0 s gr 
%  polyline 
% Polyline
n 8583 12775 m
 8583 12850 l gs col0 s gr 
%  polyline 
% Polyline
n 8633 12812 m
 8633 12850 l gs col0 s gr 
%  polyline 
% Polyline
n 8679 12812 m
 8679 12850 l gs col0 s gr 
%  polyline 
% Polyline
n 8724 12812 m
 8724 12850 l gs col0 s gr 
%  polyline 
% Polyline
n 8774 12812 m
 8774 12850 l gs col0 s gr 
%  polyline 
% Polyline
n 8820 12775 m
 8820 12850 l gs col0 s gr 
%  polyline 
% Polyline
n 8870 12812 m
 8870 12850 l gs col0 s gr 
%  polyline 
% Polyline
n 8916 12812 m
 8916 12850 l gs col0 s gr 
%  polyline 
% Polyline
n 8962 12812 m
 8962 12850 l gs col0 s gr 
%  polyline 
% Polyline
n 9012 12812 m
 9012 12850 l gs col0 s gr 
%  polyline 
% Polyline
n 9058 12775 m
 9058 12850 l gs col0 s gr 
% here ends figure;
% 
% here starts figure with depth 464
%  text 
/Helvetica-Bold-iso ff 116.67 scf sf
6645 12962 m
gs 1 -1 sc (0) col0 sh gr
%  text 
/Helvetica-Bold-iso ff 116.67 scf sf
6849 12962 m
gs 1 -1 sc (0.1) col0 sh gr
% here ends figure;
% 
% here starts figure with depth 461
%  text 
/Helvetica-Bold-iso ff 116.67 scf sf
7074 12962 m
gs 1 -1 sc (0.2) col0 sh gr
% here ends figure;
% 
% here starts figure with depth 459
%  text 
/Helvetica-Bold-iso ff 116.67 scf sf
7312 12962 m
gs 1 -1 sc (0.3) col0 sh gr
% here ends figure;
% 
% here starts figure with depth 457
%  text 
/Helvetica-Bold-iso ff 116.67 scf sf
7549 12962 m
gs 1 -1 sc (0.4) col0 sh gr
% here ends figure;
% 
% here starts figure with depth 455
%  text 
/Helvetica-Bold-iso ff 116.67 scf sf
7787 12962 m
gs 1 -1 sc (0.5) col0 sh gr
% here ends figure;
% 
% here starts figure with depth 453
%  text 
/Helvetica-Bold-iso ff 116.67 scf sf
8024 12962 m
gs 1 -1 sc (0.6) col0 sh gr
% here ends figure;
% 
% here starts figure with depth 451
%  text 
/Helvetica-Bold-iso ff 116.67 scf sf
8262 12962 m
gs 1 -1 sc (0.7) col0 sh gr
% here ends figure;
% 
% here starts figure with depth 449
%  text 
/Helvetica-Bold-iso ff 116.67 scf sf
8499 12962 m
gs 1 -1 sc (0.8) col0 sh gr
% here ends figure;
% 
% here starts figure with depth 447
%  text 
/Helvetica-Bold-iso ff 116.67 scf sf
8737 12962 m
gs 1 -1 sc (0.9) col0 sh gr
% here ends figure;
% 
% here starts figure with depth 445
%  text 
/Helvetica-Bold-iso ff 116.67 scf sf
9033 12962 m
gs 1 -1 sc (1) col0 sh gr
%  polyline 
% Polyline
0 slj
0 slc
7.500 slw
n 6691 12850 m
 6691 10320 l gs col0 s gr 
% here ends figure;
% 
% here starts figure with depth 442
%  polyline 
% Polyline
0 slj
0 slc
7.500 slw
n 6762 12850 m
 6691 12850 l gs col0 s gr 
%  polyline 
% Polyline
n 6724 12787 m
 6691 12787 l gs col0 s gr 
%  polyline 
% Polyline
n 6724 12725 m
 6691 12725 l gs col0 s gr 
%  polyline 
% Polyline
n 6724 12666 m
 6691 12666 l gs col0 s gr 
%  polyline 
% Polyline
n 6724 12604 m
 6691 12604 l gs col0 s gr 
%  polyline 
% Polyline
n 6762 12541 m
 6691 12541 l gs col0 s gr 
%  polyline 
% Polyline
n 6724 12479 m
 6691 12479 l gs col0 s gr 
%  polyline 
% Polyline
n 6724 12416 m
 6691 12416 l gs col0 s gr 
%  polyline 
% Polyline
n 6724 12354 m
 6691 12354 l gs col0 s gr 
%  polyline 
% Polyline
n 6724 12291 m
 6691 12291 l gs col0 s gr 
%  polyline 
% Polyline
n 6762 12229 m
 6691 12229 l gs col0 s gr 
%  polyline 
% Polyline
n 6724 12166 m
 6691 12166 l gs col0 s gr 
%  polyline 
% Polyline
n 6724 12104 m
 6691 12104 l gs col0 s gr 
%  polyline 
% Polyline
n 6724 12041 m
 6691 12041 l gs col0 s gr 
%  polyline 
% Polyline
n 6724 11983 m
 6691 11983 l gs col0 s gr 
%  polyline 
% Polyline
n 6762 11920 m
 6691 11920 l gs col0 s gr 
%  polyline 
% Polyline
n 6724 11858 m
 6691 11858 l gs col0 s gr 
%  polyline 
% Polyline
n 6724 11795 m
 6691 11795 l gs col0 s gr 
%  polyline 
% Polyline
n 6724 11733 m
 6691 11733 l gs col0 s gr 
%  polyline 
% Polyline
n 6724 11670 m
 6691 11670 l gs col0 s gr 
%  polyline 
% Polyline
n 6762 11608 m
 6691 11608 l gs col0 s gr 
%  polyline 
% Polyline
n 6724 11545 m
 6691 11545 l gs col0 s gr 
%  polyline 
% Polyline
n 6724 11483 m
 6691 11483 l gs col0 s gr 
%  polyline 
% Polyline
n 6724 11420 m
 6691 11420 l gs col0 s gr 
%  polyline 
% Polyline
n 6724 11358 m
 6691 11358 l gs col0 s gr 
%  polyline 
% Polyline
n 6762 11300 m
 6691 11300 l gs col0 s gr 
%  polyline 
% Polyline
n 6724 11237 m
 6691 11237 l gs col0 s gr 
%  polyline 
% Polyline
n 6724 11175 m
 6691 11175 l gs col0 s gr 
%  polyline 
% Polyline
n 6724 11112 m
 6691 11112 l gs col0 s gr 
%  polyline 
% Polyline
n 6724 11050 m
 6691 11050 l gs col0 s gr 
%  polyline 
% Polyline
n 6762 10987 m
 6691 10987 l gs col0 s gr 
%  polyline 
% Polyline
n 6724 10925 m
 6691 10925 l gs col0 s gr 
%  polyline 
% Polyline
n 6724 10862 m
 6691 10862 l gs col0 s gr 
%  polyline 
% Polyline
n 6724 10800 m
 6691 10800 l gs col0 s gr 
%  polyline 
% Polyline
n 6724 10737 m
 6691 10737 l gs col0 s gr 
%  polyline 
% Polyline
n 6762 10675 m
 6691 10675 l gs col0 s gr 
%  polyline 
% Polyline
n 6724 10616 m
 6691 10616 l gs col0 s gr 
%  polyline 
% Polyline
n 6724 10554 m
 6691 10554 l gs col0 s gr 
%  polyline 
% Polyline
n 6724 10491 m
 6691 10491 l gs col0 s gr 
%  polyline 
% Polyline
n 6724 10429 m
 6691 10429 l gs col0 s gr 
%  polyline 
% Polyline
n 6762 10366 m
 6691 10366 l gs col0 s gr 
%  polyline 
% Polyline
n 6762 10366 m
 6691 10366 l gs col0 s gr 
% here ends figure;
% 
% here starts figure with depth 399
%  text 
/Helvetica-Bold-iso ff 116.67 scf sf
6612 12891 m
gs 1 -1 sc (0) col0 sh gr
%  text 
/Helvetica-Bold-iso ff 116.67 scf sf
6470 12583 m
gs 1 -1 sc (0.01) col0 sh gr
%  text 
/Helvetica-Bold-iso ff 116.67 scf sf
6458 12275 m
gs 1 -1 sc (0.02) col0 sh gr
%  text 
/Helvetica-Bold-iso ff 116.67 scf sf
6458 11966 m
gs 1 -1 sc (0.03) col0 sh gr
%  text 
/Helvetica-Bold-iso ff 116.67 scf sf
6458 11645 m
gs 1 -1 sc (0.04) col0 sh gr
%  text 
/Helvetica-Bold-iso ff 116.67 scf sf
6458 11337 m
gs 1 -1 sc (0.05) col0 sh gr
%  text 
/Helvetica-Bold-iso ff 116.67 scf sf
6458 11029 m
gs 1 -1 sc (0.06) col0 sh gr
%  text 
/Helvetica-Bold-iso ff 116.67 scf sf
6458 10720 m
gs 1 -1 sc (0.07) col0 sh gr
%  text 
/Helvetica-Bold-iso ff 116.67 scf sf
6458 10412 m
gs 1 -1 sc (0.08) col0 sh gr
% here ends figure;
% 
% here starts figure with depth 50
/Helvetica-Bold-iso ff 150.00 scf sf
249 10182 m
gs 1 -1 sc (11g gauge invariance profile: log) col0 sh gr
/Helvetica-Bold-iso ff 116.67 scf sf
2587 10223 m
gs 1 -1 sc (10) col0 sh gr
/Helvetica-Bold-iso ff 150.00 scf sf
2693 10182 m
gs 1 -1 sc ( R) col0 sh gr
/Helvetica-Bold-iso ff 116.67 scf sf
2850 10230 m
gs 1 -1 sc (GI) col0 sh gr
/Helvetica-Bold-iso ff 150.00 scf sf
3501 10181 m
gs 1 -1 sc (Normalized H) col0 sh gr
/Helvetica-Bold-iso ff 116.67 scf sf
4455 10222 m
gs 1 -1 sc (T) col0 sh gr
/Helvetica-Bold-iso ff 150.00 scf sf
4516 10181 m
gs 1 -1 sc ( distribution for 11g) col0 sh gr
/Helvetica-Bold-iso ff 150.00 scf sf
6550 10168 m
gs 1 -1 sc (Normalized R) col0 sh gr
/Helvetica-Bold-iso ff 116.67 scf sf
7525 10209 m
gs 1 -1 sc (min) col0 sh gr
/Helvetica-Bold-iso ff 150.00 scf sf
7735 10168 m
gs 1 -1 sc ( distribution for 11g) col0 sh gr
/Helvetica-Bold-iso ff 150.00 scf sf
2316 13077 m
gs 1 -1 sc (log) col0 sh gr
/Helvetica-Bold-iso ff 116.67 scf sf
2541 13118 m
gs 1 -1 sc (10 ) col0 sh gr
/Helvetica-Bold-iso ff 150.00 scf sf
2691 13077 m
gs 1 -1 sc (W) col0 sh gr
/Helvetica-Bold-iso ff 116.67 scf sf
2826 13118 m
gs 1 -1 sc (ME) col0 sh gr
/Helvetica-Bold-iso ff 150.00 scf sf
5527 13077 m
gs 1 -1 sc (H) col0 sh gr
/Helvetica-Bold-iso ff 116.67 scf sf
5632 13118 m
gs 1 -1 sc (T) col0 sh gr
/Helvetica-Bold-iso ff 150.00 scf sf
5707 13077 m
gs 1 -1 sc ( \(GeV\)) col0 sh gr
/Helvetica-Bold-iso ff 150.00 scf sf
8989 13077 m
gs 1 -1 sc (R) col0 sh gr
/Helvetica-Bold-iso ff 116.67 scf sf
9094 13118 m
gs 1 -1 sc (min) col0 sh gr
% here ends figure;
$F2psEnd
rs
showpage
%%Trailer
%EOF
