%!PS-Adobe-2.0 EPSF-2.0
%%Title: /home/giele/tes1/TEX/graphs/conversion/distributions5.fig
%%Creator: fig2dev Version 3.2 Patchlevel 5
%%CreationDate: Wed Feb 17 14:11:33 2010
%%For: giele@thgpu1.fnal.gov (Walter Giele)
%%BoundingBox: 0 0 568 194
%Magnification: 1.0000
%%EndComments
/$F2psDict 200 dict def
$F2psDict begin
$F2psDict /mtrx matrix put
/col-1 {0 setgray} bind def
/col0 {0.000 0.000 0.000 srgb} bind def
/col1 {0.000 0.000 1.000 srgb} bind def
/col2 {0.000 1.000 0.000 srgb} bind def
/col3 {0.000 1.000 1.000 srgb} bind def
/col4 {1.000 0.000 0.000 srgb} bind def
/col5 {1.000 0.000 1.000 srgb} bind def
/col6 {1.000 1.000 0.000 srgb} bind def
/col7 {1.000 1.000 1.000 srgb} bind def
/col8 {0.000 0.000 0.560 srgb} bind def
/col9 {0.000 0.000 0.690 srgb} bind def
/col10 {0.000 0.000 0.820 srgb} bind def
/col11 {0.530 0.810 1.000 srgb} bind def
/col12 {0.000 0.560 0.000 srgb} bind def
/col13 {0.000 0.690 0.000 srgb} bind def
/col14 {0.000 0.820 0.000 srgb} bind def
/col15 {0.000 0.560 0.560 srgb} bind def
/col16 {0.000 0.690 0.690 srgb} bind def
/col17 {0.000 0.820 0.820 srgb} bind def
/col18 {0.560 0.000 0.000 srgb} bind def
/col19 {0.690 0.000 0.000 srgb} bind def
/col20 {0.820 0.000 0.000 srgb} bind def
/col21 {0.560 0.000 0.560 srgb} bind def
/col22 {0.690 0.000 0.690 srgb} bind def
/col23 {0.820 0.000 0.820 srgb} bind def
/col24 {0.500 0.190 0.000 srgb} bind def
/col25 {0.630 0.250 0.000 srgb} bind def
/col26 {0.750 0.380 0.000 srgb} bind def
/col27 {1.000 0.500 0.500 srgb} bind def
/col28 {1.000 0.630 0.630 srgb} bind def
/col29 {1.000 0.750 0.750 srgb} bind def
/col30 {1.000 0.880 0.880 srgb} bind def
/col31 {1.000 0.840 0.000 srgb} bind def
/col32 {0.949 0.949 0.949 srgb} bind def
/col33 {0.663 0.663 0.663 srgb} bind def

end
save
newpath 0 194 moveto 0 0 lineto 568 0 lineto 568 194 lineto closepath clip newpath
0.1 792.1 translate
1 -1 scale

/cp {closepath} bind def
/ef {eofill} bind def
/gr {grestore} bind def
/gs {gsave} bind def
/sa {save} bind def
/rs {restore} bind def
/l {lineto} bind def
/m {moveto} bind def
/rm {rmoveto} bind def
/n {newpath} bind def
/s {stroke} bind def
/sh {show} bind def
/slc {setlinecap} bind def
/slj {setlinejoin} bind def
/slw {setlinewidth} bind def
/srgb {setrgbcolor} bind def
/rot {rotate} bind def
/sc {scale} bind def
/sd {setdash} bind def
/ff {findfont} bind def
/sf {setfont} bind def
/scf {scalefont} bind def
/sw {stringwidth} bind def
/tr {translate} bind def
/tnt {dup dup currentrgbcolor
  4 -2 roll dup 1 exch sub 3 -1 roll mul add
  4 -2 roll dup 1 exch sub 3 -1 roll mul add
  4 -2 roll dup 1 exch sub 3 -1 roll mul add srgb}
  bind def
/shd {dup dup currentrgbcolor 4 -2 roll mul 4 -2 roll mul
  4 -2 roll mul srgb} bind def
/reencdict 12 dict def /ReEncode { reencdict begin
/newcodesandnames exch def /newfontname exch def /basefontname exch def
/basefontdict basefontname findfont def /newfont basefontdict maxlength dict def
basefontdict { exch dup /FID ne { dup /Encoding eq
{ exch dup length array copy newfont 3 1 roll put }
{ exch newfont 3 1 roll put } ifelse } { pop pop } ifelse } forall
newfont /FontName newfontname put newcodesandnames aload pop
128 1 255 { newfont /Encoding get exch /.notdef put } for
newcodesandnames length 2 idiv { newfont /Encoding get 3 1 roll put } repeat
newfontname newfont definefont pop end } def
/isovec [
8#055 /minus 8#200 /grave 8#201 /acute 8#202 /circumflex 8#203 /tilde
8#204 /macron 8#205 /breve 8#206 /dotaccent 8#207 /dieresis
8#210 /ring 8#211 /cedilla 8#212 /hungarumlaut 8#213 /ogonek 8#214 /caron
8#220 /dotlessi 8#230 /oe 8#231 /OE
8#240 /space 8#241 /exclamdown 8#242 /cent 8#243 /sterling
8#244 /currency 8#245 /yen 8#246 /brokenbar 8#247 /section 8#250 /dieresis
8#251 /copyright 8#252 /ordfeminine 8#253 /guillemotleft 8#254 /logicalnot
8#255 /hyphen 8#256 /registered 8#257 /macron 8#260 /degree 8#261 /plusminus
8#262 /twosuperior 8#263 /threesuperior 8#264 /acute 8#265 /mu 8#266 /paragraph
8#267 /periodcentered 8#270 /cedilla 8#271 /onesuperior 8#272 /ordmasculine
8#273 /guillemotright 8#274 /onequarter 8#275 /onehalf
8#276 /threequarters 8#277 /questiondown 8#300 /Agrave 8#301 /Aacute
8#302 /Acircumflex 8#303 /Atilde 8#304 /Adieresis 8#305 /Aring
8#306 /AE 8#307 /Ccedilla 8#310 /Egrave 8#311 /Eacute
8#312 /Ecircumflex 8#313 /Edieresis 8#314 /Igrave 8#315 /Iacute
8#316 /Icircumflex 8#317 /Idieresis 8#320 /Eth 8#321 /Ntilde 8#322 /Ograve
8#323 /Oacute 8#324 /Ocircumflex 8#325 /Otilde 8#326 /Odieresis 8#327 /multiply
8#330 /Oslash 8#331 /Ugrave 8#332 /Uacute 8#333 /Ucircumflex
8#334 /Udieresis 8#335 /Yacute 8#336 /Thorn 8#337 /germandbls 8#340 /agrave
8#341 /aacute 8#342 /acircumflex 8#343 /atilde 8#344 /adieresis 8#345 /aring
8#346 /ae 8#347 /ccedilla 8#350 /egrave 8#351 /eacute
8#352 /ecircumflex 8#353 /edieresis 8#354 /igrave 8#355 /iacute
8#356 /icircumflex 8#357 /idieresis 8#360 /eth 8#361 /ntilde 8#362 /ograve
8#363 /oacute 8#364 /ocircumflex 8#365 /otilde 8#366 /odieresis 8#367 /divide
8#370 /oslash 8#371 /ugrave 8#372 /uacute 8#373 /ucircumflex
8#374 /udieresis 8#375 /yacute 8#376 /thorn 8#377 /ydieresis] def
/Helvetica-Bold /Helvetica-Bold-iso isovec ReEncode
/$F2psBegin {$F2psDict begin /$F2psEnteredState save def} def
/$F2psEnd {$F2psEnteredState restore end} def

$F2psBegin
10 setmiterlimit
0 slj 0 slc
 0.06000 0.06000 sc
%
% Fig objects follow
%
% 
% here starts figure with depth 997
%  polyline 
% Polyline
0 slj
0 slc
0.000 slw
n 0 13200 m 33 13166 l 33 10004 l 9416 10004 l 9449 9970 l 0 9970 l

 0 13200 l  cp gs col7 1.00 shd ef gr 
% here ends figure;
% 
% here starts figure with depth 995
%  polyline 
% Polyline
0 slj
0 slc
0.000 slw
n 0 13200 m 33 13166 l 9416 13166 l 9416 10004 l 9449 9970 l 9449 13200 l

 0 13200 l  cp gs col33 1.00 shd ef gr 
% here ends figure;
% 
% here starts figure with depth 991
%  polyline 
% Polyline
0 slj
0 slc
0.000 slw
n 95 13166 m 129 13133 l 129 10037 l 3020 10037 l 3054 10004 l 95 10004 l

 95 13166 l  cp gs col7 1.00 shd ef gr 
% here ends figure;
% 
% here starts figure with depth 989
%  polyline 
% Polyline
0 slj
0 slc
0.000 slw
n 95 13166 m 129 13133 l 3020 13133 l 3020 10037 l 3054 10004 l 3054 13166 l

 95 13166 l  cp gs col33 1.00 shd ef gr 
% here ends figure;
% 
% here starts figure with depth 983
%  polyline 
% Polyline
0 slj
0 slc
0.000 slw
n 391 12850 m 408 12833 l 2741 12833 l 2741 10337 l 2758 10320 l 2758 12850 l

 391 12850 l  cp gs col33 1.00 shd ef gr 
% here ends figure;
% 
% here starts figure with depth 981
%  polyline 
% Polyline
0 slj
0 slc
7.500 slw
n 391 12850 m 391 10320 l 2758 10320 l 2758 12850 l
 391 12850 l  cp gs col0 s gr 
% here ends figure;
% 
% here starts figure with depth 979
%  polyline 
% Polyline
0 slj
0 slc
0.000 slw
n 391 12850 m 391 10320 l 2758 10320 l 2758 12850 l
 391 12850 l  cp gs col32 1.00 shd ef gr 
% here ends figure;
% 
% here starts figure with depth 977
%  polyline 
% Polyline
0 slj
0 slc
0.000 slw
n 391 12850 m 408 12833 l 408 10337 l 2741 10337 l 2758 10320 l 391 10320 l

 391 12850 l  cp gs col7 1.00 shd ef gr 
% here ends figure;
% 
% here starts figure with depth 975
%  polyline 
% Polyline
0 slj
0 slc
0.000 slw
n 391 12850 m 408 12833 l 2741 12833 l 2741 10337 l 2758 10320 l 2758 12850 l

 391 12850 l  cp gs col33 1.00 shd ef gr 
% here ends figure;
% 
% here starts figure with depth 973
%  polyline 
% Polyline
0 slj
0 slc
7.500 slw
n 391 12850 m 391 10320 l 2758 10320 l 2758 12850 l
 391 12850 l  cp gs col0 s gr 
% here ends figure;
% 
% here starts figure with depth 971
%  polyline 
% Polyline
0 slj
0 slc
0.000 slw
n 404 10437 m 391 10437 l 391 10462 l 416 10462 l 416 10437 l
 404 10437 l  cp gs col1 1.00 shd ef gr 
%  polyline 
% Polyline
n 424 10475 m 412 10475 l 412 10500 l 437 10500 l 437 10475 l
 424 10475 l  cp gs col1 1.00 shd ef gr 
%  polyline 
% Polyline
7.500 slw
n 449 10554 m
 449 10529 l gs col0 s gr 
%  polyline 
% Polyline
n 449 10508 m
 449 10483 l gs col0 s gr 
% here ends figure;
% 
% here starts figure with depth 966
%  polyline 
% Polyline
0 slj
0 slc
0.000 slw
n 449 10508 m 437 10508 l 437 10533 l 462 10533 l 462 10508 l
 449 10508 l  cp gs col1 1.00 shd ef gr 
%  polyline 
% Polyline
n 474 10441 m 462 10441 l 462 10466 l 487 10466 l 487 10441 l
 474 10441 l  cp gs col1 1.00 shd ef gr 
%  polyline 
% Polyline
7.500 slw
n 495 10500 m
 495 10495 l gs col0 s gr 
%  polyline 
% Polyline
n 495 10470 m
 495 10466 l gs col0 s gr 
% here ends figure;
% 
% here starts figure with depth 961
%  polyline 
% Polyline
0 slj
0 slc
0.000 slw
n 495 10470 m 483 10470 l 483 10495 l 508 10495 l 508 10470 l
 495 10470 l  cp gs col1 1.00 shd ef gr 
%  polyline 
% Polyline
n 520 10458 m 508 10458 l 508 10483 l 533 10483 l 533 10458 l
 520 10458 l  cp gs col1 1.00 shd ef gr 
%  polyline 
% Polyline
n 545 10495 m 533 10495 l 533 10520 l 558 10520 l 558 10495 l
 545 10495 l  cp gs col1 1.00 shd ef gr 
% here ends figure;
% 
% here starts figure with depth 957
%  polyline 
% Polyline
0 slj
0 slc
0.000 slw
n 566 10495 m 554 10495 l 554 10520 l 579 10520 l 579 10495 l
 566 10495 l  cp gs col1 1.00 shd ef gr 
%  polyline 
% Polyline
n 591 10487 m 579 10487 l 579 10512 l 604 10512 l 604 10487 l
 591 10487 l  cp gs col1 1.00 shd ef gr 
%  polyline 
% Polyline
n 616 10516 m 604 10516 l 604 10541 l 629 10541 l 629 10516 l
 616 10516 l  cp gs col1 1.00 shd ef gr 
% here ends figure;
% 
% here starts figure with depth 953
%  polyline 
% Polyline
0 slj
0 slc
0.000 slw
n 637 10516 m 624 10516 l 624 10541 l 649 10541 l 649 10516 l
 637 10516 l  cp gs col1 1.00 shd ef gr 
%  polyline 
% Polyline
n 662 10541 m 649 10541 l 649 10566 l 674 10566 l 674 10541 l
 662 10541 l  cp gs col1 1.00 shd ef gr 
%  polyline 
% Polyline
n 687 10554 m 674 10554 l 674 10579 l 699 10579 l 699 10554 l
 687 10554 l  cp gs col1 1.00 shd ef gr 
% here ends figure;
% 
% here starts figure with depth 949
%  polyline 
% Polyline
0 slj
0 slc
0.000 slw
n 708 10575 m 695 10575 l 695 10600 l 720 10600 l 720 10575 l
 708 10575 l  cp gs col1 1.00 shd ef gr 
%  polyline 
% Polyline
n 733 10600 m 720 10600 l 720 10625 l 745 10625 l 745 10600 l
 733 10600 l  cp gs col1 1.00 shd ef gr 
%  polyline 
% Polyline
n 758 10620 m 745 10620 l 745 10645 l 770 10645 l 770 10620 l
 758 10620 l  cp gs col1 1.00 shd ef gr 
%  polyline 
% Polyline
n 783 10650 m 770 10650 l 770 10675 l 795 10675 l 795 10650 l
 783 10650 l  cp gs col1 1.00 shd ef gr 
%  polyline 
% Polyline
n 804 10675 m 791 10675 l 791 10700 l 816 10700 l 816 10675 l
 804 10675 l  cp gs col1 1.00 shd ef gr 
%  polyline 
% Polyline
n 829 10708 m 816 10708 l 816 10733 l 841 10733 l 841 10708 l
 829 10708 l  cp gs col1 1.00 shd ef gr 
%  polyline 
% Polyline
n 854 10733 m 841 10733 l 841 10758 l 866 10758 l 866 10733 l
 854 10733 l  cp gs col1 1.00 shd ef gr 
%  polyline 
% Polyline
n 874 10766 m 862 10766 l 862 10791 l 887 10791 l 887 10766 l
 874 10766 l  cp gs col1 1.00 shd ef gr 
%  polyline 
% Polyline
n 899 10800 m 887 10800 l 887 10825 l 912 10825 l 912 10800 l
 899 10800 l  cp gs col1 1.00 shd ef gr 
%  polyline 
% Polyline
n 924 10829 m 912 10829 l 912 10854 l 937 10854 l 937 10829 l
 924 10829 l  cp gs col1 1.00 shd ef gr 
%  polyline 
% Polyline
n 945 10862 m 933 10862 l 933 10887 l 958 10887 l 958 10862 l
 945 10862 l  cp gs col1 1.00 shd ef gr 
%  polyline 
% Polyline
n 970 10895 m 958 10895 l 958 10920 l 983 10920 l 983 10895 l
 970 10895 l  cp gs col1 1.00 shd ef gr 
%  polyline 
% Polyline
n 995 10929 m 983 10929 l 983 10954 l 1008 10954 l 1008 10929 l
 995 10929 l  cp gs col1 1.00 shd ef gr 
%  polyline 
% Polyline
n 1016 10962 m 1004 10962 l 1004 10987 l 1029 10987 l 1029 10962 l
 1016 10962 l  cp gs col1 1.00 shd ef gr 
%  polyline 
% Polyline
n 1041 10995 m 1029 10995 l 1029 11020 l 1054 11020 l 1054 10995 l
 1041 10995 l  cp gs col1 1.00 shd ef gr 
%  polyline 
% Polyline
n 1066 11029 m 1054 11029 l 1054 11054 l 1079 11054 l 1079 11029 l
 1066 11029 l  cp gs col1 1.00 shd ef gr 
%  polyline 
% Polyline
n 1087 11062 m 1074 11062 l 1074 11087 l 1099 11087 l 1099 11062 l
 1087 11062 l  cp gs col1 1.00 shd ef gr 
%  polyline 
% Polyline
n 1112 11095 m 1099 11095 l 1099 11120 l 1124 11120 l 1124 11095 l
 1112 11095 l  cp gs col1 1.00 shd ef gr 
%  polyline 
% Polyline
n 1137 11125 m 1124 11125 l 1124 11150 l 1149 11150 l 1149 11125 l
 1137 11125 l  cp gs col1 1.00 shd ef gr 
%  polyline 
% Polyline
n 1158 11158 m 1145 11158 l 1145 11183 l 1170 11183 l 1170 11158 l
 1158 11158 l  cp gs col1 1.00 shd ef gr 
%  polyline 
% Polyline
n 1183 11191 m 1170 11191 l 1170 11216 l 1195 11216 l 1195 11191 l
 1183 11191 l  cp gs col1 1.00 shd ef gr 
%  polyline 
% Polyline
n 1208 11225 m 1195 11225 l 1195 11250 l 1220 11250 l 1220 11225 l
 1208 11225 l  cp gs col1 1.00 shd ef gr 
%  polyline 
% Polyline
n 1233 11258 m 1220 11258 l 1220 11283 l 1245 11283 l 1245 11258 l
 1233 11258 l  cp gs col1 1.00 shd ef gr 
%  polyline 
% Polyline
n 1254 11291 m 1241 11291 l 1241 11316 l 1266 11316 l 1266 11291 l
 1254 11291 l  cp gs col1 1.00 shd ef gr 
%  polyline 
% Polyline
n 1279 11325 m 1266 11325 l 1266 11350 l 1291 11350 l 1291 11325 l
 1279 11325 l  cp gs col1 1.00 shd ef gr 
%  polyline 
% Polyline
n 1304 11358 m 1291 11358 l 1291 11383 l 1316 11383 l 1316 11358 l
 1304 11358 l  cp gs col1 1.00 shd ef gr 
%  polyline 
% Polyline
n 1324 11391 m 1312 11391 l 1312 11416 l 1337 11416 l 1337 11391 l
 1324 11391 l  cp gs col1 1.00 shd ef gr 
%  polyline 
% Polyline
n 1349 11425 m 1337 11425 l 1337 11450 l 1362 11450 l 1362 11425 l
 1349 11425 l  cp gs col1 1.00 shd ef gr 
%  polyline 
% Polyline
n 1374 11458 m 1362 11458 l 1362 11483 l 1387 11483 l 1387 11458 l
 1374 11458 l  cp gs col1 1.00 shd ef gr 
%  polyline 
% Polyline
n 1395 11491 m 1383 11491 l 1383 11516 l 1408 11516 l 1408 11491 l
 1395 11491 l  cp gs col1 1.00 shd ef gr 
%  polyline 
% Polyline
n 1420 11525 m 1408 11525 l 1408 11550 l 1433 11550 l 1433 11525 l
 1420 11525 l  cp gs col1 1.00 shd ef gr 
%  polyline 
% Polyline
n 1445 11558 m 1433 11558 l 1433 11583 l 1458 11583 l 1458 11558 l
 1445 11558 l  cp gs col1 1.00 shd ef gr 
%  polyline 
% Polyline
n 1466 11591 m 1454 11591 l 1454 11616 l 1479 11616 l 1479 11591 l
 1466 11591 l  cp gs col1 1.00 shd ef gr 
%  polyline 
% Polyline
n 1491 11620 m 1479 11620 l 1479 11645 l 1504 11645 l 1504 11620 l
 1491 11620 l  cp gs col1 1.00 shd ef gr 
%  polyline 
% Polyline
n 1516 11654 m 1504 11654 l 1504 11679 l 1529 11679 l 1529 11654 l
 1516 11654 l  cp gs col1 1.00 shd ef gr 
%  polyline 
% Polyline
n 1537 11687 m 1524 11687 l 1524 11712 l 1549 11712 l 1549 11687 l
 1537 11687 l  cp gs col1 1.00 shd ef gr 
%  polyline 
% Polyline
n 1562 11720 m 1549 11720 l 1549 11745 l 1574 11745 l 1574 11720 l
 1562 11720 l  cp gs col1 1.00 shd ef gr 
%  polyline 
% Polyline
n 1587 11754 m 1574 11754 l 1574 11779 l 1599 11779 l 1599 11754 l
 1587 11754 l  cp gs col1 1.00 shd ef gr 
%  polyline 
% Polyline
n 1608 11787 m 1595 11787 l 1595 11812 l 1620 11812 l 1620 11787 l
 1608 11787 l  cp gs col1 1.00 shd ef gr 
%  polyline 
% Polyline
n 1633 11820 m 1620 11820 l 1620 11845 l 1645 11845 l 1645 11820 l
 1633 11820 l  cp gs col1 1.00 shd ef gr 
%  polyline 
% Polyline
n 1658 11854 m 1645 11854 l 1645 11879 l 1670 11879 l 1670 11854 l
 1658 11854 l  cp gs col1 1.00 shd ef gr 
%  polyline 
% Polyline
n 1683 11887 m 1670 11887 l 1670 11912 l 1695 11912 l 1695 11887 l
 1683 11887 l  cp gs col1 1.00 shd ef gr 
%  polyline 
% Polyline
n 1704 11920 m 1691 11920 l 1691 11945 l 1716 11945 l 1716 11920 l
 1704 11920 l  cp gs col1 1.00 shd ef gr 
%  polyline 
% Polyline
n 1729 11954 m 1716 11954 l 1716 11979 l 1741 11979 l 1741 11954 l
 1729 11954 l  cp gs col1 1.00 shd ef gr 
%  polyline 
% Polyline
n 1754 11987 m 1741 11987 l 1741 12012 l 1766 12012 l 1766 11987 l
 1754 11987 l  cp gs col1 1.00 shd ef gr 
%  polyline 
% Polyline
n 1774 12020 m 1762 12020 l 1762 12045 l 1787 12045 l 1787 12020 l
 1774 12020 l  cp gs col1 1.00 shd ef gr 
%  polyline 
% Polyline
n 1799 12054 m 1787 12054 l 1787 12079 l 1812 12079 l 1812 12054 l
 1799 12054 l  cp gs col1 1.00 shd ef gr 
%  polyline 
% Polyline
n 1824 12091 m 1812 12091 l 1812 12116 l 1837 12116 l 1837 12091 l
 1824 12091 l  cp gs col1 1.00 shd ef gr 
%  polyline 
% Polyline
n 1845 12125 m 1833 12125 l 1833 12150 l 1858 12150 l 1858 12125 l
 1845 12125 l  cp gs col1 1.00 shd ef gr 
%  polyline 
% Polyline
n 1870 12158 m 1858 12158 l 1858 12183 l 1883 12183 l 1883 12158 l
 1870 12158 l  cp gs col1 1.00 shd ef gr 
%  polyline 
% Polyline
n 1895 12187 m 1883 12187 l 1883 12212 l 1908 12212 l 1908 12187 l
 1895 12187 l  cp gs col1 1.00 shd ef gr 
%  polyline 
% Polyline
n 1916 12212 m 1904 12212 l 1904 12237 l 1929 12237 l 1929 12212 l
 1916 12212 l  cp gs col1 1.00 shd ef gr 
%  polyline 
% Polyline
n 1941 12233 m 1929 12233 l 1929 12258 l 1954 12258 l 1954 12233 l
 1941 12233 l  cp gs col1 1.00 shd ef gr 
%  polyline 
% Polyline
n 1966 12254 m 1954 12254 l 1954 12279 l 1979 12279 l 1979 12254 l
 1966 12254 l  cp gs col1 1.00 shd ef gr 
% here ends figure;
% 
% here starts figure with depth 894
%  polyline 
% Polyline
0 slj
0 slc
0.000 slw
n 1987 12266 m 1974 12266 l 1974 12291 l 1999 12291 l 1999 12266 l
 1987 12266 l  cp gs col1 1.00 shd ef gr 
%  polyline 
% Polyline
n 2012 12275 m 1999 12275 l 1999 12300 l 2024 12300 l 2024 12275 l
 2012 12275 l  cp gs col1 1.00 shd ef gr 
%  polyline 
% Polyline
n 2037 12283 m 2024 12283 l 2024 12308 l 2049 12308 l 2049 12283 l
 2037 12283 l  cp gs col1 1.00 shd ef gr 
% here ends figure;
% 
% here starts figure with depth 890
%  polyline 
% Polyline
0 slj
0 slc
0.000 slw
n 2058 12291 m 2045 12291 l 2045 12316 l 2070 12316 l 2070 12291 l
 2058 12291 l  cp gs col1 1.00 shd ef gr 
%  polyline 
% Polyline
n 2083 12300 m 2070 12300 l 2070 12325 l 2095 12325 l 2095 12300 l
 2083 12300 l  cp gs col1 1.00 shd ef gr 
%  polyline 
% Polyline
n 2108 12308 m 2095 12308 l 2095 12333 l 2120 12333 l 2120 12308 l
 2108 12308 l  cp gs col1 1.00 shd ef gr 
%  polyline 
% Polyline
n 2133 12312 m 2120 12312 l 2120 12337 l 2145 12337 l 2145 12312 l
 2133 12312 l  cp gs col1 1.00 shd ef gr 
% here ends figure;
% 
% here starts figure with depth 885
%  polyline 
% Polyline
0 slj
0 slc
0.000 slw
n 2154 12320 m 2141 12320 l 2141 12345 l 2166 12345 l 2166 12320 l
 2154 12320 l  cp gs col1 1.00 shd ef gr 
%  polyline 
% Polyline
n 2179 12329 m 2166 12329 l 2166 12354 l 2191 12354 l 2191 12329 l
 2179 12329 l  cp gs col1 1.00 shd ef gr 
%  polyline 
% Polyline
n 2204 12333 m 2191 12333 l 2191 12358 l 2216 12358 l 2216 12333 l
 2204 12333 l  cp gs col1 1.00 shd ef gr 
% here ends figure;
% 
% here starts figure with depth 881
%  polyline 
% Polyline
0 slj
0 slc
0.000 slw
n 2224 12337 m 2212 12337 l 2212 12362 l 2237 12362 l 2237 12337 l
 2224 12337 l  cp gs col1 1.00 shd ef gr 
%  polyline 
% Polyline
n 2249 12345 m 2237 12345 l 2237 12370 l 2262 12370 l 2262 12345 l
 2249 12345 l  cp gs col1 1.00 shd ef gr 
%  polyline 
% Polyline
n 2274 12350 m 2262 12350 l 2262 12375 l 2287 12375 l 2287 12350 l
 2274 12350 l  cp gs col1 1.00 shd ef gr 
% here ends figure;
% 
% here starts figure with depth 877
%  polyline 
% Polyline
0 slj
0 slc
0.000 slw
n 2295 12354 m 2283 12354 l 2283 12379 l 2308 12379 l 2308 12354 l
 2295 12354 l  cp gs col1 1.00 shd ef gr 
%  polyline 
% Polyline
n 2320 12362 m 2308 12362 l 2308 12387 l 2333 12387 l 2333 12362 l
 2320 12362 l  cp gs col1 1.00 shd ef gr 
%  polyline 
% Polyline
n 2345 12362 m 2333 12362 l 2333 12387 l 2358 12387 l 2358 12362 l
 2345 12362 l  cp gs col1 1.00 shd ef gr 
% here ends figure;
% 
% here starts figure with depth 873
%  polyline 
% Polyline
0 slj
0 slc
0.000 slw
n 2366 12366 m 2354 12366 l 2354 12391 l 2379 12391 l 2379 12366 l
 2366 12366 l  cp gs col1 1.00 shd ef gr 
%  polyline 
% Polyline
n 2391 12366 m 2379 12366 l 2379 12391 l 2404 12391 l 2404 12366 l
 2391 12366 l  cp gs col1 1.00 shd ef gr 
%  polyline 
% Polyline
n 2416 12370 m 2404 12370 l 2404 12395 l 2429 12395 l 2429 12370 l
 2416 12370 l  cp gs col1 1.00 shd ef gr 
% here ends figure;
% 
% here starts figure with depth 869
%  polyline 
% Polyline
0 slj
0 slc
0.000 slw
n 2437 12370 m 2424 12370 l 2424 12395 l 2449 12395 l 2449 12370 l
 2437 12370 l  cp gs col1 1.00 shd ef gr 
%  polyline 
% Polyline
n 2462 12370 m 2449 12370 l 2449 12395 l 2474 12395 l 2474 12370 l
 2462 12370 l  cp gs col1 1.00 shd ef gr 
%  polyline 
% Polyline
n 2487 12370 m 2474 12370 l 2474 12395 l 2499 12395 l 2499 12370 l
 2487 12370 l  cp gs col1 1.00 shd ef gr 
% here ends figure;
% 
% here starts figure with depth 865
%  polyline 
% Polyline
0 slj
0 slc
0.000 slw
n 2508 12370 m 2495 12370 l 2495 12395 l 2520 12395 l 2520 12370 l
 2508 12370 l  cp gs col1 1.00 shd ef gr 
%  polyline 
% Polyline
n 2533 12375 m 2520 12375 l 2520 12400 l 2545 12400 l 2545 12375 l
 2533 12375 l  cp gs col1 1.00 shd ef gr 
%  polyline 
% Polyline
n 2558 12375 m 2545 12375 l 2545 12400 l 2570 12400 l 2570 12375 l
 2558 12375 l  cp gs col1 1.00 shd ef gr 
%  polyline 
% Polyline
n 2583 12375 m 2570 12375 l 2570 12400 l 2595 12400 l 2595 12375 l
 2583 12375 l  cp gs col1 1.00 shd ef gr 
% here ends figure;
% 
% here starts figure with depth 860
%  polyline 
% Polyline
0 slj
0 slc
0.000 slw
n 2604 12375 m 2591 12375 l 2591 12400 l 2616 12400 l 2616 12375 l
 2604 12375 l  cp gs col1 1.00 shd ef gr 
%  polyline 
% Polyline
n 2629 12379 m 2616 12379 l 2616 12404 l 2641 12404 l 2641 12379 l
 2629 12379 l  cp gs col1 1.00 shd ef gr 
%  polyline 
% Polyline
n 2654 12366 m 2641 12366 l 2641 12391 l 2666 12391 l 2666 12366 l
 2654 12366 l  cp gs col1 1.00 shd ef gr 
% here ends figure;
% 
% here starts figure with depth 856
%  polyline 
% Polyline
0 slj
0 slc
0.000 slw
n 2674 12358 m 2662 12358 l 2662 12383 l 2687 12383 l 2687 12358 l
 2674 12358 l  cp gs col1 1.00 shd ef gr 
%  polyline 
% Polyline
7.500 slw
n 2699 12341 m
 2699 12333 l gs col0 s gr 
%  polyline 
% Polyline
n 2699 12308 m
 2699 12300 l gs col0 s gr 
% here ends figure;
% 
% here starts figure with depth 852
%  polyline 
% Polyline
0 slj
0 slc
0.000 slw
n 2699 12308 m 2687 12308 l 2687 12333 l 2712 12333 l 2712 12308 l
 2699 12308 l  cp gs col1 1.00 shd ef gr 
%  polyline 
% Polyline
7.500 slw
n 2724 12345 m
 2724 12275 l gs col0 s gr 
%  polyline 
% Polyline
n 2724 12250 m
 2724 12179 l gs col0 s gr 
% here ends figure;
% 
% here starts figure with depth 848
%  polyline 
% Polyline
0 slj
0 slc
0.000 slw
n 2724 12250 m 2712 12250 l 2712 12275 l 2737 12275 l 2737 12250 l
 2724 12250 l  cp gs col1 1.00 shd ef gr 
%  polyline 
% Polyline
n 2745 12725 m 2733 12725 l 2733 12750 l 2758 12750 l 2758 12725 l
 2745 12725 l  cp gs col1 1.00 shd ef gr 
%  polyline 
% Polyline
7.500 slw
n 391 12850 m
 2758 12850 l gs col0 s gr 
% here ends figure;
% 
% here starts figure with depth 844
%  polyline 
% Polyline
0 slj
0 slc
7.500 slw
n 587 12775 m
 587 12850 l gs col0 s gr 
%  polyline 
% Polyline
n 687 12812 m
 687 12850 l gs col0 s gr 
%  polyline 
% Polyline
n 783 12812 m
 783 12850 l gs col0 s gr 
%  polyline 
% Polyline
n 883 12812 m
 883 12850 l gs col0 s gr 
%  polyline 
% Polyline
n 983 12775 m
 983 12850 l gs col0 s gr 
%  polyline 
% Polyline
n 1083 12812 m
 1083 12850 l gs col0 s gr 
%  polyline 
% Polyline
n 1179 12812 m
 1179 12850 l gs col0 s gr 
%  polyline 
% Polyline
n 1279 12812 m
 1279 12850 l gs col0 s gr 
%  polyline 
% Polyline
n 1379 12775 m
 1379 12850 l gs col0 s gr 
%  polyline 
% Polyline
n 1474 12812 m
 1474 12850 l gs col0 s gr 
%  polyline 
% Polyline
n 1574 12812 m
 1574 12850 l gs col0 s gr 
%  polyline 
% Polyline
n 1674 12812 m
 1674 12850 l gs col0 s gr 
%  polyline 
% Polyline
n 1770 12775 m
 1770 12850 l gs col0 s gr 
%  polyline 
% Polyline
n 1870 12812 m
 1870 12850 l gs col0 s gr 
%  polyline 
% Polyline
n 1970 12812 m
 1970 12850 l gs col0 s gr 
%  polyline 
% Polyline
n 2066 12812 m
 2066 12850 l gs col0 s gr 
%  polyline 
% Polyline
n 2166 12775 m
 2166 12850 l gs col0 s gr 
%  polyline 
% Polyline
n 2266 12812 m
 2266 12850 l gs col0 s gr 
%  polyline 
% Polyline
n 2362 12812 m
 2362 12850 l gs col0 s gr 
%  polyline 
% Polyline
n 2462 12812 m
 2462 12850 l gs col0 s gr 
%  polyline 
% Polyline
n 2562 12775 m
 2562 12850 l gs col0 s gr 
%  polyline 
% Polyline
n 587 12775 m
 587 12850 l gs col0 s gr 
%  polyline 
% Polyline
n 487 12812 m
 487 12850 l gs col0 s gr 
%  polyline 
% Polyline
n 391 12812 m
 391 12850 l gs col0 s gr 
%  polyline 
% Polyline
n 2562 12775 m
 2562 12850 l gs col0 s gr 
%  polyline 
% Polyline
n 2658 12812 m
 2658 12850 l gs col0 s gr 
% here ends figure;
% 
% here starts figure with depth 817
%  text 
/Helvetica-Bold-iso ff 116.67 scf sf
533 12962 m
gs 1 -1 sc (-6) col0 sh gr
%  text 
/Helvetica-Bold-iso ff 116.67 scf sf
924 12962 m
gs 1 -1 sc (-4) col0 sh gr
%  text 
/Helvetica-Bold-iso ff 116.67 scf sf
1329 12962 m
gs 1 -1 sc (-2) col0 sh gr
%  text 
/Helvetica-Bold-iso ff 116.67 scf sf
1733 12962 m
gs 1 -1 sc (0) col0 sh gr
%  text 
/Helvetica-Bold-iso ff 116.67 scf sf
2124 12962 m
gs 1 -1 sc (2) col0 sh gr
%  text 
/Helvetica-Bold-iso ff 116.67 scf sf
2516 12962 m
gs 1 -1 sc (4) col0 sh gr
%  polyline 
% Polyline
0 slj
0 slc
7.500 slw
n 391 12850 m
 391 10320 l gs col0 s gr 
% here ends figure;
% 
% here starts figure with depth 809
%  polyline 
% Polyline
0 slj
0 slc
7.500 slw
n 462 12591 m
 391 12591 l gs col0 s gr 
%  polyline 
% Polyline
n 424 12537 m
 391 12537 l gs col0 s gr 
%  polyline 
% Polyline
n 424 12483 m
 391 12483 l gs col0 s gr 
%  polyline 
% Polyline
n 424 12429 m
 391 12429 l gs col0 s gr 
%  polyline 
% Polyline
n 424 12375 m
 391 12375 l gs col0 s gr 
%  polyline 
% Polyline
n 462 12316 m
 391 12316 l gs col0 s gr 
%  polyline 
% Polyline
n 424 12262 m
 391 12262 l gs col0 s gr 
%  polyline 
% Polyline
n 424 12208 m
 391 12208 l gs col0 s gr 
%  polyline 
% Polyline
n 424 12154 m
 391 12154 l gs col0 s gr 
%  polyline 
% Polyline
n 424 12095 m
 391 12095 l gs col0 s gr 
%  polyline 
% Polyline
n 462 12041 m
 391 12041 l gs col0 s gr 
%  polyline 
% Polyline
n 424 11987 m
 391 11987 l gs col0 s gr 
%  polyline 
% Polyline
n 424 11933 m
 391 11933 l gs col0 s gr 
%  polyline 
% Polyline
n 424 11879 m
 391 11879 l gs col0 s gr 
%  polyline 
% Polyline
n 424 11820 m
 391 11820 l gs col0 s gr 
%  polyline 
% Polyline
n 462 11766 m
 391 11766 l gs col0 s gr 
%  polyline 
% Polyline
n 424 11712 m
 391 11712 l gs col0 s gr 
%  polyline 
% Polyline
n 424 11658 m
 391 11658 l gs col0 s gr 
%  polyline 
% Polyline
n 424 11600 m
 391 11600 l gs col0 s gr 
%  polyline 
% Polyline
n 424 11545 m
 391 11545 l gs col0 s gr 
%  polyline 
% Polyline
n 462 11491 m
 391 11491 l gs col0 s gr 
%  polyline 
% Polyline
n 424 11437 m
 391 11437 l gs col0 s gr 
%  polyline 
% Polyline
n 424 11383 m
 391 11383 l gs col0 s gr 
%  polyline 
% Polyline
n 424 11325 m
 391 11325 l gs col0 s gr 
%  polyline 
% Polyline
n 424 11270 m
 391 11270 l gs col0 s gr 
%  polyline 
% Polyline
n 462 11216 m
 391 11216 l gs col0 s gr 
%  polyline 
% Polyline
n 424 11162 m
 391 11162 l gs col0 s gr 
%  polyline 
% Polyline
n 424 11104 m
 391 11104 l gs col0 s gr 
%  polyline 
% Polyline
n 424 11050 m
 391 11050 l gs col0 s gr 
%  polyline 
% Polyline
n 424 10995 m
 391 10995 l gs col0 s gr 
%  polyline 
% Polyline
n 462 10941 m
 391 10941 l gs col0 s gr 
%  polyline 
% Polyline
n 424 10887 m
 391 10887 l gs col0 s gr 
%  polyline 
% Polyline
n 424 10829 m
 391 10829 l gs col0 s gr 
%  polyline 
% Polyline
n 424 10775 m
 391 10775 l gs col0 s gr 
%  polyline 
% Polyline
n 424 10720 m
 391 10720 l gs col0 s gr 
%  polyline 
% Polyline
n 462 10666 m
 391 10666 l gs col0 s gr 
%  polyline 
% Polyline
n 424 10608 m
 391 10608 l gs col0 s gr 
%  polyline 
% Polyline
n 424 10554 m
 391 10554 l gs col0 s gr 
%  polyline 
% Polyline
n 424 10500 m
 391 10500 l gs col0 s gr 
%  polyline 
% Polyline
n 424 10445 m
 391 10445 l gs col0 s gr 
%  polyline 
% Polyline
n 462 10391 m
 391 10391 l gs col0 s gr 
%  polyline 
% Polyline
n 462 12591 m
 391 12591 l gs col0 s gr 
%  polyline 
% Polyline
n 424 12650 m
 391 12650 l gs col0 s gr 
%  polyline 
% Polyline
n 424 12704 m
 391 12704 l gs col0 s gr 
%  polyline 
% Polyline
n 424 12758 m
 391 12758 l gs col0 s gr 
%  polyline 
% Polyline
n 424 12812 m
 391 12812 l gs col0 s gr 
%  polyline 
% Polyline
n 462 10391 m
 391 10391 l gs col0 s gr 
%  polyline 
% Polyline
n 424 10333 m
 391 10333 l gs col0 s gr 
% here ends figure;
% 
% here starts figure with depth 760
%  text 
/Helvetica-Bold-iso ff 116.67 scf sf
274 12629 m
gs 1 -1 sc (-8) col0 sh gr
%  text 
/Helvetica-Bold-iso ff 116.67 scf sf
274 12358 m
gs 1 -1 sc (-7) col0 sh gr
%  text 
/Helvetica-Bold-iso ff 116.67 scf sf
274 12083 m
gs 1 -1 sc (-6) col0 sh gr
%  text 
/Helvetica-Bold-iso ff 116.67 scf sf
274 11812 m
gs 1 -1 sc (-5) col0 sh gr
%  text 
/Helvetica-Bold-iso ff 116.67 scf sf
274 11537 m
gs 1 -1 sc (-4) col0 sh gr
%  text 
/Helvetica-Bold-iso ff 116.67 scf sf
274 11254 m
gs 1 -1 sc (-3) col0 sh gr
%  text 
/Helvetica-Bold-iso ff 116.67 scf sf
274 10979 m
gs 1 -1 sc (-2) col0 sh gr
%  text 
/Helvetica-Bold-iso ff 116.67 scf sf
283 10708 m
gs 1 -1 sc (-1) col0 sh gr
%  text 
/Helvetica-Bold-iso ff 116.67 scf sf
308 10433 m
gs 1 -1 sc (0) col0 sh gr
% here ends figure;
% 
% here starts figure with depth 743
%  polyline 
% Polyline
0 slj
0 slc
0.000 slw
n 3245 13166 m 3245 10004 l 6204 10004 l 6204 13166 l
 3245 13166 l  cp gs col32 1.00 shd ef gr 
% here ends figure;
% 
% here starts figure with depth 741
%  polyline 
% Polyline
0 slj
0 slc
0.000 slw
n 3245 13166 m 3279 13133 l 3279 10037 l 6170 10037 l 6204 10004 l 3245 10004 l

 3245 13166 l  cp gs col7 1.00 shd ef gr 
% here ends figure;
% 
% here starts figure with depth 739
%  polyline 
% Polyline
0 slj
0 slc
0.000 slw
n 3245 13166 m 3279 13133 l 6170 13133 l 6170 10037 l 6204 10004 l 6204 13166 l

 3245 13166 l  cp gs col33 1.00 shd ef gr 
% here ends figure;
% 
% here starts figure with depth 737
%  polyline 
% Polyline
0 slj
0 slc
0.000 slw
n 3541 12850 m 3541 10320 l 5908 10320 l 5908 12850 l
 3541 12850 l  cp gs col32 1.00 shd ef gr 
% here ends figure;
% 
% here starts figure with depth 735
%  polyline 
% Polyline
0 slj
0 slc
0.000 slw
n 3541 12850 m 3558 12833 l 3558 10337 l 5891 10337 l 5908 10320 l 3541 10320 l

 3541 12850 l  cp gs col7 1.00 shd ef gr 
% here ends figure;
% 
% here starts figure with depth 733
%  polyline 
% Polyline
0 slj
0 slc
0.000 slw
n 3541 12850 m 3558 12833 l 5891 12833 l 5891 10337 l 5908 10320 l 5908 12850 l

 3541 12850 l  cp gs col33 1.00 shd ef gr 
% here ends figure;
% 
% here starts figure with depth 731
%  polyline 
% Polyline
0 slj
0 slc
7.500 slw
n 3541 12850 m 3541 10320 l 5908 10320 l 5908 12850 l
 3541 12850 l  cp gs col0 s gr 
% here ends figure;
% 
% here starts figure with depth 729
%  polyline 
% Polyline
0 slj
0 slc
0.000 slw
n 3541 12850 m 3541 10320 l 5908 10320 l 5908 12850 l
 3541 12850 l  cp gs col32 1.00 shd ef gr 
% here ends figure;
% 
% here starts figure with depth 727
%  polyline 
% Polyline
0 slj
0 slc
0.000 slw
n 3541 12850 m 3558 12833 l 3558 10337 l 5891 10337 l 5908 10320 l 3541 10320 l

 3541 12850 l  cp gs col7 1.00 shd ef gr 
% here ends figure;
% 
% here starts figure with depth 725
%  polyline 
% Polyline
0 slj
0 slc
0.000 slw
n 3541 12850 m 3558 12833 l 5891 12833 l 5891 10337 l 5908 10320 l 5908 12850 l

 3541 12850 l  cp gs col33 1.00 shd ef gr 
% here ends figure;
% 
% here starts figure with depth 723
%  polyline 
% Polyline
0 slj
0 slc
7.500 slw
n 3541 12850 m 3541 10320 l 5908 10320 l 5908 12850 l
 3541 12850 l  cp gs col0 s gr 
% here ends figure;
% 
% here starts figure with depth 721
%  polyline 
% Polyline
0 slj
0 slc
0.000 slw
n 3541 12850 m 3558 12850 l 3558 10450 l 3574 10450 l 3574 10345 l 3591 10345 l
 3591 10370 l 3608 10370 l 3608 10412 l 3624 10412 l 3624 10450 l
 3641 10450 l 3641 10483 l 3658 10483 l 3658 10508 l 3674 10508 l
 3674 10537 l 3691 10537 l 3691 10562 l 3708 10562 l 3708 10583 l
 3724 10583 l 3724 10608 l 3741 10608 l 3741 10629 l 3758 10629 l
 3758 10645 l 3774 10645 l 3774 10662 l 3795 10662 l 3795 10683 l
 3812 10683 l 3812 10700 l 3829 10700 l 3829 10716 l 3845 10716 l
 3845 10729 l 3862 10729 l 3862 10745 l 3879 10745 l 3879 10758 l
 3895 10758 l 3895 10775 l 3912 10775 l 3912 10787 l 3929 10787 l
 3929 10800 l 3945 10800 l 3945 10816 l 3962 10816 l 3962 10829 l
 3979 10829 l 3979 10841 l 3995 10841 l 3995 10854 l 4012 10854 l
 4012 10866 l 4029 10866 l 4029 10879 l 4045 10879 l 4045 10891 l
 4066 10891 l 4066 10900 l 4083 10900 l 4083 10912 l 4099 10912 l
 4099 10925 l 4116 10925 l 4116 10937 l 4133 10937 l 4133 10950 l
 4149 10950 l 4149 10958 l 4166 10958 l 4166 10970 l 4183 10970 l
 4183 10979 l 4199 10979 l 4199 10991 l 4216 10991 l 4216 11004 l
 4233 11004 l 4233 11012 l 4249 11012 l 4249 11025 l 4266 11025 l
 4266 11033 l 4283 11033 l 4283 11045 l 4299 11045 l 4299 11054 l
 4316 11054 l 4316 11066 l 4333 11066 l 4333 11075 l 4354 11075 l
 4354 11087 l 4370 11087 l 4370 11095 l 4387 11095 l 4387 11108 l
 4404 11108 l 4404 11116 l 4420 11116 l 4420 11129 l 4437 11129 l
 4437 11137 l 4454 11137 l 4454 11150 l 4470 11150 l 4470 11158 l
 4487 11158 l 4487 11166 l 4504 11166 l 4504 11179 l 4520 11179 l
 4520 11187 l 4537 11187 l 4537 11200 l 4554 11200 l 4554 11208 l
 4570 11208 l 4570 11220 l 4587 11220 l 4587 11229 l 4604 11229 l
 4604 11241 l 4620 11241 l 4620 11250 l 4641 11250 l 4641 11262 l
 4658 11262 l 4658 11270 l 4674 11270 l 4674 11283 l 4691 11283 l
 4691 11291 l 4708 11291 l 4708 11304 l 4724 11304 l 4724 11312 l
 4741 11312 l 4741 11325 l 4758 11325 l 4758 11333 l 4774 11333 l
 4774 11345 l 4791 11345 l 4791 11354 l 4808 11354 l 4808 11366 l
 4824 11366 l 4824 11375 l 4841 11375 l 4841 11387 l 4858 11387 l
 4858 11400 l 4874 11400 l 4874 11408 l 4891 11408 l 4891 11420 l
 4912 11420 l 4912 11433 l 4929 11433 l 4929 11445 l 4945 11445 l
 4945 11454 l 4962 11454 l 4962 11466 l 4979 11466 l 4979 11479 l
 4995 11479 l 4995 11491 l 5012 11491 l 5012 11504 l 5029 11504 l
 5029 11516 l 5045 11516 l 5045 11529 l 5062 11529 l 5062 11541 l
 5079 11541 l 5079 11554 l 5095 11554 l 5095 11566 l 5112 11566 l
 5112 11579 l 5129 11579 l 5129 11591 l 5145 11591 l 5145 11604 l
 5162 11604 l 5162 11620 l 5179 11620 l 5179 11633 l 5199 11633 l
 5199 11645 l 5216 11645 l 5216 11662 l 5233 11662 l 5233 11675 l
 5249 11675 l 5249 11691 l 5266 11691 l 5266 11704 l 5283 11704 l
 5283 11720 l 5299 11720 l 5299 11737 l 5316 11737 l 5316 11754 l
 5333 11754 l 5333 11766 l 5349 11766 l 5349 11783 l 5366 11783 l
 5366 11804 l 5383 11804 l 5383 11820 l 5399 11820 l 5399 11837 l
 5416 11837 l 5416 11854 l 5433 11854 l 5433 11875 l 5449 11875 l
 5449 11895 l 5470 11895 l 5470 11916 l 5487 11916 l 5487 11937 l
 5504 11937 l 5504 11958 l 5520 11958 l 5520 11979 l 5537 11979 l
 5537 12004 l 5554 12004 l 5554 12025 l 5570 12025 l 5570 12054 l
 5587 12054 l 5587 12079 l 5604 12079 l 5604 12108 l 5620 12108 l
 5620 12133 l 5637 12133 l 5637 12166 l 5654 12166 l 5654 12195 l
 5670 12195 l 5670 12229 l 5687 12229 l 5687 12266 l 5704 12266 l
 5704 12304 l 5720 12304 l 5720 12341 l 5737 12341 l 5737 12383 l
 5758 12383 l 5758 12425 l 5774 12425 l 5774 12466 l 5791 12466 l
 5791 12508 l 5808 12508 l 5808 12554 l 5824 12554 l 5824 12608 l
 5841 12608 l 5841 12666 l 5858 12666 l 5858 12712 l 5874 12712 l
 5874 12737 l 5891 12737 l 5891 12825 l 5908 12825 l
 5908 12850 l gs col2 1.00 shd ef gr 
% here ends figure;
% 
% here starts figure with depth 719
%  polyline 
% Polyline
0 slj
0 slc
7.500 slw
n 3541 12850 m 3558 12850 l 3558 10450 l 3574 10450 l 3574 10345 l 3591 10345 l
 3591 10370 l 3608 10370 l 3608 10412 l 3624 10412 l 3624 10450 l
 3641 10450 l 3641 10483 l 3658 10483 l 3658 10508 l 3674 10508 l
 3674 10537 l 3691 10537 l 3691 10562 l 3708 10562 l 3708 10583 l
 3724 10583 l 3724 10608 l 3741 10608 l 3741 10629 l 3758 10629 l
 3758 10645 l 3774 10645 l 3774 10662 l 3795 10662 l 3795 10683 l
 3812 10683 l 3812 10700 l 3829 10700 l 3829 10716 l 3845 10716 l
 3845 10729 l 3862 10729 l 3862 10745 l 3879 10745 l 3879 10758 l
 3895 10758 l 3895 10775 l 3912 10775 l 3912 10787 l 3929 10787 l
 3929 10800 l 3945 10800 l 3945 10816 l 3962 10816 l 3962 10829 l
 3979 10829 l 3979 10841 l 3995 10841 l 3995 10854 l 4012 10854 l
 4012 10866 l 4029 10866 l 4029 10879 l 4045 10879 l 4045 10891 l
 4066 10891 l 4066 10900 l 4083 10900 l 4083 10912 l 4099 10912 l
 4099 10925 l 4116 10925 l 4116 10937 l 4133 10937 l 4133 10950 l
 4149 10950 l 4149 10958 l 4166 10958 l 4166 10970 l 4183 10970 l
 4183 10979 l 4199 10979 l 4199 10991 l 4216 10991 l 4216 11004 l
 4233 11004 l 4233 11012 l 4249 11012 l 4249 11025 l 4266 11025 l
 4266 11033 l 4283 11033 l 4283 11045 l 4299 11045 l 4299 11054 l
 4316 11054 l 4316 11066 l 4333 11066 l 4333 11075 l 4354 11075 l
 4354 11087 l 4370 11087 l 4370 11095 l 4387 11095 l 4387 11108 l
 4404 11108 l 4404 11116 l 4420 11116 l 4420 11129 l 4437 11129 l
 4437 11137 l 4454 11137 l 4454 11150 l 4470 11150 l 4470 11158 l
 4487 11158 l 4487 11166 l 4504 11166 l 4504 11179 l 4520 11179 l
 4520 11187 l 4537 11187 l 4537 11200 l 4554 11200 l 4554 11208 l
 4570 11208 l 4570 11220 l 4587 11220 l 4587 11229 l 4604 11229 l
 4604 11241 l 4620 11241 l 4620 11250 l 4641 11250 l 4641 11262 l
 4658 11262 l 4658 11270 l 4674 11270 l 4674 11283 l 4691 11283 l
 4691 11291 l 4708 11291 l 4708 11304 l 4724 11304 l 4724 11312 l
 4741 11312 l 4741 11325 l 4758 11325 l 4758 11333 l 4774 11333 l
 4774 11345 l 4791 11345 l 4791 11354 l 4808 11354 l 4808 11366 l
 4824 11366 l 4824 11375 l 4841 11375 l 4841 11387 l 4858 11387 l
 4858 11400 l 4874 11400 l 4874 11408 l 4891 11408 l 4891 11420 l
 4912 11420 l 4912 11433 l 4929 11433 l 4929 11445 l 4945 11445 l
 4945 11454 l 4962 11454 l 4962 11466 l 4979 11466 l 4979 11479 l
 4995 11479 l 4995 11491 l 5012 11491 l 5012 11504 l 5029 11504 l
 5029 11516 l 5045 11516 l 5045 11529 l 5062 11529 l 5062 11541 l
 5079 11541 l 5079 11554 l 5095 11554 l 5095 11566 l 5112 11566 l
 5112 11579 l 5129 11579 l 5129 11591 l 5145 11591 l 5145 11604 l
 5162 11604 l 5162 11620 l 5179 11620 l 5179 11633 l 5199 11633 l
 5199 11645 l 5216 11645 l 5216 11662 l 5233 11662 l 5233 11675 l
 5249 11675 l 5249 11691 l 5266 11691 l 5266 11704 l 5283 11704 l
 5283 11720 l 5299 11720 l 5299 11737 l 5316 11737 l 5316 11754 l
 5333 11754 l 5333 11766 l 5349 11766 l 5349 11783 l 5366 11783 l
 5366 11804 l 5383 11804 l 5383 11820 l 5399 11820 l 5399 11837 l
 5416 11837 l 5416 11854 l 5433 11854 l 5433 11875 l 5449 11875 l
 5449 11895 l 5470 11895 l 5470 11916 l 5487 11916 l 5487 11937 l
 5504 11937 l 5504 11958 l 5520 11958 l 5520 11979 l 5537 11979 l
 5537 12004 l 5554 12004 l 5554 12025 l 5570 12025 l 5570 12054 l
 5587 12054 l 5587 12079 l 5604 12079 l 5604 12108 l 5620 12108 l
 5620 12133 l 5637 12133 l 5637 12166 l 5654 12166 l 5654 12195 l
 5670 12195 l 5670 12229 l 5687 12229 l 5687 12266 l 5704 12266 l
 5704 12304 l 5720 12304 l 5720 12341 l 5737 12341 l 5737 12383 l
 5758 12383 l 5758 12425 l 5774 12425 l 5774 12466 l 5791 12466 l
 5791 12508 l 5808 12508 l 5808 12554 l 5824 12554 l 5824 12608 l
 5841 12608 l 5841 12666 l 5858 12666 l 5858 12712 l 5874 12712 l
 5874 12737 l 5891 12737 l 5891 12825 l
 5908 12825 l gs col0 s gr 
%  polyline 
% Polyline
n 3541 12850 m
 5908 12850 l gs col0 s gr 
%  polyline 
% Polyline
n 3541 12775 m
 3541 12850 l gs col0 s gr 
% here ends figure;
% 
% here starts figure with depth 715
%  polyline 
% Polyline
0 slj
0 slc
7.500 slw
n 3624 12812 m
 3624 12850 l gs col0 s gr 
%  polyline 
% Polyline
n 3708 12812 m
 3708 12850 l gs col0 s gr 
%  polyline 
% Polyline
n 3795 12812 m
 3795 12850 l gs col0 s gr 
%  polyline 
% Polyline
n 3879 12775 m
 3879 12850 l gs col0 s gr 
%  polyline 
% Polyline
n 3962 12812 m
 3962 12850 l gs col0 s gr 
%  polyline 
% Polyline
n 4045 12812 m
 4045 12850 l gs col0 s gr 
%  polyline 
% Polyline
n 4133 12812 m
 4133 12850 l gs col0 s gr 
%  polyline 
% Polyline
n 4216 12775 m
 4216 12850 l gs col0 s gr 
%  polyline 
% Polyline
n 4299 12812 m
 4299 12850 l gs col0 s gr 
%  polyline 
% Polyline
n 4387 12812 m
 4387 12850 l gs col0 s gr 
%  polyline 
% Polyline
n 4470 12812 m
 4470 12850 l gs col0 s gr 
%  polyline 
% Polyline
n 4554 12775 m
 4554 12850 l gs col0 s gr 
%  polyline 
% Polyline
n 4641 12812 m
 4641 12850 l gs col0 s gr 
%  polyline 
% Polyline
n 4724 12812 m
 4724 12850 l gs col0 s gr 
%  polyline 
% Polyline
n 4808 12812 m
 4808 12850 l gs col0 s gr 
%  polyline 
% Polyline
n 4891 12775 m
 4891 12850 l gs col0 s gr 
%  polyline 
% Polyline
n 4979 12812 m
 4979 12850 l gs col0 s gr 
%  polyline 
% Polyline
n 5062 12812 m
 5062 12850 l gs col0 s gr 
%  polyline 
% Polyline
n 5145 12812 m
 5145 12850 l gs col0 s gr 
%  polyline 
% Polyline
n 5233 12775 m
 5233 12850 l gs col0 s gr 
%  polyline 
% Polyline
n 5316 12812 m
 5316 12850 l gs col0 s gr 
%  polyline 
% Polyline
n 5399 12812 m
 5399 12850 l gs col0 s gr 
%  polyline 
% Polyline
n 5487 12812 m
 5487 12850 l gs col0 s gr 
%  polyline 
% Polyline
n 5570 12775 m
 5570 12850 l gs col0 s gr 
%  polyline 
% Polyline
n 5654 12812 m
 5654 12850 l gs col0 s gr 
%  polyline 
% Polyline
n 5737 12812 m
 5737 12850 l gs col0 s gr 
%  polyline 
% Polyline
n 5824 12812 m
 5824 12850 l gs col0 s gr 
%  polyline 
% Polyline
n 5908 12775 m
 5908 12850 l gs col0 s gr 
% here ends figure;
% 
% here starts figure with depth 686
%  text 
/Helvetica-Bold-iso ff 116.67 scf sf
3499 12962 m
gs 1 -1 sc (0) col0 sh gr
%  text 
/Helvetica-Bold-iso ff 116.67 scf sf
3749 12962 m
gs 1 -1 sc (2000) col0 sh gr
% here ends figure;
% 
% here starts figure with depth 683
%  text 
/Helvetica-Bold-iso ff 116.67 scf sf
4095 12962 m
gs 1 -1 sc (4000) col0 sh gr
% here ends figure;
% 
% here starts figure with depth 681
%  text 
/Helvetica-Bold-iso ff 116.67 scf sf
4429 12962 m
gs 1 -1 sc (6000) col0 sh gr
% here ends figure;
% 
% here starts figure with depth 679
%  text 
/Helvetica-Bold-iso ff 116.67 scf sf
4770 12962 m
gs 1 -1 sc (8000) col0 sh gr
% here ends figure;
% 
% here starts figure with depth 677
%  text 
/Helvetica-Bold-iso ff 116.67 scf sf
5066 12962 m
gs 1 -1 sc (10000) col0 sh gr
% here ends figure;
% 
% here starts figure with depth 675
%  text 
/Helvetica-Bold-iso ff 116.67 scf sf
5412 12962 m
gs 1 -1 sc (12000) col0 sh gr
% here ends figure;
% 
% here starts figure with depth 673
%  text 
/Helvetica-Bold-iso ff 116.67 scf sf
5745 12962 m
gs 1 -1 sc (14000) col0 sh gr
%  polyline 
% Polyline
0 slj
0 slc
7.500 slw
n 3541 12850 m
 3541 10320 l gs col0 s gr 
% here ends figure;
% 
% here starts figure with depth 670
%  polyline 
% Polyline
0 slj
0 slc
7.500 slw
n 3574 12841 m
 3541 12841 l gs col0 s gr 
%  polyline 
% Polyline
n 3612 12812 m
 3541 12812 l gs col0 s gr 
%  polyline 
% Polyline
n 3574 12754 m
 3541 12754 l gs col0 s gr 
%  polyline 
% Polyline
n 3612 12729 m
 3541 12729 l gs col0 s gr 
%  text 
/Helvetica-Bold-iso ff 83.33 scf sf
3408 12712 m
gs 1 -1 sc (-28) col0 sh gr
% here ends figure;
% 
% here starts figure with depth 664
%  text 
/Helvetica-Bold-iso ff 116.67 scf sf
3287 12783 m
gs 1 -1 sc (10) col0 sh gr
% here ends figure;
% 
% here starts figure with depth 662
%  polyline 
% Polyline
0 slj
0 slc
7.500 slw
n 3574 12666 m
 3541 12666 l gs col0 s gr 
%  polyline 
% Polyline
n 3612 12641 m
 3541 12641 l gs col0 s gr 
%  polyline 
% Polyline
n 3574 12579 m
 3541 12579 l gs col0 s gr 
%  polyline 
% Polyline
n 3612 12554 m
 3541 12554 l gs col0 s gr 
%  polyline 
% Polyline
n 3574 12491 m
 3541 12491 l gs col0 s gr 
%  polyline 
% Polyline
n 3612 12466 m
 3541 12466 l gs col0 s gr 
%  text 
/Helvetica-Bold-iso ff 83.33 scf sf
3408 12454 m
gs 1 -1 sc (-25) col0 sh gr
% here ends figure;
% 
% here starts figure with depth 654
%  text 
/Helvetica-Bold-iso ff 116.67 scf sf
3287 12525 m
gs 1 -1 sc (10) col0 sh gr
% here ends figure;
% 
% here starts figure with depth 652
%  polyline 
% Polyline
0 slj
0 slc
7.500 slw
n 3574 12404 m
 3541 12404 l gs col0 s gr 
%  polyline 
% Polyline
n 3612 12379 m
 3541 12379 l gs col0 s gr 
%  polyline 
% Polyline
n 3574 12316 m
 3541 12316 l gs col0 s gr 
%  polyline 
% Polyline
n 3612 12291 m
 3541 12291 l gs col0 s gr 
%  polyline 
% Polyline
n 3574 12229 m
 3541 12229 l gs col0 s gr 
%  polyline 
% Polyline
n 3612 12204 m
 3541 12204 l gs col0 s gr 
%  text 
/Helvetica-Bold-iso ff 83.33 scf sf
3408 12204 m
gs 1 -1 sc (-22) col0 sh gr
% here ends figure;
% 
% here starts figure with depth 644
%  text 
/Helvetica-Bold-iso ff 116.67 scf sf
3287 12262 m
gs 1 -1 sc (10) col0 sh gr
% here ends figure;
% 
% here starts figure with depth 642
%  polyline 
% Polyline
0 slj
0 slc
7.500 slw
n 3574 12141 m
 3541 12141 l gs col0 s gr 
%  polyline 
% Polyline
n 3612 12116 m
 3541 12116 l gs col0 s gr 
%  polyline 
% Polyline
n 3574 12054 m
 3541 12054 l gs col0 s gr 
%  polyline 
% Polyline
n 3612 12029 m
 3541 12029 l gs col0 s gr 
%  polyline 
% Polyline
n 3574 11966 m
 3541 11966 l gs col0 s gr 
%  polyline 
% Polyline
n 3612 11941 m
 3541 11941 l gs col0 s gr 
%  text 
/Helvetica-Bold-iso ff 83.33 scf sf
3408 11916 m
gs 1 -1 sc (-19) col0 sh gr
% here ends figure;
% 
% here starts figure with depth 634
%  text 
/Helvetica-Bold-iso ff 116.67 scf sf
3287 11987 m
gs 1 -1 sc (10) col0 sh gr
% here ends figure;
% 
% here starts figure with depth 632
%  polyline 
% Polyline
0 slj
0 slc
7.500 slw
n 3574 11879 m
 3541 11879 l gs col0 s gr 
%  polyline 
% Polyline
n 3612 11854 m
 3541 11854 l gs col0 s gr 
%  polyline 
% Polyline
n 3574 11791 m
 3541 11791 l gs col0 s gr 
%  polyline 
% Polyline
n 3612 11766 m
 3541 11766 l gs col0 s gr 
%  polyline 
% Polyline
n 3574 11704 m
 3541 11704 l gs col0 s gr 
%  polyline 
% Polyline
n 3612 11679 m
 3541 11679 l gs col0 s gr 
%  text 
/Helvetica-Bold-iso ff 83.33 scf sf
3408 11658 m
gs 1 -1 sc (-16) col0 sh gr
% here ends figure;
% 
% here starts figure with depth 624
%  text 
/Helvetica-Bold-iso ff 116.67 scf sf
3287 11729 m
gs 1 -1 sc (10) col0 sh gr
% here ends figure;
% 
% here starts figure with depth 622
%  polyline 
% Polyline
0 slj
0 slc
7.500 slw
n 3574 11616 m
 3541 11616 l gs col0 s gr 
%  polyline 
% Polyline
n 3612 11591 m
 3541 11591 l gs col0 s gr 
%  polyline 
% Polyline
n 3574 11529 m
 3541 11529 l gs col0 s gr 
%  polyline 
% Polyline
n 3612 11504 m
 3541 11504 l gs col0 s gr 
%  polyline 
% Polyline
n 3574 11441 m
 3541 11441 l gs col0 s gr 
%  polyline 
% Polyline
n 3612 11416 m
 3541 11416 l gs col0 s gr 
%  text 
/Helvetica-Bold-iso ff 83.33 scf sf
3408 11395 m
gs 1 -1 sc (-13) col0 sh gr
% here ends figure;
% 
% here starts figure with depth 614
%  text 
/Helvetica-Bold-iso ff 116.67 scf sf
3287 11466 m
gs 1 -1 sc (10) col0 sh gr
% here ends figure;
% 
% here starts figure with depth 612
%  polyline 
% Polyline
0 slj
0 slc
7.500 slw
n 3574 11358 m
 3541 11358 l gs col0 s gr 
%  polyline 
% Polyline
n 3612 11329 m
 3541 11329 l gs col0 s gr 
%  polyline 
% Polyline
n 3574 11270 m
 3541 11270 l gs col0 s gr 
%  polyline 
% Polyline
n 3612 11241 m
 3541 11241 l gs col0 s gr 
%  polyline 
% Polyline
n 3574 11183 m
 3541 11183 l gs col0 s gr 
%  polyline 
% Polyline
n 3612 11154 m
 3541 11154 l gs col0 s gr 
%  text 
/Helvetica-Bold-iso ff 83.33 scf sf
3408 11133 m
gs 1 -1 sc (-10) col0 sh gr
% here ends figure;
% 
% here starts figure with depth 604
%  text 
/Helvetica-Bold-iso ff 116.67 scf sf
3287 11204 m
gs 1 -1 sc (10) col0 sh gr
% here ends figure;
% 
% here starts figure with depth 602
%  polyline 
% Polyline
0 slj
0 slc
7.500 slw
n 3574 11095 m
 3541 11095 l gs col0 s gr 
%  polyline 
% Polyline
n 3612 11066 m
 3541 11066 l gs col0 s gr 
%  polyline 
% Polyline
n 3574 11008 m
 3541 11008 l gs col0 s gr 
%  polyline 
% Polyline
n 3612 10979 m
 3541 10979 l gs col0 s gr 
%  polyline 
% Polyline
n 3574 10920 m
 3541 10920 l gs col0 s gr 
%  polyline 
% Polyline
n 3612 10891 m
 3541 10891 l gs col0 s gr 
%  text 
/Helvetica-Bold-iso ff 83.33 scf sf
3441 10883 m
gs 1 -1 sc (-7) col0 sh gr
% here ends figure;
% 
% here starts figure with depth 594
%  text 
/Helvetica-Bold-iso ff 116.67 scf sf
3324 10945 m
gs 1 -1 sc (10) col0 sh gr
% here ends figure;
% 
% here starts figure with depth 592
%  polyline 
% Polyline
0 slj
0 slc
7.500 slw
n 3574 10833 m
 3541 10833 l gs col0 s gr 
%  polyline 
% Polyline
n 3612 10804 m
 3541 10804 l gs col0 s gr 
%  polyline 
% Polyline
n 3574 10745 m
 3541 10745 l gs col0 s gr 
%  polyline 
% Polyline
n 3612 10720 m
 3541 10720 l gs col0 s gr 
%  polyline 
% Polyline
n 3574 10658 m
 3541 10658 l gs col0 s gr 
%  polyline 
% Polyline
n 3612 10633 m
 3541 10633 l gs col0 s gr 
%  text 
/Helvetica-Bold-iso ff 83.33 scf sf
3441 10625 m
gs 1 -1 sc (-4) col0 sh gr
% here ends figure;
% 
% here starts figure with depth 584
%  text 
/Helvetica-Bold-iso ff 116.67 scf sf
3324 10683 m
gs 1 -1 sc (10) col0 sh gr
% here ends figure;
% 
% here starts figure with depth 582
%  polyline 
% Polyline
0 slj
0 slc
7.500 slw
n 3574 10570 m
 3541 10570 l gs col0 s gr 
%  polyline 
% Polyline
n 3612 10545 m
 3541 10545 l gs col0 s gr 
%  polyline 
% Polyline
n 3574 10483 m
 3541 10483 l gs col0 s gr 
%  polyline 
% Polyline
n 3612 10458 m
 3541 10458 l gs col0 s gr 
%  polyline 
% Polyline
n 3574 10395 m
 3541 10395 l gs col0 s gr 
%  polyline 
% Polyline
n 3612 10370 m
 3541 10370 l gs col0 s gr 
%  text 
/Helvetica-Bold-iso ff 83.33 scf sf
3454 10362 m
gs 1 -1 sc (-1) col0 sh gr
% here ends figure;
% 
% here starts figure with depth 574
%  text 
/Helvetica-Bold-iso ff 116.67 scf sf
3337 10420 m
gs 1 -1 sc (10) col0 sh gr
% here ends figure;
% 
% here starts figure with depth 565
%  polyline 
% Polyline
0 slj
0 slc
0.000 slw
n 6391 13166 m 6391 10004 l 9354 10004 l 9354 13166 l
 6391 13166 l  cp gs col32 1.00 shd ef gr 
% here ends figure;
% 
% here starts figure with depth 563
%  polyline 
% Polyline
0 slj
0 slc
0.000 slw
n 6391 13166 m 6424 13133 l 6424 10037 l 9320 10037 l 9354 10004 l 6391 10004 l

 6391 13166 l  cp gs col7 1.00 shd ef gr 
% here ends figure;
% 
% here starts figure with depth 561
%  polyline 
% Polyline
0 slj
0 slc
0.000 slw
n 6391 13166 m 6424 13133 l 9320 13133 l 9320 10037 l 9354 10004 l 9354 13166 l

 6391 13166 l  cp gs col33 1.00 shd ef gr 
% here ends figure;
% 
% here starts figure with depth 559
%  polyline 
% Polyline
0 slj
0 slc
0.000 slw
n 6691 12850 m 6691 10320 l 9058 10320 l 9058 12850 l
 6691 12850 l  cp gs col32 1.00 shd ef gr 
% here ends figure;
% 
% here starts figure with depth 557
%  polyline 
% Polyline
0 slj
0 slc
0.000 slw
n 6691 12850 m 6708 12833 l 6708 10337 l 9041 10337 l 9058 10320 l 6691 10320 l

 6691 12850 l  cp gs col7 1.00 shd ef gr 
% here ends figure;
% 
% here starts figure with depth 555
%  polyline 
% Polyline
0 slj
0 slc
0.000 slw
n 6691 12850 m 6708 12833 l 9041 12833 l 9041 10337 l 9058 10320 l 9058 12850 l

 6691 12850 l  cp gs col33 1.00 shd ef gr 
% here ends figure;
% 
% here starts figure with depth 553
%  polyline 
% Polyline
0 slj
0 slc
7.500 slw
n 6691 12850 m 6691 10320 l 9058 10320 l 9058 12850 l
 6691 12850 l  cp gs col0 s gr 
% here ends figure;
% 
% here starts figure with depth 551
%  polyline 
% Polyline
0 slj
0 slc
0.000 slw
n 6691 12850 m 6691 10320 l 9058 10320 l 9058 12850 l
 6691 12850 l  cp gs col32 1.00 shd ef gr 
% here ends figure;
% 
% here starts figure with depth 549
%  polyline 
% Polyline
0 slj
0 slc
0.000 slw
n 6691 12850 m 6708 12833 l 6708 10337 l 9041 10337 l 9058 10320 l 6691 10320 l

 6691 12850 l  cp gs col7 1.00 shd ef gr 
% here ends figure;
% 
% here starts figure with depth 547
%  polyline 
% Polyline
0 slj
0 slc
0.000 slw
n 6691 12850 m 6708 12833 l 9041 12833 l 9041 10337 l 9058 10320 l 9058 12850 l

 6691 12850 l  cp gs col33 1.00 shd ef gr 
% here ends figure;
% 
% here starts figure with depth 545
%  polyline 
% Polyline
0 slj
0 slc
7.500 slw
n 6691 12850 m 6691 10320 l 9058 10320 l 9058 12850 l
 6691 12850 l  cp gs col0 s gr 
% here ends figure;
% 
% here starts figure with depth 543
%  polyline 
% Polyline
0 slj
0 slc
0.000 slw
n 6691 12850 m 6958 12850 l 6958 10920 l 6974 10920 l 6974 10725 l 6991 10725 l
 6991 10808 l 7004 10808 l 7004 10891 l 7020 10891 l 7020 10966 l
 7037 10966 l 7037 11033 l 7054 11033 l 7054 11095 l 7066 11095 l
 7066 11150 l 7083 11150 l 7083 11200 l 7099 11200 l 7099 11241 l
 7116 11241 l 7116 11283 l 7133 11283 l 7133 11320 l 7145 11320 l
 7145 11354 l 7162 11354 l 7162 11383 l 7179 11383 l 7179 11408 l
 7195 11408 l 7195 11429 l 7212 11429 l 7212 11450 l 7224 11450 l
 7224 11466 l 7241 11466 l 7241 11487 l 7258 11487 l 7258 11500 l
 7274 11500 l 7274 11512 l 7291 11512 l 7291 11525 l 7304 11525 l
 7304 11533 l 7320 11533 l 7320 11541 l 7337 11541 l 7337 11545 l
 7354 11545 l 7354 11550 l 7366 11550 l 7366 11554 l 7383 11554 l
 7383 11558 l 7416 11558 l 7416 11554 l 7462 11554 l 7462 11545 l
 7479 11545 l 7479 11541 l 7495 11541 l 7495 11537 l 7512 11537 l
 7512 11529 l 7524 11529 l 7524 11520 l 7541 11520 l 7541 11512 l
 7558 11512 l 7558 11500 l 7574 11500 l 7574 11491 l 7591 11491 l
 7591 11475 l 7604 11475 l 7604 11462 l 7620 11462 l 7620 11445 l
 7637 11445 l 7637 11429 l 7654 11429 l 7654 11412 l 7666 11412 l
 7666 11387 l 7683 11387 l 7683 11366 l 7699 11366 l 7699 11345 l
 7716 11345 l 7716 11320 l 7733 11320 l 7733 11295 l 7745 11295 l
 7745 11266 l 7762 11266 l 7762 11237 l 7779 11237 l 7779 11204 l
 7795 11204 l 7795 11166 l 7812 11166 l 7812 11129 l 7824 11129 l
 7824 11091 l 7841 11091 l 7841 11045 l 7858 11045 l 7858 11004 l
 7874 11004 l 7874 10958 l 7891 10958 l 7891 10908 l 7904 10908 l
 7904 10866 l 7920 10866 l 7920 10820 l 7937 10820 l 7937 10775 l
 7954 10775 l 7954 10725 l 7970 10725 l 7970 10679 l 7983 10679 l
 7983 10629 l 7999 10629 l 7999 10579 l 8016 10579 l 8016 10537 l
 8033 10537 l 8033 10500 l 8045 10500 l 8045 10470 l 8062 10470 l
 8062 10445 l 8079 10445 l 8079 10441 l 8095 10441 l 8095 10445 l
 8112 10445 l 8112 10470 l 8124 10470 l 8124 10500 l 8141 10500 l
 8141 10541 l 8158 10541 l 8158 10591 l 8174 10591 l 8174 10645 l
 8191 10645 l 8191 10712 l 8204 10712 l 8204 10783 l 8220 10783 l
 8220 10858 l 8237 10858 l 8237 10941 l 8254 10941 l 8254 11029 l
 8270 11029 l 8270 11120 l 8283 11120 l 8283 11216 l 8299 11216 l
 8299 11308 l 8316 11308 l 8316 11404 l 8333 11404 l 8333 11495 l
 8345 11495 l 8345 11583 l 8362 11583 l 8362 11670 l 8379 11670 l
 8379 11754 l 8395 11754 l 8395 11837 l 8412 11837 l 8412 11916 l
 8424 11916 l 8424 11995 l 8441 11995 l 8441 12066 l 8458 12066 l
 8458 12137 l 8474 12137 l 8474 12200 l 8491 12200 l 8491 12262 l
 8504 12262 l 8504 12316 l 8520 12316 l 8520 12370 l 8537 12370 l
 8537 12416 l 8554 12416 l 8554 12462 l 8570 12462 l 8570 12504 l
 8583 12504 l 8583 12541 l 8599 12541 l 8599 12570 l 8616 12570 l
 8616 12604 l 8633 12604 l 8633 12629 l 8645 12629 l 8645 12650 l
 8662 12650 l 8662 12675 l 8679 12675 l 8679 12691 l 8695 12691 l
 8695 12708 l 8712 12708 l 8712 12725 l 8724 12725 l 8724 12737 l
 8741 12737 l 8741 12750 l 8758 12750 l 8758 12758 l 8774 12758 l
 8774 12770 l 8791 12770 l 8791 12779 l 8804 12779 l 8804 12787 l
 8820 12787 l 8820 12800 l 8837 12800 l 8837 12808 l 8854 12808 l
 8854 12816 l 8870 12816 l 8870 12820 l 8883 12820 l 8883 12825 l
 8899 12825 l 8899 12829 l 8916 12829 l 8916 12833 l 8933 12833 l
 8933 12837 l 8962 12837 l 8962 12841 l 8995 12841 l 8995 12845 l
 9041 12845 l 9041 12850 l
 9058 12850 l gs col2 1.00 shd ef gr 
% here ends figure;
% 
% here starts figure with depth 541
%  polyline 
% Polyline
0 slj
0 slc
7.500 slw
n 6691 12850 m 6958 12850 l 6958 10920 l 6974 10920 l 6974 10725 l 6991 10725 l
 6991 10808 l 7004 10808 l 7004 10891 l 7020 10891 l 7020 10966 l
 7037 10966 l 7037 11033 l 7054 11033 l 7054 11095 l 7066 11095 l
 7066 11150 l 7083 11150 l 7083 11200 l 7099 11200 l 7099 11241 l
 7116 11241 l 7116 11283 l 7133 11283 l 7133 11320 l 7145 11320 l
 7145 11354 l 7162 11354 l 7162 11383 l 7179 11383 l 7179 11408 l
 7195 11408 l 7195 11429 l 7212 11429 l 7212 11450 l 7224 11450 l
 7224 11466 l 7241 11466 l 7241 11487 l 7258 11487 l 7258 11500 l
 7274 11500 l 7274 11512 l 7291 11512 l 7291 11525 l 7304 11525 l
 7304 11533 l 7320 11533 l 7320 11541 l 7337 11541 l 7337 11545 l
 7354 11545 l 7354 11550 l 7366 11550 l 7366 11554 l 7383 11554 l
 7383 11558 l 7416 11558 l 7416 11554 l 7462 11554 l 7462 11545 l
 7479 11545 l 7479 11541 l 7495 11541 l 7495 11537 l 7512 11537 l
 7512 11529 l 7524 11529 l 7524 11520 l 7541 11520 l 7541 11512 l
 7558 11512 l 7558 11500 l 7574 11500 l 7574 11491 l 7591 11491 l
 7591 11475 l 7604 11475 l 7604 11462 l 7620 11462 l 7620 11445 l
 7637 11445 l 7637 11429 l 7654 11429 l 7654 11412 l 7666 11412 l
 7666 11387 l 7683 11387 l 7683 11366 l 7699 11366 l 7699 11345 l
 7716 11345 l 7716 11320 l 7733 11320 l 7733 11295 l 7745 11295 l
 7745 11266 l 7762 11266 l 7762 11237 l 7779 11237 l 7779 11204 l
 7795 11204 l 7795 11166 l 7812 11166 l 7812 11129 l 7824 11129 l
 7824 11091 l 7841 11091 l 7841 11045 l 7858 11045 l 7858 11004 l
 7874 11004 l 7874 10958 l 7891 10958 l 7891 10908 l 7904 10908 l
 7904 10866 l 7920 10866 l 7920 10820 l 7937 10820 l 7937 10775 l
 7954 10775 l 7954 10725 l 7970 10725 l 7970 10679 l 7983 10679 l
 7983 10629 l 7999 10629 l 7999 10579 l 8016 10579 l 8016 10537 l
 8033 10537 l 8033 10500 l 8045 10500 l 8045 10470 l 8062 10470 l
 8062 10445 l 8079 10445 l 8079 10441 l 8095 10441 l 8095 10445 l
 8112 10445 l 8112 10470 l 8124 10470 l 8124 10500 l 8141 10500 l
 8141 10541 l 8158 10541 l 8158 10591 l 8174 10591 l 8174 10645 l
 8191 10645 l 8191 10712 l 8204 10712 l 8204 10783 l 8220 10783 l
 8220 10858 l 8237 10858 l 8237 10941 l 8254 10941 l 8254 11029 l
 8270 11029 l 8270 11120 l 8283 11120 l 8283 11216 l 8299 11216 l
 8299 11308 l 8316 11308 l 8316 11404 l 8333 11404 l 8333 11495 l
 8345 11495 l 8345 11583 l 8362 11583 l 8362 11670 l 8379 11670 l
 8379 11754 l 8395 11754 l 8395 11837 l 8412 11837 l 8412 11916 l
 8424 11916 l 8424 11995 l 8441 11995 l 8441 12066 l 8458 12066 l
 8458 12137 l 8474 12137 l 8474 12200 l 8491 12200 l 8491 12262 l
 8504 12262 l 8504 12316 l 8520 12316 l 8520 12370 l 8537 12370 l
 8537 12416 l 8554 12416 l 8554 12462 l 8570 12462 l 8570 12504 l
 8583 12504 l 8583 12541 l 8599 12541 l 8599 12570 l 8616 12570 l
 8616 12604 l 8633 12604 l 8633 12629 l 8645 12629 l 8645 12650 l
 8662 12650 l 8662 12675 l 8679 12675 l 8679 12691 l 8695 12691 l
 8695 12708 l 8712 12708 l 8712 12725 l 8724 12725 l 8724 12737 l
 8741 12737 l 8741 12750 l 8758 12750 l 8758 12758 l 8774 12758 l
 8774 12770 l 8791 12770 l 8791 12779 l 8804 12779 l 8804 12787 l
 8820 12787 l 8820 12800 l 8837 12800 l 8837 12808 l 8854 12808 l
 8854 12816 l 8870 12816 l 8870 12820 l 8883 12820 l 8883 12825 l
 8899 12825 l 8899 12829 l 8916 12829 l 8916 12833 l 8933 12833 l
 8933 12837 l 8962 12837 l 8962 12841 l 8995 12841 l 8995 12845 l
 9041 12845 l 9041 12850 l
 9058 12850 l gs col0 s gr 
%  polyline 
% Polyline
n 6691 12850 m
 9058 12850 l gs col0 s gr 
%  polyline 
% Polyline
n 6691 12775 m
 6691 12850 l gs col0 s gr 
% here ends figure;
% 
% here starts figure with depth 537
%  polyline 
% Polyline
0 slj
0 slc
7.500 slw
n 6758 12812 m
 6758 12850 l gs col0 s gr 
%  polyline 
% Polyline
n 6824 12812 m
 6824 12850 l gs col0 s gr 
%  polyline 
% Polyline
n 6891 12812 m
 6891 12850 l gs col0 s gr 
%  polyline 
% Polyline
n 6962 12812 m
 6962 12850 l gs col0 s gr 
%  polyline 
% Polyline
n 7029 12775 m
 7029 12850 l gs col0 s gr 
%  polyline 
% Polyline
n 7095 12812 m
 7095 12850 l gs col0 s gr 
%  polyline 
% Polyline
n 7162 12812 m
 7162 12850 l gs col0 s gr 
%  polyline 
% Polyline
n 7229 12812 m
 7229 12850 l gs col0 s gr 
%  polyline 
% Polyline
n 7299 12812 m
 7299 12850 l gs col0 s gr 
%  polyline 
% Polyline
n 7366 12775 m
 7366 12850 l gs col0 s gr 
%  polyline 
% Polyline
n 7433 12812 m
 7433 12850 l gs col0 s gr 
%  polyline 
% Polyline
n 7499 12812 m
 7499 12850 l gs col0 s gr 
%  polyline 
% Polyline
n 7570 12812 m
 7570 12850 l gs col0 s gr 
%  polyline 
% Polyline
n 7637 12812 m
 7637 12850 l gs col0 s gr 
%  polyline 
% Polyline
n 7704 12775 m
 7704 12850 l gs col0 s gr 
%  polyline 
% Polyline
n 7770 12812 m
 7770 12850 l gs col0 s gr 
%  polyline 
% Polyline
n 7841 12812 m
 7841 12850 l gs col0 s gr 
%  polyline 
% Polyline
n 7908 12812 m
 7908 12850 l gs col0 s gr 
%  polyline 
% Polyline
n 7974 12812 m
 7974 12850 l gs col0 s gr 
%  polyline 
% Polyline
n 8041 12775 m
 8041 12850 l gs col0 s gr 
%  polyline 
% Polyline
n 8112 12812 m
 8112 12850 l gs col0 s gr 
%  polyline 
% Polyline
n 8179 12812 m
 8179 12850 l gs col0 s gr 
%  polyline 
% Polyline
n 8245 12812 m
 8245 12850 l gs col0 s gr 
%  polyline 
% Polyline
n 8312 12812 m
 8312 12850 l gs col0 s gr 
%  polyline 
% Polyline
n 8383 12775 m
 8383 12850 l gs col0 s gr 
%  polyline 
% Polyline
n 8449 12812 m
 8449 12850 l gs col0 s gr 
%  polyline 
% Polyline
n 8516 12812 m
 8516 12850 l gs col0 s gr 
%  polyline 
% Polyline
n 8583 12812 m
 8583 12850 l gs col0 s gr 
%  polyline 
% Polyline
n 8654 12812 m
 8654 12850 l gs col0 s gr 
%  polyline 
% Polyline
n 8720 12775 m
 8720 12850 l gs col0 s gr 
%  polyline 
% Polyline
n 8787 12812 m
 8787 12850 l gs col0 s gr 
%  polyline 
% Polyline
n 8854 12812 m
 8854 12850 l gs col0 s gr 
%  polyline 
% Polyline
n 8924 12812 m
 8924 12850 l gs col0 s gr 
%  polyline 
% Polyline
n 8991 12812 m
 8991 12850 l gs col0 s gr 
%  polyline 
% Polyline
n 9058 12775 m
 9058 12850 l gs col0 s gr 
%  polyline 
% Polyline
n 9058 12775 m
 9058 12850 l gs col0 s gr 
% here ends figure;
% 
% here starts figure with depth 500
%  text 
/Helvetica-Bold-iso ff 116.67 scf sf
6645 12962 m
gs 1 -1 sc (0) col0 sh gr
%  text 
/Helvetica-Bold-iso ff 116.67 scf sf
6945 12962 m
gs 1 -1 sc (0.5) col0 sh gr
%  text 
/Helvetica-Bold-iso ff 116.67 scf sf
7337 12962 m
gs 1 -1 sc (1) col0 sh gr
%  text 
/Helvetica-Bold-iso ff 116.67 scf sf
7620 12962 m
gs 1 -1 sc (1.5) col0 sh gr
% here ends figure;
% 
% here starts figure with depth 495
%  text 
/Helvetica-Bold-iso ff 116.67 scf sf
7999 12962 m
gs 1 -1 sc (2) col0 sh gr
%  text 
/Helvetica-Bold-iso ff 116.67 scf sf
8295 12962 m
gs 1 -1 sc (2.5) col0 sh gr
%  text 
/Helvetica-Bold-iso ff 116.67 scf sf
8679 12962 m
gs 1 -1 sc (3) col0 sh gr
%  text 
/Helvetica-Bold-iso ff 116.67 scf sf
8974 12962 m
gs 1 -1 sc (3.5) col0 sh gr
%  polyline 
% Polyline
0 slj
0 slc
7.500 slw
n 6691 12850 m
 6691 10320 l gs col0 s gr 
% here ends figure;
% 
% here starts figure with depth 489
%  polyline 
% Polyline
0 slj
0 slc
7.500 slw
n 6762 12850 m
 6691 12850 l gs col0 s gr 
%  polyline 
% Polyline
n 6724 12754 m
 6691 12754 l gs col0 s gr 
%  polyline 
% Polyline
n 6724 12658 m
 6691 12658 l gs col0 s gr 
%  polyline 
% Polyline
n 6724 12558 m
 6691 12558 l gs col0 s gr 
%  polyline 
% Polyline
n 6762 12462 m
 6691 12462 l gs col0 s gr 
%  polyline 
% Polyline
n 6724 12366 m
 6691 12366 l gs col0 s gr 
%  polyline 
% Polyline
n 6724 12266 m
 6691 12266 l gs col0 s gr 
%  polyline 
% Polyline
n 6724 12170 m
 6691 12170 l gs col0 s gr 
%  polyline 
% Polyline
n 6762 12070 m
 6691 12070 l gs col0 s gr 
%  polyline 
% Polyline
n 6724 11975 m
 6691 11975 l gs col0 s gr 
%  polyline 
% Polyline
n 6724 11879 m
 6691 11879 l gs col0 s gr 
%  polyline 
% Polyline
n 6724 11779 m
 6691 11779 l gs col0 s gr 
%  polyline 
% Polyline
n 6762 11683 m
 6691 11683 l gs col0 s gr 
%  polyline 
% Polyline
n 6724 11587 m
 6691 11587 l gs col0 s gr 
%  polyline 
% Polyline
n 6724 11487 m
 6691 11487 l gs col0 s gr 
%  polyline 
% Polyline
n 6724 11391 m
 6691 11391 l gs col0 s gr 
%  polyline 
% Polyline
n 6762 11295 m
 6691 11295 l gs col0 s gr 
%  polyline 
% Polyline
n 6724 11195 m
 6691 11195 l gs col0 s gr 
%  polyline 
% Polyline
n 6724 11100 m
 6691 11100 l gs col0 s gr 
%  polyline 
% Polyline
n 6724 11004 m
 6691 11004 l gs col0 s gr 
%  polyline 
% Polyline
n 6762 10904 m
 6691 10904 l gs col0 s gr 
%  polyline 
% Polyline
n 6724 10808 m
 6691 10808 l gs col0 s gr 
%  polyline 
% Polyline
n 6724 10712 m
 6691 10712 l gs col0 s gr 
%  polyline 
% Polyline
n 6724 10612 m
 6691 10612 l gs col0 s gr 
%  polyline 
% Polyline
n 6762 10516 m
 6691 10516 l gs col0 s gr 
%  polyline 
% Polyline
n 6762 10516 m
 6691 10516 l gs col0 s gr 
%  polyline 
% Polyline
n 6724 10416 m
 6691 10416 l gs col0 s gr 
%  polyline 
% Polyline
n 6724 10320 m
 6691 10320 l gs col0 s gr 
% here ends figure;
% 
% here starts figure with depth 460
%  text 
/Helvetica-Bold-iso ff 116.67 scf sf
6612 12891 m
gs 1 -1 sc (0) col0 sh gr
%  text 
/Helvetica-Bold-iso ff 116.67 scf sf
6399 12500 m
gs 1 -1 sc (0.002) col0 sh gr
%  text 
/Helvetica-Bold-iso ff 116.67 scf sf
6399 12120 m
gs 1 -1 sc (0.004) col0 sh gr
%  text 
/Helvetica-Bold-iso ff 116.67 scf sf
6399 11729 m
gs 1 -1 sc (0.006) col0 sh gr
%  text 
/Helvetica-Bold-iso ff 116.67 scf sf
6399 11337 m
gs 1 -1 sc (0.008) col0 sh gr
%  text 
/Helvetica-Bold-iso ff 116.67 scf sf
6470 10945 m
gs 1 -1 sc (0.01) col0 sh gr
%  text 
/Helvetica-Bold-iso ff 116.67 scf sf
6399 10554 m
gs 1 -1 sc (0.012) col0 sh gr
% here ends figure;
% 
% here starts figure with depth 50
/Helvetica-Bold-iso ff 150.00 scf sf
2288 13069 m
gs 1 -1 sc (log) col0 sh gr
/Helvetica-Bold-iso ff 116.67 scf sf
2513 13110 m
gs 1 -1 sc (10) col0 sh gr
/Helvetica-Bold-iso ff 150.00 scf sf
2633 13069 m
gs 1 -1 sc ( W) col0 sh gr
/Helvetica-Bold-iso ff 116.67 scf sf
2813 13110 m
gs 1 -1 sc (ME) col0 sh gr
/Helvetica-Bold-iso ff 150.00 scf sf
5526 13076 m
gs 1 -1 sc (H) col0 sh gr
/Helvetica-Bold-iso ff 116.67 scf sf
5631 13117 m
gs 1 -1 sc (T) col0 sh gr
/Helvetica-Bold-iso ff 150.00 scf sf
5706 13076 m
gs 1 -1 sc ( \(GeV\)) col0 sh gr
/Helvetica-Bold-iso ff 150.00 scf sf
8989 13063 m
gs 1 -1 sc (R) col0 sh gr
/Helvetica-Bold-iso ff 116.67 scf sf
9094 13104 m
gs 1 -1 sc (min) col0 sh gr
/Helvetica-Bold-iso ff 150.00 scf sf
235 10174 m
gs 1 -1 sc (5g gauge invariance profile: log) col0 sh gr
/Helvetica-Bold-iso ff 116.67 scf sf
2483 10229 m
gs 1 -1 sc (10) col0 sh gr
/Helvetica-Bold-iso ff 150.00 scf sf
2596 10181 m
gs 1 -1 sc ( R) col0 sh gr
/Helvetica-Bold-iso ff 116.67 scf sf
2753 10222 m
gs 1 -1 sc (GI) col0 sh gr
/Helvetica-Bold-iso ff 150.00 scf sf
3523 10195 m
gs 1 -1 sc (Normalized H) col0 sh gr
/Helvetica-Bold-iso ff 116.67 scf sf
4468 10248 m
gs 1 -1 sc (T ) col0 sh gr
/Helvetica-Bold-iso ff 150.00 scf sf
4596 10189 m
gs 1 -1 sc (distribution for 5g) col0 sh gr
/Helvetica-Bold-iso ff 150.00 scf sf
6690 10174 m
gs 1 -1 sc (Normalized R) col0 sh gr
/Helvetica-Bold-iso ff 116.67 scf sf
7643 10208 m
gs 1 -1 sc (min) col0 sh gr
/Helvetica-Bold-iso ff 150.00 scf sf
7833 10160 m
gs 1 -1 sc ( distribution for 5g) col0 sh gr
% here ends figure;
$F2psEnd
rs
showpage
%%Trailer
%EOF
