%!PS-Adobe-2.0 EPSF-2.0
%%BoundingBox:  0 0 567 194
%%Title: distributions11.eps: Output
%%Creator: ROOT Version 5.26/00
%%CreationDate: Thu Feb 11 06:13:02 2010
%%EndComments
%%BeginProlog
80 dict begin
/s {stroke} def /l {lineto} def /m {moveto} def /t {translate} def
/sw {stringwidth} def /r {rotate} def /rl {roll}  def /R {repeat} def
/d {rlineto} def /rm {rmoveto} def /gr {grestore} def /f {eofill} def
/c {setrgbcolor} def /black {0 setgray} def /sd {setdash} def
/cl {closepath} def /sf {scalefont setfont} def /lw {setlinewidth} def
/box {m dup 0 exch d exch 0 d 0 exch neg d cl} def
/NC{systemdict begin initclip end}def/C{NC box clip newpath}def
/bl {box s} def /bf {box f} def /Y { 0 exch d} def /X { 0 d} def 
/mp {newpath /y exch def /x exch def} def
/side {[w .77 mul w .23 mul] .385 w mul sd w 0 l currentpoint t -144 r} def
/mr {mp x y w2 0 360 arc} def /m24 {mr s} def /m20 {mr f} def
/mb {mp x y w2 add m w2 neg 0 d 0 w neg d w 0 d 0 w d cl} def
/mt {mp x y w2 add m w2 neg w neg d w 0 d cl} def
/m21 {mb f} def /m25 {mb s} def /m22 {mt f} def /m26{mt s} def
/m23 {mp x y w2 sub m w2 w d w neg 0 d cl f} def
/m27 {mp x y w2 add m w3 neg w2 neg d w3 w2 neg d w3 w2 d cl s} def
/m28 {mp x w2 sub y w2 sub w3 add m w3 0 d  0 w3 neg d w3 0 d 0 w3 d w3 0 d  0 w3 d w3 neg 0 d 0 w3 d w3 neg 0 d
 0 w3 neg d w3 neg 0 d cl s } def
/m29 {mp gsave x w2 sub y w2 add w3 sub m currentpoint t
 4 {side} repeat cl fill gr} def
/m30 {mp gsave x w2 sub y w2 add w3 sub m currentpoint t
 4 {side} repeat cl s gr} def
/m31 {mp x y w2 sub m 0 w d x w2 sub y m w 0 d x w2 sub y w2 add m w w neg d x w2 sub y w2
 sub m w w d s} def
/m2 {mp x y w2 sub m 0 w d x w2 sub y m w 0 d s} def
/m5 {mp x w2 sub y w2 sub m w w d x w2 sub y w2 add m w w neg d s} def
/reEncode {exch findfont dup length dict begin {1 index /FID eq  {pop pop} {def} ifelse } forall /Encoding exch def currentdict end dup /FontName get exch definefont pop } def [/Times-Bold /Times-Italic /Times-BoldItalic /Helvetica
 /Helvetica-Oblique /Helvetica-Bold /Helvetica-BoldOblique /Courier /Courier-Oblique /Courier-Bold /Courier-BoldOblique /Times-Roman /AvantGarde-Book /AvantGarde-BookOblique /AvantGarde-Demi /AvantGarde-DemiOblique /Bookman-Demi
 /Bookman-DemiItalic /Bookman-Light /Bookman-LightItalic /Helvetica-Narrow /Helvetica-Narrow-Bold /Helvetica-Narrow-BoldOblique /Helvetica-Narrow-Oblique /NewCenturySchlbk-Roman /NewCenturySchlbk-Bold
 /NewCenturySchlbk-BoldItalic /NewCenturySchlbk-Italic /Palatino-Bold /Palatino-BoldItalic /Palatino-Italic /Palatino-Roman ] {ISOLatin1Encoding reEncode } forall
/oshow {gsave [] 0 sd true charpath stroke gr} def
/stwn { /fs exch def /fn exch def /text exch def fn findfont fs sf
 text sw pop xs add /xs exch def} def
/stwb { /fs exch def /fn exch def /nbas exch def /textf exch deftextf length /tlen exch def nbas tlen gt {/nbas tlendef} iffn findfont fs sf textf dup length nbas sub nbas getinterval sw
pop neg xs add /xs exch def} def
%%EndProlog
%%BeginSetup
%%EndSetup
newpath  gsave  .25 .25 scale  gsave  0 0 t black[  ] 0 sd 3 lw 0.95 0.95 0.95 c 2268 775 0 0 bf 1 1 1 c 0 0 m 8 8 d 759 Y 2252 X 8 8 d -2268 X -775 Y f 0.665 0.665 0.665 c 0 0 m 8 8 d 2252 X 759 Y 8 8 d -775 Y -2268 X f black 0.95 0.95 0.95 c 710
 759 23 8 bf 1 1 1 c 23 8 m 8 8 d 743 Y 694 X 8 8 d -710 X -759 Y f 0.665 0.665 0.665 c 23 8 m 8 8 d 694 X 743 Y 8 8 d -759 Y -710 X f black 0.95 0.95 0.95 c 568 607 94 84 bf 1 1 1 c 94 84 m 4 4 d 599 Y 560 X 4 4 d -568 X -607 Y f 0.665 0.665 0.665
 c 94 84 m 4 4 d 560 X 599 Y 4 4 d -607 Y -568 X f black 568 607 94 84 bl 0.95 0.95 0.95 c 568 607 94 84 bf 1 1 1 c 94 84 m 4 4 d 599 Y 560 X 4 4 d -568 X -607 Y f 0.665 0.665 0.665 c 94 84 m 4 4 d 560 X 599 Y 4 4 d -607 Y -568 X f black 568 607 94
 84 bl 1 1 1 c 0 0 1 c black 159 627 m 2 Y s 159 635 m 2 Y s 0 0 1 c /w 6 def /w2 {w 2 div} def /w3 {w 3 div} def 159 632 m21 black 165 639 m 1 Y s 165 646 m 1 Y s 0 0 1 c 165 643 m21 black 170 611 m 4 Y s 170 621 m 4 Y s 0 0 1 c 170 618 m21 black
 176 603 m 5 Y s 176 614 m 5 Y s 0 0 1 c 176 611 m21 black 182 610 m 3 Y s 182 619 m 2 Y s 0 0 1 c 182 616 m21 black 188 602 m 3 Y s 188 611 m 2 Y s 0 0 1 c 188 608 m21 black 193 593 m 1 Y s 193 600 m 2 Y s 0 0 1 c 193 597 m21 black 199 602 m 1 Y s
 199 609 m 1 Y s 0 0 1 c 199 606 m21 205 586 m21 210 580 m21 216 569 m21 222 562 m21 227 548 m21 233 539 m21 239 526 m21 244 515 m21 250 503 m21 256 492 m21 261 478 m21 267 467 m21 273 454 m21 278 443 m21 284 430 m21 290 417 m21 296 405 m21 301 393
 m21 307 380 m21 313 368 m21 318 356 m21 324 343 m21 330 331 m21 335 319 m21 341 306 m21 347 294 m21 352 281 m21 358 269 m21 364 256 m21 369 244 m21 375 231 m21 381 219 m21 386 209 m21 392 199 m21 398 192 m21 404 186 m21 409 181 m21 415 177 m21 421
 173 m21 426 170 m21 432 168 m21 438 166 m21 443 165 m21 449 163 m21 455 162 m21 460 161 m21 466 160 m21 472 159 m21 477 158 m21 483 158 m21 489 157 m21 494 157 m21 500 156 m21 506 156 m21 512 155 m21 517 155 m21 523 155 m21 529 154 m21 534 154 m21
 540 154 m21 546 154 m21 551 154 m21 557 153 m21 563 153 m21 568 153 m21 574 153 m21 580 153 m21 585 153 m21 591 153 m21 597 153 m21 602 155 m21 608 151 m21 614 150 m21 620 150 m21 black 625 148 m 1 Y s 625 155 m 1 Y s 0 0 1 c 625 152 m21 black 631
 144 m 3 Y s 631 153 m 3 Y s 0 0 1 c 631 150 m21 black 637 151 m 2 Y s 637 159 m 2 Y s 0 0 1 c 637 156 m21 black 642 140 m 5 Y s 642 150 m 5 Y s 0 0 1 c 642 147 m21 black 648 157 m 23 Y s 648 186 m 23 Y s 0 0 1 c 648 183 m21 654 174 m21 659 111 m21
 black 94 84 m 568 X s 94 102 m -18 Y s 110 93 m -9 Y s 127 93 m -9 Y s 144 93 m -9 Y s 161 102 m -18 Y s 177 93 m -9 Y s 194 93 m -9 Y s 211 93 m -9 Y s 227 102 m -18 Y s 244 93 m -9 Y s 261 93 m -9 Y s 278 93 m -9 Y s 294 102 m -18 Y s 311 93 m -9
 Y s 328 93 m -9 Y s 345 93 m -9 Y s 361 102 m -18 Y s 378 93 m -9 Y s 395 93 m -9 Y s 411 93 m -9 Y s 428 102 m -18 Y s 445 93 m -9 Y s 462 93 m -9 Y s 478 93 m -9 Y s 495 102 m -18 Y s 512 93 m -9 Y s 528 93 m -9 Y s 545 93 m -9 Y s 562 102 m -18
 Y s 579 93 m -9 Y s 595 93 m -9 Y s 612 93 m -9 Y s 629 102 m -18 Y s 629 102 m -18 Y s 645 93 m -9 Y s 662 93 m -9 Y s
 gsave  710 759 23 8 C 80 57 t 0 r /Helvetica-Bold findfont 25.6826 sf 0 0 m (\2552) show NC gr 
 gsave  710 759 23 8 C 151 57 t 0 r /Helvetica-Bold findfont 25.6826 sf 0 0 m (0) show NC gr 
 gsave  710 759 23 8 C 217 57 t 0 r /Helvetica-Bold findfont 25.6826 sf 0 0 m (2) show NC gr 
 gsave  710 759 23 8 C 285 57 t 0 r /Helvetica-Bold findfont 25.6826 sf 0 0 m (4) show NC gr 
 gsave  710 759 23 8 C 350 57 t 0 r /Helvetica-Bold findfont 25.6826 sf 0 0 m (6) show NC gr 
 gsave  710 759 23 8 C 419 57 t 0 r /Helvetica-Bold findfont 25.6826 sf 0 0 m (8) show NC gr 
 gsave  710 759 23 8 C 479 57 t 0 r /Helvetica-Bold findfont 25.6826 sf 0 0 m (10) show NC gr 
 gsave  710 759 23 8 C 547 57 t 0 r /Helvetica-Bold findfont 25.6826 sf 0 0 m (12) show NC gr 
 gsave  710 759 23 8 C 613 57 t 0 r /Helvetica-Bold findfont 25.6826 sf 0 0 m (14) show NC gr  94 84 m 607 Y s 111 154 m -17 X s 102 169 m -8 X s 102 183 m -8 X s 102 198 m -8 X s 102 212 m -8 X s 111 227 m -17 X s 102 241 m -8 X s 102 256 m -8 X s
 102 270 m -8 X s 102 285 m -8 X s 111 299 m -17 X s 102 314 m -8 X s 102 328 m -8 X s 102 343 m -8 X s 102 357 m -8 X s 111 372 m -17 X s 102 386 m -8 X s 102 401 m -8 X s 102 415 m -8 X s 102 430 m -8 X s 111 445 m -17 X s 102 459 m -8 X s 102 474
 m -8 X s 102 488 m -8 X s 102 503 m -8 X s 111 517 m -17 X s 102 532 m -8 X s 102 546 m -8 X s 102 561 m -8 X s 102 575 m -8 X s 111 590 m -17 X s 102 604 m -8 X s 102 619 m -8 X s 102 633 m -8 X s 102 648 m -8 X s 111 662 m -17 X s 111 154 m -17 X
 s 102 140 m -8 X s 102 125 m -8 X s 102 111 m -8 X s 102 96 m -8 X s 111 662 m -17 X s 102 677 m -8 X s
 gsave  710 759 23 8 C 66 145 t 0 r /Helvetica-Bold findfont 25.6826 sf 0 0 m (\2557) show NC gr 
 gsave  710 759 23 8 C 66 217 t 0 r /Helvetica-Bold findfont 25.6826 sf 0 0 m (\2556) show NC gr 
 gsave  710 759 23 8 C 66 291 t 0 r /Helvetica-Bold findfont 25.6826 sf 0 0 m (\2555) show NC gr 
 gsave  710 759 23 8 C 66 362 t 0 r /Helvetica-Bold findfont 25.6826 sf 0 0 m (\2554) show NC gr 
 gsave  710 759 23 8 C 66 436 t 0 r /Helvetica-Bold findfont 25.6826 sf 0 0 m (\2553) show NC gr 
 gsave  710 759 23 8 C 66 507 t 0 r /Helvetica-Bold findfont 25.6826 sf 0 0 m (\2552) show NC gr 
 gsave  710 759 23 8 C 68 578 t 0 r /Helvetica-Bold findfont 25.6826 sf 0 0 m (\2551) show NC gr 
 gsave  710 759 23 8 C 74 652 t 0 r /Helvetica-Bold findfont 25.6826 sf 0 0 m (0) show NC gr  0.95 0.95 0.95 c 497 41 30 722 bf black 38 722 m -5 Y 495 X 38 Y -6 X -33 Y f 30 722 m 41 Y 497 X -41 Y -497 X cl s 1 1 1 c black
 gsave  710 759 23 8 C 63 735 t 0 r /Helvetica-Bold findfont 19.9753 sf 0 0 m (Relative Gauge Invariance profile \(11 gluons\)) show NC gr  0.95 0.95 0.95 c 710 759 779 8 bf 1 1 1 c 779 8 m 8 8 d 743 Y 694 X 8 8 d -710 X -759 Y f 0.665 0.665 0.665 c
 779 8 m 8 8 d 694 X 743 Y 8 8 d -759 Y -710 X f black 0.95 0.95 0.95 c 568 607 850 84 bf 1 1 1 c 850 84 m 4 4 d 599 Y 560 X 4 4 d -568 X -607 Y f 0.665 0.665 0.665 c 850 84 m 4 4 d 560 X 599 Y 4 4 d -607 Y -568 X f black 568 607 850 84 bl 0.95 0.95
 0.95 c 568 607 850 84 bf 1 1 1 c 850 84 m 4 4 d 599 Y 560 X 4 4 d -568 X -607 Y f 0.665 0.665 0.665 c 850 84 m 4 4 d 560 X 599 Y 4 4 d -607 Y -568 X f black 568 607 850 84 bl 0 1 0 c black 0 1 0 c 850 84 m 20 X 382 Y 4 X 159 Y 4 X 32 Y 4 X 12 Y 4 X
 6 Y 4 X 6 Y 4 X 2 Y 4 X -1 Y 8 X -1 Y 5 X 3 Y 4 X -3 Y 4 X -2 Y 4 X -7 Y 4 X -2 Y 4 X -2 Y 4 X -2 Y 4 X -2 Y 4 X -3 Y 4 X -4 Y 4 X -1 Y 4 X -3 Y 4 X -2 Y 4 X -5 Y 4 X -2 Y 4 X -2 Y 5 X -3 Y 4 X -2 Y 4 X -2 Y 4 X -2 Y 4 X -6 Y 4 X -1 Y 4 X -4 Y 4 X
 -3 Y 4 X -3 Y 8 X -7 Y 8 X -5 Y 4 X -3 Y 4 X -2 Y 4 X -1 Y 4 X -5 Y 5 X -2 Y 8 X -7 Y 4 X -4 Y 4 X -1 Y 4 X -3 Y 4 X -1 Y 4 X -5 Y 4 X -1 Y 4 X -2 Y 4 X -4 Y 4 X -2 Y 4 X 9 Y 4 X -13 Y 4 X -8 Y 8 X -3 Y 5 X -4 Y 4 X -4 Y 4 X -2 Y 4 X -5 Y 4 X -4 Y
 4 X -1 Y 4 X -4 Y 4 X -4 Y 4 X 1 Y 4 X -8 Y 4 X 3 Y 4 X -7 Y 4 X -5 Y 8 X -6 Y 4 X -1 Y 5 X -7 Y 4 X -6 Y 4 X -3 Y 4 X -2 Y 4 X -5 Y 4 X 2 Y 4 X -6 Y 4 X -6 Y 4 X -3 Y 4 X -3 Y 4 X 2 Y 4 X -12 Y 8 X -10 Y 4 X 19 Y 4 X -16 Y 4 X -15 Y 5 X -3 Y 4 X
 -9 Y 4 X -4 Y 4 X 1 Y 4 X -13 Y 4 X -1 Y 4 X -6 Y 4 X -5 Y 4 X -4 Y 4 X -5 Y 4 X -8 Y 4 X -1 Y 4 X -11 Y 4 X -7 Y 4 X -5 Y 4 X 7 Y 5 X -24 Y 4 X -3 Y 4 X -2 Y 4 X -3 Y 4 X -19 Y 4 X -1 Y 4 X -23 Y 4 X -6 Y 4 X 17 Y 4 X -36 Y 4 X -11 Y 4 X -3 Y 4 X
 -16 Y 4 X 6 Y 4 X -28 Y 4 X -22 Y 4 X -14 Y 5 X -18 Y 4 X -7 Y 4 X -46 Y 4 X -7 Y 24 X f black 0 1 0 c black 850 84 m 20 X 382 Y 4 X 159 Y 4 X 32 Y 4 X 12 Y 4 X 6 Y 4 X 6 Y 4 X 2 Y 4 X -1 Y 8 X -1 Y 5 X 3 Y 4 X -3 Y 4 X -2 Y 4 X -7 Y 4 X -2 Y 4 X
 -2 Y 4 X -2 Y 4 X -2 Y 4 X -3 Y 4 X -4 Y 4 X -1 Y 4 X -3 Y 4 X -2 Y 4 X -5 Y 4 X -2 Y 4 X -2 Y 5 X -3 Y 4 X -2 Y 4 X -2 Y 4 X -2 Y 4 X -6 Y 4 X -1 Y 4 X -4 Y 4 X -3 Y 4 X -3 Y 8 X -7 Y 8 X -5 Y 4 X -3 Y 4 X -2 Y 4 X -1 Y 4 X -5 Y 5 X -2 Y 8 X -7 Y
 4 X -4 Y 4 X -1 Y 4 X -3 Y 4 X -1 Y 4 X -5 Y 4 X -1 Y 4 X -2 Y 4 X -4 Y 4 X -2 Y 4 X 9 Y 4 X -13 Y 4 X -8 Y 8 X -3 Y 5 X -4 Y 4 X -4 Y 4 X -2 Y 4 X -5 Y 4 X -4 Y 4 X -1 Y 4 X -4 Y 4 X -4 Y 4 X 1 Y 4 X -8 Y 4 X 3 Y 4 X -7 Y 4 X -5 Y 8 X -6 Y 4 X -1
 Y 5 X -7 Y 4 X -6 Y 4 X -3 Y 4 X -2 Y 4 X -5 Y 4 X 2 Y 4 X -6 Y 4 X -6 Y 4 X -3 Y 4 X -3 Y 4 X 2 Y 4 X -12 Y 8 X -10 Y 4 X 19 Y 4 X -16 Y 4 X -15 Y 5 X -3 Y 4 X -9 Y 4 X -4 Y 4 X 1 Y 4 X -13 Y 4 X -1 Y 4 X -6 Y 4 X -5 Y 4 X -4 Y 4 X -5 Y 4 X -8 Y 4
 X -1 Y 4 X -11 Y 4 X -7 Y 4 X -5 Y 4 X 7 Y 5 X -24 Y 4 X -3 Y 4 X -2 Y 4 X -3 Y 4 X -19 Y 4 X -1 Y 4 X -23 Y 4 X -6 Y 4 X 17 Y 4 X -36 Y 4 X -11 Y 4 X -3 Y 4 X -16 Y 4 X 6 Y 4 X -28 Y 4 X -22 Y 4 X -14 Y 5 X -18 Y 4 X -7 Y 4 X -46 Y 4 X -7 Y 24 X s
 850 84 m 568 X s 850 102 m -18 Y s 870 93 m -9 Y s 890 93 m -9 Y s 911 93 m -9 Y s 931 102 m -18 Y s 951 93 m -9 Y s 971 93 m -9 Y s 992 93 m -9 Y s 1012 102 m -18 Y s 1032 93 m -9 Y s 1053 93 m -9 Y s 1073 93 m -9 Y s 1093 102 m -18 Y s 1114 93 m
 -9 Y s 1134 93 m -9 Y s 1154 93 m -9 Y s 1174 102 m -18 Y s 1195 93 m -9 Y s 1215 93 m -9 Y s 1235 93 m -9 Y s 1256 102 m -18 Y s 1276 93 m -9 Y s 1296 93 m -9 Y s 1317 93 m -9 Y s 1337 102 m -18 Y s 1357 93 m -9 Y s 1377 93 m -9 Y s 1398 93 m -9 Y
 s 1418 102 m -18 Y s
 gsave  710 759 779 8 C 840 57 t 0 r /Helvetica-Bold findfont 25.6826 sf 0 0 m (0) show NC gr 
 gsave  710 759 779 8 C 900 57 t 0 r /Helvetica-Bold findfont 25.6826 sf 0 0 m (2000) show NC gr 
 gsave  710 759 779 8 C 983 57 t 0 r /Helvetica-Bold findfont 25.6826 sf 0 0 m (4000) show NC gr 
 gsave  710 759 779 8 C 1063 57 t 0 r /Helvetica-Bold findfont 25.6826 sf 0 0 m (6000) show NC gr 
 gsave  710 759 779 8 C 1145 57 t 0 r /Helvetica-Bold findfont 25.6826 sf 0 0 m (8000) show NC gr 
 gsave  710 759 779 8 C 1216 57 t 0 r /Helvetica-Bold findfont 25.6826 sf 0 0 m (10000) show NC gr 
 gsave  710 759 779 8 C 1299 57 t 0 r /Helvetica-Bold findfont 25.6826 sf 0 0 m (12000) show NC gr 
 gsave  710 759 779 8 C 1379 57 t 0 r /Helvetica-Bold findfont 25.6826 sf 0 0 m (14000) show NC gr  850 84 m 607 Y s 867 86 m -17 X s
 gsave  710 759 779 8 C 818 91 t 0 r /Helvetica-Bold findfont 17.1217 sf 0 0 m (\25525) show NC gr 
 gsave  710 759 779 8 C 789 74 t 0 r /Helvetica-Bold findfont 25.6826 sf 0 0 m (10) show NC gr  858 104 m -8 X s 867 111 m -17 X s 858 128 m -8 X s 867 136 m -17 X s
 gsave  710 759 779 8 C 818 140 t 0 r /Helvetica-Bold findfont 17.1217 sf 0 0 m (\25523) show NC gr 
 gsave  710 759 779 8 C 789 123 t 0 r /Helvetica-Bold findfont 25.6826 sf 0 0 m (10) show NC gr  858 153 m -8 X s 867 161 m -17 X s 858 178 m -8 X s 867 186 m -17 X s
 gsave  710 759 779 8 C 820 188 t 0 r /Helvetica-Bold findfont 17.1217 sf 0 0 m (\25521) show NC gr 
 gsave  710 759 779 8 C 792 174 t 0 r /Helvetica-Bold findfont 25.6826 sf 0 0 m (10) show NC gr  858 203 m -8 X s 867 210 m -17 X s 858 228 m -8 X s 867 235 m -17 X s
 gsave  710 759 779 8 C 818 239 t 0 r /Helvetica-Bold findfont 17.1217 sf 0 0 m (\25519) show NC gr 
 gsave  710 759 779 8 C 789 222 t 0 r /Helvetica-Bold findfont 25.6826 sf 0 0 m (10) show NC gr  858 253 m -8 X s 867 260 m -17 X s 858 278 m -8 X s 867 285 m -17 X s
 gsave  710 759 779 8 C 818 288 t 0 r /Helvetica-Bold findfont 17.1217 sf 0 0 m (\25517) show NC gr 
 gsave  710 759 779 8 C 789 273 t 0 r /Helvetica-Bold findfont 25.6826 sf 0 0 m (10) show NC gr  858 302 m -8 X s 867 310 m -17 X s 858 327 m -8 X s 867 335 m -17 X s
 gsave  710 759 779 8 C 818 339 t 0 r /Helvetica-Bold findfont 17.1217 sf 0 0 m (\25515) show NC gr 
 gsave  710 759 779 8 C 789 322 t 0 r /Helvetica-Bold findfont 25.6826 sf 0 0 m (10) show NC gr  858 352 m -8 X s 867 360 m -17 X s 858 377 m -8 X s 867 385 m -17 X s
 gsave  710 759 779 8 C 818 387 t 0 r /Helvetica-Bold findfont 17.1217 sf 0 0 m (\25513) show NC gr 
 gsave  710 759 779 8 C 789 370 t 0 r /Helvetica-Bold findfont 25.6826 sf 0 0 m (10) show NC gr  858 402 m -8 X s 867 409 m -17 X s 858 427 m -8 X s 867 434 m -17 X s
 gsave  710 759 779 8 C 820 436 t 0 r /Helvetica-Bold findfont 17.1217 sf 0 0 m (\25511) show NC gr 
 gsave  710 759 779 8 C 792 422 t 0 r /Helvetica-Bold findfont 25.6826 sf 0 0 m (10) show NC gr  858 452 m -8 X s 867 459 m -17 X s 858 476 m -8 X s 867 484 m -17 X s
 gsave  710 759 779 8 C 826 487 t 0 r /Helvetica-Bold findfont 17.1217 sf 0 0 m (\2559) show NC gr 
 gsave  710 759 779 8 C 798 470 t 0 r /Helvetica-Bold findfont 25.6826 sf 0 0 m (10) show NC gr  858 501 m -8 X s 867 509 m -17 X s 858 526 m -8 X s 867 534 m -17 X s
 gsave  710 759 779 8 C 826 536 t 0 r /Helvetica-Bold findfont 17.1217 sf 0 0 m (\2557) show NC gr 
 gsave  710 759 779 8 C 798 521 t 0 r /Helvetica-Bold findfont 25.6826 sf 0 0 m (10) show NC gr  858 551 m -8 X s 867 559 m -17 X s 858 576 m -8 X s 867 583 m -17 X s
 gsave  710 759 779 8 C 826 587 t 0 r /Helvetica-Bold findfont 17.1217 sf 0 0 m (\2555) show NC gr 
 gsave  710 759 779 8 C 798 570 t 0 r /Helvetica-Bold findfont 25.6826 sf 0 0 m (10) show NC gr  858 601 m -8 X s 867 608 m -17 X s 858 626 m -8 X s 867 633 m -17 X s
 gsave  710 759 779 8 C 826 638 t 0 r /Helvetica-Bold findfont 17.1217 sf 0 0 m (\2553) show NC gr 
 gsave  710 759 779 8 C 798 621 t 0 r /Helvetica-Bold findfont 25.6826 sf 0 0 m (10) show NC gr  858 651 m -8 X s 867 658 m -17 X s 858 675 m -8 X s 867 683 m -17 X s
 gsave  710 759 779 8 C 829 684 t 0 r /Helvetica-Bold findfont 17.1217 sf 0 0 m (\2551) show NC gr 
 gsave  710 759 779 8 C 801 669 t 0 r /Helvetica-Bold findfont 25.6826 sf 0 0 m (10) show NC gr  0.95 0.95 0.95 c 433 41 786 722 bf black 794 722 m -5 Y 430 X 38 Y -5 X -33 Y f 786 722 m 41 Y 433 X -41 Y -433 X cl s 1 1 1 c black
 gsave  710 759 779 8 C 806 732 t 0 r /Helvetica-Bold findfont 31.3898 sf 0 0 m (Normalized Ht \(11 gluons\)) show NC gr  0.95 0.95 0.95 c 711 759 1534 8 bf 1 1 1 c 1534 8 m 8 8 d 743 Y 695 X 8 8 d -711 X -759 Y f 0.665 0.665 0.665 c 1534 8 m 8 8 d
 695 X 743 Y 8 8 d -759 Y -711 X f black 0.95 0.95 0.95 c 568 607 1606 84 bf 1 1 1 c 1606 84 m 4 4 d 599 Y 560 X 4 4 d -568 X -607 Y f 0.665 0.665 0.665 c 1606 84 m 4 4 d 560 X 599 Y 4 4 d -607 Y -568 X f black 568 607 1606 84 bl 0.95 0.95 0.95 c
 568 607 1606 84 bf 1 1 1 c 1606 84 m 4 4 d 599 Y 560 X 4 4 d -568 X -607 Y f 0.665 0.665 0.665 c 1606 84 m 4 4 d 560 X 599 Y 4 4 d -607 Y -568 X f black 568 607 1606 84 bl 0 1 0 c black 0 1 0 c 1606 84 m 227 X 578 Y 4 X -222 Y 3 X 15 Y 4 X -54 Y 4
 X 87 Y 4 X -66 Y 4 X 35 Y 3 X -117 Y 4 X -22 Y 4 X 4 Y 4 X 75 Y 4 X -97 Y 3 X 237 Y 4 X -269 Y 4 X 28 Y 4 X -74 Y 4 X 12 Y 3 X -23 Y 4 X 30 Y 4 X -36 Y 4 X 20 Y 4 X -45 Y 3 X 10 Y 4 X -8 Y 4 X -3 Y 4 X -21 Y 3 X 4 Y 4 X 19 Y 4 X -15 Y 4 X -24 Y 4 X
 2 Y 3 X 24 Y 4 X -37 Y 4 X -2 Y 4 X 3 Y 4 X -8 Y 3 X 3 Y 4 X -9 Y 4 X 1 Y 4 X -1 Y 4 X 1 Y 3 X -10 Y 4 X 1 Y 4 X 1 Y 4 X -5 Y 3 X 1 Y 4 X -1 Y 8 X -6 Y 4 X 1 Y 3 X -3 Y 4 X 5 Y 4 X -5 Y 4 X -1 Y 4 X -2 Y 3 X -1 Y 4 X 2 Y 4 X -3 Y 8 X -1 Y 3 X -1 Y
 15 X -2 Y 4 X -1 Y 4 X 2 Y 4 X -2 Y 7 X -1 Y 8 X -1 Y 4 X 2 Y 4 X -2 Y 11 X -1 Y 11 X 1 Y 4 X -1 Y 27 X -1 Y 3 X 1 Y 4 X -1 Y 4 X f black 0 1 0 c black 1606 84 m 227 X 578 Y 4 X -222 Y 3 X 15 Y 4 X -54 Y 4 X 87 Y 4 X -66 Y 4 X 35 Y 3 X -117 Y 4 X
 -22 Y 4 X 4 Y 4 X 75 Y 4 X -97 Y 3 X 237 Y 4 X -269 Y 4 X 28 Y 4 X -74 Y 4 X 12 Y 3 X -23 Y 4 X 30 Y 4 X -36 Y 4 X 20 Y 4 X -45 Y 3 X 10 Y 4 X -8 Y 4 X -3 Y 4 X -21 Y 3 X 4 Y 4 X 19 Y 4 X -15 Y 4 X -24 Y 4 X 2 Y 3 X 24 Y 4 X -37 Y 4 X -2 Y 4 X 3 Y
 4 X -8 Y 3 X 3 Y 4 X -9 Y 4 X 1 Y 4 X -1 Y 4 X 1 Y 3 X -10 Y 4 X 1 Y 4 X 1 Y 4 X -5 Y 3 X 1 Y 4 X -1 Y 8 X -6 Y 4 X 1 Y 3 X -3 Y 4 X 5 Y 4 X -5 Y 4 X -1 Y 4 X -2 Y 3 X -1 Y 4 X 2 Y 4 X -3 Y 8 X -1 Y 3 X -1 Y 15 X -2 Y 4 X -1 Y 4 X 2 Y 4 X -2 Y 7 X
 -1 Y 8 X -1 Y 4 X 2 Y 4 X -2 Y 11 X -1 Y 11 X 1 Y 4 X -1 Y 27 X -1 Y 3 X 1 Y 4 X -1 Y 4 X s 1606 84 m 568 X s 1606 102 m -18 Y s 1617 93 m -9 Y s 1628 93 m -9 Y s 1640 93 m -9 Y s 1651 93 m -9 Y s 1662 102 m -18 Y s 1674 93 m -9 Y s 1685 93 m -9 Y
 s 1696 93 m -9 Y s 1708 93 m -9 Y s 1719 102 m -18 Y s 1731 93 m -9 Y s 1742 93 m -9 Y s 1753 93 m -9 Y s 1765 93 m -9 Y s 1776 102 m -18 Y s 1787 93 m -9 Y s 1799 93 m -9 Y s 1810 93 m -9 Y s 1822 93 m -9 Y s 1833 102 m -18 Y s 1844 93 m -9 Y s
 1856 93 m -9 Y s 1867 93 m -9 Y s 1878 93 m -9 Y s 1890 102 m -18 Y s 1901 93 m -9 Y s 1913 93 m -9 Y s 1924 93 m -9 Y s 1935 93 m -9 Y s 1947 102 m -18 Y s 1958 93 m -9 Y s 1969 93 m -9 Y s 1981 93 m -9 Y s 1992 93 m -9 Y s 2003 102 m -18 Y s 2015
 93 m -9 Y s 2026 93 m -9 Y s 2038 93 m -9 Y s 2049 93 m -9 Y s 2060 102 m -18 Y s 2072 93 m -9 Y s 2083 93 m -9 Y s 2094 93 m -9 Y s 2106 93 m -9 Y s 2117 102 m -18 Y s 2129 93 m -9 Y s 2140 93 m -9 Y s 2151 93 m -9 Y s 2163 93 m -9 Y s 2174 102 m
 -18 Y s
 gsave  711 759 1534 8 C 1595 57 t 0 r /Helvetica-Bold findfont 25.6826 sf 0 0 m (0) show NC gr 
 gsave  711 759 1534 8 C 1644 57 t 0 r /Helvetica-Bold findfont 25.6826 sf 0 0 m (0.1) show NC gr 
 gsave  711 759 1534 8 C 1698 57 t 0 r /Helvetica-Bold findfont 25.6826 sf 0 0 m (0.2) show NC gr 
 gsave  711 759 1534 8 C 1755 57 t 0 r /Helvetica-Bold findfont 25.6826 sf 0 0 m (0.3) show NC gr 
 gsave  711 759 1534 8 C 1812 57 t 0 r /Helvetica-Bold findfont 25.6826 sf 0 0 m (0.4) show NC gr 
 gsave  711 759 1534 8 C 1869 57 t 0 r /Helvetica-Bold findfont 25.6826 sf 0 0 m (0.5) show NC gr 
 gsave  711 759 1534 8 C 1926 57 t 0 r /Helvetica-Bold findfont 25.6826 sf 0 0 m (0.6) show NC gr 
 gsave  711 759 1534 8 C 1983 57 t 0 r /Helvetica-Bold findfont 25.6826 sf 0 0 m (0.7) show NC gr 
 gsave  711 759 1534 8 C 2040 57 t 0 r /Helvetica-Bold findfont 25.6826 sf 0 0 m (0.8) show NC gr 
 gsave  711 759 1534 8 C 2097 57 t 0 r /Helvetica-Bold findfont 25.6826 sf 0 0 m (0.9) show NC gr 
 gsave  711 759 1534 8 C 2168 57 t 0 r /Helvetica-Bold findfont 25.6826 sf 0 0 m (1) show NC gr  1606 84 m 607 Y s 1623 84 m -17 X s 1614 99 m -8 X s 1614 114 m -8 X s 1614 128 m -8 X s 1614 143 m -8 X s 1623 158 m -17 X s 1614 173 m -8 X s 1614 188
 m -8 X s 1614 203 m -8 X s 1614 218 m -8 X s 1623 233 m -17 X s 1614 248 m -8 X s 1614 263 m -8 X s 1614 278 m -8 X s 1614 292 m -8 X s 1623 307 m -17 X s 1614 322 m -8 X s 1614 337 m -8 X s 1614 352 m -8 X s 1614 367 m -8 X s 1623 382 m -17 X s
 1614 397 m -8 X s 1614 412 m -8 X s 1614 427 m -8 X s 1614 442 m -8 X s 1623 456 m -17 X s 1614 471 m -8 X s 1614 486 m -8 X s 1614 501 m -8 X s 1614 516 m -8 X s 1623 531 m -17 X s 1614 546 m -8 X s 1614 561 m -8 X s 1614 576 m -8 X s 1614 591 m
 -8 X s 1623 606 m -17 X s 1614 620 m -8 X s 1614 635 m -8 X s 1614 650 m -8 X s 1614 665 m -8 X s 1623 680 m -17 X s 1623 680 m -17 X s
 gsave  711 759 1534 8 C 1587 74 t 0 r /Helvetica-Bold findfont 25.6826 sf 0 0 m (0) show NC gr 
 gsave  711 759 1534 8 C 1553 148 t 0 r /Helvetica-Bold findfont 25.6826 sf 0 0 m (0.01) show NC gr 
 gsave  711 759 1534 8 C 1550 222 t 0 r /Helvetica-Bold findfont 25.6826 sf 0 0 m (0.02) show NC gr 
 gsave  711 759 1534 8 C 1550 296 t 0 r /Helvetica-Bold findfont 25.6826 sf 0 0 m (0.03) show NC gr 
 gsave  711 759 1534 8 C 1550 373 t 0 r /Helvetica-Bold findfont 25.6826 sf 0 0 m (0.04) show NC gr 
 gsave  711 759 1534 8 C 1550 447 t 0 r /Helvetica-Bold findfont 25.6826 sf 0 0 m (0.05) show NC gr 
 gsave  711 759 1534 8 C 1550 521 t 0 r /Helvetica-Bold findfont 25.6826 sf 0 0 m (0.06) show NC gr 
 gsave  711 759 1534 8 C 1550 595 t 0 r /Helvetica-Bold findfont 25.6826 sf 0 0 m (0.07) show NC gr 
 gsave  711 759 1534 8 C 1550 669 t 0 r /Helvetica-Bold findfont 25.6826 sf 0 0 m (0.08) show NC gr  0.95 0.95 0.95 c 497 41 1542 722 bf black 1550 722 m -5 Y 495 X 38 Y -6 X -33 Y f 1542 722 m 41 Y 497 X -41 Y -497 X cl s 1 1 1 c black
 gsave  711 759 1534 8 C 1558 735 t 0 r /Helvetica-Bold findfont 25.6826 sf 0 0 m (Normalized min\(R\(jet,jet\)\)  \(11 gluons\)) show NC gr 
 gr  gr 
showpage
end
%%EOF
