%!PS-Adobe-2.0 EPSF-2.0
%%Title: timing8.fig
%%Creator: fig2dev Version 3.2 Patchlevel 5
%%CreationDate: Tue Feb 16 21:47:18 2010
%%For: giele@LaptopGiele (Walter Giele)
%%BoundingBox: 0 0 568 533
%Magnification: 1.0000
%%EndComments
/$F2psDict 200 dict def
$F2psDict begin
$F2psDict /mtrx matrix put
/col-1 {0 setgray} bind def
/col0 {0.000 0.000 0.000 srgb} bind def
/col1 {0.000 0.000 1.000 srgb} bind def
/col2 {0.000 1.000 0.000 srgb} bind def
/col3 {0.000 1.000 1.000 srgb} bind def
/col4 {1.000 0.000 0.000 srgb} bind def
/col5 {1.000 0.000 1.000 srgb} bind def
/col6 {1.000 1.000 0.000 srgb} bind def
/col7 {1.000 1.000 1.000 srgb} bind def
/col8 {0.000 0.000 0.560 srgb} bind def
/col9 {0.000 0.000 0.690 srgb} bind def
/col10 {0.000 0.000 0.820 srgb} bind def
/col11 {0.530 0.810 1.000 srgb} bind def
/col12 {0.000 0.560 0.000 srgb} bind def
/col13 {0.000 0.690 0.000 srgb} bind def
/col14 {0.000 0.820 0.000 srgb} bind def
/col15 {0.000 0.560 0.560 srgb} bind def
/col16 {0.000 0.690 0.690 srgb} bind def
/col17 {0.000 0.820 0.820 srgb} bind def
/col18 {0.560 0.000 0.000 srgb} bind def
/col19 {0.690 0.000 0.000 srgb} bind def
/col20 {0.820 0.000 0.000 srgb} bind def
/col21 {0.560 0.000 0.560 srgb} bind def
/col22 {0.690 0.000 0.690 srgb} bind def
/col23 {0.820 0.000 0.820 srgb} bind def
/col24 {0.500 0.190 0.000 srgb} bind def
/col25 {0.630 0.250 0.000 srgb} bind def
/col26 {0.750 0.380 0.000 srgb} bind def
/col27 {1.000 0.500 0.500 srgb} bind def
/col28 {1.000 0.630 0.630 srgb} bind def
/col29 {1.000 0.750 0.750 srgb} bind def
/col30 {1.000 0.880 0.880 srgb} bind def
/col31 {1.000 0.840 0.000 srgb} bind def
/col32 {0.949 0.949 0.949 srgb} bind def
/col33 {0.663 0.663 0.663 srgb} bind def

end
save
newpath 0 533 moveto 0 0 lineto 568 0 lineto 568 533 lineto closepath clip newpath
0.1 792.1 translate
1 -1 scale

/cp {closepath} bind def
/ef {eofill} bind def
/gr {grestore} bind def
/gs {gsave} bind def
/sa {save} bind def
/rs {restore} bind def
/l {lineto} bind def
/m {moveto} bind def
/rm {rmoveto} bind def
/n {newpath} bind def
/s {stroke} bind def
/sh {show} bind def
/slc {setlinecap} bind def
/slj {setlinejoin} bind def
/slw {setlinewidth} bind def
/srgb {setrgbcolor} bind def
/rot {rotate} bind def
/sc {scale} bind def
/sd {setdash} bind def
/ff {findfont} bind def
/sf {setfont} bind def
/scf {scalefont} bind def
/sw {stringwidth} bind def
/tr {translate} bind def
/tnt {dup dup currentrgbcolor
  4 -2 roll dup 1 exch sub 3 -1 roll mul add
  4 -2 roll dup 1 exch sub 3 -1 roll mul add
  4 -2 roll dup 1 exch sub 3 -1 roll mul add srgb}
  bind def
/shd {dup dup currentrgbcolor 4 -2 roll mul 4 -2 roll mul
  4 -2 roll mul srgb} bind def
/reencdict 12 dict def /ReEncode { reencdict begin
/newcodesandnames exch def /newfontname exch def /basefontname exch def
/basefontdict basefontname findfont def /newfont basefontdict maxlength dict def
basefontdict { exch dup /FID ne { dup /Encoding eq
{ exch dup length array copy newfont 3 1 roll put }
{ exch newfont 3 1 roll put } ifelse } { pop pop } ifelse } forall
newfont /FontName newfontname put newcodesandnames aload pop
128 1 255 { newfont /Encoding get exch /.notdef put } for
newcodesandnames length 2 idiv { newfont /Encoding get 3 1 roll put } repeat
newfontname newfont definefont pop end } def
/isovec [
8#055 /minus 8#200 /grave 8#201 /acute 8#202 /circumflex 8#203 /tilde
8#204 /macron 8#205 /breve 8#206 /dotaccent 8#207 /dieresis
8#210 /ring 8#211 /cedilla 8#212 /hungarumlaut 8#213 /ogonek 8#214 /caron
8#220 /dotlessi 8#230 /oe 8#231 /OE
8#240 /space 8#241 /exclamdown 8#242 /cent 8#243 /sterling
8#244 /currency 8#245 /yen 8#246 /brokenbar 8#247 /section 8#250 /dieresis
8#251 /copyright 8#252 /ordfeminine 8#253 /guillemotleft 8#254 /logicalnot
8#255 /hyphen 8#256 /registered 8#257 /macron 8#260 /degree 8#261 /plusminus
8#262 /twosuperior 8#263 /threesuperior 8#264 /acute 8#265 /mu 8#266 /paragraph
8#267 /periodcentered 8#270 /cedilla 8#271 /onesuperior 8#272 /ordmasculine
8#273 /guillemotright 8#274 /onequarter 8#275 /onehalf
8#276 /threequarters 8#277 /questiondown 8#300 /Agrave 8#301 /Aacute
8#302 /Acircumflex 8#303 /Atilde 8#304 /Adieresis 8#305 /Aring
8#306 /AE 8#307 /Ccedilla 8#310 /Egrave 8#311 /Eacute
8#312 /Ecircumflex 8#313 /Edieresis 8#314 /Igrave 8#315 /Iacute
8#316 /Icircumflex 8#317 /Idieresis 8#320 /Eth 8#321 /Ntilde 8#322 /Ograve
8#323 /Oacute 8#324 /Ocircumflex 8#325 /Otilde 8#326 /Odieresis 8#327 /multiply
8#330 /Oslash 8#331 /Ugrave 8#332 /Uacute 8#333 /Ucircumflex
8#334 /Udieresis 8#335 /Yacute 8#336 /Thorn 8#337 /germandbls 8#340 /agrave
8#341 /aacute 8#342 /acircumflex 8#343 /atilde 8#344 /adieresis 8#345 /aring
8#346 /ae 8#347 /ccedilla 8#350 /egrave 8#351 /eacute
8#352 /ecircumflex 8#353 /edieresis 8#354 /igrave 8#355 /iacute
8#356 /icircumflex 8#357 /idieresis 8#360 /eth 8#361 /ntilde 8#362 /ograve
8#363 /oacute 8#364 /ocircumflex 8#365 /otilde 8#366 /odieresis 8#367 /divide
8#370 /oslash 8#371 /ugrave 8#372 /uacute 8#373 /ucircumflex
8#374 /udieresis 8#375 /yacute 8#376 /thorn 8#377 /ydieresis] def
/Helvetica-Bold /Helvetica-Bold-iso isovec ReEncode
/$F2psBegin {$F2psDict begin /$F2psEnteredState save def} def
/$F2psEnd {$F2psEnteredState restore end} def

$F2psBegin
10 setmiterlimit
0 slj 0 slc
 0.06000 0.06000 sc
%
% Fig objects follow
%
% 
% here starts figure with depth 999
%  polyline 
% Polyline
0 slj
0 slc
0.000 slw
n 0 13200 m 0 4325 l 9449 4325 l 9449 13200 l
 0 13200 l  cp gs col32 1.00 shd ef gr 
% here ends figure;
% 
% here starts figure with depth 997
%  polyline 
% Polyline
0 slj
0 slc
0.000 slw
n 0 13200 m 33 13166 l 33 4358 l 9416 4358 l 9449 4325 l 0 4325 l

 0 13200 l  cp gs col7 1.00 shd ef gr 
% here ends figure;
% 
% here starts figure with depth 995
%  polyline 
% Polyline
0 slj
0 slc
0.000 slw
n 0 13200 m 33 13166 l 9416 13166 l 9416 4358 l 9449 4325 l 9449 13200 l

 0 13200 l  cp gs col33 1.00 shd ef gr 
% here ends figure;
% 
% here starts figure with depth 991
%  polyline 
% Polyline
0 slj
0 slc
0.000 slw
n 945 12312 m 962 12295 l 962 5229 l 8487 5229 l 8504 5212 l 945 5212 l

 945 12312 l  cp gs col7 1.00 shd ef gr 
% here ends figure;
% 
% here starts figure with depth 989
%  polyline 
% Polyline
0 slj
0 slc
0.000 slw
n 945 12312 m 962 12295 l 8487 12295 l 8487 5229 l 8504 5212 l 8504 12312 l

 945 12312 l  cp gs col33 1.00 shd ef gr 
% here ends figure;
% 
% here starts figure with depth 987
%  polyline 
% Polyline
0 slj
0 slc
7.500 slw
n 945 12312 m 945 5212 l 8504 5212 l 8504 12312 l
 945 12312 l  cp gs col0 s gr 
% here ends figure;
% 
% here starts figure with depth 985
%  polyline 
% Polyline
0 slj
0 slc
0.000 slw
n 945 12312 m 945 5212 l 8504 5212 l 8504 12312 l
 945 12312 l  cp gs col32 1.00 shd ef gr 
% here ends figure;
% 
% here starts figure with depth 983
%  polyline 
% Polyline
0 slj
0 slc
0.000 slw
n 945 12312 m 962 12295 l 962 5229 l 8487 5229 l 8504 5212 l 945 5212 l

 945 12312 l  cp gs col7 1.00 shd ef gr 
% here ends figure;
% 
% here starts figure with depth 981
%  polyline 
% Polyline
0 slj
0 slc
0.000 slw
n 945 12312 m 962 12295 l 8487 12295 l 8487 5229 l 8504 5212 l 8504 12312 l

 945 12312 l  cp gs col33 1.00 shd ef gr 
% here ends figure;
% 
% here starts figure with depth 979
%  polyline 
% Polyline
0 slj
0 slc
7.500 slw
n 945 12312 m 945 5212 l 8504 5212 l 8504 12312 l
 945 12312 l  cp gs col0 s gr 
%  polyline 
% Polyline
n 945 12312 m
 8504 12312 l gs col0 s gr 
%  polyline 
% Polyline
 [15 60] 60 sd
n 945 5212 m
 945 12312 l gs col0 s gr  [] 0 sd
% here ends figure;
% 
% here starts figure with depth 975
%  polyline 
% Polyline
0 slj
0 slc
7.500 slw
 [15 60] 60 sd
n 2295 5212 m
 2295 12312 l gs col0 s gr  [] 0 sd
%  polyline 
% Polyline
 [15 60] 60 sd
n 3645 5212 m
 3645 12312 l gs col0 s gr  [] 0 sd
%  polyline 
% Polyline
 [15 60] 60 sd
n 4995 5212 m
 4995 12312 l gs col0 s gr  [] 0 sd
%  polyline 
% Polyline
 [15 60] 60 sd
n 6345 5212 m
 6345 12312 l gs col0 s gr  [] 0 sd
%  polyline 
% Polyline
 [15 60] 60 sd
n 7695 5212 m
 7695 12312 l gs col0 s gr  [] 0 sd
%  polyline 
% Polyline
 [15 60] 60 sd
n 7695 5212 m
 7695 12312 l gs col0 s gr  [] 0 sd
%  polyline 
% Polyline
n 945 12312 m
 945 5212 l gs col0 s gr 
% here ends figure;
% 
% here starts figure with depth 967
%  polyline 
% Polyline
0 slj
0 slc
7.500 slw
 [15 60] 60 sd
n 8504 12079 m
 945 12079 l gs col0 s gr  [] 0 sd
%  polyline 
% Polyline
 [15 60] 60 sd
n 8504 11291 m
 945 11291 l gs col0 s gr  [] 0 sd
%  polyline 
% Polyline
 [15 60] 60 sd
n 8504 10729 m
 945 10729 l gs col0 s gr  [] 0 sd
%  polyline 
% Polyline
 [15 60] 60 sd
n 8504 10295 m
 945 10295 l gs col0 s gr  [] 0 sd
%  polyline 
% Polyline
 [15 60] 60 sd
n 8504 9941 m
 945 9941 l gs col0 s gr  [] 0 sd
%  polyline 
% Polyline
 [15 60] 60 sd
n 8504 9641 m
 945 9641 l gs col0 s gr  [] 0 sd
%  polyline 
% Polyline
 [15 60] 60 sd
n 8504 9383 m
 945 9383 l gs col0 s gr  [] 0 sd
%  polyline 
% Polyline
 [15 60] 60 sd
n 8504 9154 m
 945 9154 l gs col0 s gr  [] 0 sd
%  polyline 
% Polyline
 [15 60] 60 sd
n 8504 8950 m
 945 8950 l gs col0 s gr  [] 0 sd
%  polyline 
% Polyline
 [15 60] 60 sd
n 8504 7600 m
 945 7600 l gs col0 s gr  [] 0 sd
%  polyline 
% Polyline
 [15 60] 60 sd
n 8504 6812 m
 945 6812 l gs col0 s gr  [] 0 sd
%  polyline 
% Polyline
 [15 60] 60 sd
n 8504 6254 m
 945 6254 l gs col0 s gr  [] 0 sd
%  polyline 
% Polyline
 [15 60] 60 sd
n 8504 5816 m
 945 5816 l gs col0 s gr  [] 0 sd
%  polyline 
% Polyline
 [15 60] 60 sd
n 8504 5462 m
 945 5462 l gs col0 s gr  [] 0 sd
% here ends figure;
% 
% here starts figure with depth 952
%  polyline 
% Polyline
0 slj
0 slc
7.500 slw
n 945 6454 m 1216 6454 l 1216 7287 l 1483 7287 l 1483 7641 l 1754 7641 l
 1754 8200 l 2024 8200 l 2024 8625 l 2295 8625 l 2295 8975 l
 2566 8975 l 2566 9216 l 2833 9216 l 2833 9475 l 3104 9475 l
 3104 9704 l 3374 9704 l 3374 9879 l 3645 9879 l 3645 10050 l
 3912 10050 l 3912 9983 l 4183 9983 l 4183 10137 l 4454 10137 l
 4454 10258 l 4724 10258 l 4724 10366 l 4995 10366 l 4995 10479 l
 5262 10479 l 5262 10558 l 5533 10558 l 5533 10666 l 5804 10666 l
 5804 10683 l 6074 10683 l 6074 10745 l 6345 10745 l 6345 10712 l
 6612 10712 l 6612 10800 l 6883 10800 l 6883 10870 l 7154 10870 l
 7154 10879 l 7424 10879 l 7424 10883 l 7695 10883 l 7695 10845 l
 7962 10845 l 7962 10916 l 8233 10916 l 8233 10962 l
 8504 10962 l gs col1 s gr 
%  polyline 
% Polyline
n 945 12312 m
 8504 12312 l gs col0 s gr 
%  polyline 
% Polyline
n 945 12100 m
 945 12312 l gs col0 s gr 
% here ends figure;
% 
% here starts figure with depth 948
%  polyline 
% Polyline
0 slj
0 slc
7.500 slw
n 1216 12204 m
 1216 12312 l gs col0 s gr 
%  polyline 
% Polyline
n 1483 12204 m
 1483 12312 l gs col0 s gr 
%  polyline 
% Polyline
n 1754 12204 m
 1754 12312 l gs col0 s gr 
%  polyline 
% Polyline
n 2024 12204 m
 2024 12312 l gs col0 s gr 
%  polyline 
% Polyline
n 2295 12100 m
 2295 12312 l gs col0 s gr 
%  polyline 
% Polyline
n 2566 12204 m
 2566 12312 l gs col0 s gr 
%  polyline 
% Polyline
n 2833 12204 m
 2833 12312 l gs col0 s gr 
%  polyline 
% Polyline
n 3104 12204 m
 3104 12312 l gs col0 s gr 
%  polyline 
% Polyline
n 3374 12204 m
 3374 12312 l gs col0 s gr 
%  polyline 
% Polyline
n 3645 12100 m
 3645 12312 l gs col0 s gr 
%  polyline 
% Polyline
n 3912 12204 m
 3912 12312 l gs col0 s gr 
%  polyline 
% Polyline
n 4183 12204 m
 4183 12312 l gs col0 s gr 
%  polyline 
% Polyline
n 4454 12204 m
 4454 12312 l gs col0 s gr 
%  polyline 
% Polyline
n 4724 12204 m
 4724 12312 l gs col0 s gr 
%  polyline 
% Polyline
n 4995 12100 m
 4995 12312 l gs col0 s gr 
%  polyline 
% Polyline
n 5262 12204 m
 5262 12312 l gs col0 s gr 
%  polyline 
% Polyline
n 5533 12204 m
 5533 12312 l gs col0 s gr 
%  polyline 
% Polyline
n 5804 12204 m
 5804 12312 l gs col0 s gr 
%  polyline 
% Polyline
n 6074 12204 m
 6074 12312 l gs col0 s gr 
%  polyline 
% Polyline
n 6345 12100 m
 6345 12312 l gs col0 s gr 
%  polyline 
% Polyline
n 6612 12204 m
 6612 12312 l gs col0 s gr 
%  polyline 
% Polyline
n 6883 12204 m
 6883 12312 l gs col0 s gr 
%  polyline 
% Polyline
n 7154 12204 m
 7154 12312 l gs col0 s gr 
%  polyline 
% Polyline
n 7424 12204 m
 7424 12312 l gs col0 s gr 
%  polyline 
% Polyline
n 7695 12100 m
 7695 12312 l gs col0 s gr 
%  polyline 
% Polyline
n 7695 12100 m
 7695 12312 l gs col0 s gr 
%  polyline 
% Polyline
n 7962 12204 m
 7962 12312 l gs col0 s gr 
%  polyline 
% Polyline
n 8233 12204 m
 8233 12312 l gs col0 s gr 
%  text 
/Helvetica-Bold-iso ff 366.67 scf sf
833 12629 m
gs 1 -1 sc (0) col0 sh gr
% here ends figure;
% 
% here starts figure with depth 918
%  text 
/Helvetica-Bold-iso ff 366.67 scf sf
2195 12629 m
gs 1 -1 sc (5) col0 sh gr
%  text 
/Helvetica-Bold-iso ff 366.67 scf sf
3437 12629 m
gs 1 -1 sc (10) col0 sh gr
%  text 
/Helvetica-Bold-iso ff 366.67 scf sf
4795 12629 m
gs 1 -1 sc (15) col0 sh gr
%  text 
/Helvetica-Bold-iso ff 366.67 scf sf
6133 12629 m
gs 1 -1 sc (20) col0 sh gr
%  text 
/Helvetica-Bold-iso ff 366.67 scf sf
7491 12629 m
gs 1 -1 sc (25) col0 sh gr
%  polyline 
% Polyline
0 slj
0 slc
7.500 slw
n 945 12312 m
 945 5212 l gs col0 s gr 
% here ends figure;
% 
% here starts figure with depth 911
%  polyline 
% Polyline
0 slj
0 slc
7.500 slw
n 1058 12079 m
 945 12079 l gs col0 s gr 
%  polyline 
% Polyline
n 1058 11291 m
 945 11291 l gs col0 s gr 
%  polyline 
% Polyline
n 1058 10729 m
 945 10729 l gs col0 s gr 
%  polyline 
% Polyline
n 1058 10295 m
 945 10295 l gs col0 s gr 
%  polyline 
% Polyline
n 1058 9941 m
 945 9941 l gs col0 s gr 
%  polyline 
% Polyline
n 1058 9641 m
 945 9641 l gs col0 s gr 
%  polyline 
% Polyline
n 1058 9383 m
 945 9383 l gs col0 s gr 
%  polyline 
% Polyline
n 1058 9154 m
 945 9154 l gs col0 s gr 
%  polyline 
% Polyline
n 1170 8950 m
 945 8950 l gs col0 s gr 
%  text 
/Helvetica-Bold-iso ff 233.33 scf sf
666 8904 m
gs 1 -1 sc (-6) col0 sh gr
% here ends figure;
% 
% here starts figure with depth 900
%  text 
/Helvetica-Bold-iso ff 366.67 scf sf
308 9095 m
gs 1 -1 sc (10) col0 sh gr
%  polyline 
% Polyline
0 slj
0 slc
7.500 slw
n 1058 7600 m
 945 7600 l gs col0 s gr 
%  polyline 
% Polyline
n 1058 6812 m
 945 6812 l gs col0 s gr 
%  polyline 
% Polyline
n 1058 6254 m
 945 6254 l gs col0 s gr 
%  polyline 
% Polyline
n 1058 5816 m
 945 5816 l gs col0 s gr 
%  polyline 
% Polyline
n 1058 5462 m
 945 5462 l gs col0 s gr 
% here ends figure;
% 
% here starts figure with depth 888
%  text 
/Helvetica-Bold-iso ff 416.67 scf sf
1575 4725 m
gs 1 -1 sc (Timing profile in seconds for 8g) col0 sh gr
%  polyline 
% Polyline
0 slj
0 slc
7.500 slw
n 945 9970 m 1216 9970 l 1216 9258 l 1483 9258 l 1483 8495 l 2024 8495 l
 2024 8470 l 2566 8470 l 2566 8345 l 3104 8345 l 3104 8341 l
 3374 8341 l 3374 8283 l 3645 8283 l 3645 8258 l 3912 8258 l
 3912 7737 l 4183 7737 l 4183 7725 l 4454 7725 l 4454 7675 l
 4724 7675 l 4724 7608 l 4995 7608 l 4995 7579 l 5262 7579 l
 5262 7479 l 5804 7479 l 5804 7245 l 6074 7245 l 6074 7158 l
 6345 7158 l 6345 6800 l 6883 6800 l 6883 6754 l 7154 6754 l
 7154 6537 l 7424 6537 l 7424 6300 l 7695 6300 l 7695 5941 l
 8233 5941 l 8233 5858 l
 8504 5858 l gs col4 s gr 
% here ends figure;
% 
% here starts figure with depth 885
%  polyline 
% Polyline
0 slj
0 slc
7.500 slw
n 8504 12312 m
 8504 5212 l gs col4 s gr 
%  polyline 
% Polyline
n 8279 12312 m
 8504 12312 l gs col4 s gr 
% here ends figure;
% 
% here starts figure with depth 882
%  polyline 
% Polyline
0 slj
0 slc
7.500 slw
n 8391 12095 m
 8504 12095 l gs col4 s gr 
%  polyline 
% Polyline
n 8391 11879 m
 8504 11879 l gs col4 s gr 
%  polyline 
% Polyline
n 8391 11662 m
 8504 11662 l gs col4 s gr 
%  polyline 
% Polyline
n 8391 11445 m
 8504 11445 l gs col4 s gr 
%  polyline 
% Polyline
n 8279 11229 m
 8504 11229 l gs col4 s gr 
%  polyline 
% Polyline
n 8391 11012 m
 8504 11012 l gs col4 s gr 
%  polyline 
% Polyline
n 8391 10795 m
 8504 10795 l gs col4 s gr 
%  polyline 
% Polyline
n 8391 10579 m
 8504 10579 l gs col4 s gr 
%  polyline 
% Polyline
n 8391 10362 m
 8504 10362 l gs col4 s gr 
%  polyline 
% Polyline
n 8279 10145 m
 8504 10145 l gs col4 s gr 
%  polyline 
% Polyline
n 8391 9929 m
 8504 9929 l gs col4 s gr 
%  polyline 
% Polyline
n 8391 9712 m
 8504 9712 l gs col4 s gr 
%  polyline 
% Polyline
n 8391 9495 m
 8504 9495 l gs col4 s gr 
%  polyline 
% Polyline
n 8391 9279 m
 8504 9279 l gs col4 s gr 
%  polyline 
% Polyline
n 8279 9062 m
 8504 9062 l gs col4 s gr 
%  polyline 
% Polyline
n 8391 8845 m
 8504 8845 l gs col4 s gr 
%  polyline 
% Polyline
n 8391 8629 m
 8504 8629 l gs col4 s gr 
%  polyline 
% Polyline
n 8391 8412 m
 8504 8412 l gs col4 s gr 
%  polyline 
% Polyline
n 8391 8195 m
 8504 8195 l gs col4 s gr 
%  polyline 
% Polyline
n 8279 7979 m
 8504 7979 l gs col4 s gr 
%  polyline 
% Polyline
n 8391 7766 m
 8504 7766 l gs col4 s gr 
%  polyline 
% Polyline
n 8391 7550 m
 8504 7550 l gs col4 s gr 
%  polyline 
% Polyline
n 8391 7333 m
 8504 7333 l gs col4 s gr 
%  polyline 
% Polyline
n 8391 7116 m
 8504 7116 l gs col4 s gr 
%  polyline 
% Polyline
n 8279 6900 m
 8504 6900 l gs col4 s gr 
%  polyline 
% Polyline
n 8391 6683 m
 8504 6683 l gs col4 s gr 
%  polyline 
% Polyline
n 8391 6466 m
 8504 6466 l gs col4 s gr 
%  polyline 
% Polyline
n 8391 6250 m
 8504 6250 l gs col4 s gr 
%  polyline 
% Polyline
n 8391 6033 m
 8504 6033 l gs col4 s gr 
%  polyline 
% Polyline
n 8279 5816 m
 8504 5816 l gs col4 s gr 
%  polyline 
% Polyline
n 8279 5816 m
 8504 5816 l gs col4 s gr 
%  polyline 
% Polyline
n 8391 5600 m
 8504 5600 l gs col4 s gr 
%  polyline 
% Polyline
n 8391 5383 m
 8504 5383 l gs col4 s gr 
%  text 
/Helvetica-Bold-iso ff 366.67 scf sf
8541 12437 m
gs 1 -1 sc (0) col4 sh gr
% here ends figure;
% 
% here starts figure with depth 847
%  text 
/Helvetica-Bold-iso ff 366.67 scf sf
8541 11362 m
gs 1 -1 sc (50) col4 sh gr
%  text 
/Helvetica-Bold-iso ff 366.67 scf sf
8541 10287 m
gs 1 -1 sc (100) col4 sh gr
%  text 
/Helvetica-Bold-iso ff 366.67 scf sf
8541 9191 m
gs 1 -1 sc (150) col4 sh gr
%  text 
/Helvetica-Bold-iso ff 366.67 scf sf
8541 8116 m
gs 1 -1 sc (200) col4 sh gr
%  text 
/Helvetica-Bold-iso ff 366.67 scf sf
8541 7020 m
gs 1 -1 sc (250) col4 sh gr
%  text 
/Helvetica-Bold-iso ff 366.67 scf sf
8541 5945 m
gs 1 -1 sc (300) col4 sh gr
% here ends figure;
% 
% here starts figure with depth 50
/Helvetica-Bold-iso ff 333.33 scf sf
7425 13050 m
gs 1 -1 sc (# events/MP) col0 sh gr
% here ends figure;
$F2psEnd
rs
showpage
%%Trailer
%EOF
