%!PS-Adobe-2.0 EPSF-2.0
%%BoundingBox:  0 0 567 533
%%Title: /home/giele/recursion/tes1/plots/timing10.eps: GPU timing profile
%%Creator: ROOT Version 5.25/04
%%CreationDate: Sun Jan 24 20:16:45 2010
%%EndComments
%%BeginProlog
80 dict begin
/s {stroke} def /l {lineto} def /m {moveto} def /t {translate} def
/sw {stringwidth} def /r {rotate} def /rl {roll}  def /R {repeat} def
/d {rlineto} def /rm {rmoveto} def /gr {grestore} def /f {eofill} def
/c {setrgbcolor} def /black {0 setgray} def /sd {setdash} def
/cl {closepath} def /sf {scalefont setfont} def /lw {setlinewidth} def
/box {m dup 0 exch d exch 0 d 0 exch neg d cl} def
/NC{systemdict begin initclip end}def/C{NC box clip newpath}def
/bl {box s} def /bf {box f} def /Y { 0 exch d} def /X { 0 d} def 
/mp {newpath /y exch def /x exch def} def
/side {[w .77 mul w .23 mul] .385 w mul sd w 0 l currentpoint t -144 r} def
/mr {mp x y w2 0 360 arc} def /m24 {mr s} def /m20 {mr f} def
/mb {mp x y w2 add m w2 neg 0 d 0 w neg d w 0 d 0 w d cl} def
/mt {mp x y w2 add m w2 neg w neg d w 0 d cl} def
/m21 {mb f} def /m25 {mb s} def /m22 {mt f} def /m26{mt s} def
/m23 {mp x y w2 sub m w2 w d w neg 0 d cl f} def
/m27 {mp x y w2 add m w3 neg w2 neg d w3 w2 neg d w3 w2 d cl s} def
/m28 {mp x w2 sub y w2 sub w3 add m w3 0 d  0 w3 neg d w3 0 d 0 w3 d w3 0 d  0 w3 d w3 neg 0 d 0 w3 d w3 neg 0 d
 0 w3 neg d w3 neg 0 d cl s } def
/m29 {mp gsave x w2 sub y w2 add w3 sub m currentpoint t
 4 {side} repeat cl fill gr} def
/m30 {mp gsave x w2 sub y w2 add w3 sub m currentpoint t
 4 {side} repeat cl s gr} def
/m31 {mp x y w2 sub m 0 w d x w2 sub y m w 0 d x w2 sub y w2 add m w w neg d x w2 sub y w2
 sub m w w d s} def
/m2 {mp x y w2 sub m 0 w d x w2 sub y m w 0 d s} def
/m5 {mp x w2 sub y w2 sub m w w d x w2 sub y w2 add m w w neg d s} def
/reEncode {exch findfont dup length dict begin {1 index /FID eq  {pop pop} {def} ifelse } forall /Encoding exch def currentdict end dup /FontName get exch definefont pop } def [/Times-Bold /Times-Italic /Times-BoldItalic /Helvetica
 /Helvetica-Oblique /Helvetica-Bold /Helvetica-BoldOblique /Courier /Courier-Oblique /Courier-Bold /Courier-BoldOblique /Times-Roman /AvantGarde-Book /AvantGarde-BookOblique /AvantGarde-Demi /AvantGarde-DemiOblique /Bookman-Demi
 /Bookman-DemiItalic /Bookman-Light /Bookman-LightItalic /Helvetica-Narrow /Helvetica-Narrow-Bold /Helvetica-Narrow-BoldOblique /Helvetica-Narrow-Oblique /NewCenturySchlbk-Roman /NewCenturySchlbk-Bold
 /NewCenturySchlbk-BoldItalic /NewCenturySchlbk-Italic /Palatino-Bold /Palatino-BoldItalic /Palatino-Italic /Palatino-Roman ] {ISOLatin1Encoding reEncode } forall
/oshow {gsave [] 0 sd true charpath stroke gr} def
/stwn { /fs exch def /fn exch def /text exch def fn findfont fs sf
 text sw pop xs add /xs exch def} def
/stwb { /fs exch def /fn exch def /nbas exch def /textf exch deftextf length /tlen exch def nbas tlen gt {/nbas tlendef} iffn findfont fs sf textf dup length nbas sub nbas getinterval sw
pop neg xs add /xs exch def} def
%%EndProlog
%%BeginSetup
%%EndSetup
newpath  gsave  .25 .25 scale  gsave  0 0 t black[  ] 0 sd 3 lw 0.95 0.95 0.95 c 2268 2130 0 0 bf 1 1 1 c 0 0 m 8 8 d 2114 Y 2252 X 8 8 d -2268 X -2130 Y f 0.665 0.665 0.665 c 0 0 m 8 8 d 2252 X 2114 Y 8 8 d -2130 Y -2268 X f black 0.95 0.95 0.95 c
 1814 1704 227 213 bf 1 1 1 c 227 213 m 4 4 d 1696 Y 1806 X 4 4 d -1814 X -1704 Y f 0.665 0.665 0.665 c 227 213 m 4 4 d 1806 X 1696 Y 4 4 d -1704 Y -1814 X f black 1814 1704 227 213 bl 0.95 0.95 0.95 c 1814 1704 227 213 bf 1 1 1 c 227 213 m 4 4 d
 1696 Y 1806 X 4 4 d -1814 X -1704 Y f 0.665 0.665 0.665 c 227 213 m 4 4 d 1806 X 1696 Y 4 4 d -1704 Y -1814 X f black 1814 1704 227 213 bl 227 213 m 1814 X s[ 4 8] 0 sd 227 1917 m -1704 Y s 428 1917 m -1704 Y s 630 1917 m -1704 Y s 831 1917 m -1704
 Y s 1033 1917 m -1704 Y s 1235 1917 m -1704 Y s 1436 1917 m -1704 Y s 1638 1917 m -1704 Y s 1839 1917 m -1704 Y s 2041 1917 m -1704 Y s[  ] 0 sd 227 213 m 1704 Y s[ 4 8] 0 sd 2041 290 m -1814 X s 2041 397 m -1814 X s 2041 484 m -1814 X s 2041 558 m
 -1814 X s 2041 622 m -1814 X s 2041 678 m -1814 X s 2041 728 m -1814 X s 2041 1060 m -1814 X s 2041 1254 m -1814 X s 2041 1392 m -1814 X s 2041 1498 m -1814 X s 2041 1585 m -1814 X s 2041 1659 m -1814 X s 2041 1723 m -1814 X s 2041 1779 m -1814 X s
 2041 1830 m -1814 X s 0 0 1 c[  ] 0 sd 1 1 1 c black 0 0 1 c 227 1612 m 101 X -209 Y 100 X -194 Y 101 X -137 Y 101 X -106 Y 101 X -80 Y 100 X -73 Y 101 X -57 Y 101 X -2 Y 101 X -50 Y 101 X -30 Y 100 X -32 Y 101 X -11 Y 101 X -34 Y 101 X -24 Y 101 X
 -4 Y 100 X -2 Y 101 X -22 Y 101 X s black 227 213 m 1814 X s 227 264 m -51 Y s 277 239 m -26 Y s 328 239 m -26 Y s 378 239 m -26 Y s 428 264 m -51 Y s 479 239 m -26 Y s 529 239 m -26 Y s 580 239 m -26 Y s 630 264 m -51 Y s 680 239 m -26 Y s 731 239
 m -26 Y s 781 239 m -26 Y s 831 264 m -51 Y s 882 239 m -26 Y s 932 239 m -26 Y s 983 239 m -26 Y s 1033 264 m -51 Y s 1083 239 m -26 Y s 1134 239 m -26 Y s 1184 239 m -26 Y s 1235 264 m -51 Y s 1285 239 m -26 Y s 1335 239 m -26 Y s 1386 239 m -26
 Y s 1436 264 m -51 Y s 1487 239 m -26 Y s 1537 239 m -26 Y s 1587 239 m -26 Y s 1638 264 m -51 Y s 1688 239 m -26 Y s 1739 239 m -26 Y s 1789 239 m -26 Y s 1839 264 m -51 Y s 1890 239 m -26 Y s 1940 239 m -26 Y s 1991 239 m -26 Y s 2041 264 m -51 Y
 s
 gsave  2268 2130 0 0 C 200 137 t 0 r /Helvetica-Bold findfont 80.1718 sf 0 0 m (0) show NC gr 
 gsave  2268 2130 0 0 C 401 137 t 0 r /Helvetica-Bold findfont 80.1718 sf 0 0 m (2) show NC gr 
 gsave  2268 2130 0 0 C 607 137 t 0 r /Helvetica-Bold findfont 80.1718 sf 0 0 m (4) show NC gr 
 gsave  2268 2130 0 0 C 807 137 t 0 r /Helvetica-Bold findfont 80.1718 sf 0 0 m (6) show NC gr 
 gsave  2268 2130 0 0 C 1008 137 t 0 r /Helvetica-Bold findfont 80.1718 sf 0 0 m (8) show NC gr 
 gsave  2268 2130 0 0 C 1185 137 t 0 r /Helvetica-Bold findfont 80.1718 sf 0 0 m (10) show NC gr 
 gsave  2268 2130 0 0 C 1386 137 t 0 r /Helvetica-Bold findfont 80.1718 sf 0 0 m (12) show NC gr 
 gsave  2268 2130 0 0 C 1592 137 t 0 r /Helvetica-Bold findfont 80.1718 sf 0 0 m (14) show NC gr 
 gsave  2268 2130 0 0 C 1792 137 t 0 r /Helvetica-Bold findfont 80.1718 sf 0 0 m (16) show NC gr 
 gsave  2268 2130 0 0 C 1993 137 t 0 r /Helvetica-Bold findfont 80.1718 sf 0 0 m (18) show NC gr  227 213 m 1704 Y s 254 290 m -27 X s 254 397 m -27 X s 254 484 m -27 X s 254 558 m -27 X s 254 622 m -27 X s 254 678 m -27 X s 281 728 m -54 X s
 gsave  2268 2130 0 0 C 160 739 t 0 r /Helvetica-Bold findfont 51.539 sf 0 0 m (\2556) show NC gr 
 gsave  2268 2130 0 0 C 74 693 t 0 r /Helvetica-Bold findfont 80.1718 sf 0 0 m (10) show NC gr  254 1060 m -27 X s 254 1254 m -27 X s 254 1392 m -27 X s 254 1498 m -27 X s 254 1585 m -27 X s 254 1659 m -27 X s 254 1723 m -27 X s 254 1779 m -27 X s
 281 1830 m -54 X s
 gsave  2268 2130 0 0 C 160 1838 t 0 r /Helvetica-Bold findfont 51.539 sf 0 0 m (\2555) show NC gr 
 gsave  2268 2130 0 0 C 74 1792 t 0 r /Helvetica-Bold findfont 80.1718 sf 0 0 m (10) show NC gr  0.95 0.95 0.95 c 1093 117 23 2003 bf black 40 2003 m -12 Y 1087 X 111 Y -11 X -99 Y f 23 2003 m 117 Y 1093 X -117 Y -1093 X cl s 1 1 1 c black
 gsave  2268 2130 0 0 C 74 2033 t 0 r /Helvetica-Bold findfont 91.6249 sf 0 0 m (10\255gluon timing profile) show NC gr  1 0 0 c 1 1 1 c black 1 0 0 c 227 1014 m 101 X 234 Y 100 X 1 Y 101 X 1 Y 101 X 2 Y 101 X 16 Y 100 X 1 Y 101 X 14 Y 101 X 130 Y
 202 X 40 Y 100 X 25 Y 101 X 75 Y 101 X 4 Y 101 X 27 Y 101 X 77 Y 100 X 86 Y 101 X 15 Y 101 X s 2041 213 m 1704 Y s 1987 213 m 54 X s 2014 255 m 27 X s 2014 297 m 27 X s 2014 339 m 27 X s 2014 382 m 27 X s 1987 424 m 54 X s 2014 466 m 27 X s 2014
 508 m 27 X s 2014 550 m 27 X s 2014 592 m 27 X s 1987 634 m 54 X s 2014 676 m 27 X s 2014 719 m 27 X s 2014 761 m 27 X s 2014 803 m 27 X s 1987 845 m 54 X s 2014 887 m 27 X s 2014 929 m 27 X s 2014 971 m 27 X s 2014 1014 m 27 X s 1987 1056 m 54 X s
 2014 1098 m 27 X s 2014 1140 m 27 X s 2014 1182 m 27 X s 2014 1224 m 27 X s 1987 1266 m 54 X s 2014 1308 m 27 X s 2014 1351 m 27 X s 2014 1393 m 27 X s 2014 1435 m 27 X s 1987 1477 m 54 X s 2014 1519 m 27 X s 2014 1561 m 27 X s 2014 1603 m 27 X s
 2014 1645 m 27 X s 1987 1688 m 54 X s 2014 1730 m 27 X s 2014 1772 m 27 X s 2014 1814 m 27 X s 2014 1856 m 27 X s 1987 1898 m 54 X s 1987 1898 m 54 X s
 gsave  2268 2130 0 0 C 2050 183 t 0 r /Helvetica-Bold findfont 80.1718 sf 0 0 m (0) show NC gr 
 gsave  2268 2130 0 0 C 2050 389 t 0 r /Helvetica-Bold findfont 80.1718 sf 0 0 m (50) show NC gr 
 gsave  2268 2130 0 0 C 2050 601 t 0 r /Helvetica-Bold findfont 80.1718 sf 0 0 m (100) show NC gr 
 gsave  2268 2130 0 0 C 2050 813 t 0 r /Helvetica-Bold findfont 80.1718 sf 0 0 m (150) show NC gr 
 gsave  2268 2130 0 0 C 2050 1025 t 0 r /Helvetica-Bold findfont 80.1718 sf 0 0 m (200) show NC gr 
 gsave  2268 2130 0 0 C 2050 1237 t 0 r /Helvetica-Bold findfont 80.1718 sf 0 0 m (250) show NC gr 
 gsave  2268 2130 0 0 C 2050 1443 t 0 r /Helvetica-Bold findfont 80.1718 sf 0 0 m (300) show NC gr 
 gsave  2268 2130 0 0 C 2050 1655 t 0 r /Helvetica-Bold findfont 80.1718 sf 0 0 m (350) show NC gr 
 gsave  2268 2130 0 0 C 2050 1867 t 0 r /Helvetica-Bold findfont 80.1718 sf 0 0 m (400) show NC gr 
 gr  gr 
showpage
end
%%EOF
