%!PS-Adobe-2.0 EPSF-2.0
%%BoundingBox:  0 0 567 533
%%Title: /home/giele/recursion/tes1/plots/timing4.eps: GPU timing profile
%%Creator: ROOT Version 5.25/04
%%CreationDate: Sun Jan 24 20:07:51 2010
%%EndComments
%%BeginProlog
80 dict begin
/s {stroke} def /l {lineto} def /m {moveto} def /t {translate} def
/sw {stringwidth} def /r {rotate} def /rl {roll}  def /R {repeat} def
/d {rlineto} def /rm {rmoveto} def /gr {grestore} def /f {eofill} def
/c {setrgbcolor} def /black {0 setgray} def /sd {setdash} def
/cl {closepath} def /sf {scalefont setfont} def /lw {setlinewidth} def
/box {m dup 0 exch d exch 0 d 0 exch neg d cl} def
/NC{systemdict begin initclip end}def/C{NC box clip newpath}def
/bl {box s} def /bf {box f} def /Y { 0 exch d} def /X { 0 d} def 
/mp {newpath /y exch def /x exch def} def
/side {[w .77 mul w .23 mul] .385 w mul sd w 0 l currentpoint t -144 r} def
/mr {mp x y w2 0 360 arc} def /m24 {mr s} def /m20 {mr f} def
/mb {mp x y w2 add m w2 neg 0 d 0 w neg d w 0 d 0 w d cl} def
/mt {mp x y w2 add m w2 neg w neg d w 0 d cl} def
/m21 {mb f} def /m25 {mb s} def /m22 {mt f} def /m26{mt s} def
/m23 {mp x y w2 sub m w2 w d w neg 0 d cl f} def
/m27 {mp x y w2 add m w3 neg w2 neg d w3 w2 neg d w3 w2 d cl s} def
/m28 {mp x w2 sub y w2 sub w3 add m w3 0 d  0 w3 neg d w3 0 d 0 w3 d w3 0 d  0 w3 d w3 neg 0 d 0 w3 d w3 neg 0 d
 0 w3 neg d w3 neg 0 d cl s } def
/m29 {mp gsave x w2 sub y w2 add w3 sub m currentpoint t
 4 {side} repeat cl fill gr} def
/m30 {mp gsave x w2 sub y w2 add w3 sub m currentpoint t
 4 {side} repeat cl s gr} def
/m31 {mp x y w2 sub m 0 w d x w2 sub y m w 0 d x w2 sub y w2 add m w w neg d x w2 sub y w2
 sub m w w d s} def
/m2 {mp x y w2 sub m 0 w d x w2 sub y m w 0 d s} def
/m5 {mp x w2 sub y w2 sub m w w d x w2 sub y w2 add m w w neg d s} def
/reEncode {exch findfont dup length dict begin {1 index /FID eq  {pop pop} {def} ifelse } forall /Encoding exch def currentdict end dup /FontName get exch definefont pop } def [/Times-Bold /Times-Italic /Times-BoldItalic /Helvetica
 /Helvetica-Oblique /Helvetica-Bold /Helvetica-BoldOblique /Courier /Courier-Oblique /Courier-Bold /Courier-BoldOblique /Times-Roman /AvantGarde-Book /AvantGarde-BookOblique /AvantGarde-Demi /AvantGarde-DemiOblique /Bookman-Demi
 /Bookman-DemiItalic /Bookman-Light /Bookman-LightItalic /Helvetica-Narrow /Helvetica-Narrow-Bold /Helvetica-Narrow-BoldOblique /Helvetica-Narrow-Oblique /NewCenturySchlbk-Roman /NewCenturySchlbk-Bold
 /NewCenturySchlbk-BoldItalic /NewCenturySchlbk-Italic /Palatino-Bold /Palatino-BoldItalic /Palatino-Italic /Palatino-Roman ] {ISOLatin1Encoding reEncode } forall
/oshow {gsave [] 0 sd true charpath stroke gr} def
/stwn { /fs exch def /fn exch def /text exch def fn findfont fs sf
 text sw pop xs add /xs exch def} def
/stwb { /fs exch def /fn exch def /nbas exch def /textf exch deftextf length /tlen exch def nbas tlen gt {/nbas tlendef} iffn findfont fs sf textf dup length nbas sub nbas getinterval sw
pop neg xs add /xs exch def} def
%%EndProlog
%%BeginSetup
%%EndSetup
newpath  gsave  .25 .25 scale  gsave  0 0 t black[  ] 0 sd 3 lw 0.95 0.95 0.95 c 2268 2130 0 0 bf 1 1 1 c 0 0 m 8 8 d 2114 Y 2252 X 8 8 d -2268 X -2130 Y f 0.665 0.665 0.665 c 0 0 m 8 8 d 2252 X 2114 Y 8 8 d -2130 Y -2268 X f black 0.95 0.95 0.95 c
 1814 1704 227 213 bf 1 1 1 c 227 213 m 4 4 d 1696 Y 1806 X 4 4 d -1814 X -1704 Y f 0.665 0.665 0.665 c 227 213 m 4 4 d 1806 X 1696 Y 4 4 d -1704 Y -1814 X f black 1814 1704 227 213 bl 0.95 0.95 0.95 c 1814 1704 227 213 bf 1 1 1 c 227 213 m 4 4 d
 1696 Y 1806 X 4 4 d -1814 X -1704 Y f 0.665 0.665 0.665 c 227 213 m 4 4 d 1806 X 1696 Y 4 4 d -1704 Y -1814 X f black 1814 1704 227 213 bl 227 213 m 1814 X s[ 4 8] 0 sd 227 1917 m -1704 Y s 582 1917 m -1704 Y s 938 1917 m -1704 Y s 1294 1917 m
 -1704 Y s 1650 1917 m -1704 Y s 2005 1917 m -1704 Y s 2005 1917 m -1704 Y s[  ] 0 sd 227 213 m 1704 Y s[ 4 8] 0 sd 2041 323 m -1814 X s 2041 458 m -1814 X s 2041 553 m -1814 X s 2041 627 m -1814 X s 2041 688 m -1814 X s 2041 739 m -1814 X s 2041
 783 m -1814 X s 2041 822 m -1814 X s 2041 857 m -1814 X s 2041 1087 m -1814 X s 2041 1222 m -1814 X s 2041 1317 m -1814 X s 2041 1391 m -1814 X s 2041 1452 m -1814 X s 2041 1503 m -1814 X s 2041 1547 m -1814 X s 2041 1586 m -1814 X s 2041 1621 m
 -1814 X s 2041 1851 m -1814 X s 0 0 1 c[  ] 0 sd 1 1 1 c black 0 0 1 c 227 1705 m 18 X -226 Y 17 X -102 Y 18 X -90 Y 18 X -46 Y 18 X -48 Y 17 X -51 Y 18 X -43 Y 18 X -39 Y 18 X -35 Y 18 X -42 Y 17 X -39 Y 18 X -26 Y 18 X -24 Y 18 X -21 Y 18 X -5 Y
 17 X -13 Y 18 X -19 Y 18 X -18 Y 18 X -16 Y 17 X -16 Y 18 X -27 Y 18 X -23 Y 18 X -13 Y 18 X -7 Y 17 X -5 Y 18 X 13 Y 18 X -11 Y 18 X -11 Y 18 X -11 Y 17 X -11 Y 18 X -10 Y 18 X -26 Y 18 X -10 Y 17 X -3 Y 18 X -7 Y 18 X -1 Y 18 X 2 Y 18 X -8 Y 17 X
 -9 Y 18 X -6 Y 18 X -7 Y 18 X -15 Y 18 X -9 Y 17 X -7 Y 18 X 2 Y 18 X -5 Y 18 X -2 Y 18 X 5 Y 17 X -6 Y 18 X -6 Y 18 X -6 Y 18 X -5 Y 17 X -11 Y 18 X 3 Y 18 X -5 Y 18 X -1 Y 18 X -5 Y 17 X 10 Y 18 X -5 Y 18 X -6 Y 18 X -5 Y 18 X -5 Y 17 X -6 Y 36 X
 -5 Y 18 X 5 Y 17 X -5 Y 18 X -1 Y 18 X 8 Y 18 X -5 Y 18 X -5 Y 17 X -4 Y 18 X -4 Y 18 X -14 Y 18 X -5 Y 18 X -3 Y 17 X 4 Y 18 X -4 Y 18 X -1 Y 18 X 10 Y 17 X -4 Y 18 X -3 Y 18 X -5 Y 18 X -3 Y 18 X -3 Y 35 X -4 Y 18 X -1 Y 18 X -1 Y 18 X 12 Y 17 X
 -3 Y 18 X -4 Y 18 X -3 Y 18 X -3 Y 17 X -5 Y 18 X 6 Y 18 X -3 Y 18 X -3 Y 18 X -3 Y 17 X 1 Y 18 X 11 Y 18 X s black 227 213 m 1814 X s 227 264 m -51 Y s 316 239 m -26 Y s 405 239 m -26 Y s 494 239 m -26 Y s 582 264 m -51 Y s 671 239 m -26 Y s 760
 239 m -26 Y s 849 239 m -26 Y s 938 264 m -51 Y s 1027 239 m -26 Y s 1116 239 m -26 Y s 1205 239 m -26 Y s 1294 264 m -51 Y s 1383 239 m -26 Y s 1472 239 m -26 Y s 1561 239 m -26 Y s 1650 264 m -51 Y s 1739 239 m -26 Y s 1828 239 m -26 Y s 1916 239
 m -26 Y s 2005 264 m -51 Y s 2005 264 m -51 Y s
 gsave  2268 2130 0 0 C 200 137 t 0 r /Helvetica-Bold findfont 80.1718 sf 0 0 m (0) show NC gr 
 gsave  2268 2130 0 0 C 533 137 t 0 r /Helvetica-Bold findfont 80.1718 sf 0 0 m (20) show NC gr 
 gsave  2268 2130 0 0 C 888 137 t 0 r /Helvetica-Bold findfont 80.1718 sf 0 0 m (40) show NC gr 
 gsave  2268 2130 0 0 C 1243 137 t 0 r /Helvetica-Bold findfont 80.1718 sf 0 0 m (60) show NC gr 
 gsave  2268 2130 0 0 C 1603 137 t 0 r /Helvetica-Bold findfont 80.1718 sf 0 0 m (80) show NC gr 
 gsave  2268 2130 0 0 C 1936 137 t 0 r /Helvetica-Bold findfont 80.1718 sf 0 0 m (100) show NC gr  227 213 m 1704 Y s 254 323 m -27 X s 254 458 m -27 X s 254 553 m -27 X s 254 627 m -27 X s 254 688 m -27 X s 254 739 m -27 X s 254 783 m -27 X s 254
 822 m -27 X s 281 857 m -54 X s
 gsave  2268 2130 0 0 C 160 859 t 0 r /Helvetica-Bold findfont 51.539 sf 0 0 m (\2557) show NC gr 
 gsave  2268 2130 0 0 C 74 819 t 0 r /Helvetica-Bold findfont 80.1718 sf 0 0 m (10) show NC gr  254 1087 m -27 X s 254 1222 m -27 X s 254 1317 m -27 X s 254 1391 m -27 X s 254 1452 m -27 X s 254 1503 m -27 X s 254 1547 m -27 X s 254 1586 m -27 X s
 281 1621 m -54 X s
 gsave  2268 2130 0 0 C 160 1632 t 0 r /Helvetica-Bold findfont 51.539 sf 0 0 m (\2556) show NC gr 
 gsave  2268 2130 0 0 C 74 1586 t 0 r /Helvetica-Bold findfont 80.1718 sf 0 0 m (10) show NC gr  254 1851 m -27 X s 0.95 0.95 0.95 c 1041 117 23 2003 bf black 40 2003 m -12 Y 1036 X 111 Y -12 X -99 Y f 23 2003 m 117 Y 1041 X -117 Y -1041 X cl s 1 1
 1 c black
 gsave  2268 2130 0 0 C 69 2033 t 0 r /Helvetica-Bold findfont 91.6249 sf 0 0 m (4\255gluon timing profile) show NC gr  1 0 0 c 1 1 1 c black 1 0 0 c 227 872 m 18 X 7 Y 17 X 68 Y 18 X 12 Y 18 X 66 Y 18 X 31 Y 17 X 2 Y 18 X 1 Y 18 X 1 Y 18 X 1 Y 18 X
 -27 Y 17 X -24 Y 18 X 1 Y 18 X 2 Y 18 X 4 Y 18 X 39 Y 17 X 19 Y 36 X 1 Y 18 X 1 Y 35 X -28 Y 18 X -21 Y 18 X 4 Y 18 X 14 Y 17 X 20 Y 18 X 71 Y 18 X 2 Y 18 X 2 Y 35 X 1 Y 18 X -1 Y 18 X -43 Y 18 X 1 Y 17 X 18 Y 18 X 7 Y 18 X 21 Y 18 X 32 Y 18 X 3 Y
 17 X -2 Y 18 X 6 Y 18 X 1 Y 18 X -19 Y 18 X -6 Y 17 X 3 Y 18 X 28 Y 18 X 4 Y 18 X 16 Y 18 X 37 Y 17 X 1 Y 18 X 3 Y 18 X -1 Y 18 X 6 Y 17 X -14 Y 18 X 26 Y 18 X 4 Y 18 X 15 Y 18 X 3 Y 17 X 54 Y 18 X -1 Y 18 X 1 Y 18 X -1 Y 18 X 1 Y 17 X -1 Y 18 X 16
 Y 18 X 1 Y 18 X 35 Y 17 X 1 Y 18 X 14 Y 18 X 46 Y 36 X -1 Y 17 X 2 Y 36 X -33 Y 18 X -3 Y 18 X 3 Y 17 X 30 Y 18 X 3 Y 18 X 12 Y 18 X 55 Y 35 X 3 Y 18 X -5 Y 18 X 6 Y 18 X 3 Y 17 X 13 Y 18 X 1 Y 18 X 10 Y 18 X 14 Y 18 X 65 Y 17 X -1 Y 18 X 2 Y 36 X
 1 Y 17 X -3 Y 18 X 41 Y 36 X 3 Y 35 X 19 Y 18 X 65 Y 18 X s 2041 213 m 1704 Y s 1987 213 m 54 X s 2014 298 m 27 X s 2014 383 m 27 X s 2014 468 m 27 X s 1987 554 m 54 X s 2014 639 m 27 X s 2014 724 m 27 X s 2014 809 m 27 X s 1987 894 m 54 X s 2014
 979 m 27 X s 2014 1064 m 27 X s 2014 1149 m 27 X s 1987 1235 m 54 X s 2014 1320 m 27 X s 2014 1405 m 27 X s 2014 1490 m 27 X s 1987 1575 m 54 X s 2014 1660 m 27 X s 2014 1745 m 27 X s 2014 1831 m 27 X s 1987 1916 m 54 X s 1987 1916 m 54 X s
 gsave  2268 2130 0 0 C 2050 183 t 0 r /Helvetica-Bold findfont 80.1718 sf 0 0 m (0) show NC gr 
 gsave  2268 2130 0 0 C 2050 521 t 0 r /Helvetica-Bold findfont 80.1718 sf 0 0 m (20) show NC gr 
 gsave  2268 2130 0 0 C 2050 865 t 0 r /Helvetica-Bold findfont 80.1718 sf 0 0 m (40) show NC gr 
 gsave  2268 2130 0 0 C 2050 1203 t 0 r /Helvetica-Bold findfont 80.1718 sf 0 0 m (60) show NC gr 
 gsave  2268 2130 0 0 C 2050 1546 t 0 r /Helvetica-Bold findfont 80.1718 sf 0 0 m (80) show NC gr 
 gsave  2268 2130 0 0 C 2050 1884 t 0 r /Helvetica-Bold findfont 80.1718 sf 0 0 m (100) show NC gr 
 gr  gr 
showpage
end
%%EOF
