%!PS-Adobe-2.0 EPSF-2.0
%%BoundingBox:  0 0 567 533
%%Title: /home/giele/recursion/tes1/plots/timing6.eps: GPU timing profile
%%Creator: ROOT Version 5.25/04
%%CreationDate: Sun Jan 24 20:09:53 2010
%%EndComments
%%BeginProlog
80 dict begin
/s {stroke} def /l {lineto} def /m {moveto} def /t {translate} def
/sw {stringwidth} def /r {rotate} def /rl {roll}  def /R {repeat} def
/d {rlineto} def /rm {rmoveto} def /gr {grestore} def /f {eofill} def
/c {setrgbcolor} def /black {0 setgray} def /sd {setdash} def
/cl {closepath} def /sf {scalefont setfont} def /lw {setlinewidth} def
/box {m dup 0 exch d exch 0 d 0 exch neg d cl} def
/NC{systemdict begin initclip end}def/C{NC box clip newpath}def
/bl {box s} def /bf {box f} def /Y { 0 exch d} def /X { 0 d} def 
/mp {newpath /y exch def /x exch def} def
/side {[w .77 mul w .23 mul] .385 w mul sd w 0 l currentpoint t -144 r} def
/mr {mp x y w2 0 360 arc} def /m24 {mr s} def /m20 {mr f} def
/mb {mp x y w2 add m w2 neg 0 d 0 w neg d w 0 d 0 w d cl} def
/mt {mp x y w2 add m w2 neg w neg d w 0 d cl} def
/m21 {mb f} def /m25 {mb s} def /m22 {mt f} def /m26{mt s} def
/m23 {mp x y w2 sub m w2 w d w neg 0 d cl f} def
/m27 {mp x y w2 add m w3 neg w2 neg d w3 w2 neg d w3 w2 d cl s} def
/m28 {mp x w2 sub y w2 sub w3 add m w3 0 d  0 w3 neg d w3 0 d 0 w3 d w3 0 d  0 w3 d w3 neg 0 d 0 w3 d w3 neg 0 d
 0 w3 neg d w3 neg 0 d cl s } def
/m29 {mp gsave x w2 sub y w2 add w3 sub m currentpoint t
 4 {side} repeat cl fill gr} def
/m30 {mp gsave x w2 sub y w2 add w3 sub m currentpoint t
 4 {side} repeat cl s gr} def
/m31 {mp x y w2 sub m 0 w d x w2 sub y m w 0 d x w2 sub y w2 add m w w neg d x w2 sub y w2
 sub m w w d s} def
/m2 {mp x y w2 sub m 0 w d x w2 sub y m w 0 d s} def
/m5 {mp x w2 sub y w2 sub m w w d x w2 sub y w2 add m w w neg d s} def
/reEncode {exch findfont dup length dict begin {1 index /FID eq  {pop pop} {def} ifelse } forall /Encoding exch def currentdict end dup /FontName get exch definefont pop } def [/Times-Bold /Times-Italic /Times-BoldItalic /Helvetica
 /Helvetica-Oblique /Helvetica-Bold /Helvetica-BoldOblique /Courier /Courier-Oblique /Courier-Bold /Courier-BoldOblique /Times-Roman /AvantGarde-Book /AvantGarde-BookOblique /AvantGarde-Demi /AvantGarde-DemiOblique /Bookman-Demi
 /Bookman-DemiItalic /Bookman-Light /Bookman-LightItalic /Helvetica-Narrow /Helvetica-Narrow-Bold /Helvetica-Narrow-BoldOblique /Helvetica-Narrow-Oblique /NewCenturySchlbk-Roman /NewCenturySchlbk-Bold
 /NewCenturySchlbk-BoldItalic /NewCenturySchlbk-Italic /Palatino-Bold /Palatino-BoldItalic /Palatino-Italic /Palatino-Roman ] {ISOLatin1Encoding reEncode } forall
/oshow {gsave [] 0 sd true charpath stroke gr} def
/stwn { /fs exch def /fn exch def /text exch def fn findfont fs sf
 text sw pop xs add /xs exch def} def
/stwb { /fs exch def /fn exch def /nbas exch def /textf exch deftextf length /tlen exch def nbas tlen gt {/nbas tlendef} iffn findfont fs sf textf dup length nbas sub nbas getinterval sw
pop neg xs add /xs exch def} def
%%EndProlog
%%BeginSetup
%%EndSetup
newpath  gsave  .25 .25 scale  gsave  0 0 t black[  ] 0 sd 3 lw 0.95 0.95 0.95 c 2268 2130 0 0 bf 1 1 1 c 0 0 m 8 8 d 2114 Y 2252 X 8 8 d -2268 X -2130 Y f 0.665 0.665 0.665 c 0 0 m 8 8 d 2252 X 2114 Y 8 8 d -2130 Y -2268 X f black 0.95 0.95 0.95 c
 1814 1704 227 213 bf 1 1 1 c 227 213 m 4 4 d 1696 Y 1806 X 4 4 d -1814 X -1704 Y f 0.665 0.665 0.665 c 227 213 m 4 4 d 1806 X 1696 Y 4 4 d -1704 Y -1814 X f black 1814 1704 227 213 bl 0.95 0.95 0.95 c 1814 1704 227 213 bf 1 1 1 c 227 213 m 4 4 d
 1696 Y 1806 X 4 4 d -1814 X -1704 Y f 0.665 0.665 0.665 c 227 213 m 4 4 d 1806 X 1696 Y 4 4 d -1704 Y -1814 X f black 1814 1704 227 213 bl 227 213 m 1814 X s[ 4 8] 0 sd 227 1917 m -1704 Y s 416 1917 m -1704 Y s 605 1917 m -1704 Y s 794 1917 m -1704
 Y s 983 1917 m -1704 Y s 1172 1917 m -1704 Y s 1361 1917 m -1704 Y s 1550 1917 m -1704 Y s 1739 1917 m -1704 Y s 1928 1917 m -1704 Y s 1928 1917 m -1704 Y s[  ] 0 sd 227 213 m 1704 Y s[ 4 8] 0 sd 2041 275 m -1814 X s 2041 343 m -1814 X s 2041 402 m
 -1814 X s 2041 452 m -1814 X s 2041 496 m -1814 X s 2041 536 m -1814 X s 2041 797 m -1814 X s 2041 950 m -1814 X s 2041 1058 m -1814 X s 2041 1142 m -1814 X s 2041 1211 m -1814 X s 2041 1269 m -1814 X s 2041 1320 m -1814 X s 2041 1364 m -1814 X s
 2041 1404 m -1814 X s 2041 1665 m -1814 X s 2041 1818 m -1814 X s 0 0 1 c[  ] 0 sd 1 1 1 c black 0 0 1 c 227 1676 m 38 X -233 Y 37 X -136 Y 38 X -97 Y 38 X -80 Y 38 X -65 Y 38 X -66 Y 37 X -52 Y 38 X -36 Y 38 X -30 Y 38 X -36 Y 38 X -31 Y 37 X -34
 Y 38 X -28 Y 38 X -22 Y 38 X -17 Y 75 X -20 Y 38 X -19 Y 38 X -24 Y 38 X -10 Y 37 X -15 Y 38 X -2 Y 38 X -16 Y 38 X -13 Y 38 X -18 Y 37 X 4 Y 38 X -6 Y 76 X -11 Y 38 X -11 Y 37 X -11 Y 38 X 4 Y 38 X -10 Y 38 X -8 Y 38 X 13 Y 37 X -10 Y 38 X -10 Y
 38 X -9 Y 38 X 9 Y 38 X -4 Y 37 X 8 Y 38 X -8 Y 38 X -7 Y 38 X -24 Y 38 X -5 Y 37 X -6 Y 38 X 3 Y 38 X s black 227 213 m 1814 X s 227 264 m -51 Y s 265 239 m -26 Y s 302 239 m -26 Y s 340 239 m -26 Y s 378 239 m -26 Y s 416 264 m -51 Y s 454 239 m
 -26 Y s 491 239 m -26 Y s 529 239 m -26 Y s 567 239 m -26 Y s 605 264 m -51 Y s 643 239 m -26 Y s 680 239 m -26 Y s 718 239 m -26 Y s 756 239 m -26 Y s 794 264 m -51 Y s 831 239 m -26 Y s 869 239 m -26 Y s 907 239 m -26 Y s 945 239 m -26 Y s 983
 264 m -51 Y s 1020 239 m -26 Y s 1058 239 m -26 Y s 1096 239 m -26 Y s 1134 239 m -26 Y s 1172 264 m -51 Y s 1209 239 m -26 Y s 1247 239 m -26 Y s 1285 239 m -26 Y s 1323 239 m -26 Y s 1361 264 m -51 Y s 1398 239 m -26 Y s 1436 239 m -26 Y s 1474
 239 m -26 Y s 1512 239 m -26 Y s 1550 264 m -51 Y s 1587 239 m -26 Y s 1625 239 m -26 Y s 1663 239 m -26 Y s 1701 239 m -26 Y s 1739 264 m -51 Y s 1776 239 m -26 Y s 1814 239 m -26 Y s 1852 239 m -26 Y s 1890 239 m -26 Y s 1928 264 m -51 Y s 1928
 264 m -51 Y s 1965 239 m -26 Y s 2003 239 m -26 Y s
 gsave  2268 2130 0 0 C 200 137 t 0 r /Helvetica-Bold findfont 80.1718 sf 0 0 m (0) show NC gr 
 gsave  2268 2130 0 0 C 389 137 t 0 r /Helvetica-Bold findfont 80.1718 sf 0 0 m (5) show NC gr 
 gsave  2268 2130 0 0 C 555 137 t 0 r /Helvetica-Bold findfont 80.1718 sf 0 0 m (10) show NC gr 
 gsave  2268 2130 0 0 C 744 137 t 0 r /Helvetica-Bold findfont 80.1718 sf 0 0 m (15) show NC gr 
 gsave  2268 2130 0 0 C 933 137 t 0 r /Helvetica-Bold findfont 80.1718 sf 0 0 m (20) show NC gr 
 gsave  2268 2130 0 0 C 1122 137 t 0 r /Helvetica-Bold findfont 80.1718 sf 0 0 m (25) show NC gr 
 gsave  2268 2130 0 0 C 1311 137 t 0 r /Helvetica-Bold findfont 80.1718 sf 0 0 m (30) show NC gr 
 gsave  2268 2130 0 0 C 1500 137 t 0 r /Helvetica-Bold findfont 80.1718 sf 0 0 m (35) show NC gr 
 gsave  2268 2130 0 0 C 1689 137 t 0 r /Helvetica-Bold findfont 80.1718 sf 0 0 m (40) show NC gr 
 gsave  2268 2130 0 0 C 1878 137 t 0 r /Helvetica-Bold findfont 80.1718 sf 0 0 m (45) show NC gr  227 213 m 1704 Y s 254 275 m -27 X s 254 343 m -27 X s 254 402 m -27 X s 254 452 m -27 X s 254 496 m -27 X s 281 536 m -54 X s
 gsave  2268 2130 0 0 C 160 538 t 0 r /Helvetica-Bold findfont 51.539 sf 0 0 m (\2557) show NC gr 
 gsave  2268 2130 0 0 C 74 498 t 0 r /Helvetica-Bold findfont 80.1718 sf 0 0 m (10) show NC gr  254 797 m -27 X s 254 950 m -27 X s 254 1058 m -27 X s 254 1142 m -27 X s 254 1211 m -27 X s 254 1269 m -27 X s 254 1320 m -27 X s 254 1364 m -27 X s 281
 1404 m -54 X s
 gsave  2268 2130 0 0 C 160 1414 t 0 r /Helvetica-Bold findfont 51.539 sf 0 0 m (\2556) show NC gr 
 gsave  2268 2130 0 0 C 74 1369 t 0 r /Helvetica-Bold findfont 80.1718 sf 0 0 m (10) show NC gr  254 1665 m -27 X s 254 1818 m -27 X s 0.95 0.95 0.95 c 1041 117 23 2003 bf black 40 2003 m -12 Y 1036 X 111 Y -12 X -99 Y f 23 2003 m 117 Y 1041 X -117
 Y -1041 X cl s 1 1 1 c black
 gsave  2268 2130 0 0 C 69 2033 t 0 r /Helvetica-Bold findfont 91.6249 sf 0 0 m (6\255gluon timing profile) show NC gr  1 0 0 c 1 1 1 c black 1 0 0 c 227 992 m 38 X 60 Y 37 X 38 Y 38 X 27 Y 38 X 10 Y 38 X 8 Y 38 X -19 Y 37 X -3 Y 38 X 20 Y 38 X 22 Y
 38 X 2 Y 38 X 3 Y 37 X -10 Y 38 X 2 Y 38 X 8 Y 38 X 20 Y 37 X 59 Y 38 X 4 Y 38 X 4 Y 38 X -12 Y 38 X 23 Y 37 X 7 Y 38 X 41 Y 38 X 2 Y 38 X 6 Y 38 X -10 Y 37 X 56 Y 38 X 21 Y 38 X 45 Y 38 X 3 Y 38 X 4 Y 37 X 4 Y 38 X 54 Y 38 X 2 Y 38 X 11 Y 38 X 85
 Y 37 X -1 Y 76 X 3 Y 38 X 71 Y 38 X 18 Y 37 X 69 Y 38 X 3 Y 38 X 8 Y 38 X -64 Y 38 X 14 Y 37 X 9 Y 38 X 43 Y 38 X s 2041 213 m 1704 Y s 1987 213 m 54 X s 2014 276 m 27 X s 2014 339 m 27 X s 2014 402 m 27 X s 1987 465 m 54 X s 2014 528 m 27 X s 2014
 591 m 27 X s 2014 654 m 27 X s 1987 716 m 54 X s 2014 779 m 27 X s 2014 842 m 27 X s 2014 905 m 27 X s 1987 968 m 54 X s 2014 1031 m 27 X s 2014 1094 m 27 X s 2014 1157 m 27 X s 1987 1220 m 54 X s 2014 1283 m 27 X s 2014 1346 m 27 X s 2014 1409 m
 27 X s 1987 1472 m 54 X s 2014 1535 m 27 X s 2014 1597 m 27 X s 2014 1660 m 27 X s 1987 1723 m 54 X s 1987 1723 m 54 X s 2014 1786 m 27 X s 2014 1849 m 27 X s 2014 1912 m 27 X s
 gsave  2268 2130 0 0 C 2050 183 t 0 r /Helvetica-Bold findfont 80.1718 sf 0 0 m (0) show NC gr 
 gsave  2268 2130 0 0 C 2050 435 t 0 r /Helvetica-Bold findfont 80.1718 sf 0 0 m (20) show NC gr 
 gsave  2268 2130 0 0 C 2050 687 t 0 r /Helvetica-Bold findfont 80.1718 sf 0 0 m (40) show NC gr 
 gsave  2268 2130 0 0 C 2050 939 t 0 r /Helvetica-Bold findfont 80.1718 sf 0 0 m (60) show NC gr 
 gsave  2268 2130 0 0 C 2050 1191 t 0 r /Helvetica-Bold findfont 80.1718 sf 0 0 m (80) show NC gr 
 gsave  2268 2130 0 0 C 2050 1437 t 0 r /Helvetica-Bold findfont 80.1718 sf 0 0 m (100) show NC gr 
 gsave  2268 2130 0 0 C 2050 1689 t 0 r /Helvetica-Bold findfont 80.1718 sf 0 0 m (120) show NC gr 
 gr  gr 
showpage
end
%%EOF
