%!PS-Adobe-2.0 EPSF-2.0
%%Title: timing10.fig
%%Creator: fig2dev Version 3.2 Patchlevel 5
%%CreationDate: Tue Feb 16 21:50:13 2010
%%For: giele@LaptopGiele (Walter Giele)
%%BoundingBox: 0 0 568 533
%Magnification: 1.0000
%%EndComments
/$F2psDict 200 dict def
$F2psDict begin
$F2psDict /mtrx matrix put
/col-1 {0 setgray} bind def
/col0 {0.000 0.000 0.000 srgb} bind def
/col1 {0.000 0.000 1.000 srgb} bind def
/col2 {0.000 1.000 0.000 srgb} bind def
/col3 {0.000 1.000 1.000 srgb} bind def
/col4 {1.000 0.000 0.000 srgb} bind def
/col5 {1.000 0.000 1.000 srgb} bind def
/col6 {1.000 1.000 0.000 srgb} bind def
/col7 {1.000 1.000 1.000 srgb} bind def
/col8 {0.000 0.000 0.560 srgb} bind def
/col9 {0.000 0.000 0.690 srgb} bind def
/col10 {0.000 0.000 0.820 srgb} bind def
/col11 {0.530 0.810 1.000 srgb} bind def
/col12 {0.000 0.560 0.000 srgb} bind def
/col13 {0.000 0.690 0.000 srgb} bind def
/col14 {0.000 0.820 0.000 srgb} bind def
/col15 {0.000 0.560 0.560 srgb} bind def
/col16 {0.000 0.690 0.690 srgb} bind def
/col17 {0.000 0.820 0.820 srgb} bind def
/col18 {0.560 0.000 0.000 srgb} bind def
/col19 {0.690 0.000 0.000 srgb} bind def
/col20 {0.820 0.000 0.000 srgb} bind def
/col21 {0.560 0.000 0.560 srgb} bind def
/col22 {0.690 0.000 0.690 srgb} bind def
/col23 {0.820 0.000 0.820 srgb} bind def
/col24 {0.500 0.190 0.000 srgb} bind def
/col25 {0.630 0.250 0.000 srgb} bind def
/col26 {0.750 0.380 0.000 srgb} bind def
/col27 {1.000 0.500 0.500 srgb} bind def
/col28 {1.000 0.630 0.630 srgb} bind def
/col29 {1.000 0.750 0.750 srgb} bind def
/col30 {1.000 0.880 0.880 srgb} bind def
/col31 {1.000 0.840 0.000 srgb} bind def
/col32 {0.949 0.949 0.949 srgb} bind def
/col33 {0.663 0.663 0.663 srgb} bind def

end
save
newpath 0 533 moveto 0 0 lineto 568 0 lineto 568 533 lineto closepath clip newpath
0.1 792.1 translate
1 -1 scale

/cp {closepath} bind def
/ef {eofill} bind def
/gr {grestore} bind def
/gs {gsave} bind def
/sa {save} bind def
/rs {restore} bind def
/l {lineto} bind def
/m {moveto} bind def
/rm {rmoveto} bind def
/n {newpath} bind def
/s {stroke} bind def
/sh {show} bind def
/slc {setlinecap} bind def
/slj {setlinejoin} bind def
/slw {setlinewidth} bind def
/srgb {setrgbcolor} bind def
/rot {rotate} bind def
/sc {scale} bind def
/sd {setdash} bind def
/ff {findfont} bind def
/sf {setfont} bind def
/scf {scalefont} bind def
/sw {stringwidth} bind def
/tr {translate} bind def
/tnt {dup dup currentrgbcolor
  4 -2 roll dup 1 exch sub 3 -1 roll mul add
  4 -2 roll dup 1 exch sub 3 -1 roll mul add
  4 -2 roll dup 1 exch sub 3 -1 roll mul add srgb}
  bind def
/shd {dup dup currentrgbcolor 4 -2 roll mul 4 -2 roll mul
  4 -2 roll mul srgb} bind def
/reencdict 12 dict def /ReEncode { reencdict begin
/newcodesandnames exch def /newfontname exch def /basefontname exch def
/basefontdict basefontname findfont def /newfont basefontdict maxlength dict def
basefontdict { exch dup /FID ne { dup /Encoding eq
{ exch dup length array copy newfont 3 1 roll put }
{ exch newfont 3 1 roll put } ifelse } { pop pop } ifelse } forall
newfont /FontName newfontname put newcodesandnames aload pop
128 1 255 { newfont /Encoding get exch /.notdef put } for
newcodesandnames length 2 idiv { newfont /Encoding get 3 1 roll put } repeat
newfontname newfont definefont pop end } def
/isovec [
8#055 /minus 8#200 /grave 8#201 /acute 8#202 /circumflex 8#203 /tilde
8#204 /macron 8#205 /breve 8#206 /dotaccent 8#207 /dieresis
8#210 /ring 8#211 /cedilla 8#212 /hungarumlaut 8#213 /ogonek 8#214 /caron
8#220 /dotlessi 8#230 /oe 8#231 /OE
8#240 /space 8#241 /exclamdown 8#242 /cent 8#243 /sterling
8#244 /currency 8#245 /yen 8#246 /brokenbar 8#247 /section 8#250 /dieresis
8#251 /copyright 8#252 /ordfeminine 8#253 /guillemotleft 8#254 /logicalnot
8#255 /hyphen 8#256 /registered 8#257 /macron 8#260 /degree 8#261 /plusminus
8#262 /twosuperior 8#263 /threesuperior 8#264 /acute 8#265 /mu 8#266 /paragraph
8#267 /periodcentered 8#270 /cedilla 8#271 /onesuperior 8#272 /ordmasculine
8#273 /guillemotright 8#274 /onequarter 8#275 /onehalf
8#276 /threequarters 8#277 /questiondown 8#300 /Agrave 8#301 /Aacute
8#302 /Acircumflex 8#303 /Atilde 8#304 /Adieresis 8#305 /Aring
8#306 /AE 8#307 /Ccedilla 8#310 /Egrave 8#311 /Eacute
8#312 /Ecircumflex 8#313 /Edieresis 8#314 /Igrave 8#315 /Iacute
8#316 /Icircumflex 8#317 /Idieresis 8#320 /Eth 8#321 /Ntilde 8#322 /Ograve
8#323 /Oacute 8#324 /Ocircumflex 8#325 /Otilde 8#326 /Odieresis 8#327 /multiply
8#330 /Oslash 8#331 /Ugrave 8#332 /Uacute 8#333 /Ucircumflex
8#334 /Udieresis 8#335 /Yacute 8#336 /Thorn 8#337 /germandbls 8#340 /agrave
8#341 /aacute 8#342 /acircumflex 8#343 /atilde 8#344 /adieresis 8#345 /aring
8#346 /ae 8#347 /ccedilla 8#350 /egrave 8#351 /eacute
8#352 /ecircumflex 8#353 /edieresis 8#354 /igrave 8#355 /iacute
8#356 /icircumflex 8#357 /idieresis 8#360 /eth 8#361 /ntilde 8#362 /ograve
8#363 /oacute 8#364 /ocircumflex 8#365 /otilde 8#366 /odieresis 8#367 /divide
8#370 /oslash 8#371 /ugrave 8#372 /uacute 8#373 /ucircumflex
8#374 /udieresis 8#375 /yacute 8#376 /thorn 8#377 /ydieresis] def
/Helvetica-Bold /Helvetica-Bold-iso isovec ReEncode
/$F2psBegin {$F2psDict begin /$F2psEnteredState save def} def
/$F2psEnd {$F2psEnteredState restore end} def

$F2psBegin
10 setmiterlimit
0 slj 0 slc
 0.06000 0.06000 sc
%
% Fig objects follow
%
% 
% here starts figure with depth 999
%  polyline 
% Polyline
0 slj
0 slc
0.000 slw
n 0 13200 m 0 4325 l 9449 4325 l 9449 13200 l
 0 13200 l  cp gs col32 1.00 shd ef gr 
% here ends figure;
% 
% here starts figure with depth 997
%  polyline 
% Polyline
0 slj
0 slc
0.000 slw
n 0 13200 m 33 13166 l 33 4358 l 9416 4358 l 9449 4325 l 0 4325 l

 0 13200 l  cp gs col7 1.00 shd ef gr 
% here ends figure;
% 
% here starts figure with depth 995
%  polyline 
% Polyline
0 slj
0 slc
0.000 slw
n 0 13200 m 33 13166 l 9416 13166 l 9416 4358 l 9449 4325 l 9449 13200 l

 0 13200 l  cp gs col33 1.00 shd ef gr 
% here ends figure;
% 
% here starts figure with depth 993
%  polyline 
% Polyline
0 slj
0 slc
0.000 slw
n 945 12312 m 945 5212 l 8504 5212 l 8504 12312 l
 945 12312 l  cp gs col32 1.00 shd ef gr 
% here ends figure;
% 
% here starts figure with depth 991
%  polyline 
% Polyline
0 slj
0 slc
0.000 slw
n 945 12312 m 962 12295 l 962 5229 l 8487 5229 l 8504 5212 l 945 5212 l

 945 12312 l  cp gs col7 1.00 shd ef gr 
% here ends figure;
% 
% here starts figure with depth 989
%  polyline 
% Polyline
0 slj
0 slc
0.000 slw
n 945 12312 m 962 12295 l 8487 12295 l 8487 5229 l 8504 5212 l 8504 12312 l

 945 12312 l  cp gs col33 1.00 shd ef gr 
% here ends figure;
% 
% here starts figure with depth 987
%  polyline 
% Polyline
0 slj
0 slc
7.500 slw
n 945 12312 m 945 5212 l 8504 5212 l 8504 12312 l
 945 12312 l  cp gs col0 s gr 
% here ends figure;
% 
% here starts figure with depth 985
%  polyline 
% Polyline
0 slj
0 slc
0.000 slw
n 945 12312 m 945 5212 l 8504 5212 l 8504 12312 l
 945 12312 l  cp gs col32 1.00 shd ef gr 
% here ends figure;
% 
% here starts figure with depth 983
%  polyline 
% Polyline
0 slj
0 slc
0.000 slw
n 945 12312 m 962 12295 l 962 5229 l 8487 5229 l 8504 5212 l 945 5212 l

 945 12312 l  cp gs col7 1.00 shd ef gr 
% here ends figure;
% 
% here starts figure with depth 981
%  polyline 
% Polyline
0 slj
0 slc
0.000 slw
n 945 12312 m 962 12295 l 8487 12295 l 8487 5229 l 8504 5212 l 8504 12312 l

 945 12312 l  cp gs col33 1.00 shd ef gr 
% here ends figure;
% 
% here starts figure with depth 979
%  polyline 
% Polyline
0 slj
0 slc
7.500 slw
n 945 12312 m 945 5212 l 8504 5212 l 8504 12312 l
 945 12312 l  cp gs col0 s gr 
%  polyline 
% Polyline
n 945 12312 m
 8504 12312 l gs col0 s gr 
%  polyline 
% Polyline
 [15 60] 60 sd
n 945 5212 m
 945 12312 l gs col0 s gr  [] 0 sd
% here ends figure;
% 
% here starts figure with depth 975
%  polyline 
% Polyline
0 slj
0 slc
7.500 slw
 [15 60] 60 sd
n 1783 5212 m
 1783 12312 l gs col0 s gr  [] 0 sd
%  polyline 
% Polyline
 [15 60] 60 sd
n 2624 5212 m
 2624 12312 l gs col0 s gr  [] 0 sd
%  polyline 
% Polyline
 [15 60] 60 sd
n 3462 5212 m
 3462 12312 l gs col0 s gr  [] 0 sd
%  polyline 
% Polyline
 [15 60] 60 sd
n 4304 5212 m
 4304 12312 l gs col0 s gr  [] 0 sd
%  polyline 
% Polyline
 [15 60] 60 sd
n 5145 5212 m
 5145 12312 l gs col0 s gr  [] 0 sd
%  polyline 
% Polyline
 [15 60] 60 sd
n 5983 5212 m
 5983 12312 l gs col0 s gr  [] 0 sd
%  polyline 
% Polyline
 [15 60] 60 sd
n 6824 5212 m
 6824 12312 l gs col0 s gr  [] 0 sd
%  polyline 
% Polyline
 [15 60] 60 sd
n 7662 5212 m
 7662 12312 l gs col0 s gr  [] 0 sd
%  polyline 
% Polyline
 [15 60] 60 sd
n 8504 5212 m
 8504 12312 l gs col0 s gr  [] 0 sd
%  polyline 
% Polyline
n 945 12312 m
 945 5212 l gs col0 s gr 
% here ends figure;
% 
% here starts figure with depth 964
%  polyline 
% Polyline
0 slj
0 slc
7.500 slw
 [15 60] 60 sd
n 8504 11991 m
 945 11991 l gs col0 s gr  [] 0 sd
%  polyline 
% Polyline
 [15 60] 60 sd
n 8504 11545 m
 945 11545 l gs col0 s gr  [] 0 sd
%  polyline 
% Polyline
 [15 60] 60 sd
n 8504 11183 m
 945 11183 l gs col0 s gr  [] 0 sd
%  polyline 
% Polyline
 [15 60] 60 sd
n 8504 10875 m
 945 10875 l gs col0 s gr  [] 0 sd
%  polyline 
% Polyline
 [15 60] 60 sd
n 8504 10608 m
 945 10608 l gs col0 s gr  [] 0 sd
%  polyline 
% Polyline
 [15 60] 60 sd
n 8504 10375 m
 945 10375 l gs col0 s gr  [] 0 sd
%  polyline 
% Polyline
 [15 60] 60 sd
n 8504 10166 m
 945 10166 l gs col0 s gr  [] 0 sd
%  polyline 
% Polyline
 [15 60] 60 sd
n 8504 8783 m
 945 8783 l gs col0 s gr  [] 0 sd
%  polyline 
% Polyline
 [15 60] 60 sd
n 8504 7975 m
 945 7975 l gs col0 s gr  [] 0 sd
%  polyline 
% Polyline
 [15 60] 60 sd
n 8504 7400 m
 945 7400 l gs col0 s gr  [] 0 sd
%  polyline 
% Polyline
 [15 60] 60 sd
n 8504 6958 m
 945 6958 l gs col0 s gr  [] 0 sd
%  polyline 
% Polyline
 [15 60] 60 sd
n 8504 6595 m
 945 6595 l gs col0 s gr  [] 0 sd
%  polyline 
% Polyline
 [15 60] 60 sd
n 8504 6287 m
 945 6287 l gs col0 s gr  [] 0 sd
%  polyline 
% Polyline
 [15 60] 60 sd
n 8504 6020 m
 945 6020 l gs col0 s gr  [] 0 sd
%  polyline 
% Polyline
 [15 60] 60 sd
n 8504 5787 m
 945 5787 l gs col0 s gr  [] 0 sd
%  polyline 
% Polyline
 [15 60] 60 sd
n 8504 5575 m
 945 5575 l gs col0 s gr  [] 0 sd
% here ends figure;
% 
% here starts figure with depth 947
%  polyline 
% Polyline
0 slj
0 slc
7.500 slw
n 945 6483 m 1366 6483 l 1366 7354 l 1783 7354 l 1783 8162 l 2204 8162 l
 2204 8733 l 2624 8733 l 2624 9175 l 3045 9175 l 3045 9508 l
 3462 9508 l 3462 9812 l 3883 9812 l 3883 10050 l 4304 10050 l
 4304 10058 l 4724 10058 l 4724 10266 l 5145 10266 l 5145 10391 l
 5562 10391 l 5562 10525 l 5983 10525 l 5983 10570 l 6404 10570 l
 6404 10712 l 6824 10712 l 6824 10812 l 7245 10812 l 7245 10829 l
 7662 10829 l 7662 10837 l 8083 10837 l 8083 10929 l
 8504 10929 l gs col1 s gr 
%  polyline 
% Polyline
n 945 12312 m
 8504 12312 l gs col0 s gr 
%  polyline 
% Polyline
n 945 12100 m
 945 12312 l gs col0 s gr 
% here ends figure;
% 
% here starts figure with depth 943
%  polyline 
% Polyline
0 slj
0 slc
7.500 slw
n 1154 12204 m
 1154 12312 l gs col0 s gr 
%  polyline 
% Polyline
n 1366 12204 m
 1366 12312 l gs col0 s gr 
%  polyline 
% Polyline
n 1574 12204 m
 1574 12312 l gs col0 s gr 
%  polyline 
% Polyline
n 1783 12100 m
 1783 12312 l gs col0 s gr 
%  polyline 
% Polyline
n 1995 12204 m
 1995 12312 l gs col0 s gr 
%  polyline 
% Polyline
n 2204 12204 m
 2204 12312 l gs col0 s gr 
%  polyline 
% Polyline
n 2416 12204 m
 2416 12312 l gs col0 s gr 
%  polyline 
% Polyline
n 2624 12100 m
 2624 12312 l gs col0 s gr 
%  polyline 
% Polyline
n 2833 12204 m
 2833 12312 l gs col0 s gr 
%  polyline 
% Polyline
n 3045 12204 m
 3045 12312 l gs col0 s gr 
%  polyline 
% Polyline
n 3254 12204 m
 3254 12312 l gs col0 s gr 
%  polyline 
% Polyline
n 3462 12100 m
 3462 12312 l gs col0 s gr 
%  polyline 
% Polyline
n 3674 12204 m
 3674 12312 l gs col0 s gr 
%  polyline 
% Polyline
n 3883 12204 m
 3883 12312 l gs col0 s gr 
%  polyline 
% Polyline
n 4095 12204 m
 4095 12312 l gs col0 s gr 
%  polyline 
% Polyline
n 4304 12100 m
 4304 12312 l gs col0 s gr 
%  polyline 
% Polyline
n 4512 12204 m
 4512 12312 l gs col0 s gr 
%  polyline 
% Polyline
n 4724 12204 m
 4724 12312 l gs col0 s gr 
%  polyline 
% Polyline
n 4933 12204 m
 4933 12312 l gs col0 s gr 
%  polyline 
% Polyline
n 5145 12100 m
 5145 12312 l gs col0 s gr 
%  polyline 
% Polyline
n 5354 12204 m
 5354 12312 l gs col0 s gr 
%  polyline 
% Polyline
n 5562 12204 m
 5562 12312 l gs col0 s gr 
%  polyline 
% Polyline
n 5774 12204 m
 5774 12312 l gs col0 s gr 
%  polyline 
% Polyline
n 5983 12100 m
 5983 12312 l gs col0 s gr 
%  polyline 
% Polyline
n 6195 12204 m
 6195 12312 l gs col0 s gr 
%  polyline 
% Polyline
n 6404 12204 m
 6404 12312 l gs col0 s gr 
%  polyline 
% Polyline
n 6612 12204 m
 6612 12312 l gs col0 s gr 
%  polyline 
% Polyline
n 6824 12100 m
 6824 12312 l gs col0 s gr 
%  polyline 
% Polyline
n 7033 12204 m
 7033 12312 l gs col0 s gr 
%  polyline 
% Polyline
n 7245 12204 m
 7245 12312 l gs col0 s gr 
%  polyline 
% Polyline
n 7454 12204 m
 7454 12312 l gs col0 s gr 
%  polyline 
% Polyline
n 7662 12100 m
 7662 12312 l gs col0 s gr 
%  polyline 
% Polyline
n 7874 12204 m
 7874 12312 l gs col0 s gr 
%  polyline 
% Polyline
n 8083 12204 m
 8083 12312 l gs col0 s gr 
%  polyline 
% Polyline
n 8295 12204 m
 8295 12312 l gs col0 s gr 
%  polyline 
% Polyline
n 8504 12100 m
 8504 12312 l gs col0 s gr 
% here ends figure;
% 
% here starts figure with depth 906
%  text 
/Helvetica-Bold-iso ff 366.67 scf sf
833 12629 m
gs 1 -1 sc (0) col0 sh gr
%  text 
/Helvetica-Bold-iso ff 366.67 scf sf
1670 12629 m
gs 1 -1 sc (2) col0 sh gr
%  text 
/Helvetica-Bold-iso ff 366.67 scf sf
2529 12629 m
gs 1 -1 sc (4) col0 sh gr
%  text 
/Helvetica-Bold-iso ff 366.67 scf sf
3362 12629 m
gs 1 -1 sc (6) col0 sh gr
%  text 
/Helvetica-Bold-iso ff 366.67 scf sf
4199 12629 m
gs 1 -1 sc (8) col0 sh gr
%  text 
/Helvetica-Bold-iso ff 366.67 scf sf
4937 12629 m
gs 1 -1 sc (10) col0 sh gr
%  text 
/Helvetica-Bold-iso ff 366.67 scf sf
5774 12629 m
gs 1 -1 sc (12) col0 sh gr
%  text 
/Helvetica-Bold-iso ff 366.67 scf sf
6633 12629 m
gs 1 -1 sc (14) col0 sh gr
%  text 
/Helvetica-Bold-iso ff 366.67 scf sf
7466 12629 m
gs 1 -1 sc (16) col0 sh gr
%  text 
/Helvetica-Bold-iso ff 366.67 scf sf
8304 12629 m
gs 1 -1 sc (18) col0 sh gr
% here ends figure;
% 
% here starts figure with depth 895
%  polyline 
% Polyline
0 slj
0 slc
7.500 slw
n 945 12312 m
 945 5212 l gs col0 s gr 
%  polyline 
% Polyline
n 1058 11991 m
 945 11991 l gs col0 s gr 
% here ends figure;
% 
% here starts figure with depth 892
%  polyline 
% Polyline
0 slj
0 slc
7.500 slw
n 1058 11545 m
 945 11545 l gs col0 s gr 
%  polyline 
% Polyline
n 1058 11183 m
 945 11183 l gs col0 s gr 
%  polyline 
% Polyline
n 1058 10875 m
 945 10875 l gs col0 s gr 
%  polyline 
% Polyline
n 1058 10608 m
 945 10608 l gs col0 s gr 
%  polyline 
% Polyline
n 1058 10375 m
 945 10375 l gs col0 s gr 
%  polyline 
% Polyline
n 1170 10166 m
 945 10166 l gs col0 s gr 
%  text 
/Helvetica-Bold-iso ff 233.33 scf sf
666 10120 m
gs 1 -1 sc (-6) col0 sh gr
% here ends figure;
% 
% here starts figure with depth 884
%  text 
/Helvetica-Bold-iso ff 366.67 scf sf
308 10312 m
gs 1 -1 sc (10) col0 sh gr
%  polyline 
% Polyline
0 slj
0 slc
7.500 slw
n 1058 8783 m
 945 8783 l gs col0 s gr 
%  polyline 
% Polyline
n 1058 7975 m
 945 7975 l gs col0 s gr 
%  polyline 
% Polyline
n 1058 7400 m
 945 7400 l gs col0 s gr 
%  polyline 
% Polyline
n 1058 6958 m
 945 6958 l gs col0 s gr 
%  polyline 
% Polyline
n 1058 6595 m
 945 6595 l gs col0 s gr 
%  polyline 
% Polyline
n 1058 6287 m
 945 6287 l gs col0 s gr 
%  polyline 
% Polyline
n 1058 6020 m
 945 6020 l gs col0 s gr 
%  polyline 
% Polyline
n 1058 5787 m
 945 5787 l gs col0 s gr 
%  polyline 
% Polyline
n 1170 5575 m
 945 5575 l gs col0 s gr 
%  text 
/Helvetica-Bold-iso ff 233.33 scf sf
666 5541 m
gs 1 -1 sc (-5) col0 sh gr
% here ends figure;
% 
% here starts figure with depth 872
%  text 
/Helvetica-Bold-iso ff 366.67 scf sf
308 5733 m
gs 1 -1 sc (10) col0 sh gr
% here ends figure;
% 
% here starts figure with depth 865
%  text 
/Helvetica-Bold-iso ff 416.67 scf sf
1425 4725 m
gs 1 -1 sc (Timing profile in seconds for 10g) col0 sh gr
%  polyline 
% Polyline
0 slj
0 slc
7.500 slw
n 945 8975 m 1366 8975 l 1366 8000 l 1783 8000 l 1783 7995 l 2204 7995 l
 2204 7991 l 2624 7991 l 2624 7983 l 3045 7983 l 3045 7916 l
 3462 7916 l 3462 7912 l 3883 7912 l 3883 7854 l 4304 7854 l
 4304 7312 l 5145 7312 l 5145 7145 l 5562 7145 l 5562 7041 l
 5983 7041 l 5983 6729 l 6404 6729 l 6404 6712 l 6824 6712 l
 6824 6600 l 7245 6600 l 7245 6279 l 7662 6279 l 7662 5920 l
 8083 5920 l 8083 5858 l
 8504 5858 l gs col4 s gr 
% here ends figure;
% 
% here starts figure with depth 862
%  polyline 
% Polyline
0 slj
0 slc
7.500 slw
n 8504 12312 m
 8504 5212 l gs col4 s gr 
%  polyline 
% Polyline
n 8279 12312 m
 8504 12312 l gs col4 s gr 
% here ends figure;
% 
% here starts figure with depth 859
%  polyline 
% Polyline
0 slj
0 slc
7.500 slw
n 8391 12137 m
 8504 12137 l gs col4 s gr 
%  polyline 
% Polyline
n 8391 11962 m
 8504 11962 l gs col4 s gr 
%  polyline 
% Polyline
n 8391 11787 m
 8504 11787 l gs col4 s gr 
%  polyline 
% Polyline
n 8391 11608 m
 8504 11608 l gs col4 s gr 
%  polyline 
% Polyline
n 8279 11433 m
 8504 11433 l gs col4 s gr 
%  polyline 
% Polyline
n 8391 11258 m
 8504 11258 l gs col4 s gr 
%  polyline 
% Polyline
n 8391 11083 m
 8504 11083 l gs col4 s gr 
%  polyline 
% Polyline
n 8391 10908 m
 8504 10908 l gs col4 s gr 
%  polyline 
% Polyline
n 8391 10733 m
 8504 10733 l gs col4 s gr 
%  polyline 
% Polyline
n 8279 10558 m
 8504 10558 l gs col4 s gr 
%  polyline 
% Polyline
n 8391 10383 m
 8504 10383 l gs col4 s gr 
%  polyline 
% Polyline
n 8391 10204 m
 8504 10204 l gs col4 s gr 
%  polyline 
% Polyline
n 8391 10029 m
 8504 10029 l gs col4 s gr 
%  polyline 
% Polyline
n 8391 9854 m
 8504 9854 l gs col4 s gr 
%  polyline 
% Polyline
n 8279 9679 m
 8504 9679 l gs col4 s gr 
%  polyline 
% Polyline
n 8391 9504 m
 8504 9504 l gs col4 s gr 
%  polyline 
% Polyline
n 8391 9329 m
 8504 9329 l gs col4 s gr 
%  polyline 
% Polyline
n 8391 9154 m
 8504 9154 l gs col4 s gr 
%  polyline 
% Polyline
n 8391 8975 m
 8504 8975 l gs col4 s gr 
%  polyline 
% Polyline
n 8279 8800 m
 8504 8800 l gs col4 s gr 
%  polyline 
% Polyline
n 8391 8625 m
 8504 8625 l gs col4 s gr 
%  polyline 
% Polyline
n 8391 8450 m
 8504 8450 l gs col4 s gr 
%  polyline 
% Polyline
n 8391 8275 m
 8504 8275 l gs col4 s gr 
%  polyline 
% Polyline
n 8391 8100 m
 8504 8100 l gs col4 s gr 
%  polyline 
% Polyline
n 8279 7925 m
 8504 7925 l gs col4 s gr 
%  polyline 
% Polyline
n 8391 7750 m
 8504 7750 l gs col4 s gr 
%  polyline 
% Polyline
n 8391 7570 m
 8504 7570 l gs col4 s gr 
%  polyline 
% Polyline
n 8391 7395 m
 8504 7395 l gs col4 s gr 
%  polyline 
% Polyline
n 8391 7220 m
 8504 7220 l gs col4 s gr 
%  polyline 
% Polyline
n 8279 7045 m
 8504 7045 l gs col4 s gr 
%  polyline 
% Polyline
n 8391 6870 m
 8504 6870 l gs col4 s gr 
%  polyline 
% Polyline
n 8391 6695 m
 8504 6695 l gs col4 s gr 
%  polyline 
% Polyline
n 8391 6520 m
 8504 6520 l gs col4 s gr 
%  polyline 
% Polyline
n 8391 6345 m
 8504 6345 l gs col4 s gr 
%  polyline 
% Polyline
n 8279 6166 m
 8504 6166 l gs col4 s gr 
%  polyline 
% Polyline
n 8391 5991 m
 8504 5991 l gs col4 s gr 
%  polyline 
% Polyline
n 8391 5816 m
 8504 5816 l gs col4 s gr 
%  polyline 
% Polyline
n 8391 5641 m
 8504 5641 l gs col4 s gr 
%  polyline 
% Polyline
n 8391 5466 m
 8504 5466 l gs col4 s gr 
%  polyline 
% Polyline
n 8279 5291 m
 8504 5291 l gs col4 s gr 
%  polyline 
% Polyline
n 8279 5291 m
 8504 5291 l gs col4 s gr 
%  text 
/Helvetica-Bold-iso ff 366.67 scf sf
8541 12437 m
gs 1 -1 sc (0) col4 sh gr
% here ends figure;
% 
% here starts figure with depth 816
%  text 
/Helvetica-Bold-iso ff 366.67 scf sf
8541 11579 m
gs 1 -1 sc (50) col4 sh gr
%  text 
/Helvetica-Bold-iso ff 366.67 scf sf
8541 10695 m
gs 1 -1 sc (100) col4 sh gr
%  text 
/Helvetica-Bold-iso ff 366.67 scf sf
8541 9812 m
gs 1 -1 sc (150) col4 sh gr
%  text 
/Helvetica-Bold-iso ff 366.67 scf sf
8541 8929 m
gs 1 -1 sc (200) col4 sh gr
%  text 
/Helvetica-Bold-iso ff 366.67 scf sf
8541 8045 m
gs 1 -1 sc (250) col4 sh gr
%  text 
/Helvetica-Bold-iso ff 366.67 scf sf
8541 7187 m
gs 1 -1 sc (300) col4 sh gr
%  text 
/Helvetica-Bold-iso ff 366.67 scf sf
8541 6304 m
gs 1 -1 sc (350) col4 sh gr
%  text 
/Helvetica-Bold-iso ff 366.67 scf sf
8541 5420 m
gs 1 -1 sc (400) col4 sh gr
% here ends figure;
% 
% here starts figure with depth 50
/Helvetica-Bold-iso ff 333.33 scf sf
7425 13050 m
gs 1 -1 sc (# events/MP) col0 sh gr
% here ends figure;
$F2psEnd
rs
showpage
%%Trailer
%EOF
