%!PS-Adobe-2.0 EPSF-2.0
%%Title: timing4.fig
%%Creator: fig2dev Version 3.2 Patchlevel 5
%%CreationDate: Tue Feb 16 21:40:43 2010
%%For: giele@LaptopGiele (Walter Giele)
%%BoundingBox: 0 0 568 533
%Magnification: 1.0000
%%EndComments
/$F2psDict 200 dict def
$F2psDict begin
$F2psDict /mtrx matrix put
/col-1 {0 setgray} bind def
/col0 {0.000 0.000 0.000 srgb} bind def
/col1 {0.000 0.000 1.000 srgb} bind def
/col2 {0.000 1.000 0.000 srgb} bind def
/col3 {0.000 1.000 1.000 srgb} bind def
/col4 {1.000 0.000 0.000 srgb} bind def
/col5 {1.000 0.000 1.000 srgb} bind def
/col6 {1.000 1.000 0.000 srgb} bind def
/col7 {1.000 1.000 1.000 srgb} bind def
/col8 {0.000 0.000 0.560 srgb} bind def
/col9 {0.000 0.000 0.690 srgb} bind def
/col10 {0.000 0.000 0.820 srgb} bind def
/col11 {0.530 0.810 1.000 srgb} bind def
/col12 {0.000 0.560 0.000 srgb} bind def
/col13 {0.000 0.690 0.000 srgb} bind def
/col14 {0.000 0.820 0.000 srgb} bind def
/col15 {0.000 0.560 0.560 srgb} bind def
/col16 {0.000 0.690 0.690 srgb} bind def
/col17 {0.000 0.820 0.820 srgb} bind def
/col18 {0.560 0.000 0.000 srgb} bind def
/col19 {0.690 0.000 0.000 srgb} bind def
/col20 {0.820 0.000 0.000 srgb} bind def
/col21 {0.560 0.000 0.560 srgb} bind def
/col22 {0.690 0.000 0.690 srgb} bind def
/col23 {0.820 0.000 0.820 srgb} bind def
/col24 {0.500 0.190 0.000 srgb} bind def
/col25 {0.630 0.250 0.000 srgb} bind def
/col26 {0.750 0.380 0.000 srgb} bind def
/col27 {1.000 0.500 0.500 srgb} bind def
/col28 {1.000 0.630 0.630 srgb} bind def
/col29 {1.000 0.750 0.750 srgb} bind def
/col30 {1.000 0.880 0.880 srgb} bind def
/col31 {1.000 0.840 0.000 srgb} bind def
/col32 {0.949 0.949 0.949 srgb} bind def
/col33 {0.663 0.663 0.663 srgb} bind def

end
save
newpath 0 533 moveto 0 0 lineto 568 0 lineto 568 533 lineto closepath clip newpath
0.1 792.1 translate
1 -1 scale

/cp {closepath} bind def
/ef {eofill} bind def
/gr {grestore} bind def
/gs {gsave} bind def
/sa {save} bind def
/rs {restore} bind def
/l {lineto} bind def
/m {moveto} bind def
/rm {rmoveto} bind def
/n {newpath} bind def
/s {stroke} bind def
/sh {show} bind def
/slc {setlinecap} bind def
/slj {setlinejoin} bind def
/slw {setlinewidth} bind def
/srgb {setrgbcolor} bind def
/rot {rotate} bind def
/sc {scale} bind def
/sd {setdash} bind def
/ff {findfont} bind def
/sf {setfont} bind def
/scf {scalefont} bind def
/sw {stringwidth} bind def
/tr {translate} bind def
/tnt {dup dup currentrgbcolor
  4 -2 roll dup 1 exch sub 3 -1 roll mul add
  4 -2 roll dup 1 exch sub 3 -1 roll mul add
  4 -2 roll dup 1 exch sub 3 -1 roll mul add srgb}
  bind def
/shd {dup dup currentrgbcolor 4 -2 roll mul 4 -2 roll mul
  4 -2 roll mul srgb} bind def
/reencdict 12 dict def /ReEncode { reencdict begin
/newcodesandnames exch def /newfontname exch def /basefontname exch def
/basefontdict basefontname findfont def /newfont basefontdict maxlength dict def
basefontdict { exch dup /FID ne { dup /Encoding eq
{ exch dup length array copy newfont 3 1 roll put }
{ exch newfont 3 1 roll put } ifelse } { pop pop } ifelse } forall
newfont /FontName newfontname put newcodesandnames aload pop
128 1 255 { newfont /Encoding get exch /.notdef put } for
newcodesandnames length 2 idiv { newfont /Encoding get 3 1 roll put } repeat
newfontname newfont definefont pop end } def
/isovec [
8#055 /minus 8#200 /grave 8#201 /acute 8#202 /circumflex 8#203 /tilde
8#204 /macron 8#205 /breve 8#206 /dotaccent 8#207 /dieresis
8#210 /ring 8#211 /cedilla 8#212 /hungarumlaut 8#213 /ogonek 8#214 /caron
8#220 /dotlessi 8#230 /oe 8#231 /OE
8#240 /space 8#241 /exclamdown 8#242 /cent 8#243 /sterling
8#244 /currency 8#245 /yen 8#246 /brokenbar 8#247 /section 8#250 /dieresis
8#251 /copyright 8#252 /ordfeminine 8#253 /guillemotleft 8#254 /logicalnot
8#255 /hyphen 8#256 /registered 8#257 /macron 8#260 /degree 8#261 /plusminus
8#262 /twosuperior 8#263 /threesuperior 8#264 /acute 8#265 /mu 8#266 /paragraph
8#267 /periodcentered 8#270 /cedilla 8#271 /onesuperior 8#272 /ordmasculine
8#273 /guillemotright 8#274 /onequarter 8#275 /onehalf
8#276 /threequarters 8#277 /questiondown 8#300 /Agrave 8#301 /Aacute
8#302 /Acircumflex 8#303 /Atilde 8#304 /Adieresis 8#305 /Aring
8#306 /AE 8#307 /Ccedilla 8#310 /Egrave 8#311 /Eacute
8#312 /Ecircumflex 8#313 /Edieresis 8#314 /Igrave 8#315 /Iacute
8#316 /Icircumflex 8#317 /Idieresis 8#320 /Eth 8#321 /Ntilde 8#322 /Ograve
8#323 /Oacute 8#324 /Ocircumflex 8#325 /Otilde 8#326 /Odieresis 8#327 /multiply
8#330 /Oslash 8#331 /Ugrave 8#332 /Uacute 8#333 /Ucircumflex
8#334 /Udieresis 8#335 /Yacute 8#336 /Thorn 8#337 /germandbls 8#340 /agrave
8#341 /aacute 8#342 /acircumflex 8#343 /atilde 8#344 /adieresis 8#345 /aring
8#346 /ae 8#347 /ccedilla 8#350 /egrave 8#351 /eacute
8#352 /ecircumflex 8#353 /edieresis 8#354 /igrave 8#355 /iacute
8#356 /icircumflex 8#357 /idieresis 8#360 /eth 8#361 /ntilde 8#362 /ograve
8#363 /oacute 8#364 /ocircumflex 8#365 /otilde 8#366 /odieresis 8#367 /divide
8#370 /oslash 8#371 /ugrave 8#372 /uacute 8#373 /ucircumflex
8#374 /udieresis 8#375 /yacute 8#376 /thorn 8#377 /ydieresis] def
/Helvetica-Bold /Helvetica-Bold-iso isovec ReEncode
/$F2psBegin {$F2psDict begin /$F2psEnteredState save def} def
/$F2psEnd {$F2psEnteredState restore end} def

$F2psBegin
10 setmiterlimit
0 slj 0 slc
 0.06000 0.06000 sc
%
% Fig objects follow
%
% 
% here starts figure with depth 999
%  polyline 
% Polyline
0 slj
0 slc
0.000 slw
n 0 13200 m 0 4325 l 9449 4325 l 9449 13200 l
 0 13200 l  cp gs col32 1.00 shd ef gr 
% here ends figure;
% 
% here starts figure with depth 997
%  polyline 
% Polyline
0 slj
0 slc
0.000 slw
n 0 13200 m 33 13166 l 33 4358 l 9416 4358 l 9449 4325 l 0 4325 l

 0 13200 l  cp gs col7 1.00 shd ef gr 
% here ends figure;
% 
% here starts figure with depth 995
%  polyline 
% Polyline
0 slj
0 slc
0.000 slw
n 0 13200 m 33 13166 l 9416 13166 l 9416 4358 l 9449 4325 l 9449 13200 l

 0 13200 l  cp gs col33 1.00 shd ef gr 
% here ends figure;
% 
% here starts figure with depth 991
%  polyline 
% Polyline
0 slj
0 slc
0.000 slw
n 945 12312 m 962 12295 l 962 5229 l 8487 5229 l 8504 5212 l 945 5212 l

 945 12312 l  cp gs col7 1.00 shd ef gr 
% here ends figure;
% 
% here starts figure with depth 989
%  polyline 
% Polyline
0 slj
0 slc
0.000 slw
n 945 12312 m 962 12295 l 8487 12295 l 8487 5229 l 8504 5212 l 8504 12312 l

 945 12312 l  cp gs col33 1.00 shd ef gr 
% here ends figure;
% 
% here starts figure with depth 987
%  polyline 
% Polyline
0 slj
0 slc
7.500 slw
n 945 12312 m 945 5212 l 8504 5212 l 8504 12312 l
 945 12312 l  cp gs col0 s gr 
% here ends figure;
% 
% here starts figure with depth 985
%  polyline 
% Polyline
0 slj
0 slc
0.000 slw
n 945 12312 m 945 5212 l 8504 5212 l 8504 12312 l
 945 12312 l  cp gs col32 1.00 shd ef gr 
% here ends figure;
% 
% here starts figure with depth 983
%  polyline 
% Polyline
0 slj
0 slc
0.000 slw
n 945 12312 m 962 12295 l 962 5229 l 8487 5229 l 8504 5212 l 945 5212 l

 945 12312 l  cp gs col7 1.00 shd ef gr 
% here ends figure;
% 
% here starts figure with depth 981
%  polyline 
% Polyline
0 slj
0 slc
0.000 slw
n 945 12312 m 962 12295 l 8487 12295 l 8487 5229 l 8504 5212 l 8504 12312 l

 945 12312 l  cp gs col33 1.00 shd ef gr 
% here ends figure;
% 
% here starts figure with depth 979
%  polyline 
% Polyline
0 slj
0 slc
7.500 slw
n 945 12312 m 945 5212 l 8504 5212 l 8504 12312 l
 945 12312 l  cp gs col0 s gr 
%  polyline 
% Polyline
n 945 12312 m
 8504 12312 l gs col0 s gr 
%  polyline 
% Polyline
 [15 60] 60 sd
n 945 5212 m
 945 12312 l gs col0 s gr  [] 0 sd
% here ends figure;
% 
% here starts figure with depth 975
%  polyline 
% Polyline
0 slj
0 slc
7.500 slw
 [15 60] 60 sd
n 2424 5212 m
 2424 12312 l gs col0 s gr  [] 0 sd
%  polyline 
% Polyline
 [15 60] 60 sd
n 3908 5212 m
 3908 12312 l gs col0 s gr  [] 0 sd
%  polyline 
% Polyline
 [15 60] 60 sd
n 5391 5212 m
 5391 12312 l gs col0 s gr  [] 0 sd
%  polyline 
% Polyline
 [15 60] 60 sd
n 6874 5212 m
 6874 12312 l gs col0 s gr  [] 0 sd
%  polyline 
% Polyline
 [15 60] 60 sd
n 8354 5212 m
 8354 12312 l gs col0 s gr  [] 0 sd
%  polyline 
% Polyline
 [15 60] 60 sd
n 8354 5212 m
 8354 12312 l gs col0 s gr  [] 0 sd
%  polyline 
% Polyline
n 945 12312 m
 945 5212 l gs col0 s gr 
% here ends figure;
% 
% here starts figure with depth 967
%  polyline 
% Polyline
0 slj
0 slc
7.500 slw
 [15 60] 60 sd
n 8504 11854 m
 945 11854 l gs col0 s gr  [] 0 sd
%  polyline 
% Polyline
 [15 60] 60 sd
n 8504 11291 m
 945 11291 l gs col0 s gr  [] 0 sd
%  polyline 
% Polyline
 [15 60] 60 sd
n 8504 10895 m
 945 10895 l gs col0 s gr  [] 0 sd
%  polyline 
% Polyline
 [15 60] 60 sd
n 8504 10587 m
 945 10587 l gs col0 s gr  [] 0 sd
%  polyline 
% Polyline
 [15 60] 60 sd
n 8504 10333 m
 945 10333 l gs col0 s gr  [] 0 sd
%  polyline 
% Polyline
 [15 60] 60 sd
n 8504 10120 m
 945 10120 l gs col0 s gr  [] 0 sd
%  polyline 
% Polyline
 [15 60] 60 sd
n 8504 9937 m
 945 9937 l gs col0 s gr  [] 0 sd
%  polyline 
% Polyline
 [15 60] 60 sd
n 8504 9775 m
 945 9775 l gs col0 s gr  [] 0 sd
%  polyline 
% Polyline
 [15 60] 60 sd
n 8504 9629 m
 945 9629 l gs col0 s gr  [] 0 sd
%  polyline 
% Polyline
 [15 60] 60 sd
n 8504 8670 m
 945 8670 l gs col0 s gr  [] 0 sd
%  polyline 
% Polyline
 [15 60] 60 sd
n 8504 8108 m
 945 8108 l gs col0 s gr  [] 0 sd
%  polyline 
% Polyline
 [15 60] 60 sd
n 8504 7712 m
 945 7712 l gs col0 s gr  [] 0 sd
%  polyline 
% Polyline
 [15 60] 60 sd
n 8504 7404 m
 945 7404 l gs col0 s gr  [] 0 sd
%  polyline 
% Polyline
 [15 60] 60 sd
n 8504 7150 m
 945 7150 l gs col0 s gr  [] 0 sd
%  polyline 
% Polyline
 [15 60] 60 sd
n 8504 6937 m
 945 6937 l gs col0 s gr  [] 0 sd
%  polyline 
% Polyline
 [15 60] 60 sd
n 8504 6754 m
 945 6754 l gs col0 s gr  [] 0 sd
%  polyline 
% Polyline
 [15 60] 60 sd
n 8504 6591 m
 945 6591 l gs col0 s gr  [] 0 sd
%  polyline 
% Polyline
 [15 60] 60 sd
n 8504 6445 m
 945 6445 l gs col0 s gr  [] 0 sd
%  polyline 
% Polyline
 [15 60] 60 sd
n 8504 5487 m
 945 5487 l gs col0 s gr  [] 0 sd
% here ends figure;
% 
% here starts figure with depth 947
%  polyline 
% Polyline
0 slj
0 slc
7.500 slw
n 945 6095 m 1020 6095 l 1020 7037 l 1091 7037 l 1091 7462 l 1166 7462 l
 1166 7837 l 1241 7837 l 1241 8029 l 1316 8029 l 1316 8229 l
 1387 8229 l 1387 8441 l 1462 8441 l 1462 8620 l 1537 8620 l
 1537 8783 l 1612 8783 l 1612 8929 l 1687 8929 l 1687 9104 l
 1758 9104 l 1758 9266 l 1833 9266 l 1833 9375 l 1908 9375 l
 1908 9475 l 1983 9475 l 1983 9562 l 2058 9562 l 2058 9583 l
 2129 9583 l 2129 9637 l 2204 9637 l 2204 9716 l 2279 9716 l
 2279 9791 l 2354 9791 l 2354 9858 l 2424 9858 l 2424 9925 l
 2499 9925 l 2499 10037 l 2574 10037 l 2574 10133 l 2649 10133 l
 2649 10187 l 2724 10187 l 2724 10216 l 2795 10216 l 2795 10237 l
 2870 10237 l 2870 10183 l 2945 10183 l 2945 10229 l 3020 10229 l
 3020 10275 l 3095 10275 l 3095 10320 l 3166 10320 l 3166 10366 l
 3241 10366 l 3241 10408 l 3316 10408 l 3316 10516 l 3391 10516 l
 3391 10558 l 3462 10558 l 3462 10570 l 3537 10570 l 3537 10600 l
 3612 10600 l 3612 10604 l 3687 10604 l 3687 10595 l 3762 10595 l
 3762 10629 l 3833 10629 l 3833 10666 l 3908 10666 l 3908 10691 l
 3983 10691 l 3983 10720 l 4058 10720 l 4058 10783 l 4133 10783 l
 4133 10820 l 4204 10820 l 4204 10850 l 4279 10850 l 4279 10841 l
 4354 10841 l 4354 10862 l 4429 10862 l 4429 10870 l 4504 10870 l
 4504 10850 l 4574 10850 l 4574 10875 l 4649 10875 l 4649 10900 l
 4724 10900 l 4724 10925 l 4799 10925 l 4799 10945 l 4870 10945 l
 4870 10991 l 4945 10991 l 4945 10979 l 5020 10979 l 5020 11000 l
 5095 11000 l 5095 11004 l 5170 11004 l 5170 11025 l 5241 11025 l
 5241 10983 l 5316 10983 l 5316 11004 l 5391 11004 l 5391 11029 l
 5466 11029 l 5466 11050 l 5541 11050 l 5541 11070 l 5612 11070 l
 5612 11095 l 5762 11095 l 5762 11116 l 5837 11116 l 5837 11095 l
 5908 11095 l 5908 11116 l 5983 11116 l 5983 11120 l 6058 11120 l
 6058 11087 l 6133 11087 l 6133 11108 l 6208 11108 l 6208 11129 l
 6279 11129 l 6279 11145 l 6354 11145 l 6354 11162 l 6429 11162 l
 6429 11220 l 6504 11220 l 6504 11241 l 6579 11241 l 6579 11254 l
 6649 11254 l 6649 11237 l 6724 11237 l 6724 11254 l 6799 11254 l
 6799 11258 l 6874 11258 l 6874 11216 l 6945 11216 l 6945 11233 l
 7020 11233 l 7020 11245 l 7095 11245 l 7095 11266 l 7170 11266 l
 7170 11279 l 7245 11279 l 7245 11291 l 7391 11291 l 7391 11308 l
 7466 11308 l 7466 11312 l 7541 11312 l 7541 11316 l 7616 11316 l
 7616 11266 l 7687 11266 l 7687 11279 l 7762 11279 l 7762 11295 l
 7837 11295 l 7837 11308 l 7912 11308 l 7912 11320 l 7983 11320 l
 7983 11341 l 8058 11341 l 8058 11316 l 8133 11316 l 8133 11329 l
 8208 11329 l 8208 11341 l 8283 11341 l 8283 11354 l 8354 11354 l
 8354 11350 l 8429 11350 l 8429 11304 l
 8504 11304 l gs col1 s gr 
%  polyline 
% Polyline
n 945 12312 m
 8504 12312 l gs col0 s gr 
%  polyline 
% Polyline
n 945 12100 m
 945 12312 l gs col0 s gr 
% here ends figure;
% 
% here starts figure with depth 943
%  polyline 
% Polyline
0 slj
0 slc
7.500 slw
n 1316 12204 m
 1316 12312 l gs col0 s gr 
%  polyline 
% Polyline
n 1687 12204 m
 1687 12312 l gs col0 s gr 
%  polyline 
% Polyline
n 2058 12204 m
 2058 12312 l gs col0 s gr 
%  polyline 
% Polyline
n 2424 12100 m
 2424 12312 l gs col0 s gr 
%  polyline 
% Polyline
n 2795 12204 m
 2795 12312 l gs col0 s gr 
%  polyline 
% Polyline
n 3166 12204 m
 3166 12312 l gs col0 s gr 
%  polyline 
% Polyline
n 3537 12204 m
 3537 12312 l gs col0 s gr 
%  polyline 
% Polyline
n 3908 12100 m
 3908 12312 l gs col0 s gr 
%  polyline 
% Polyline
n 4279 12204 m
 4279 12312 l gs col0 s gr 
%  polyline 
% Polyline
n 4649 12204 m
 4649 12312 l gs col0 s gr 
%  polyline 
% Polyline
n 5020 12204 m
 5020 12312 l gs col0 s gr 
%  polyline 
% Polyline
n 5391 12100 m
 5391 12312 l gs col0 s gr 
%  polyline 
% Polyline
n 5762 12204 m
 5762 12312 l gs col0 s gr 
%  polyline 
% Polyline
n 6133 12204 m
 6133 12312 l gs col0 s gr 
%  polyline 
% Polyline
n 6504 12204 m
 6504 12312 l gs col0 s gr 
%  polyline 
% Polyline
n 6874 12100 m
 6874 12312 l gs col0 s gr 
%  polyline 
% Polyline
n 7245 12204 m
 7245 12312 l gs col0 s gr 
%  polyline 
% Polyline
n 7616 12204 m
 7616 12312 l gs col0 s gr 
%  polyline 
% Polyline
n 7983 12204 m
 7983 12312 l gs col0 s gr 
%  polyline 
% Polyline
n 8354 12100 m
 8354 12312 l gs col0 s gr 
%  polyline 
% Polyline
n 8354 12100 m
 8354 12312 l gs col0 s gr 
%  text 
/Helvetica-Bold-iso ff 366.67 scf sf
833 12629 m
gs 1 -1 sc (0) col0 sh gr
% here ends figure;
% 
% here starts figure with depth 920
%  text 
/Helvetica-Bold-iso ff 366.67 scf sf
2220 12629 m
gs 1 -1 sc (20) col0 sh gr
%  text 
/Helvetica-Bold-iso ff 366.67 scf sf
3699 12629 m
gs 1 -1 sc (40) col0 sh gr
%  text 
/Helvetica-Bold-iso ff 366.67 scf sf
5179 12629 m
gs 1 -1 sc (60) col0 sh gr
%  text 
/Helvetica-Bold-iso ff 366.67 scf sf
6679 12629 m
gs 1 -1 sc (80) col0 sh gr
%  text 
/Helvetica-Bold-iso ff 366.67 scf sf
8066 12629 m
gs 1 -1 sc (100) col0 sh gr
%  polyline 
% Polyline
0 slj
0 slc
7.500 slw
n 945 12312 m
 945 5212 l gs col0 s gr 
% here ends figure;
% 
% here starts figure with depth 913
%  polyline 
% Polyline
0 slj
0 slc
7.500 slw
n 1058 11854 m
 945 11854 l gs col0 s gr 
%  polyline 
% Polyline
n 1058 11291 m
 945 11291 l gs col0 s gr 
%  polyline 
% Polyline
n 1058 10895 m
 945 10895 l gs col0 s gr 
%  polyline 
% Polyline
n 1058 10587 m
 945 10587 l gs col0 s gr 
%  polyline 
% Polyline
n 1058 10333 m
 945 10333 l gs col0 s gr 
%  polyline 
% Polyline
n 1058 10120 m
 945 10120 l gs col0 s gr 
%  polyline 
% Polyline
n 1058 9937 m
 945 9937 l gs col0 s gr 
%  polyline 
% Polyline
n 1058 9775 m
 945 9775 l gs col0 s gr 
%  polyline 
% Polyline
n 1170 9629 m
 945 9629 l gs col0 s gr 
%  text 
/Helvetica-Bold-iso ff 233.33 scf sf
666 9620 m
gs 1 -1 sc (-7) col0 sh gr
% here ends figure;
% 
% here starts figure with depth 902
%  text 
/Helvetica-Bold-iso ff 366.67 scf sf
308 9787 m
gs 1 -1 sc (10) col0 sh gr
%  polyline 
% Polyline
0 slj
0 slc
7.500 slw
n 1058 8670 m
 945 8670 l gs col0 s gr 
%  polyline 
% Polyline
n 1058 8108 m
 945 8108 l gs col0 s gr 
%  polyline 
% Polyline
n 1058 7712 m
 945 7712 l gs col0 s gr 
%  polyline 
% Polyline
n 1058 7404 m
 945 7404 l gs col0 s gr 
%  polyline 
% Polyline
n 1058 7150 m
 945 7150 l gs col0 s gr 
%  polyline 
% Polyline
n 1058 6937 m
 945 6937 l gs col0 s gr 
%  polyline 
% Polyline
n 1058 6754 m
 945 6754 l gs col0 s gr 
%  polyline 
% Polyline
n 1058 6591 m
 945 6591 l gs col0 s gr 
%  polyline 
% Polyline
n 1170 6445 m
 945 6445 l gs col0 s gr 
%  text 
/Helvetica-Bold-iso ff 233.33 scf sf
666 6400 m
gs 1 -1 sc (-6) col0 sh gr
% here ends figure;
% 
% here starts figure with depth 890
%  text 
/Helvetica-Bold-iso ff 366.67 scf sf
308 6591 m
gs 1 -1 sc (10) col0 sh gr
%  polyline 
% Polyline
0 slj
0 slc
7.500 slw
n 1058 5487 m
 945 5487 l gs col0 s gr 
% here ends figure;
% 
% here starts figure with depth 882
%  text 
/Helvetica-Bold-iso ff 416.67 scf sf
1650 4725 m
gs 1 -1 sc (Timing profile in seconds for 4g) col0 sh gr
%  polyline 
% Polyline
0 slj
0 slc
7.500 slw
n 945 9566 m 1020 9566 l 1020 9537 l 1091 9537 l 1091 9254 l 1166 9254 l
 1166 9204 l 1241 9204 l 1241 8929 l 1316 8929 l 1316 8800 l
 1387 8800 l 1387 8791 l 1462 8791 l 1462 8787 l 1537 8787 l
 1537 8783 l 1612 8783 l 1612 8779 l 1687 8779 l 1687 8891 l
 1758 8891 l 1758 8991 l 1833 8991 l 1833 8987 l 1908 8987 l
 1908 8979 l 1983 8979 l 1983 8962 l 2058 8962 l 2058 8800 l
 2129 8800 l 2129 8720 l 2279 8720 l 2279 8716 l 2354 8716 l
 2354 8712 l 2499 8712 l 2499 8829 l 2574 8829 l 2574 8916 l
 2649 8916 l 2649 8900 l 2724 8900 l 2724 8841 l 2795 8841 l
 2795 8758 l 2870 8758 l 2870 8462 l 2945 8462 l 2945 8454 l
 3020 8454 l 3020 8445 l 3166 8445 l 3166 8441 l 3241 8441 l
 3241 8445 l 3316 8445 l 3316 8625 l 3391 8625 l 3391 8620 l
 3462 8620 l 3462 8545 l 3537 8545 l 3537 8516 l 3612 8516 l
 3612 8429 l 3687 8429 l 3687 8295 l 3762 8295 l 3762 8283 l
 3833 8283 l 3833 8291 l 3908 8291 l 3908 8266 l 3983 8266 l
 3983 8262 l 4058 8262 l 4058 8341 l 4133 8341 l 4133 8366 l
 4204 8366 l 4204 8354 l 4279 8354 l 4279 8237 l 4354 8237 l
 4354 8220 l 4429 8220 l 4429 8154 l 4504 8154 l 4504 8000 l
 4574 8000 l 4574 7995 l 4649 7995 l 4649 7983 l 4724 7983 l
 4724 7987 l 4799 7987 l 4799 7962 l 4870 7962 l 4870 8020 l
 4945 8020 l 4945 7912 l 5020 7912 l 5020 7895 l 5095 7895 l
 5095 7833 l 5170 7833 l 5170 7820 l 5241 7820 l 5241 7595 l
 5316 7595 l 5316 7600 l 5391 7600 l 5391 7595 l 5466 7595 l
 5466 7600 l 5541 7600 l 5541 7595 l 5612 7595 l 5612 7600 l
 5687 7600 l 5687 7533 l 5762 7533 l 5762 7529 l 5837 7529 l
 5837 7383 l 5908 7383 l 5908 7379 l 5983 7379 l 5983 7320 l
 6058 7320 l 6058 7129 l 6208 7129 l 6208 7133 l 6279 7133 l
 6279 7125 l 6429 7125 l 6429 7262 l 6504 7262 l 6504 7275 l
 6579 7275 l 6579 7262 l 6649 7262 l 6649 7137 l 6724 7137 l
 6724 7125 l 6799 7125 l 6799 7075 l 6874 7075 l 6874 6845 l
 7020 6845 l 7020 6833 l 7095 6833 l 7095 6854 l 7170 6854 l
 7170 6829 l 7245 6829 l 7245 6816 l 7316 6816 l 7316 6762 l
 7391 6762 l 7391 6758 l 7466 6758 l 7466 6716 l 7541 6716 l
 7541 6658 l 7616 6658 l 7616 6387 l 7687 6387 l 7687 6391 l
 7762 6391 l 7762 6383 l 7912 6383 l 7912 6379 l 7983 6379 l
 7983 6391 l 8058 6391 l 8058 6220 l 8208 6220 l 8208 6208 l
 8354 6208 l 8354 6129 l 8429 6129 l 8429 5858 l
 8504 5858 l gs col4 s gr 
% here ends figure;
% 
% here starts figure with depth 879
%  polyline 
% Polyline
0 slj
0 slc
7.500 slw
n 8504 12312 m
 8504 5212 l gs col4 s gr 
%  polyline 
% Polyline
n 8279 12312 m
 8504 12312 l gs col4 s gr 
% here ends figure;
% 
% here starts figure with depth 876
%  polyline 
% Polyline
0 slj
0 slc
7.500 slw
n 8391 11958 m
 8504 11958 l gs col4 s gr 
%  polyline 
% Polyline
n 8391 11604 m
 8504 11604 l gs col4 s gr 
%  polyline 
% Polyline
n 8391 11250 m
 8504 11250 l gs col4 s gr 
%  polyline 
% Polyline
n 8279 10891 m
 8504 10891 l gs col4 s gr 
%  polyline 
% Polyline
n 8391 10537 m
 8504 10537 l gs col4 s gr 
%  polyline 
% Polyline
n 8391 10183 m
 8504 10183 l gs col4 s gr 
%  polyline 
% Polyline
n 8391 9829 m
 8504 9829 l gs col4 s gr 
%  polyline 
% Polyline
n 8279 9475 m
 8504 9475 l gs col4 s gr 
%  polyline 
% Polyline
n 8391 9120 m
 8504 9120 l gs col4 s gr 
%  polyline 
% Polyline
n 8391 8766 m
 8504 8766 l gs col4 s gr 
%  polyline 
% Polyline
n 8391 8412 m
 8504 8412 l gs col4 s gr 
%  polyline 
% Polyline
n 8279 8054 m
 8504 8054 l gs col4 s gr 
%  polyline 
% Polyline
n 8391 7700 m
 8504 7700 l gs col4 s gr 
%  polyline 
% Polyline
n 8391 7345 m
 8504 7345 l gs col4 s gr 
%  polyline 
% Polyline
n 8391 6991 m
 8504 6991 l gs col4 s gr 
%  polyline 
% Polyline
n 8279 6637 m
 8504 6637 l gs col4 s gr 
%  polyline 
% Polyline
n 8391 6283 m
 8504 6283 l gs col4 s gr 
%  polyline 
% Polyline
n 8391 5929 m
 8504 5929 l gs col4 s gr 
%  polyline 
% Polyline
n 8391 5570 m
 8504 5570 l gs col4 s gr 
%  polyline 
% Polyline
n 8279 5216 m
 8504 5216 l gs col4 s gr 
%  polyline 
% Polyline
n 8279 5216 m
 8504 5216 l gs col4 s gr 
%  text 
/Helvetica-Bold-iso ff 366.67 scf sf
8541 12437 m
gs 1 -1 sc (0) col4 sh gr
% here ends figure;
% 
% here starts figure with depth 853
%  text 
/Helvetica-Bold-iso ff 366.67 scf sf
8541 11029 m
gs 1 -1 sc (20) col4 sh gr
%  text 
/Helvetica-Bold-iso ff 366.67 scf sf
8541 9595 m
gs 1 -1 sc (40) col4 sh gr
%  text 
/Helvetica-Bold-iso ff 366.67 scf sf
8541 8187 m
gs 1 -1 sc (60) col4 sh gr
%  text 
/Helvetica-Bold-iso ff 366.67 scf sf
8541 6758 m
gs 1 -1 sc (80) col4 sh gr
%  text 
/Helvetica-Bold-iso ff 366.67 scf sf
8541 5350 m
gs 1 -1 sc (100) col4 sh gr
% here ends figure;
% 
% here starts figure with depth 50
/Helvetica-Bold-iso ff 333.33 scf sf
7425 13050 m
gs 1 -1 sc (# events/MP) col0 sh gr
% here ends figure;
$F2psEnd
rs
showpage
%%Trailer
%EOF
