%!PS-Adobe-2.0 EPSF-2.0
%%BoundingBox:  0 0 567 533
%%Title: /home/giele/recursion/tes1/plots/timing8.eps: GPU timing profile
%%Creator: ROOT Version 5.25/04
%%CreationDate: Sun Jan 24 20:14:17 2010
%%EndComments
%%BeginProlog
80 dict begin
/s {stroke} def /l {lineto} def /m {moveto} def /t {translate} def
/sw {stringwidth} def /r {rotate} def /rl {roll}  def /R {repeat} def
/d {rlineto} def /rm {rmoveto} def /gr {grestore} def /f {eofill} def
/c {setrgbcolor} def /black {0 setgray} def /sd {setdash} def
/cl {closepath} def /sf {scalefont setfont} def /lw {setlinewidth} def
/box {m dup 0 exch d exch 0 d 0 exch neg d cl} def
/NC{systemdict begin initclip end}def/C{NC box clip newpath}def
/bl {box s} def /bf {box f} def /Y { 0 exch d} def /X { 0 d} def 
/mp {newpath /y exch def /x exch def} def
/side {[w .77 mul w .23 mul] .385 w mul sd w 0 l currentpoint t -144 r} def
/mr {mp x y w2 0 360 arc} def /m24 {mr s} def /m20 {mr f} def
/mb {mp x y w2 add m w2 neg 0 d 0 w neg d w 0 d 0 w d cl} def
/mt {mp x y w2 add m w2 neg w neg d w 0 d cl} def
/m21 {mb f} def /m25 {mb s} def /m22 {mt f} def /m26{mt s} def
/m23 {mp x y w2 sub m w2 w d w neg 0 d cl f} def
/m27 {mp x y w2 add m w3 neg w2 neg d w3 w2 neg d w3 w2 d cl s} def
/m28 {mp x w2 sub y w2 sub w3 add m w3 0 d  0 w3 neg d w3 0 d 0 w3 d w3 0 d  0 w3 d w3 neg 0 d 0 w3 d w3 neg 0 d
 0 w3 neg d w3 neg 0 d cl s } def
/m29 {mp gsave x w2 sub y w2 add w3 sub m currentpoint t
 4 {side} repeat cl fill gr} def
/m30 {mp gsave x w2 sub y w2 add w3 sub m currentpoint t
 4 {side} repeat cl s gr} def
/m31 {mp x y w2 sub m 0 w d x w2 sub y m w 0 d x w2 sub y w2 add m w w neg d x w2 sub y w2
 sub m w w d s} def
/m2 {mp x y w2 sub m 0 w d x w2 sub y m w 0 d s} def
/m5 {mp x w2 sub y w2 sub m w w d x w2 sub y w2 add m w w neg d s} def
/reEncode {exch findfont dup length dict begin {1 index /FID eq  {pop pop} {def} ifelse } forall /Encoding exch def currentdict end dup /FontName get exch definefont pop } def [/Times-Bold /Times-Italic /Times-BoldItalic /Helvetica
 /Helvetica-Oblique /Helvetica-Bold /Helvetica-BoldOblique /Courier /Courier-Oblique /Courier-Bold /Courier-BoldOblique /Times-Roman /AvantGarde-Book /AvantGarde-BookOblique /AvantGarde-Demi /AvantGarde-DemiOblique /Bookman-Demi
 /Bookman-DemiItalic /Bookman-Light /Bookman-LightItalic /Helvetica-Narrow /Helvetica-Narrow-Bold /Helvetica-Narrow-BoldOblique /Helvetica-Narrow-Oblique /NewCenturySchlbk-Roman /NewCenturySchlbk-Bold
 /NewCenturySchlbk-BoldItalic /NewCenturySchlbk-Italic /Palatino-Bold /Palatino-BoldItalic /Palatino-Italic /Palatino-Roman ] {ISOLatin1Encoding reEncode } forall
/oshow {gsave [] 0 sd true charpath stroke gr} def
/stwn { /fs exch def /fn exch def /text exch def fn findfont fs sf
 text sw pop xs add /xs exch def} def
/stwb { /fs exch def /fn exch def /nbas exch def /textf exch deftextf length /tlen exch def nbas tlen gt {/nbas tlendef} iffn findfont fs sf textf dup length nbas sub nbas getinterval sw
pop neg xs add /xs exch def} def
%%EndProlog
%%BeginSetup
%%EndSetup
newpath  gsave  .25 .25 scale  gsave  0 0 t black[  ] 0 sd 3 lw 0.95 0.95 0.95 c 2268 2130 0 0 bf 1 1 1 c 0 0 m 8 8 d 2114 Y 2252 X 8 8 d -2268 X -2130 Y f 0.665 0.665 0.665 c 0 0 m 8 8 d 2252 X 2114 Y 8 8 d -2130 Y -2268 X f black 0.95 0.95 0.95 c
 1814 1704 227 213 bf 1 1 1 c 227 213 m 4 4 d 1696 Y 1806 X 4 4 d -1814 X -1704 Y f 0.665 0.665 0.665 c 227 213 m 4 4 d 1806 X 1696 Y 4 4 d -1704 Y -1814 X f black 1814 1704 227 213 bl 0.95 0.95 0.95 c 1814 1704 227 213 bf 1 1 1 c 227 213 m 4 4 d
 1696 Y 1806 X 4 4 d -1814 X -1704 Y f 0.665 0.665 0.665 c 227 213 m 4 4 d 1806 X 1696 Y 4 4 d -1704 Y -1814 X f black 1814 1704 227 213 bl 227 213 m 1814 X s[ 4 8] 0 sd 227 1917 m -1704 Y s 551 1917 m -1704 Y s 875 1917 m -1704 Y s 1199 1917 m
 -1704 Y s 1523 1917 m -1704 Y s 1847 1917 m -1704 Y s 1847 1917 m -1704 Y s[  ] 0 sd 227 213 m 1704 Y s[ 4 8] 0 sd 2041 269 m -1814 X s 2041 458 m -1814 X s 2041 593 m -1814 X s 2041 697 m -1814 X s 2041 782 m -1814 X s 2041 854 m -1814 X s 2041
 916 m -1814 X s 2041 971 m -1814 X s 2041 1020 m -1814 X s 2041 1344 m -1814 X s 2041 1533 m -1814 X s 2041 1667 m -1814 X s 2041 1772 m -1814 X s 2041 1857 m -1814 X s 0 0 1 c[  ] 0 sd 1 1 1 c black 0 0 1 c 227 1619 m 65 X -200 Y 64 X -85 Y 65 X
 -134 Y 65 X -102 Y 65 X -84 Y 65 X -58 Y 64 X -62 Y 65 X -55 Y 65 X -42 Y 65 X -41 Y 64 X 16 Y 65 X -37 Y 65 X -29 Y 65 X -26 Y 65 X -27 Y 64 X -19 Y 65 X -26 Y 65 X -4 Y 65 X -15 Y 65 X 8 Y 64 X -21 Y 65 X -17 Y 65 X -2 Y 65 X -1 Y 65 X 9 Y 64 X
 -17 Y 65 X -11 Y 65 X s black 227 213 m 1814 X s 227 264 m -51 Y s 292 239 m -26 Y s 356 239 m -26 Y s 421 239 m -26 Y s 486 239 m -26 Y s 551 264 m -51 Y s 616 239 m -26 Y s 680 239 m -26 Y s 745 239 m -26 Y s 810 239 m -26 Y s 875 264 m -51 Y s
 939 239 m -26 Y s 1004 239 m -26 Y s 1069 239 m -26 Y s 1134 239 m -26 Y s 1199 264 m -51 Y s 1263 239 m -26 Y s 1328 239 m -26 Y s 1393 239 m -26 Y s 1458 239 m -26 Y s 1523 264 m -51 Y s 1587 239 m -26 Y s 1652 239 m -26 Y s 1717 239 m -26 Y s
 1782 239 m -26 Y s 1847 264 m -51 Y s 1847 264 m -51 Y s 1911 239 m -26 Y s 1976 239 m -26 Y s
 gsave  2268 2130 0 0 C 200 137 t 0 r /Helvetica-Bold findfont 80.1718 sf 0 0 m (0) show NC gr 
 gsave  2268 2130 0 0 C 527 137 t 0 r /Helvetica-Bold findfont 80.1718 sf 0 0 m (5) show NC gr 
 gsave  2268 2130 0 0 C 825 137 t 0 r /Helvetica-Bold findfont 80.1718 sf 0 0 m (10) show NC gr 
 gsave  2268 2130 0 0 C 1151 137 t 0 r /Helvetica-Bold findfont 80.1718 sf 0 0 m (15) show NC gr 
 gsave  2268 2130 0 0 C 1472 137 t 0 r /Helvetica-Bold findfont 80.1718 sf 0 0 m (20) show NC gr 
 gsave  2268 2130 0 0 C 1798 137 t 0 r /Helvetica-Bold findfont 80.1718 sf 0 0 m (25) show NC gr  227 213 m 1704 Y s 254 269 m -27 X s 254 458 m -27 X s 254 593 m -27 X s 254 697 m -27 X s 254 782 m -27 X s 254 854 m -27 X s 254 916 m -27 X s 254
 971 m -27 X s 281 1020 m -54 X s
 gsave  2268 2130 0 0 C 160 1031 t 0 r /Helvetica-Bold findfont 51.539 sf 0 0 m (\2556) show NC gr 
 gsave  2268 2130 0 0 C 74 985 t 0 r /Helvetica-Bold findfont 80.1718 sf 0 0 m (10) show NC gr  254 1344 m -27 X s 254 1533 m -27 X s 254 1667 m -27 X s 254 1772 m -27 X s 254 1857 m -27 X s 0.95 0.95 0.95 c 1041 117 23 2003 bf black 40 2003 m -12 Y
 1036 X 111 Y -12 X -99 Y f 23 2003 m 117 Y 1041 X -117 Y -1041 X cl s 1 1 1 c black
 gsave  2268 2130 0 0 C 69 2033 t 0 r /Helvetica-Bold findfont 91.6249 sf 0 0 m (8\255gluon timing profile) show NC gr  1 0 0 c 1 1 1 c black 1 0 0 c 227 775 m 65 X 171 Y 64 X 183 Y 130 X 6 Y 130 X 30 Y 129 X 1 Y 65 X 14 Y 65 X 6 Y 64 X 125 Y 65 X 3
 Y 65 X 12 Y 65 X 16 Y 65 X 7 Y 64 X 24 Y 130 X 56 Y 65 X 21 Y 65 X 86 Y 129 X 11 Y 65 X 52 Y 65 X 57 Y 65 X 86 Y 129 X 20 Y 65 X s 2041 213 m 1704 Y s 1987 213 m 54 X s 2014 265 m 27 X s 2014 317 m 27 X s 2014 369 m 27 X s 2014 421 m 27 X s 1987
 473 m 54 X s 2014 525 m 27 X s 2014 577 m 27 X s 2014 629 m 27 X s 2014 681 m 27 X s 1987 733 m 54 X s 2014 785 m 27 X s 2014 837 m 27 X s 2014 889 m 27 X s 2014 941 m 27 X s 1987 993 m 54 X s 2014 1045 m 27 X s 2014 1097 m 27 X s 2014 1149 m 27 X
 s 2014 1201 m 27 X s 1987 1253 m 54 X s 2014 1304 m 27 X s 2014 1356 m 27 X s 2014 1408 m 27 X s 2014 1460 m 27 X s 1987 1512 m 54 X s 2014 1564 m 27 X s 2014 1616 m 27 X s 2014 1668 m 27 X s 2014 1720 m 27 X s 1987 1772 m 54 X s 1987 1772 m 54 X s
 2014 1824 m 27 X s 2014 1876 m 27 X s
 gsave  2268 2130 0 0 C 2050 183 t 0 r /Helvetica-Bold findfont 80.1718 sf 0 0 m (0) show NC gr 
 gsave  2268 2130 0 0 C 2050 441 t 0 r /Helvetica-Bold findfont 80.1718 sf 0 0 m (50) show NC gr 
 gsave  2268 2130 0 0 C 2050 699 t 0 r /Helvetica-Bold findfont 80.1718 sf 0 0 m (100) show NC gr 
 gsave  2268 2130 0 0 C 2050 962 t 0 r /Helvetica-Bold findfont 80.1718 sf 0 0 m (150) show NC gr 
 gsave  2268 2130 0 0 C 2050 1220 t 0 r /Helvetica-Bold findfont 80.1718 sf 0 0 m (200) show NC gr 
 gsave  2268 2130 0 0 C 2050 1483 t 0 r /Helvetica-Bold findfont 80.1718 sf 0 0 m (250) show NC gr 
 gsave  2268 2130 0 0 C 2050 1741 t 0 r /Helvetica-Bold findfont 80.1718 sf 0 0 m (300) show NC gr 
 gr  gr 
showpage
end
%%EOF
