%!PS-Adobe-2.0 EPSF-2.0
%%Title: timing6.fig
%%Creator: fig2dev Version 3.2 Patchlevel 5
%%CreationDate: Tue Feb 16 21:44:32 2010
%%For: giele@LaptopGiele (Walter Giele)
%%BoundingBox: 0 0 568 533
%Magnification: 1.0000
%%EndComments
/$F2psDict 200 dict def
$F2psDict begin
$F2psDict /mtrx matrix put
/col-1 {0 setgray} bind def
/col0 {0.000 0.000 0.000 srgb} bind def
/col1 {0.000 0.000 1.000 srgb} bind def
/col2 {0.000 1.000 0.000 srgb} bind def
/col3 {0.000 1.000 1.000 srgb} bind def
/col4 {1.000 0.000 0.000 srgb} bind def
/col5 {1.000 0.000 1.000 srgb} bind def
/col6 {1.000 1.000 0.000 srgb} bind def
/col7 {1.000 1.000 1.000 srgb} bind def
/col8 {0.000 0.000 0.560 srgb} bind def
/col9 {0.000 0.000 0.690 srgb} bind def
/col10 {0.000 0.000 0.820 srgb} bind def
/col11 {0.530 0.810 1.000 srgb} bind def
/col12 {0.000 0.560 0.000 srgb} bind def
/col13 {0.000 0.690 0.000 srgb} bind def
/col14 {0.000 0.820 0.000 srgb} bind def
/col15 {0.000 0.560 0.560 srgb} bind def
/col16 {0.000 0.690 0.690 srgb} bind def
/col17 {0.000 0.820 0.820 srgb} bind def
/col18 {0.560 0.000 0.000 srgb} bind def
/col19 {0.690 0.000 0.000 srgb} bind def
/col20 {0.820 0.000 0.000 srgb} bind def
/col21 {0.560 0.000 0.560 srgb} bind def
/col22 {0.690 0.000 0.690 srgb} bind def
/col23 {0.820 0.000 0.820 srgb} bind def
/col24 {0.500 0.190 0.000 srgb} bind def
/col25 {0.630 0.250 0.000 srgb} bind def
/col26 {0.750 0.380 0.000 srgb} bind def
/col27 {1.000 0.500 0.500 srgb} bind def
/col28 {1.000 0.630 0.630 srgb} bind def
/col29 {1.000 0.750 0.750 srgb} bind def
/col30 {1.000 0.880 0.880 srgb} bind def
/col31 {1.000 0.840 0.000 srgb} bind def
/col32 {0.949 0.949 0.949 srgb} bind def
/col33 {0.663 0.663 0.663 srgb} bind def

end
save
newpath 0 533 moveto 0 0 lineto 568 0 lineto 568 533 lineto closepath clip newpath
0.1 792.1 translate
1 -1 scale

/cp {closepath} bind def
/ef {eofill} bind def
/gr {grestore} bind def
/gs {gsave} bind def
/sa {save} bind def
/rs {restore} bind def
/l {lineto} bind def
/m {moveto} bind def
/rm {rmoveto} bind def
/n {newpath} bind def
/s {stroke} bind def
/sh {show} bind def
/slc {setlinecap} bind def
/slj {setlinejoin} bind def
/slw {setlinewidth} bind def
/srgb {setrgbcolor} bind def
/rot {rotate} bind def
/sc {scale} bind def
/sd {setdash} bind def
/ff {findfont} bind def
/sf {setfont} bind def
/scf {scalefont} bind def
/sw {stringwidth} bind def
/tr {translate} bind def
/tnt {dup dup currentrgbcolor
  4 -2 roll dup 1 exch sub 3 -1 roll mul add
  4 -2 roll dup 1 exch sub 3 -1 roll mul add
  4 -2 roll dup 1 exch sub 3 -1 roll mul add srgb}
  bind def
/shd {dup dup currentrgbcolor 4 -2 roll mul 4 -2 roll mul
  4 -2 roll mul srgb} bind def
/reencdict 12 dict def /ReEncode { reencdict begin
/newcodesandnames exch def /newfontname exch def /basefontname exch def
/basefontdict basefontname findfont def /newfont basefontdict maxlength dict def
basefontdict { exch dup /FID ne { dup /Encoding eq
{ exch dup length array copy newfont 3 1 roll put }
{ exch newfont 3 1 roll put } ifelse } { pop pop } ifelse } forall
newfont /FontName newfontname put newcodesandnames aload pop
128 1 255 { newfont /Encoding get exch /.notdef put } for
newcodesandnames length 2 idiv { newfont /Encoding get 3 1 roll put } repeat
newfontname newfont definefont pop end } def
/isovec [
8#055 /minus 8#200 /grave 8#201 /acute 8#202 /circumflex 8#203 /tilde
8#204 /macron 8#205 /breve 8#206 /dotaccent 8#207 /dieresis
8#210 /ring 8#211 /cedilla 8#212 /hungarumlaut 8#213 /ogonek 8#214 /caron
8#220 /dotlessi 8#230 /oe 8#231 /OE
8#240 /space 8#241 /exclamdown 8#242 /cent 8#243 /sterling
8#244 /currency 8#245 /yen 8#246 /brokenbar 8#247 /section 8#250 /dieresis
8#251 /copyright 8#252 /ordfeminine 8#253 /guillemotleft 8#254 /logicalnot
8#255 /hyphen 8#256 /registered 8#257 /macron 8#260 /degree 8#261 /plusminus
8#262 /twosuperior 8#263 /threesuperior 8#264 /acute 8#265 /mu 8#266 /paragraph
8#267 /periodcentered 8#270 /cedilla 8#271 /onesuperior 8#272 /ordmasculine
8#273 /guillemotright 8#274 /onequarter 8#275 /onehalf
8#276 /threequarters 8#277 /questiondown 8#300 /Agrave 8#301 /Aacute
8#302 /Acircumflex 8#303 /Atilde 8#304 /Adieresis 8#305 /Aring
8#306 /AE 8#307 /Ccedilla 8#310 /Egrave 8#311 /Eacute
8#312 /Ecircumflex 8#313 /Edieresis 8#314 /Igrave 8#315 /Iacute
8#316 /Icircumflex 8#317 /Idieresis 8#320 /Eth 8#321 /Ntilde 8#322 /Ograve
8#323 /Oacute 8#324 /Ocircumflex 8#325 /Otilde 8#326 /Odieresis 8#327 /multiply
8#330 /Oslash 8#331 /Ugrave 8#332 /Uacute 8#333 /Ucircumflex
8#334 /Udieresis 8#335 /Yacute 8#336 /Thorn 8#337 /germandbls 8#340 /agrave
8#341 /aacute 8#342 /acircumflex 8#343 /atilde 8#344 /adieresis 8#345 /aring
8#346 /ae 8#347 /ccedilla 8#350 /egrave 8#351 /eacute
8#352 /ecircumflex 8#353 /edieresis 8#354 /igrave 8#355 /iacute
8#356 /icircumflex 8#357 /idieresis 8#360 /eth 8#361 /ntilde 8#362 /ograve
8#363 /oacute 8#364 /ocircumflex 8#365 /otilde 8#366 /odieresis 8#367 /divide
8#370 /oslash 8#371 /ugrave 8#372 /uacute 8#373 /ucircumflex
8#374 /udieresis 8#375 /yacute 8#376 /thorn 8#377 /ydieresis] def
/Helvetica-Bold /Helvetica-Bold-iso isovec ReEncode
/$F2psBegin {$F2psDict begin /$F2psEnteredState save def} def
/$F2psEnd {$F2psEnteredState restore end} def

$F2psBegin
10 setmiterlimit
0 slj 0 slc
 0.06000 0.06000 sc
%
% Fig objects follow
%
% 
% here starts figure with depth 999
%  polyline 
% Polyline
0 slj
0 slc
0.000 slw
n 0 13200 m 0 4325 l 9449 4325 l 9449 13200 l
 0 13200 l  cp gs col32 1.00 shd ef gr 
% here ends figure;
% 
% here starts figure with depth 997
%  polyline 
% Polyline
0 slj
0 slc
0.000 slw
n 0 13200 m 33 13166 l 33 4358 l 9416 4358 l 9449 4325 l 0 4325 l

 0 13200 l  cp gs col7 1.00 shd ef gr 
% here ends figure;
% 
% here starts figure with depth 995
%  polyline 
% Polyline
0 slj
0 slc
0.000 slw
n 0 13200 m 33 13166 l 9416 13166 l 9416 4358 l 9449 4325 l 9449 13200 l

 0 13200 l  cp gs col33 1.00 shd ef gr 
% here ends figure;
% 
% here starts figure with depth 993
%  polyline 
% Polyline
0 slj
0 slc
0.000 slw
n 945 12312 m 945 5212 l 8504 5212 l 8504 12312 l
 945 12312 l  cp gs col32 1.00 shd ef gr 
% here ends figure;
% 
% here starts figure with depth 991
%  polyline 
% Polyline
0 slj
0 slc
0.000 slw
n 945 12312 m 962 12295 l 962 5229 l 8487 5229 l 8504 5212 l 945 5212 l

 945 12312 l  cp gs col7 1.00 shd ef gr 
% here ends figure;
% 
% here starts figure with depth 989
%  polyline 
% Polyline
0 slj
0 slc
0.000 slw
n 945 12312 m 962 12295 l 8487 12295 l 8487 5229 l 8504 5212 l 8504 12312 l

 945 12312 l  cp gs col33 1.00 shd ef gr 
% here ends figure;
% 
% here starts figure with depth 987
%  polyline 
% Polyline
0 slj
0 slc
7.500 slw
n 945 12312 m 945 5212 l 8504 5212 l 8504 12312 l
 945 12312 l  cp gs col0 s gr 
% here ends figure;
% 
% here starts figure with depth 985
%  polyline 
% Polyline
0 slj
0 slc
0.000 slw
n 945 12312 m 945 5212 l 8504 5212 l 8504 12312 l
 945 12312 l  cp gs col32 1.00 shd ef gr 
% here ends figure;
% 
% here starts figure with depth 983
%  polyline 
% Polyline
0 slj
0 slc
0.000 slw
n 945 12312 m 962 12295 l 962 5229 l 8487 5229 l 8504 5212 l 945 5212 l

 945 12312 l  cp gs col7 1.00 shd ef gr 
% here ends figure;
% 
% here starts figure with depth 981
%  polyline 
% Polyline
0 slj
0 slc
0.000 slw
n 945 12312 m 962 12295 l 8487 12295 l 8487 5229 l 8504 5212 l 8504 12312 l

 945 12312 l  cp gs col33 1.00 shd ef gr 
% here ends figure;
% 
% here starts figure with depth 979
%  polyline 
% Polyline
0 slj
0 slc
7.500 slw
n 945 12312 m 945 5212 l 8504 5212 l 8504 12312 l
 945 12312 l  cp gs col0 s gr 
%  polyline 
% Polyline
n 945 12312 m
 8504 12312 l gs col0 s gr 
%  polyline 
% Polyline
 [15 60] 60 sd
n 945 5212 m
 945 12312 l gs col0 s gr  [] 0 sd
% here ends figure;
% 
% here starts figure with depth 975
%  polyline 
% Polyline
0 slj
0 slc
7.500 slw
 [15 60] 60 sd
n 1733 5212 m
 1733 12312 l gs col0 s gr  [] 0 sd
%  polyline 
% Polyline
 [15 60] 60 sd
n 2520 5212 m
 2520 12312 l gs col0 s gr  [] 0 sd
%  polyline 
% Polyline
 [15 60] 60 sd
n 3308 5212 m
 3308 12312 l gs col0 s gr  [] 0 sd
%  polyline 
% Polyline
 [15 60] 60 sd
n 4095 5212 m
 4095 12312 l gs col0 s gr  [] 0 sd
%  polyline 
% Polyline
 [15 60] 60 sd
n 4883 5212 m
 4883 12312 l gs col0 s gr  [] 0 sd
%  polyline 
% Polyline
 [15 60] 60 sd
n 5670 5212 m
 5670 12312 l gs col0 s gr  [] 0 sd
%  polyline 
% Polyline
 [15 60] 60 sd
n 6458 5212 m
 6458 12312 l gs col0 s gr  [] 0 sd
%  polyline 
% Polyline
 [15 60] 60 sd
n 7245 5212 m
 7245 12312 l gs col0 s gr  [] 0 sd
%  polyline 
% Polyline
 [15 60] 60 sd
n 8033 5212 m
 8033 12312 l gs col0 s gr  [] 0 sd
%  polyline 
% Polyline
 [15 60] 60 sd
n 8033 5212 m
 8033 12312 l gs col0 s gr  [] 0 sd
%  polyline 
% Polyline
n 945 12312 m
 945 5212 l gs col0 s gr 
% here ends figure;
% 
% here starts figure with depth 963
%  polyline 
% Polyline
0 slj
0 slc
7.500 slw
 [15 60] 60 sd
n 8504 12054 m
 945 12054 l gs col0 s gr  [] 0 sd
%  polyline 
% Polyline
 [15 60] 60 sd
n 8504 11770 m
 945 11770 l gs col0 s gr  [] 0 sd
%  polyline 
% Polyline
 [15 60] 60 sd
n 8504 11525 m
 945 11525 l gs col0 s gr  [] 0 sd
%  polyline 
% Polyline
 [15 60] 60 sd
n 8504 11316 m
 945 11316 l gs col0 s gr  [] 0 sd
%  polyline 
% Polyline
 [15 60] 60 sd
n 8504 11133 m
 945 11133 l gs col0 s gr  [] 0 sd
%  polyline 
% Polyline
 [15 60] 60 sd
n 8504 10966 m
 945 10966 l gs col0 s gr  [] 0 sd
%  polyline 
% Polyline
 [15 60] 60 sd
n 8504 9879 m
 945 9879 l gs col0 s gr  [] 0 sd
%  polyline 
% Polyline
 [15 60] 60 sd
n 8504 9241 m
 945 9241 l gs col0 s gr  [] 0 sd
%  polyline 
% Polyline
 [15 60] 60 sd
n 8504 8791 m
 945 8791 l gs col0 s gr  [] 0 sd
%  polyline 
% Polyline
 [15 60] 60 sd
n 8504 8441 m
 945 8441 l gs col0 s gr  [] 0 sd
%  polyline 
% Polyline
 [15 60] 60 sd
n 8504 8154 m
 945 8154 l gs col0 s gr  [] 0 sd
%  polyline 
% Polyline
 [15 60] 60 sd
n 8504 7912 m
 945 7912 l gs col0 s gr  [] 0 sd
%  polyline 
% Polyline
 [15 60] 60 sd
n 8504 7700 m
 945 7700 l gs col0 s gr  [] 0 sd
%  polyline 
% Polyline
 [15 60] 60 sd
n 8504 7516 m
 945 7516 l gs col0 s gr  [] 0 sd
%  polyline 
% Polyline
 [15 60] 60 sd
n 8504 7350 m
 945 7350 l gs col0 s gr  [] 0 sd
%  polyline 
% Polyline
 [15 60] 60 sd
n 8504 6262 m
 945 6262 l gs col0 s gr  [] 0 sd
%  polyline 
% Polyline
 [15 60] 60 sd
n 8504 5625 m
 945 5625 l gs col0 s gr  [] 0 sd
% here ends figure;
% 
% here starts figure with depth 945
%  polyline 
% Polyline
0 slj
0 slc
7.500 slw
n 945 6216 m 1104 6216 l 1104 7187 l 1258 7187 l 1258 7754 l 1416 7754 l
 1416 8158 l 1574 8158 l 1574 8491 l 1733 8491 l 1733 8762 l
 1891 8762 l 1891 9037 l 2045 9037 l 2045 9254 l 2204 9254 l
 2204 9404 l 2362 9404 l 2362 9529 l 2520 9529 l 2520 9679 l
 2679 9679 l 2679 9808 l 2833 9808 l 2833 9950 l 2991 9950 l
 2991 10066 l 3149 10066 l 3149 10158 l 3308 10158 l 3308 10229 l
 3620 10229 l 3620 10312 l 3779 10312 l 3779 10391 l 3937 10391 l
 3937 10491 l 4095 10491 l 4095 10533 l 4249 10533 l 4249 10595 l
 4408 10595 l 4408 10604 l 4566 10604 l 4566 10670 l 4724 10670 l
 4724 10725 l 4883 10725 l 4883 10800 l 5037 10800 l 5037 10783 l
 5195 10783 l 5195 10808 l 5512 10808 l 5512 10854 l 5670 10854 l
 5670 10900 l 5824 10900 l 5824 10945 l 5983 10945 l 5983 10929 l
 6141 10929 l 6141 10970 l 6299 10970 l 6299 11004 l 6458 11004 l
 6458 10950 l 6612 10950 l 6612 10991 l 6770 10991 l 6770 11033 l
 6929 11033 l 6929 11070 l 7087 11070 l 7087 11033 l 7245 11033 l
 7245 11050 l 7399 11050 l 7399 11016 l 7558 11016 l 7558 11050 l
 7716 11050 l 7716 11079 l 7874 11079 l 7874 11179 l 8033 11179 l
 8033 11200 l 8187 11200 l 8187 11225 l 8345 11225 l 8345 11212 l

 8504 11212 l gs col1 s gr 
%  polyline 
% Polyline
n 945 12312 m
 8504 12312 l gs col0 s gr 
%  polyline 
% Polyline
n 945 12100 m
 945 12312 l gs col0 s gr 
% here ends figure;
% 
% here starts figure with depth 941
%  polyline 
% Polyline
0 slj
0 slc
7.500 slw
n 1104 12204 m
 1104 12312 l gs col0 s gr 
%  polyline 
% Polyline
n 1258 12204 m
 1258 12312 l gs col0 s gr 
%  polyline 
% Polyline
n 1416 12204 m
 1416 12312 l gs col0 s gr 
%  polyline 
% Polyline
n 1574 12204 m
 1574 12312 l gs col0 s gr 
%  polyline 
% Polyline
n 1733 12100 m
 1733 12312 l gs col0 s gr 
%  polyline 
% Polyline
n 1891 12204 m
 1891 12312 l gs col0 s gr 
%  polyline 
% Polyline
n 2045 12204 m
 2045 12312 l gs col0 s gr 
%  polyline 
% Polyline
n 2204 12204 m
 2204 12312 l gs col0 s gr 
%  polyline 
% Polyline
n 2362 12204 m
 2362 12312 l gs col0 s gr 
%  polyline 
% Polyline
n 2520 12100 m
 2520 12312 l gs col0 s gr 
%  polyline 
% Polyline
n 2679 12204 m
 2679 12312 l gs col0 s gr 
%  polyline 
% Polyline
n 2833 12204 m
 2833 12312 l gs col0 s gr 
%  polyline 
% Polyline
n 2991 12204 m
 2991 12312 l gs col0 s gr 
%  polyline 
% Polyline
n 3149 12204 m
 3149 12312 l gs col0 s gr 
%  polyline 
% Polyline
n 3308 12100 m
 3308 12312 l gs col0 s gr 
%  polyline 
% Polyline
n 3462 12204 m
 3462 12312 l gs col0 s gr 
%  polyline 
% Polyline
n 3620 12204 m
 3620 12312 l gs col0 s gr 
%  polyline 
% Polyline
n 3779 12204 m
 3779 12312 l gs col0 s gr 
%  polyline 
% Polyline
n 3937 12204 m
 3937 12312 l gs col0 s gr 
%  polyline 
% Polyline
n 4095 12100 m
 4095 12312 l gs col0 s gr 
%  polyline 
% Polyline
n 4249 12204 m
 4249 12312 l gs col0 s gr 
%  polyline 
% Polyline
n 4408 12204 m
 4408 12312 l gs col0 s gr 
%  polyline 
% Polyline
n 4566 12204 m
 4566 12312 l gs col0 s gr 
%  polyline 
% Polyline
n 4724 12204 m
 4724 12312 l gs col0 s gr 
%  polyline 
% Polyline
n 4883 12100 m
 4883 12312 l gs col0 s gr 
%  polyline 
% Polyline
n 5037 12204 m
 5037 12312 l gs col0 s gr 
%  polyline 
% Polyline
n 5195 12204 m
 5195 12312 l gs col0 s gr 
%  polyline 
% Polyline
n 5354 12204 m
 5354 12312 l gs col0 s gr 
%  polyline 
% Polyline
n 5512 12204 m
 5512 12312 l gs col0 s gr 
%  polyline 
% Polyline
n 5670 12100 m
 5670 12312 l gs col0 s gr 
%  polyline 
% Polyline
n 5824 12204 m
 5824 12312 l gs col0 s gr 
%  polyline 
% Polyline
n 5983 12204 m
 5983 12312 l gs col0 s gr 
%  polyline 
% Polyline
n 6141 12204 m
 6141 12312 l gs col0 s gr 
%  polyline 
% Polyline
n 6299 12204 m
 6299 12312 l gs col0 s gr 
%  polyline 
% Polyline
n 6458 12100 m
 6458 12312 l gs col0 s gr 
%  polyline 
% Polyline
n 6612 12204 m
 6612 12312 l gs col0 s gr 
%  polyline 
% Polyline
n 6770 12204 m
 6770 12312 l gs col0 s gr 
%  polyline 
% Polyline
n 6929 12204 m
 6929 12312 l gs col0 s gr 
%  polyline 
% Polyline
n 7087 12204 m
 7087 12312 l gs col0 s gr 
%  polyline 
% Polyline
n 7245 12100 m
 7245 12312 l gs col0 s gr 
%  polyline 
% Polyline
n 7399 12204 m
 7399 12312 l gs col0 s gr 
%  polyline 
% Polyline
n 7558 12204 m
 7558 12312 l gs col0 s gr 
%  polyline 
% Polyline
n 7716 12204 m
 7716 12312 l gs col0 s gr 
%  polyline 
% Polyline
n 7874 12204 m
 7874 12312 l gs col0 s gr 
%  polyline 
% Polyline
n 8033 12100 m
 8033 12312 l gs col0 s gr 
%  polyline 
% Polyline
n 8033 12100 m
 8033 12312 l gs col0 s gr 
%  polyline 
% Polyline
n 8187 12204 m
 8187 12312 l gs col0 s gr 
%  polyline 
% Polyline
n 8345 12204 m
 8345 12312 l gs col0 s gr 
% here ends figure;
% 
% here starts figure with depth 892
%  text 
/Helvetica-Bold-iso ff 366.67 scf sf
833 12629 m
gs 1 -1 sc (0) col0 sh gr
%  text 
/Helvetica-Bold-iso ff 366.67 scf sf
1620 12629 m
gs 1 -1 sc (5) col0 sh gr
%  text 
/Helvetica-Bold-iso ff 366.67 scf sf
2312 12629 m
gs 1 -1 sc (10) col0 sh gr
%  text 
/Helvetica-Bold-iso ff 366.67 scf sf
3099 12629 m
gs 1 -1 sc (15) col0 sh gr
%  text 
/Helvetica-Bold-iso ff 366.67 scf sf
3887 12629 m
gs 1 -1 sc (20) col0 sh gr
%  text 
/Helvetica-Bold-iso ff 366.67 scf sf
4674 12629 m
gs 1 -1 sc (25) col0 sh gr
%  text 
/Helvetica-Bold-iso ff 366.67 scf sf
5462 12629 m
gs 1 -1 sc (30) col0 sh gr
%  text 
/Helvetica-Bold-iso ff 366.67 scf sf
6249 12629 m
gs 1 -1 sc (35) col0 sh gr
%  text 
/Helvetica-Bold-iso ff 366.67 scf sf
7037 12629 m
gs 1 -1 sc (40) col0 sh gr
%  text 
/Helvetica-Bold-iso ff 366.67 scf sf
7824 12629 m
gs 1 -1 sc (45) col0 sh gr
% here ends figure;
% 
% here starts figure with depth 881
%  polyline 
% Polyline
0 slj
0 slc
7.500 slw
n 945 12312 m
 945 5212 l gs col0 s gr 
%  polyline 
% Polyline
n 1058 12054 m
 945 12054 l gs col0 s gr 
% here ends figure;
% 
% here starts figure with depth 878
%  polyline 
% Polyline
0 slj
0 slc
7.500 slw
n 1058 11770 m
 945 11770 l gs col0 s gr 
%  polyline 
% Polyline
n 1058 11525 m
 945 11525 l gs col0 s gr 
%  polyline 
% Polyline
n 1058 11316 m
 945 11316 l gs col0 s gr 
%  polyline 
% Polyline
n 1058 11133 m
 945 11133 l gs col0 s gr 
%  polyline 
% Polyline
n 1170 10966 m
 945 10966 l gs col0 s gr 
%  text 
/Helvetica-Bold-iso ff 233.33 scf sf
666 10958 m
gs 1 -1 sc (-7) col0 sh gr
% here ends figure;
% 
% here starts figure with depth 871
%  text 
/Helvetica-Bold-iso ff 366.67 scf sf
308 11125 m
gs 1 -1 sc (10) col0 sh gr
%  polyline 
% Polyline
0 slj
0 slc
7.500 slw
n 1058 9879 m
 945 9879 l gs col0 s gr 
%  polyline 
% Polyline
n 1058 9241 m
 945 9241 l gs col0 s gr 
%  polyline 
% Polyline
n 1058 8791 m
 945 8791 l gs col0 s gr 
%  polyline 
% Polyline
n 1058 8441 m
 945 8441 l gs col0 s gr 
%  polyline 
% Polyline
n 1058 8154 m
 945 8154 l gs col0 s gr 
%  polyline 
% Polyline
n 1058 7912 m
 945 7912 l gs col0 s gr 
%  polyline 
% Polyline
n 1058 7700 m
 945 7700 l gs col0 s gr 
%  polyline 
% Polyline
n 1058 7516 m
 945 7516 l gs col0 s gr 
%  polyline 
% Polyline
n 1170 7350 m
 945 7350 l gs col0 s gr 
%  text 
/Helvetica-Bold-iso ff 233.33 scf sf
666 7308 m
gs 1 -1 sc (-6) col0 sh gr
% here ends figure;
% 
% here starts figure with depth 859
%  text 
/Helvetica-Bold-iso ff 366.67 scf sf
308 7495 m
gs 1 -1 sc (10) col0 sh gr
%  polyline 
% Polyline
0 slj
0 slc
7.500 slw
n 1058 6262 m
 945 6262 l gs col0 s gr 
%  polyline 
% Polyline
n 1058 5625 m
 945 5625 l gs col0 s gr 
% here ends figure;
% 
% here starts figure with depth 850
%  text 
/Helvetica-Bold-iso ff 416.67 scf sf
1425 4800 m
gs 1 -1 sc (Timing profile in seconds for 6g) col0 sh gr
%  polyline 
% Polyline
0 slj
0 slc
7.500 slw
n 945 9066 m 1104 9066 l 1104 8816 l 1258 8816 l 1258 8658 l 1416 8658 l
 1416 8545 l 1574 8545 l 1574 8504 l 1733 8504 l 1733 8470 l
 1891 8470 l 1891 8550 l 2045 8550 l 2045 8562 l 2204 8562 l
 2204 8479 l 2362 8479 l 2362 8387 l 2520 8387 l 2520 8379 l
 2679 8379 l 2679 8366 l 2833 8366 l 2833 8408 l 2991 8408 l
 2991 8400 l 3149 8400 l 3149 8366 l 3308 8366 l 3308 8283 l
 3462 8283 l 3462 8037 l 3620 8037 l 3620 8020 l 3779 8020 l
 3779 8004 l 3937 8004 l 3937 8054 l 4095 8054 l 4095 7958 l
 4249 7958 l 4249 7929 l 4408 7929 l 4408 7758 l 4566 7758 l
 4566 7750 l 4724 7750 l 4724 7725 l 4883 7725 l 4883 7766 l
 5037 7766 l 5037 7533 l 5195 7533 l 5195 7445 l 5354 7445 l
 5354 7258 l 5512 7258 l 5512 7245 l 5670 7245 l 5670 7229 l
 5824 7229 l 5824 7212 l 5983 7212 l 5983 6987 l 6141 6987 l
 6141 6979 l 6299 6979 l 6299 6933 l 6458 6933 l 6458 6579 l
 6612 6579 l 6612 6583 l 6929 6583 l 6929 6570 l 7087 6570 l
 7087 6275 l 7245 6275 l 7245 6200 l 7399 6200 l 7399 5912 l
 7558 5912 l 7558 5900 l 7716 5900 l 7716 5866 l 7874 5866 l
 7874 6133 l 8033 6133 l 8033 6075 l 8187 6075 l 8187 6037 l
 8345 6037 l 8345 5858 l
 8504 5858 l gs col4 s gr 
% here ends figure;
% 
% here starts figure with depth 847
%  polyline 
% Polyline
0 slj
0 slc
7.500 slw
n 8504 12312 m
 8504 5212 l gs col4 s gr 
%  polyline 
% Polyline
n 8279 12312 m
 8504 12312 l gs col4 s gr 
% here ends figure;
% 
% here starts figure with depth 844
%  polyline 
% Polyline
0 slj
0 slc
7.500 slw
n 8391 12050 m
 8504 12050 l gs col4 s gr 
%  polyline 
% Polyline
n 8391 11787 m
 8504 11787 l gs col4 s gr 
%  polyline 
% Polyline
n 8391 11525 m
 8504 11525 l gs col4 s gr 
%  polyline 
% Polyline
n 8279 11262 m
 8504 11262 l gs col4 s gr 
%  polyline 
% Polyline
n 8391 11000 m
 8504 11000 l gs col4 s gr 
%  polyline 
% Polyline
n 8391 10737 m
 8504 10737 l gs col4 s gr 
%  polyline 
% Polyline
n 8391 10475 m
 8504 10475 l gs col4 s gr 
%  polyline 
% Polyline
n 8279 10216 m
 8504 10216 l gs col4 s gr 
%  polyline 
% Polyline
n 8391 9954 m
 8504 9954 l gs col4 s gr 
%  polyline 
% Polyline
n 8391 9691 m
 8504 9691 l gs col4 s gr 
%  polyline 
% Polyline
n 8391 9429 m
 8504 9429 l gs col4 s gr 
%  polyline 
% Polyline
n 8279 9166 m
 8504 9166 l gs col4 s gr 
%  polyline 
% Polyline
n 8391 8904 m
 8504 8904 l gs col4 s gr 
%  polyline 
% Polyline
n 8391 8641 m
 8504 8641 l gs col4 s gr 
%  polyline 
% Polyline
n 8391 8379 m
 8504 8379 l gs col4 s gr 
%  polyline 
% Polyline
n 8279 8116 m
 8504 8116 l gs col4 s gr 
%  polyline 
% Polyline
n 8391 7854 m
 8504 7854 l gs col4 s gr 
%  polyline 
% Polyline
n 8391 7591 m
 8504 7591 l gs col4 s gr 
%  polyline 
% Polyline
n 8391 7329 m
 8504 7329 l gs col4 s gr 
%  polyline 
% Polyline
n 8279 7066 m
 8504 7066 l gs col4 s gr 
%  polyline 
% Polyline
n 8391 6804 m
 8504 6804 l gs col4 s gr 
%  polyline 
% Polyline
n 8391 6545 m
 8504 6545 l gs col4 s gr 
%  polyline 
% Polyline
n 8391 6283 m
 8504 6283 l gs col4 s gr 
%  polyline 
% Polyline
n 8279 6020 m
 8504 6020 l gs col4 s gr 
%  polyline 
% Polyline
n 8279 6020 m
 8504 6020 l gs col4 s gr 
%  polyline 
% Polyline
n 8391 5758 m
 8504 5758 l gs col4 s gr 
%  polyline 
% Polyline
n 8391 5495 m
 8504 5495 l gs col4 s gr 
%  polyline 
% Polyline
n 8391 5233 m
 8504 5233 l gs col4 s gr 
%  text 
/Helvetica-Bold-iso ff 366.67 scf sf
8541 12437 m
gs 1 -1 sc (0) col4 sh gr
% here ends figure;
% 
% here starts figure with depth 814
%  text 
/Helvetica-Bold-iso ff 366.67 scf sf
8541 11387 m
gs 1 -1 sc (20) col4 sh gr
%  text 
/Helvetica-Bold-iso ff 366.67 scf sf
8541 10337 m
gs 1 -1 sc (40) col4 sh gr
%  text 
/Helvetica-Bold-iso ff 366.67 scf sf
8541 9287 m
gs 1 -1 sc (60) col4 sh gr
%  text 
/Helvetica-Bold-iso ff 366.67 scf sf
8541 8237 m
gs 1 -1 sc (80) col4 sh gr
%  text 
/Helvetica-Bold-iso ff 366.67 scf sf
8541 7212 m
gs 1 -1 sc (100) col4 sh gr
%  text 
/Helvetica-Bold-iso ff 366.67 scf sf
8541 6162 m
gs 1 -1 sc (120) col4 sh gr
% here ends figure;
% 
% here starts figure with depth 50
/Helvetica-Bold-iso ff 333.33 scf sf
7425 13050 m
gs 1 -1 sc (# events/MP) col0 sh gr
% here ends figure;
$F2psEnd
rs
showpage
%%Trailer
%EOF
