#FIG 3.2  Produced by xfig version 3.2.5a
Portrait
Flush left
Inches
Letter  
100.00
Single
0
1200 2
0 32 #f2f2f2
0 33 #a9a9a9
# polyline
2 1 0 0 7 7 997 0 20 4.000 0 0 0 0 0 7
	 0 13200 33 13166 33 4358 9416 4358 9449 4325 0 4325
	 0 13200
# polyline
2 1 0 0 33 33 995 0 20 4.000 0 0 0 0 0 7
	 0 13200 33 13166 9416 13166 9416 4358 9449 4325 9449 13200
	 0 13200
# polyline
2 1 0 0 32 32 993 0 20 4.000 0 0 0 0 0 5
	 945 12312 945 5212 8504 5212 8504 12312 945 12312
# polyline
2 1 0 0 7 7 991 0 20 4.000 0 0 0 0 0 7
	 945 12312 962 12295 962 5229 8487 5229 8504 5212 945 5212
	 945 12312
# polyline
2 1 0 0 33 33 989 0 20 4.000 0 0 0 0 0 7
	 945 12312 962 12295 8487 12295 8487 5229 8504 5212 8504 12312
	 945 12312
# polyline
2 1 0 1 0 0 987 0 -1 4.000 0 0 0 0 0 5
	 945 12312 945 5212 8504 5212 8504 12312 945 12312
# polyline
2 1 0 0 32 32 985 0 20 4.000 0 0 0 0 0 5
	 945 12312 945 5212 8504 5212 8504 12312 945 12312
# polyline
2 1 0 0 7 7 983 0 20 4.000 0 0 0 0 0 7
	 945 12312 962 12295 962 5229 8487 5229 8504 5212 945 5212
	 945 12312
# polyline
2 1 0 0 33 33 981 0 20 4.000 0 0 0 0 0 7
	 945 12312 962 12295 8487 12295 8487 5229 8504 5212 8504 12312
	 945 12312
# polyline
2 1 0 1 0 0 979 0 -1 4.000 0 0 0 0 0 5
	 945 12312 945 5212 8504 5212 8504 12312 945 12312
# polyline
2 1 0 1 0 0 978 0 -1 4.000 0 0 0 0 0 2
	 945 12312 8504 12312
# polyline
2 1 2 1 0 0 977 0 -1 4.000 0 0 0 0 0 2
	 945 5212 945 12312
# polyline
2 1 2 1 0 0 975 0 -1 4.000 0 0 0 0 0 2
	 1733 5212 1733 12312
# polyline
2 1 2 1 0 0 974 0 -1 4.000 0 0 0 0 0 2
	 2520 5212 2520 12312
# polyline
2 1 2 1 0 0 973 0 -1 4.000 0 0 0 0 0 2
	 3308 5212 3308 12312
# polyline
2 1 2 1 0 0 972 0 -1 4.000 0 0 0 0 0 2
	 4095 5212 4095 12312
# polyline
2 1 2 1 0 0 971 0 -1 4.000 0 0 0 0 0 2
	 4883 5212 4883 12312
# polyline
2 1 2 1 0 0 970 0 -1 4.000 0 0 0 0 0 2
	 5670 5212 5670 12312
# polyline
2 1 2 1 0 0 969 0 -1 4.000 0 0 0 0 0 2
	 6458 5212 6458 12312
# polyline
2 1 2 1 0 0 968 0 -1 4.000 0 0 0 0 0 2
	 7245 5212 7245 12312
# polyline
2 1 2 1 0 0 967 0 -1 4.000 0 0 0 0 0 2
	 8033 5212 8033 12312
# polyline
2 1 2 1 0 0 966 0 -1 4.000 0 0 0 0 0 2
	 8033 5212 8033 12312
# polyline
2 1 0 1 0 0 965 0 -1 4.000 0 0 0 0 0 2
	 945 12312 945 5212
# polyline
2 1 2 1 0 0 963 0 -1 4.000 0 0 0 0 0 2
	 8504 12054 945 12054
# polyline
2 1 2 1 0 0 962 0 -1 4.000 0 0 0 0 0 2
	 8504 11770 945 11770
# polyline
2 1 2 1 0 0 961 0 -1 4.000 0 0 0 0 0 2
	 8504 11525 945 11525
# polyline
2 1 2 1 0 0 960 0 -1 4.000 0 0 0 0 0 2
	 8504 11316 945 11316
# polyline
2 1 2 1 0 0 959 0 -1 4.000 0 0 0 0 0 2
	 8504 11133 945 11133
# polyline
2 1 2 1 0 0 958 0 -1 4.000 0 0 0 0 0 2
	 8504 10966 945 10966
# polyline
2 1 2 1 0 0 957 0 -1 4.000 0 0 0 0 0 2
	 8504 9879 945 9879
# polyline
2 1 2 1 0 0 956 0 -1 4.000 0 0 0 0 0 2
	 8504 9241 945 9241
# polyline
2 1 2 1 0 0 955 0 -1 4.000 0 0 0 0 0 2
	 8504 8791 945 8791
# polyline
2 1 2 1 0 0 954 0 -1 4.000 0 0 0 0 0 2
	 8504 8441 945 8441
# polyline
2 1 2 1 0 0 953 0 -1 4.000 0 0 0 0 0 2
	 8504 8154 945 8154
# polyline
2 1 2 1 0 0 952 0 -1 4.000 0 0 0 0 0 2
	 8504 7912 945 7912
# polyline
2 1 2 1 0 0 951 0 -1 4.000 0 0 0 0 0 2
	 8504 7700 945 7700
# polyline
2 1 2 1 0 0 950 0 -1 4.000 0 0 0 0 0 2
	 8504 7516 945 7516
# polyline
2 1 2 1 0 0 949 0 -1 4.000 0 0 0 0 0 2
	 8504 7350 945 7350
# polyline
2 1 2 1 0 0 948 0 -1 4.000 0 0 0 0 0 2
	 8504 6262 945 6262
# polyline
2 1 2 1 0 0 947 0 -1 4.000 0 0 0 0 0 2
	 8504 5625 945 5625
# polyline
2 1 0 1 1 1 945 0 -1 4.000 0 0 0 0 0 92
	 945 6216 1104 6216 1104 7187 1258 7187 1258 7754 1416 7754
	 1416 8158 1574 8158 1574 8491 1733 8491 1733 8762 1891 8762
	 1891 9037 2045 9037 2045 9254 2204 9254 2204 9404 2362 9404
	 2362 9529 2520 9529 2520 9679 2679 9679 2679 9808 2833 9808
	 2833 9950 2991 9950 2991 10066 3149 10066 3149 10158 3308 10158
	 3308 10229 3620 10229 3620 10312 3779 10312 3779 10391 3937 10391
	 3937 10491 4095 10491 4095 10533 4249 10533 4249 10595 4408 10595
	 4408 10604 4566 10604 4566 10670 4724 10670 4724 10725 4883 10725
	 4883 10800 5037 10800 5037 10783 5195 10783 5195 10808 5512 10808
	 5512 10854 5670 10854 5670 10900 5824 10900 5824 10945 5983 10945
	 5983 10929 6141 10929 6141 10970 6299 10970 6299 11004 6458 11004
	 6458 10950 6612 10950 6612 10991 6770 10991 6770 11033 6929 11033
	 6929 11070 7087 11070 7087 11033 7245 11033 7245 11050 7399 11050
	 7399 11016 7558 11016 7558 11050 7716 11050 7716 11079 7874 11079
	 7874 11179 8033 11179 8033 11200 8187 11200 8187 11225 8345 11225
	 8345 11212 8504 11212
# polyline
2 1 0 1 0 0 944 0 -1 4.000 0 0 0 0 0 2
	 945 12312 8504 12312
# polyline
2 1 0 1 0 0 943 0 -1 4.000 0 0 0 0 0 2
	 945 12100 945 12312
# polyline
2 1 0 1 0 0 941 0 -1 4.000 0 0 0 0 0 2
	 1104 12204 1104 12312
# polyline
2 1 0 1 0 0 940 0 -1 4.000 0 0 0 0 0 2
	 1258 12204 1258 12312
# polyline
2 1 0 1 0 0 939 0 -1 4.000 0 0 0 0 0 2
	 1416 12204 1416 12312
# polyline
2 1 0 1 0 0 938 0 -1 4.000 0 0 0 0 0 2
	 1574 12204 1574 12312
# polyline
2 1 0 1 0 0 937 0 -1 4.000 0 0 0 0 0 2
	 1733 12100 1733 12312
# polyline
2 1 0 1 0 0 936 0 -1 4.000 0 0 0 0 0 2
	 1891 12204 1891 12312
# polyline
2 1 0 1 0 0 935 0 -1 4.000 0 0 0 0 0 2
	 2045 12204 2045 12312
# polyline
2 1 0 1 0 0 934 0 -1 4.000 0 0 0 0 0 2
	 2204 12204 2204 12312
# polyline
2 1 0 1 0 0 933 0 -1 4.000 0 0 0 0 0 2
	 2362 12204 2362 12312
# polyline
2 1 0 1 0 0 932 0 -1 4.000 0 0 0 0 0 2
	 2520 12100 2520 12312
# polyline
2 1 0 1 0 0 931 0 -1 4.000 0 0 0 0 0 2
	 2679 12204 2679 12312
# polyline
2 1 0 1 0 0 930 0 -1 4.000 0 0 0 0 0 2
	 2833 12204 2833 12312
# polyline
2 1 0 1 0 0 929 0 -1 4.000 0 0 0 0 0 2
	 2991 12204 2991 12312
# polyline
2 1 0 1 0 0 928 0 -1 4.000 0 0 0 0 0 2
	 3149 12204 3149 12312
# polyline
2 1 0 1 0 0 927 0 -1 4.000 0 0 0 0 0 2
	 3308 12100 3308 12312
# polyline
2 1 0 1 0 0 926 0 -1 4.000 0 0 0 0 0 2
	 3462 12204 3462 12312
# polyline
2 1 0 1 0 0 925 0 -1 4.000 0 0 0 0 0 2
	 3620 12204 3620 12312
# polyline
2 1 0 1 0 0 924 0 -1 4.000 0 0 0 0 0 2
	 3779 12204 3779 12312
# polyline
2 1 0 1 0 0 923 0 -1 4.000 0 0 0 0 0 2
	 3937 12204 3937 12312
# polyline
2 1 0 1 0 0 922 0 -1 4.000 0 0 0 0 0 2
	 4095 12100 4095 12312
# polyline
2 1 0 1 0 0 921 0 -1 4.000 0 0 0 0 0 2
	 4249 12204 4249 12312
# polyline
2 1 0 1 0 0 920 0 -1 4.000 0 0 0 0 0 2
	 4408 12204 4408 12312
# polyline
2 1 0 1 0 0 919 0 -1 4.000 0 0 0 0 0 2
	 4566 12204 4566 12312
# polyline
2 1 0 1 0 0 918 0 -1 4.000 0 0 0 0 0 2
	 4724 12204 4724 12312
# polyline
2 1 0 1 0 0 917 0 -1 4.000 0 0 0 0 0 2
	 4883 12100 4883 12312
# polyline
2 1 0 1 0 0 916 0 -1 4.000 0 0 0 0 0 2
	 5037 12204 5037 12312
# polyline
2 1 0 1 0 0 915 0 -1 4.000 0 0 0 0 0 2
	 5195 12204 5195 12312
# polyline
2 1 0 1 0 0 914 0 -1 4.000 0 0 0 0 0 2
	 5354 12204 5354 12312
# polyline
2 1 0 1 0 0 913 0 -1 4.000 0 0 0 0 0 2
	 5512 12204 5512 12312
# polyline
2 1 0 1 0 0 912 0 -1 4.000 0 0 0 0 0 2
	 5670 12100 5670 12312
# polyline
2 1 0 1 0 0 911 0 -1 4.000 0 0 0 0 0 2
	 5824 12204 5824 12312
# polyline
2 1 0 1 0 0 910 0 -1 4.000 0 0 0 0 0 2
	 5983 12204 5983 12312
# polyline
2 1 0 1 0 0 909 0 -1 4.000 0 0 0 0 0 2
	 6141 12204 6141 12312
# polyline
2 1 0 1 0 0 908 0 -1 4.000 0 0 0 0 0 2
	 6299 12204 6299 12312
# polyline
2 1 0 1 0 0 907 0 -1 4.000 0 0 0 0 0 2
	 6458 12100 6458 12312
# polyline
2 1 0 1 0 0 906 0 -1 4.000 0 0 0 0 0 2
	 6612 12204 6612 12312
# polyline
2 1 0 1 0 0 905 0 -1 4.000 0 0 0 0 0 2
	 6770 12204 6770 12312
# polyline
2 1 0 1 0 0 904 0 -1 4.000 0 0 0 0 0 2
	 6929 12204 6929 12312
# polyline
2 1 0 1 0 0 903 0 -1 4.000 0 0 0 0 0 2
	 7087 12204 7087 12312
# polyline
2 1 0 1 0 0 902 0 -1 4.000 0 0 0 0 0 2
	 7245 12100 7245 12312
# polyline
2 1 0 1 0 0 901 0 -1 4.000 0 0 0 0 0 2
	 7399 12204 7399 12312
# polyline
2 1 0 1 0 0 900 0 -1 4.000 0 0 0 0 0 2
	 7558 12204 7558 12312
# polyline
2 1 0 1 0 0 899 0 -1 4.000 0 0 0 0 0 2
	 7716 12204 7716 12312
# polyline
2 1 0 1 0 0 898 0 -1 4.000 0 0 0 0 0 2
	 7874 12204 7874 12312
# polyline
2 1 0 1 0 0 897 0 -1 4.000 0 0 0 0 0 2
	 8033 12100 8033 12312
# polyline
2 1 0 1 0 0 896 0 -1 4.000 0 0 0 0 0 2
	 8033 12100 8033 12312
# polyline
2 1 0 1 0 0 895 0 -1 4.000 0 0 0 0 0 2
	 8187 12204 8187 12312
# polyline
2 1 0 1 0 0 894 0 -1 4.000 0 0 0 0 0 2
	 8345 12204 8345 12312
# polyline
2 1 0 1 0 0 881 0 -1 4.000 0 0 0 0 0 2
	 945 12312 945 5212
# polyline
2 1 0 1 0 0 880 0 -1 4.000 0 0 0 0 0 2
	 1058 12054 945 12054
# polyline
2 1 0 1 0 0 878 0 -1 4.000 0 0 0 0 0 2
	 1058 11770 945 11770
# polyline
2 1 0 1 0 0 877 0 -1 4.000 0 0 0 0 0 2
	 1058 11525 945 11525
# polyline
2 1 0 1 0 0 876 0 -1 4.000 0 0 0 0 0 2
	 1058 11316 945 11316
# polyline
2 1 0 1 0 0 875 0 -1 4.000 0 0 0 0 0 2
	 1058 11133 945 11133
# polyline
2 1 0 1 0 0 874 0 -1 4.000 0 0 0 0 0 2
	 1170 10966 945 10966
# polyline
2 1 0 1 0 0 870 0 -1 4.000 0 0 0 0 0 2
	 1058 9879 945 9879
# polyline
2 1 0 1 0 0 869 0 -1 4.000 0 0 0 0 0 2
	 1058 9241 945 9241
# polyline
2 1 0 1 0 0 868 0 -1 4.000 0 0 0 0 0 2
	 1058 8791 945 8791
# polyline
2 1 0 1 0 0 867 0 -1 4.000 0 0 0 0 0 2
	 1058 8441 945 8441
# polyline
2 1 0 1 0 0 866 0 -1 4.000 0 0 0 0 0 2
	 1058 8154 945 8154
# polyline
2 1 0 1 0 0 865 0 -1 4.000 0 0 0 0 0 2
	 1058 7912 945 7912
# polyline
2 1 0 1 0 0 864 0 -1 4.000 0 0 0 0 0 2
	 1058 7700 945 7700
# polyline
2 1 0 1 0 0 863 0 -1 4.000 0 0 0 0 0 2
	 1058 7516 945 7516
# polyline
2 1 0 1 0 0 862 0 -1 4.000 0 0 0 0 0 2
	 1170 7350 945 7350
# polyline
2 1 0 1 0 0 858 0 -1 4.000 0 0 0 0 0 2
	 1058 6262 945 6262
# polyline
2 1 0 1 0 0 857 0 -1 4.000 0 0 0 0 0 2
	 1058 5625 945 5625
# polyline
2 1 0 1 4 4 849 0 -1 4.000 0 0 0 0 0 94
	 945 9066 1104 9066 1104 8816 1258 8816 1258 8658 1416 8658
	 1416 8545 1574 8545 1574 8504 1733 8504 1733 8470 1891 8470
	 1891 8550 2045 8550 2045 8562 2204 8562 2204 8479 2362 8479
	 2362 8387 2520 8387 2520 8379 2679 8379 2679 8366 2833 8366
	 2833 8408 2991 8408 2991 8400 3149 8400 3149 8366 3308 8366
	 3308 8283 3462 8283 3462 8037 3620 8037 3620 8020 3779 8020
	 3779 8004 3937 8004 3937 8054 4095 8054 4095 7958 4249 7958
	 4249 7929 4408 7929 4408 7758 4566 7758 4566 7750 4724 7750
	 4724 7725 4883 7725 4883 7766 5037 7766 5037 7533 5195 7533
	 5195 7445 5354 7445 5354 7258 5512 7258 5512 7245 5670 7245
	 5670 7229 5824 7229 5824 7212 5983 7212 5983 6987 6141 6987
	 6141 6979 6299 6979 6299 6933 6458 6933 6458 6579 6612 6579
	 6612 6583 6929 6583 6929 6570 7087 6570 7087 6275 7245 6275
	 7245 6200 7399 6200 7399 5912 7558 5912 7558 5900 7716 5900
	 7716 5866 7874 5866 7874 6133 8033 6133 8033 6075 8187 6075
	 8187 6037 8345 6037 8345 5858 8504 5858
# polyline
2 1 0 1 4 4 847 0 -1 4.000 0 0 0 0 0 2
	 8504 12312 8504 5212
# polyline
2 1 0 1 4 4 846 0 -1 4.000 0 0 0 0 0 2
	 8279 12312 8504 12312
# polyline
2 1 0 1 4 4 844 0 -1 4.000 0 0 0 0 0 2
	 8391 12050 8504 12050
# polyline
2 1 0 1 4 4 843 0 -1 4.000 0 0 0 0 0 2
	 8391 11787 8504 11787
# polyline
2 1 0 1 4 4 842 0 -1 4.000 0 0 0 0 0 2
	 8391 11525 8504 11525
# polyline
2 1 0 1 4 4 841 0 -1 4.000 0 0 0 0 0 2
	 8279 11262 8504 11262
# polyline
2 1 0 1 4 4 840 0 -1 4.000 0 0 0 0 0 2
	 8391 11000 8504 11000
# polyline
2 1 0 1 4 4 839 0 -1 4.000 0 0 0 0 0 2
	 8391 10737 8504 10737
# polyline
2 1 0 1 4 4 838 0 -1 4.000 0 0 0 0 0 2
	 8391 10475 8504 10475
# polyline
2 1 0 1 4 4 837 0 -1 4.000 0 0 0 0 0 2
	 8279 10216 8504 10216
# polyline
2 1 0 1 4 4 836 0 -1 4.000 0 0 0 0 0 2
	 8391 9954 8504 9954
# polyline
2 1 0 1 4 4 835 0 -1 4.000 0 0 0 0 0 2
	 8391 9691 8504 9691
# polyline
2 1 0 1 4 4 834 0 -1 4.000 0 0 0 0 0 2
	 8391 9429 8504 9429
# polyline
2 1 0 1 4 4 833 0 -1 4.000 0 0 0 0 0 2
	 8279 9166 8504 9166
# polyline
2 1 0 1 4 4 832 0 -1 4.000 0 0 0 0 0 2
	 8391 8904 8504 8904
# polyline
2 1 0 1 4 4 831 0 -1 4.000 0 0 0 0 0 2
	 8391 8641 8504 8641
# polyline
2 1 0 1 4 4 830 0 -1 4.000 0 0 0 0 0 2
	 8391 8379 8504 8379
# polyline
2 1 0 1 4 4 829 0 -1 4.000 0 0 0 0 0 2
	 8279 8116 8504 8116
# polyline
2 1 0 1 4 4 828 0 -1 4.000 0 0 0 0 0 2
	 8391 7854 8504 7854
# polyline
2 1 0 1 4 4 827 0 -1 4.000 0 0 0 0 0 2
	 8391 7591 8504 7591
# polyline
2 1 0 1 4 4 826 0 -1 4.000 0 0 0 0 0 2
	 8391 7329 8504 7329
# polyline
2 1 0 1 4 4 825 0 -1 4.000 0 0 0 0 0 2
	 8279 7066 8504 7066
# polyline
2 1 0 1 4 4 824 0 -1 4.000 0 0 0 0 0 2
	 8391 6804 8504 6804
# polyline
2 1 0 1 4 4 823 0 -1 4.000 0 0 0 0 0 2
	 8391 6545 8504 6545
# polyline
2 1 0 1 4 4 822 0 -1 4.000 0 0 0 0 0 2
	 8391 6283 8504 6283
# polyline
2 1 0 1 4 4 821 0 -1 4.000 0 0 0 0 0 2
	 8279 6020 8504 6020
# polyline
2 1 0 1 4 4 820 0 -1 4.000 0 0 0 0 0 2
	 8279 6020 8504 6020
# polyline
2 1 0 1 4 4 819 0 -1 4.000 0 0 0 0 0 2
	 8391 5758 8504 5758
# polyline
2 1 0 1 4 4 818 0 -1 4.000 0 0 0 0 0 2
	 8391 5495 8504 5495
# polyline
2 1 0 1 4 4 817 0 -1 4.000 0 0 0 0 0 2
	 8391 5233 8504 5233
# polyline
2 1 0 0 32 32 999 0 20 4.000 0 0 0 0 0 5
	 0 13200 0 4325 9449 4325 9449 13200 0 13200
# text
4 0 0 892 -1 18 22 0.0000 4 255 195 833 12629 0\001
# text
4 0 0 891 -1 18 22 0.0000 4 255 195 1620 12629 5\001
# text
4 0 0 890 -1 18 22 0.0000 4 255 390 2312 12629 10\001
# text
4 0 0 889 -1 18 22 0.0000 4 255 390 3099 12629 15\001
# text
4 0 0 888 -1 18 22 0.0000 4 255 390 3887 12629 20\001
# text
4 0 0 887 -1 18 22 0.0000 4 255 390 4674 12629 25\001
# text
4 0 0 886 -1 18 22 0.0000 4 255 390 5462 12629 30\001
# text
4 0 0 885 -1 18 22 0.0000 4 255 390 6249 12629 35\001
# text
4 0 0 884 -1 18 22 0.0000 4 255 390 7037 12629 40\001
# text
4 0 0 883 -1 18 22 0.0000 4 255 390 7824 12629 45\001
# text
4 0 0 873 -1 18 14 0.0000 4 165 210 666 10958 -7\001
# text
4 0 0 871 -1 18 22 0.0000 4 255 390 308 11125 10\001
# text
4 0 0 861 -1 18 14 0.0000 4 165 210 666 7308 -6\001
# text
4 0 0 859 -1 18 22 0.0000 4 255 390 308 7495 10\001
# text
4 0 4 816 -1 18 22 0.0000 4 255 195 8541 12437 0\001
# text
4 0 4 814 -1 18 22 0.0000 4 255 390 8541 11387 20\001
# text
4 0 4 813 -1 18 22 0.0000 4 255 390 8541 10337 40\001
# text
4 0 4 812 -1 18 22 0.0000 4 255 390 8541 9287 60\001
# text
4 0 4 811 -1 18 22 0.0000 4 255 390 8541 8237 80\001
# text
4 0 4 810 -1 18 22 0.0000 4 255 585 8541 7212 100\001
# text
4 0 4 809 -1 18 22 0.0000 4 255 585 8541 6162 120\001
# text
4 0 0 850 -1 18 25 0.0000 4 390 6420 1425 4800 Timing profile in seconds for 6g\001
4 0 0 50 -1 18 20 0.0000 4 240 1890 7425 13050 # events/MP\001
