#FIG 3.2  Produced by xfig version 3.2.5a
Portrait
Flush left
Inches
Letter  
100.00
Single
0
1200 2
0 32 #f2f2f2
0 33 #a9a9a9
# polyline
2 1 0 0 33 33 995 0 20 4.000 0 0 0 0 0 7
	 0 13200 33 13166 9416 13166 9416 4358 9449 4325 9449 13200
	 0 13200
# polyline
2 1 0 0 32 32 993 0 20 4.000 0 0 0 0 0 5
	 945 12312 945 5212 8504 5212 8504 12312 945 12312
# polyline
2 1 0 0 7 7 991 0 20 4.000 0 0 0 0 0 7
	 945 12312 962 12295 962 5229 8487 5229 8504 5212 945 5212
	 945 12312
# polyline
2 1 0 0 33 33 989 0 20 4.000 0 0 0 0 0 7
	 945 12312 962 12295 8487 12295 8487 5229 8504 5212 8504 12312
	 945 12312
# polyline
2 1 0 1 0 0 987 0 -1 4.000 0 0 0 0 0 5
	 945 12312 945 5212 8504 5212 8504 12312 945 12312
# polyline
2 1 0 0 32 32 985 0 20 4.000 0 0 0 0 0 5
	 945 12312 945 5212 8504 5212 8504 12312 945 12312
# polyline
2 1 0 0 7 7 983 0 20 4.000 0 0 0 0 0 7
	 945 12312 962 12295 962 5229 8487 5229 8504 5212 945 5212
	 945 12312
# polyline
2 1 0 0 33 33 981 0 20 4.000 0 0 0 0 0 7
	 945 12312 962 12295 8487 12295 8487 5229 8504 5212 8504 12312
	 945 12312
# polyline
2 1 0 1 0 0 979 0 -1 4.000 0 0 0 0 0 5
	 945 12312 945 5212 8504 5212 8504 12312 945 12312
# polyline
2 1 0 1 0 0 978 0 -1 4.000 0 0 0 0 0 2
	 945 12312 8504 12312
# polyline
2 1 2 1 0 0 977 0 -1 4.000 0 0 0 0 0 2
	 945 5212 945 12312
# polyline
2 1 2 1 0 0 975 0 -1 4.000 0 0 0 0 0 2
	 1783 5212 1783 12312
# polyline
2 1 2 1 0 0 974 0 -1 4.000 0 0 0 0 0 2
	 2624 5212 2624 12312
# polyline
2 1 2 1 0 0 973 0 -1 4.000 0 0 0 0 0 2
	 3462 5212 3462 12312
# polyline
2 1 2 1 0 0 972 0 -1 4.000 0 0 0 0 0 2
	 4304 5212 4304 12312
# polyline
2 1 2 1 0 0 971 0 -1 4.000 0 0 0 0 0 2
	 5145 5212 5145 12312
# polyline
2 1 2 1 0 0 970 0 -1 4.000 0 0 0 0 0 2
	 5983 5212 5983 12312
# polyline
2 1 2 1 0 0 969 0 -1 4.000 0 0 0 0 0 2
	 6824 5212 6824 12312
# polyline
2 1 2 1 0 0 968 0 -1 4.000 0 0 0 0 0 2
	 7662 5212 7662 12312
# polyline
2 1 2 1 0 0 967 0 -1 4.000 0 0 0 0 0 2
	 8504 5212 8504 12312
# polyline
2 1 0 1 0 0 966 0 -1 4.000 0 0 0 0 0 2
	 945 12312 945 5212
# polyline
2 1 2 1 0 0 964 0 -1 4.000 0 0 0 0 0 2
	 8504 11991 945 11991
# polyline
2 1 2 1 0 0 963 0 -1 4.000 0 0 0 0 0 2
	 8504 11545 945 11545
# polyline
2 1 2 1 0 0 962 0 -1 4.000 0 0 0 0 0 2
	 8504 11183 945 11183
# polyline
2 1 2 1 0 0 961 0 -1 4.000 0 0 0 0 0 2
	 8504 10875 945 10875
# polyline
2 1 2 1 0 0 960 0 -1 4.000 0 0 0 0 0 2
	 8504 10608 945 10608
# polyline
2 1 2 1 0 0 959 0 -1 4.000 0 0 0 0 0 2
	 8504 10375 945 10375
# polyline
2 1 2 1 0 0 958 0 -1 4.000 0 0 0 0 0 2
	 8504 10166 945 10166
# polyline
2 1 2 1 0 0 957 0 -1 4.000 0 0 0 0 0 2
	 8504 8783 945 8783
# polyline
2 1 2 1 0 0 956 0 -1 4.000 0 0 0 0 0 2
	 8504 7975 945 7975
# polyline
2 1 2 1 0 0 955 0 -1 4.000 0 0 0 0 0 2
	 8504 7400 945 7400
# polyline
2 1 2 1 0 0 954 0 -1 4.000 0 0 0 0 0 2
	 8504 6958 945 6958
# polyline
2 1 2 1 0 0 953 0 -1 4.000 0 0 0 0 0 2
	 8504 6595 945 6595
# polyline
2 1 2 1 0 0 952 0 -1 4.000 0 0 0 0 0 2
	 8504 6287 945 6287
# polyline
2 1 2 1 0 0 951 0 -1 4.000 0 0 0 0 0 2
	 8504 6020 945 6020
# polyline
2 1 2 1 0 0 950 0 -1 4.000 0 0 0 0 0 2
	 8504 5787 945 5787
# polyline
2 1 2 1 0 0 949 0 -1 4.000 0 0 0 0 0 2
	 8504 5575 945 5575
# polyline
2 1 0 1 1 1 947 0 -1 4.000 0 0 0 0 0 36
	 945 6483 1366 6483 1366 7354 1783 7354 1783 8162 2204 8162
	 2204 8733 2624 8733 2624 9175 3045 9175 3045 9508 3462 9508
	 3462 9812 3883 9812 3883 10050 4304 10050 4304 10058 4724 10058
	 4724 10266 5145 10266 5145 10391 5562 10391 5562 10525 5983 10525
	 5983 10570 6404 10570 6404 10712 6824 10712 6824 10812 7245 10812
	 7245 10829 7662 10829 7662 10837 8083 10837 8083 10929 8504 10929
# polyline
2 1 0 1 0 0 946 0 -1 4.000 0 0 0 0 0 2
	 945 12312 8504 12312
# polyline
2 1 0 1 0 0 945 0 -1 4.000 0 0 0 0 0 2
	 945 12100 945 12312
# polyline
2 1 0 1 0 0 943 0 -1 4.000 0 0 0 0 0 2
	 1154 12204 1154 12312
# polyline
2 1 0 1 0 0 942 0 -1 4.000 0 0 0 0 0 2
	 1366 12204 1366 12312
# polyline
2 1 0 1 0 0 941 0 -1 4.000 0 0 0 0 0 2
	 1574 12204 1574 12312
# polyline
2 1 0 1 0 0 940 0 -1 4.000 0 0 0 0 0 2
	 1783 12100 1783 12312
# polyline
2 1 0 1 0 0 939 0 -1 4.000 0 0 0 0 0 2
	 1995 12204 1995 12312
# polyline
2 1 0 1 0 0 938 0 -1 4.000 0 0 0 0 0 2
	 2204 12204 2204 12312
# polyline
2 1 0 1 0 0 937 0 -1 4.000 0 0 0 0 0 2
	 2416 12204 2416 12312
# polyline
2 1 0 1 0 0 936 0 -1 4.000 0 0 0 0 0 2
	 2624 12100 2624 12312
# polyline
2 1 0 1 0 0 935 0 -1 4.000 0 0 0 0 0 2
	 2833 12204 2833 12312
# polyline
2 1 0 1 0 0 934 0 -1 4.000 0 0 0 0 0 2
	 3045 12204 3045 12312
# polyline
2 1 0 1 0 0 933 0 -1 4.000 0 0 0 0 0 2
	 3254 12204 3254 12312
# polyline
2 1 0 1 0 0 932 0 -1 4.000 0 0 0 0 0 2
	 3462 12100 3462 12312
# polyline
2 1 0 1 0 0 931 0 -1 4.000 0 0 0 0 0 2
	 3674 12204 3674 12312
# polyline
2 1 0 1 0 0 930 0 -1 4.000 0 0 0 0 0 2
	 3883 12204 3883 12312
# polyline
2 1 0 1 0 0 929 0 -1 4.000 0 0 0 0 0 2
	 4095 12204 4095 12312
# polyline
2 1 0 1 0 0 928 0 -1 4.000 0 0 0 0 0 2
	 4304 12100 4304 12312
# polyline
2 1 0 1 0 0 927 0 -1 4.000 0 0 0 0 0 2
	 4512 12204 4512 12312
# polyline
2 1 0 1 0 0 926 0 -1 4.000 0 0 0 0 0 2
	 4724 12204 4724 12312
# polyline
2 1 0 1 0 0 925 0 -1 4.000 0 0 0 0 0 2
	 4933 12204 4933 12312
# polyline
2 1 0 1 0 0 924 0 -1 4.000 0 0 0 0 0 2
	 5145 12100 5145 12312
# polyline
2 1 0 1 0 0 923 0 -1 4.000 0 0 0 0 0 2
	 5354 12204 5354 12312
# polyline
2 1 0 1 0 0 922 0 -1 4.000 0 0 0 0 0 2
	 5562 12204 5562 12312
# polyline
2 1 0 1 0 0 921 0 -1 4.000 0 0 0 0 0 2
	 5774 12204 5774 12312
# polyline
2 1 0 1 0 0 920 0 -1 4.000 0 0 0 0 0 2
	 5983 12100 5983 12312
# polyline
2 1 0 1 0 0 919 0 -1 4.000 0 0 0 0 0 2
	 6195 12204 6195 12312
# polyline
2 1 0 1 0 0 918 0 -1 4.000 0 0 0 0 0 2
	 6404 12204 6404 12312
# polyline
2 1 0 1 0 0 917 0 -1 4.000 0 0 0 0 0 2
	 6612 12204 6612 12312
# polyline
2 1 0 1 0 0 916 0 -1 4.000 0 0 0 0 0 2
	 6824 12100 6824 12312
# polyline
2 1 0 1 0 0 915 0 -1 4.000 0 0 0 0 0 2
	 7033 12204 7033 12312
# polyline
2 1 0 1 0 0 914 0 -1 4.000 0 0 0 0 0 2
	 7245 12204 7245 12312
# polyline
2 1 0 1 0 0 913 0 -1 4.000 0 0 0 0 0 2
	 7454 12204 7454 12312
# polyline
2 1 0 1 0 0 912 0 -1 4.000 0 0 0 0 0 2
	 7662 12100 7662 12312
# polyline
2 1 0 1 0 0 911 0 -1 4.000 0 0 0 0 0 2
	 7874 12204 7874 12312
# polyline
2 1 0 1 0 0 910 0 -1 4.000 0 0 0 0 0 2
	 8083 12204 8083 12312
# polyline
2 1 0 1 0 0 909 0 -1 4.000 0 0 0 0 0 2
	 8295 12204 8295 12312
# polyline
2 1 0 1 0 0 908 0 -1 4.000 0 0 0 0 0 2
	 8504 12100 8504 12312
# polyline
2 1 0 1 0 0 895 0 -1 4.000 0 0 0 0 0 2
	 945 12312 945 5212
# polyline
2 1 0 1 0 0 894 0 -1 4.000 0 0 0 0 0 2
	 1058 11991 945 11991
# polyline
2 1 0 1 0 0 892 0 -1 4.000 0 0 0 0 0 2
	 1058 11545 945 11545
# polyline
2 1 0 1 0 0 891 0 -1 4.000 0 0 0 0 0 2
	 1058 11183 945 11183
# polyline
2 1 0 1 0 0 890 0 -1 4.000 0 0 0 0 0 2
	 1058 10875 945 10875
# polyline
2 1 0 1 0 0 889 0 -1 4.000 0 0 0 0 0 2
	 1058 10608 945 10608
# polyline
2 1 0 1 0 0 888 0 -1 4.000 0 0 0 0 0 2
	 1058 10375 945 10375
# polyline
2 1 0 1 0 0 887 0 -1 4.000 0 0 0 0 0 2
	 1170 10166 945 10166
# polyline
2 1 0 1 0 0 883 0 -1 4.000 0 0 0 0 0 2
	 1058 8783 945 8783
# polyline
2 1 0 1 0 0 882 0 -1 4.000 0 0 0 0 0 2
	 1058 7975 945 7975
# polyline
2 1 0 1 0 0 881 0 -1 4.000 0 0 0 0 0 2
	 1058 7400 945 7400
# polyline
2 1 0 1 0 0 880 0 -1 4.000 0 0 0 0 0 2
	 1058 6958 945 6958
# polyline
2 1 0 1 0 0 879 0 -1 4.000 0 0 0 0 0 2
	 1058 6595 945 6595
# polyline
2 1 0 1 0 0 878 0 -1 4.000 0 0 0 0 0 2
	 1058 6287 945 6287
# polyline
2 1 0 1 0 0 877 0 -1 4.000 0 0 0 0 0 2
	 1058 6020 945 6020
# polyline
2 1 0 1 0 0 876 0 -1 4.000 0 0 0 0 0 2
	 1058 5787 945 5787
# polyline
2 1 0 1 0 0 875 0 -1 4.000 0 0 0 0 0 2
	 1170 5575 945 5575
# polyline
2 1 0 1 4 4 864 0 -1 4.000 0 0 0 0 0 34
	 945 8975 1366 8975 1366 8000 1783 8000 1783 7995 2204 7995
	 2204 7991 2624 7991 2624 7983 3045 7983 3045 7916 3462 7916
	 3462 7912 3883 7912 3883 7854 4304 7854 4304 7312 5145 7312
	 5145 7145 5562 7145 5562 7041 5983 7041 5983 6729 6404 6729
	 6404 6712 6824 6712 6824 6600 7245 6600 7245 6279 7662 6279
	 7662 5920 8083 5920 8083 5858 8504 5858
# polyline
2 1 0 1 4 4 862 0 -1 4.000 0 0 0 0 0 2
	 8504 12312 8504 5212
# polyline
2 1 0 1 4 4 861 0 -1 4.000 0 0 0 0 0 2
	 8279 12312 8504 12312
# polyline
2 1 0 1 4 4 859 0 -1 4.000 0 0 0 0 0 2
	 8391 12137 8504 12137
# polyline
2 1 0 1 4 4 858 0 -1 4.000 0 0 0 0 0 2
	 8391 11962 8504 11962
# polyline
2 1 0 1 4 4 857 0 -1 4.000 0 0 0 0 0 2
	 8391 11787 8504 11787
# polyline
2 1 0 1 4 4 856 0 -1 4.000 0 0 0 0 0 2
	 8391 11608 8504 11608
# polyline
2 1 0 1 4 4 855 0 -1 4.000 0 0 0 0 0 2
	 8279 11433 8504 11433
# polyline
2 1 0 1 4 4 854 0 -1 4.000 0 0 0 0 0 2
	 8391 11258 8504 11258
# polyline
2 1 0 1 4 4 853 0 -1 4.000 0 0 0 0 0 2
	 8391 11083 8504 11083
# polyline
2 1 0 1 4 4 852 0 -1 4.000 0 0 0 0 0 2
	 8391 10908 8504 10908
# polyline
2 1 0 1 4 4 851 0 -1 4.000 0 0 0 0 0 2
	 8391 10733 8504 10733
# polyline
2 1 0 1 4 4 850 0 -1 4.000 0 0 0 0 0 2
	 8279 10558 8504 10558
# polyline
2 1 0 1 4 4 849 0 -1 4.000 0 0 0 0 0 2
	 8391 10383 8504 10383
# polyline
2 1 0 1 4 4 848 0 -1 4.000 0 0 0 0 0 2
	 8391 10204 8504 10204
# polyline
2 1 0 1 4 4 847 0 -1 4.000 0 0 0 0 0 2
	 8391 10029 8504 10029
# polyline
2 1 0 1 4 4 846 0 -1 4.000 0 0 0 0 0 2
	 8391 9854 8504 9854
# polyline
2 1 0 1 4 4 845 0 -1 4.000 0 0 0 0 0 2
	 8279 9679 8504 9679
# polyline
2 1 0 1 4 4 844 0 -1 4.000 0 0 0 0 0 2
	 8391 9504 8504 9504
# polyline
2 1 0 1 4 4 843 0 -1 4.000 0 0 0 0 0 2
	 8391 9329 8504 9329
# polyline
2 1 0 1 4 4 842 0 -1 4.000 0 0 0 0 0 2
	 8391 9154 8504 9154
# polyline
2 1 0 1 4 4 841 0 -1 4.000 0 0 0 0 0 2
	 8391 8975 8504 8975
# polyline
2 1 0 1 4 4 840 0 -1 4.000 0 0 0 0 0 2
	 8279 8800 8504 8800
# polyline
2 1 0 1 4 4 839 0 -1 4.000 0 0 0 0 0 2
	 8391 8625 8504 8625
# polyline
2 1 0 1 4 4 838 0 -1 4.000 0 0 0 0 0 2
	 8391 8450 8504 8450
# polyline
2 1 0 1 4 4 837 0 -1 4.000 0 0 0 0 0 2
	 8391 8275 8504 8275
# polyline
2 1 0 1 4 4 836 0 -1 4.000 0 0 0 0 0 2
	 8391 8100 8504 8100
# polyline
2 1 0 1 4 4 835 0 -1 4.000 0 0 0 0 0 2
	 8279 7925 8504 7925
# polyline
2 1 0 1 4 4 834 0 -1 4.000 0 0 0 0 0 2
	 8391 7750 8504 7750
# polyline
2 1 0 1 4 4 833 0 -1 4.000 0 0 0 0 0 2
	 8391 7570 8504 7570
# polyline
2 1 0 1 4 4 832 0 -1 4.000 0 0 0 0 0 2
	 8391 7395 8504 7395
# polyline
2 1 0 1 4 4 831 0 -1 4.000 0 0 0 0 0 2
	 8391 7220 8504 7220
# polyline
2 1 0 1 4 4 830 0 -1 4.000 0 0 0 0 0 2
	 8279 7045 8504 7045
# polyline
2 1 0 1 4 4 829 0 -1 4.000 0 0 0 0 0 2
	 8391 6870 8504 6870
# polyline
2 1 0 1 4 4 828 0 -1 4.000 0 0 0 0 0 2
	 8391 6695 8504 6695
# polyline
2 1 0 1 4 4 827 0 -1 4.000 0 0 0 0 0 2
	 8391 6520 8504 6520
# polyline
2 1 0 1 4 4 826 0 -1 4.000 0 0 0 0 0 2
	 8391 6345 8504 6345
# polyline
2 1 0 1 4 4 825 0 -1 4.000 0 0 0 0 0 2
	 8279 6166 8504 6166
# polyline
2 1 0 1 4 4 824 0 -1 4.000 0 0 0 0 0 2
	 8391 5991 8504 5991
# polyline
2 1 0 1 4 4 823 0 -1 4.000 0 0 0 0 0 2
	 8391 5816 8504 5816
# polyline
2 1 0 1 4 4 822 0 -1 4.000 0 0 0 0 0 2
	 8391 5641 8504 5641
# polyline
2 1 0 1 4 4 821 0 -1 4.000 0 0 0 0 0 2
	 8391 5466 8504 5466
# polyline
2 1 0 1 4 4 820 0 -1 4.000 0 0 0 0 0 2
	 8279 5291 8504 5291
# polyline
2 1 0 1 4 4 819 0 -1 4.000 0 0 0 0 0 2
	 8279 5291 8504 5291
# polyline
2 1 0 0 32 32 999 0 20 4.000 0 0 0 0 0 5
	 0 13200 0 4325 9449 4325 9449 13200 0 13200
# polyline
2 1 0 0 7 7 997 0 20 4.000 0 0 0 0 0 7
	 0 13200 33 13166 33 4358 9416 4358 9449 4325 0 4325
	 0 13200
# text
4 0 0 906 -1 18 22 0.0000 4 255 195 833 12629 0\001
# text
4 0 0 905 -1 18 22 0.0000 4 255 195 1670 12629 2\001
# text
4 0 0 904 -1 18 22 0.0000 4 255 195 2529 12629 4\001
# text
4 0 0 903 -1 18 22 0.0000 4 255 195 3362 12629 6\001
# text
4 0 0 902 -1 18 22 0.0000 4 255 195 4199 12629 8\001
# text
4 0 0 901 -1 18 22 0.0000 4 255 390 4937 12629 10\001
# text
4 0 0 900 -1 18 22 0.0000 4 255 390 5774 12629 12\001
# text
4 0 0 899 -1 18 22 0.0000 4 255 390 6633 12629 14\001
# text
4 0 0 898 -1 18 22 0.0000 4 255 390 7466 12629 16\001
# text
4 0 0 897 -1 18 22 0.0000 4 255 390 8304 12629 18\001
# text
4 0 0 886 -1 18 14 0.0000 4 165 210 666 10120 -6\001
# text
4 0 0 884 -1 18 22 0.0000 4 255 390 308 10312 10\001
# text
4 0 0 874 -1 18 14 0.0000 4 165 210 666 5541 -5\001
# text
4 0 0 872 -1 18 22 0.0000 4 255 390 308 5733 10\001
# text
4 0 4 818 -1 18 22 0.0000 4 255 195 8541 12437 0\001
# text
4 0 4 816 -1 18 22 0.0000 4 255 390 8541 11579 50\001
# text
4 0 4 815 -1 18 22 0.0000 4 255 585 8541 10695 100\001
# text
4 0 4 814 -1 18 22 0.0000 4 255 585 8541 9812 150\001
# text
4 0 4 813 -1 18 22 0.0000 4 255 585 8541 8929 200\001
# text
4 0 4 812 -1 18 22 0.0000 4 255 585 8541 8045 250\001
# text
4 0 4 811 -1 18 22 0.0000 4 255 585 8541 7187 300\001
# text
4 0 4 810 -1 18 22 0.0000 4 255 585 8541 6304 350\001
# text
4 0 4 809 -1 18 22 0.0000 4 255 585 8541 5420 400\001
# text
4 0 0 865 -1 18 25 0.0000 4 390 6660 1425 4725 Timing profile in seconds for 10g\001
4 0 0 50 -1 18 20 0.0000 4 240 1890 7425 13050 # events/MP\001
