\relax 
\@writefile{toc}{\contentsline {section}{\numberline {1}Introduction}{1}}
\@writefile{toc}{\contentsline {section}{\numberline {2}Lepton Colliders}{1}}
\@writefile{toc}{\contentsline {section}{\numberline {3}Hadron Colliders}{3}}
\@writefile{toc}{\contentsline {section}{\numberline {4}Branching Phase Spaces}{4}}
\bibstyle{JHEP}
\bibdata{FBPS}
