\contentsline {section}{\numberline {1}Lagrangian}{1}
\contentsline {section}{\numberline {2}recursion}{2}
\contentsline {section}{\numberline {3}Complex numbers}{4}
\contentsline {section}{\numberline {4}Color ordered}{5}
\contentsline {section}{\numberline {5}Implementation notes Majorana matrices}{5}
