\relax 
\global\@todotoctrue
\newlabel{-TOC-}{{}{1}}
\@writefile{toc}{\contentsline {section}{\numberline {1}Lagrangian}{1}}
\global\@todotoctrue
\@writefile{toc}{\contentsline {section}{\numberline {2}recursion}{2}}
\global\@todotoctrue
\newlabel{eq_gluon_ff}{{2.8}{4}}
\@writefile{toc}{\contentsline {section}{\numberline {3}Complex numbers}{4}}
\newlabel{eq_gluon_ff_real}{{3.1}{4}}
\global\@todotoctrue
\global\@todotoctrue
\@writefile{toc}{\contentsline {section}{\numberline {4}Color ordered}{5}}
\@writefile{toc}{\contentsline {section}{\numberline {5}Implementation notes Majorana matrices}{5}}
