\relax 
\citation{Stelzer:1994ta,Krauss:2001iv,Draggiotis:2002hm,Mangano:2002ea,Boos:2004kh,Gleisberg:2008fv}
\citation{Mangano:2006rw,Hoche:2006ph,Catani:2001cc,Lonnblad:2001iq,Lavesson:2005xu,Schumann:2007mg,Frixione:2002ik,Dinsdale:2007mf,Hamilton:2010wh,Frixione:2007vw,Nagy:2006kb,Bengtsson:1986et,Bengtsson:1986hr}
\citation{Berends:1987me,Kosower:1989xy,Caravaglios:1995cd,Kanaki:2000ey,Moretti:2001zz,Cachazo:2004kj,Risager:2005vk,Britto:2004ap,Britto:2005fq,Draggiotis:2005wq,Vaman:2005dt,Schwinn:2005pi}
\citation{Murayama:1992gi,Stelzer:1994ta,Krauss:2001iv,Boos:2004kh}
\citation{Gleisberg:2008fv}
\citation{Giele:2010ks}
\citation{Giele:2010ks}
\@writefile{toc}{\contentsline {section}{\numberline {1}Introduction}{2}}
\newlabel{sec:Intro}{{1}{2}}
\citation{Giele:2010ks}
\@writefile{toc}{\contentsline {section}{\numberline {2}Generating the Leading Order Amplitudes}{3}}
\@writefile{toc}{\contentsline {subsection}{\numberline {2.1}Real versus Complex Valued Amplitudes}{3}}
\newlabel{Majorana}{{2.1}{3}}
\citation{Berends:1987me}
\citation{Giele:2010ks}
\@writefile{toc}{\contentsline {subsection}{\numberline {2.2}Generalized Recursion Relations}{4}}
\@writefile{toc}{\contentsline {subsubsection}{\numberline {2.2.1}Recursion Relations for Generic Processes}{4}}
\newlabel{genrec}{{3}{4}}
\newlabel{3n-rec}{{4}{5}}
\@writefile{toc}{\contentsline {subsubsection}{\numberline {2.2.2}Recursion Relations for Multi-Jet Production}{5}}
\citation{Giele:2010ks}
\@writefile{toc}{\contentsline {subsection}{\numberline {2.3}Ordered Recursion}{6}}
\@writefile{toc}{\contentsline {subsection}{\numberline {2.4}An algorithm for helicity summed color-ordered amplitudes}{6}}
\newlabel{appendix:hel-sum}{{2.4}{6}}
\@writefile{lof}{\contentsline {figure}{\numberline {1}{\ignorespaces  ...\relax }}{7}}
\providecommand*\caption@xref[2]{\@setref\relax\@undefined{#1}}
\newlabel{RecComp}{{1}{7}}
\@writefile{lot}{\contentsline {table}{\numberline {1}{\ignorespaces  Theory time for naive $(1.2\times 10^{-7})\times (n+2)^4\tmspace  +\thinmuskip {.1667em} 2^{n+1}/24$, Theory time for helicity summed $(1.0\times 10^{-7})\times 4\tmspace  +\thinmuskip {.1667em}(n+1)\tmspace  +\thinmuskip {.1667em} 2^{n+1}$.\relax }}{8}}
\newlabel{tab2}{{1}{8}}
\citation{Giele:2010ks}
\@writefile{toc}{\contentsline {section}{\numberline {3}The TESS Monte Carlo}{9}}
\@writefile{toc}{\contentsline {subsection}{\numberline {3.1}TESLA vs FERMI GPU}{9}}
\@writefile{lot}{\contentsline {table}{\numberline {2}{\ignorespaces  The number of events evaluated on a single MP and the GPU device in parallel. \relax }}{10}}
\newlabel{threads_per_MP}{{2}{10}}
\@writefile{lot}{\contentsline {table}{\numberline {3}{\ignorespaces  The gain over the CPU is using a single core of the xxx CPU. The 4 to 8 gluon case was compiled with a restriction of 32 registers to be used such that we can run with 2 blocks per MP. \relax }}{10}}
\newlabel{gpu_timing}{{3}{10}}
\citation{Draggiotis:2002hm}
\citation{Gleisberg:2008fv}
\citation{ATLAS-CONF-2010-084}
\bibstyle{JHEP}
\bibdata{tes3}
\@writefile{toc}{\contentsline {section}{\numberline {4}Validation of the TESS Monte Carlo}{11}}
\@writefile{toc}{\contentsline {section}{\numberline {5}Predictions and Data Comparison using the TESS Monte Carlo}{11}}
\@writefile{toc}{\contentsline {section}{\numberline {6}Conclusions}{11}}
