\relax 
\global\@todotoctrue
\citation{Giele:1993dj}
\newlabel{-TOC-}{{}{1}}
\@writefile{toc}{\contentsline {section}{\numberline {1}The Generic Algorithm}{1}}
\citation{Winter:2009kd}
\citation{Giele:1993dj}
\global\@todotoctrue
\citation{Kleiss:1985gy}
\@writefile{toc}{\contentsline {section}{\numberline {2}Phase Space}{4}}
\citation{Daleo:2006xa}
\@writefile{toc}{\contentsline {subsection}{\numberline {2.1}Invertible Branchers}{5}}
\@writefile{toc}{\contentsline {subsubsection}{\numberline {2.1.1}The final-final state particle brancher}{6}}
\citation{Daleo:2006xa}
\@writefile{toc}{\contentsline {subsubsection}{\numberline {2.1.2}The initial-final state particle brancher}{8}}
\global\@todotoctrue
\@writefile{toc}{\contentsline {section}{\numberline {3}Using the GPU in the Calculation of Virtual Corrections}{9}}
\bibcite{Winter:2009kd}{{1}{}{{}}{{}}}
\bibcite{Giele:1991vf}{{2}{}{{}}{{}}}
\bibcite{Giele:1993dj}{{3}{}{{}}{{}}}
\bibcite{Giele:2010ks}{{4}{}{{}}{{}}}
\bibcite{NVIDIAtesla}{{5}{}{{}}{{}}}
\bibcite{NVIDIAcuda}{{6}{}{{}}{{}}}
\bibcite{GehrmannDeRidder:2005cm}{{7}{}{{}}{{}}}
\bibcite{Giele:2007di}{{8}{}{{}}{{}}}
\bibcite{Berends:1987me}{{9}{}{{}}{{}}}
\bibcite{Eynck:2001en}{{10}{}{{}}{{}}}
\bibcite{Kleiss:1985gy}{{11}{}{{}}{{}}}
\bibcite{Daleo:2006xa}{{12}{}{{}}{{}}}
\global\NAT@numberstrue
